The Trumps dine with the Macrons at Restaurant le Jules Verne - Tour Eiffel Paris.

1GRAM MODEL:

1GRAM: t
ENGLISH: P(t) = -1.0342236377842724 ==> log prob of sentence so far: -1.0342236377842724
FRENCH: P(t) = -1.1659667480967535 ==> log prob of sentence so far: -1.1659667480967535

1GRAM: h
ENGLISH: P(h) = -1.180274162400034 ==> log prob of sentence so far: -2.214497800184306
FRENCH: P(h) = -2.1056297044472685 ==> log prob of sentence so far: -3.271596452544022

1GRAM: e
ENGLISH: P(e) = -0.9100712180599071 ==> log prob of sentence so far: -3.1245690182442134
FRENCH: P(e) = -0.7669658145224565 ==> log prob of sentence so far: -4.038562267066478

1GRAM: t
ENGLISH: P(t) = -1.0342236377842724 ==> log prob of sentence so far: -4.158792656028486
FRENCH: P(t) = -1.1659667480967535 ==> log prob of sentence so far: -5.2045290151632315

1GRAM: r
ENGLISH: P(r) = -1.261272901312096 ==> log prob of sentence so far: -5.420065557340582
FRENCH: P(r) = -1.1840286390704569 ==> log prob of sentence so far: -6.388557654233688

1GRAM: u
ENGLISH: P(u) = -1.5524881689579149 ==> log prob of sentence so far: -6.9725537262984965
FRENCH: P(u) = -1.2061350611756212 ==> log prob of sentence so far: -7.594692715409309

1GRAM: m
ENGLISH: P(m) = -1.6111104829831362 ==> log prob of sentence so far: -8.583664209281633
FRENCH: P(m) = -1.5129486053385504 ==> log prob of sentence so far: -9.10764132074786

1GRAM: p
ENGLISH: P(p) = -1.7418254600332643 ==> log prob of sentence so far: -10.325489669314898
FRENCH: P(p) = -1.538635710757223 ==> log prob of sentence so far: -10.646277031505083

1GRAM: s
ENGLISH: P(s) = -1.1711410127286013 ==> log prob of sentence so far: -11.496630682043499
FRENCH: P(s) = -1.064447714889656 ==> log prob of sentence so far: -11.710724746394739

1GRAM: d
ENGLISH: P(d) = -1.396179917541683 ==> log prob of sentence so far: -12.892810599585182
FRENCH: P(d) = -1.4202616779892512 ==> log prob of sentence so far: -13.13098642438399

1GRAM: i
ENGLISH: P(i) = -1.162525480273911 ==> log prob of sentence so far: -14.055336079859092
FRENCH: P(i) = -1.1352064426688435 ==> log prob of sentence so far: -14.266192867052833

1GRAM: n
ENGLISH: P(n) = -1.1615969374026291 ==> log prob of sentence so far: -15.216933017261722
FRENCH: P(n) = -1.1226374766145046 ==> log prob of sentence so far: -15.388830343667339

1GRAM: e
ENGLISH: P(e) = -0.9100712180599071 ==> log prob of sentence so far: -16.12700423532163
FRENCH: P(e) = -0.7669658145224565 ==> log prob of sentence so far: -16.155796158189794

1GRAM: w
ENGLISH: P(w) = -1.6313539967808455 ==> log prob of sentence so far: -17.758358232102474
FRENCH: P(w) = -3.9191827290425008 ==> log prob of sentence so far: -20.074978887232295

1GRAM: i
ENGLISH: P(i) = -1.162525480273911 ==> log prob of sentence so far: -18.920883712376384
FRENCH: P(i) = -1.1352064426688435 ==> log prob of sentence so far: -21.210185329901137

1GRAM: t
ENGLISH: P(t) = -1.0342236377842724 ==> log prob of sentence so far: -19.955107350160656
FRENCH: P(t) = -1.1659667480967535 ==> log prob of sentence so far: -22.37615207799789

1GRAM: h
ENGLISH: P(h) = -1.180274162400034 ==> log prob of sentence so far: -21.13538151256069
FRENCH: P(h) = -2.1056297044472685 ==> log prob of sentence so far: -24.481781782445157

1GRAM: t
ENGLISH: P(t) = -1.0342236377842724 ==> log prob of sentence so far: -22.169605150344964
FRENCH: P(t) = -1.1659667480967535 ==> log prob of sentence so far: -25.64774853054191

1GRAM: h
ENGLISH: P(h) = -1.180274162400034 ==> log prob of sentence so far: -23.349879312745
FRENCH: P(h) = -2.1056297044472685 ==> log prob of sentence so far: -27.753378234989178

1GRAM: e
ENGLISH: P(e) = -0.9100712180599071 ==> log prob of sentence so far: -24.259950530804907
FRENCH: P(e) = -0.7669658145224565 ==> log prob of sentence so far: -28.520344049511635

1GRAM: m
ENGLISH: P(m) = -1.6111104829831362 ==> log prob of sentence so far: -25.871061013788044
FRENCH: P(m) = -1.5129486053385504 ==> log prob of sentence so far: -30.033292654850186

1GRAM: a
ENGLISH: P(a) = -1.086788681042454 ==> log prob of sentence so far: -26.957849694830497
FRENCH: P(a) = -1.076353095105509 ==> log prob of sentence so far: -31.109645749955696

1GRAM: c
ENGLISH: P(c) = -1.626587631644617 ==> log prob of sentence so far: -28.584437326475115
FRENCH: P(c) = -1.492223661080204 ==> log prob of sentence so far: -32.6018694110359

1GRAM: r
ENGLISH: P(r) = -1.261272901312096 ==> log prob of sentence so far: -29.84571022778721
FRENCH: P(r) = -1.1840286390704569 ==> log prob of sentence so far: -33.785898050106354

1GRAM: o
ENGLISH: P(o) = -1.1377837605854946 ==> log prob of sentence so far: -30.983493988372707
FRENCH: P(o) = -1.2743433303176548 ==> log prob of sentence so far: -35.06024138042401

1GRAM: n
ENGLISH: P(n) = -1.1615969374026291 ==> log prob of sentence so far: -32.145090925775335
FRENCH: P(n) = -1.1226374766145046 ==> log prob of sentence so far: -36.18287885703852

1GRAM: s
ENGLISH: P(s) = -1.1711410127286013 ==> log prob of sentence so far: -33.31623193850394
FRENCH: P(s) = -1.064447714889656 ==> log prob of sentence so far: -37.24732657192817

1GRAM: a
ENGLISH: P(a) = -1.086788681042454 ==> log prob of sentence so far: -34.403020619546396
FRENCH: P(a) = -1.076353095105509 ==> log prob of sentence so far: -38.32367966703368

1GRAM: t
ENGLISH: P(t) = -1.0342236377842724 ==> log prob of sentence so far: -35.43724425733067
FRENCH: P(t) = -1.1659667480967535 ==> log prob of sentence so far: -39.48964641513044

1GRAM: r
ENGLISH: P(r) = -1.261272901312096 ==> log prob of sentence so far: -36.698517158642765
FRENCH: P(r) = -1.1840286390704569 ==> log prob of sentence so far: -40.67367505420089

1GRAM: e
ENGLISH: P(e) = -0.9100712180599071 ==> log prob of sentence so far: -37.60858837670267
FRENCH: P(e) = -0.7669658145224565 ==> log prob of sentence so far: -41.44064086872335

1GRAM: s
ENGLISH: P(s) = -1.1711410127286013 ==> log prob of sentence so far: -38.779729389431274
FRENCH: P(s) = -1.064447714889656 ==> log prob of sentence so far: -42.505088583613

1GRAM: t
ENGLISH: P(t) = -1.0342236377842724 ==> log prob of sentence so far: -39.81395302721555
FRENCH: P(t) = -1.1659667480967535 ==> log prob of sentence so far: -43.67105533170975

1GRAM: a
ENGLISH: P(a) = -1.086788681042454 ==> log prob of sentence so far: -40.900741708258
FRENCH: P(a) = -1.076353095105509 ==> log prob of sentence so far: -44.74740842681526

1GRAM: u
ENGLISH: P(u) = -1.5524881689579149 ==> log prob of sentence so far: -42.45322987721592
FRENCH: P(u) = -1.2061350611756212 ==> log prob of sentence so far: -45.953543487990885

1GRAM: r
ENGLISH: P(r) = -1.261272901312096 ==> log prob of sentence so far: -43.714502778528015
FRENCH: P(r) = -1.1840286390704569 ==> log prob of sentence so far: -47.13757212706134

1GRAM: a
ENGLISH: P(a) = -1.086788681042454 ==> log prob of sentence so far: -44.80129145957047
FRENCH: P(a) = -1.076353095105509 ==> log prob of sentence so far: -48.21392522216685

1GRAM: n
ENGLISH: P(n) = -1.1615969374026291 ==> log prob of sentence so far: -45.9628883969731
FRENCH: P(n) = -1.1226374766145046 ==> log prob of sentence so far: -49.33656269878136

1GRAM: t
ENGLISH: P(t) = -1.0342236377842724 ==> log prob of sentence so far: -46.99711203475737
FRENCH: P(t) = -1.1659667480967535 ==> log prob of sentence so far: -50.502529446878114

1GRAM: l
ENGLISH: P(l) = -1.3477688854210008 ==> log prob of sentence so far: -48.34488092017837
FRENCH: P(l) = -1.2682124802855221 ==> log prob of sentence so far: -51.770741927163634

1GRAM: e
ENGLISH: P(e) = -0.9100712180599071 ==> log prob of sentence so far: -49.254952138238274
FRENCH: P(e) = -0.7669658145224565 ==> log prob of sentence so far: -52.53770774168609

1GRAM: j
ENGLISH: P(j) = -2.944833324319119 ==> log prob of sentence so far: -52.199785462557394
FRENCH: P(j) = -2.2095776682007906 ==> log prob of sentence so far: -54.747285409886885

1GRAM: u
ENGLISH: P(u) = -1.5524881689579149 ==> log prob of sentence so far: -53.75227363151531
FRENCH: P(u) = -1.2061350611756212 ==> log prob of sentence so far: -55.95342047106251

1GRAM: l
ENGLISH: P(l) = -1.3477688854210008 ==> log prob of sentence so far: -55.10004251693631
FRENCH: P(l) = -1.2682124802855221 ==> log prob of sentence so far: -57.22163295134803

1GRAM: e
ENGLISH: P(e) = -0.9100712180599071 ==> log prob of sentence so far: -56.01011373499622
FRENCH: P(e) = -0.7669658145224565 ==> log prob of sentence so far: -57.988598765870485

1GRAM: s
ENGLISH: P(s) = -1.1711410127286013 ==> log prob of sentence so far: -57.18125474772482
FRENCH: P(s) = -1.064447714889656 ==> log prob of sentence so far: -59.05304648076014

1GRAM: v
ENGLISH: P(v) = -2.043619342325931 ==> log prob of sentence so far: -59.224874090050754
FRENCH: P(v) = -1.82784228094936 ==> log prob of sentence so far: -60.8808887617095

1GRAM: e
ENGLISH: P(e) = -0.9100712180599071 ==> log prob of sentence so far: -60.13494530811066
FRENCH: P(e) = -0.7669658145224565 ==> log prob of sentence so far: -61.64785457623196

1GRAM: r
ENGLISH: P(r) = -1.261272901312096 ==> log prob of sentence so far: -61.396218209422756
FRENCH: P(r) = -1.1840286390704569 ==> log prob of sentence so far: -62.83188321530241

1GRAM: n
ENGLISH: P(n) = -1.1615969374026291 ==> log prob of sentence so far: -62.557815146825384
FRENCH: P(n) = -1.1226374766145046 ==> log prob of sentence so far: -63.95452069191692

1GRAM: e
ENGLISH: P(e) = -0.9100712180599071 ==> log prob of sentence so far: -63.46788636488529
FRENCH: P(e) = -0.7669658145224565 ==> log prob of sentence so far: -64.72148650643938

1GRAM: t
ENGLISH: P(t) = -1.0342236377842724 ==> log prob of sentence so far: -64.50211000266955
FRENCH: P(t) = -1.1659667480967535 ==> log prob of sentence so far: -65.88745325453613

1GRAM: o
ENGLISH: P(o) = -1.1377837605854946 ==> log prob of sentence so far: -65.63989376325505
FRENCH: P(o) = -1.2743433303176548 ==> log prob of sentence so far: -67.16179658485378

1GRAM: u
ENGLISH: P(u) = -1.5524881689579149 ==> log prob of sentence so far: -67.19238193221297
FRENCH: P(u) = -1.2061350611756212 ==> log prob of sentence so far: -68.36793164602939

1GRAM: r
ENGLISH: P(r) = -1.261272901312096 ==> log prob of sentence so far: -68.45365483352506
FRENCH: P(r) = -1.1840286390704569 ==> log prob of sentence so far: -69.55196028509985

1GRAM: e
ENGLISH: P(e) = -0.9100712180599071 ==> log prob of sentence so far: -69.36372605158498
FRENCH: P(e) = -0.7669658145224565 ==> log prob of sentence so far: -70.3189260996223

1GRAM: i
ENGLISH: P(i) = -1.162525480273911 ==> log prob of sentence so far: -70.52625153185889
FRENCH: P(i) = -1.1352064426688435 ==> log prob of sentence so far: -71.45413254229115

1GRAM: f
ENGLISH: P(f) = -1.660275542753472 ==> log prob of sentence so far: -72.18652707461236
FRENCH: P(f) = -1.9917263037969526 ==> log prob of sentence so far: -73.4458588460881

1GRAM: f
ENGLISH: P(f) = -1.660275542753472 ==> log prob of sentence so far: -73.84680261736582
FRENCH: P(f) = -1.9917263037969526 ==> log prob of sentence so far: -75.43758514988505

1GRAM: e
ENGLISH: P(e) = -0.9100712180599071 ==> log prob of sentence so far: -74.75687383542574
FRENCH: P(e) = -0.7669658145224565 ==> log prob of sentence so far: -76.2045509644075

1GRAM: l
ENGLISH: P(l) = -1.3477688854210008 ==> log prob of sentence so far: -76.10464272084674
FRENCH: P(l) = -1.2682124802855221 ==> log prob of sentence so far: -77.47276344469303

1GRAM: p
ENGLISH: P(p) = -1.7418254600332643 ==> log prob of sentence so far: -77.84646818088001
FRENCH: P(p) = -1.538635710757223 ==> log prob of sentence so far: -79.01139915545025

1GRAM: a
ENGLISH: P(a) = -1.086788681042454 ==> log prob of sentence so far: -78.93325686192246
FRENCH: P(a) = -1.076353095105509 ==> log prob of sentence so far: -80.08775225055575

1GRAM: r
ENGLISH: P(r) = -1.261272901312096 ==> log prob of sentence so far: -80.19452976323456
FRENCH: P(r) = -1.1840286390704569 ==> log prob of sentence so far: -81.27178088962621

1GRAM: i
ENGLISH: P(i) = -1.162525480273911 ==> log prob of sentence so far: -81.35705524350847
FRENCH: P(i) = -1.1352064426688435 ==> log prob of sentence so far: -82.40698733229506

1GRAM: s
ENGLISH: P(s) = -1.1711410127286013 ==> log prob of sentence so far: -82.52819625623707
FRENCH: P(s) = -1.064447714889656 ==> log prob of sentence so far: -83.47143504718471

According to the 1gram model, the sentence is in English
----------------
2GRAM MODEL:

2GRAM: th
ENGLISH: P(h|t) = -0.4192831299636363 ==> log prob of sentence so far: -0.4192831299636363
FRENCH: P(h|t) = -2.127206501261668 ==> log prob of sentence so far: -2.127206501261668

2GRAM: he
ENGLISH: P(e|h) = -0.37002759861537876 ==> log prob of sentence so far: -0.7893107285790151
FRENCH: P(e|h) = -0.45804503705298444 ==> log prob of sentence so far: -2.5852515383146524

2GRAM: et
ENGLISH: P(t|e) = -1.1805749996736075 ==> log prob of sentence so far: -1.9698857282526225
FRENCH: P(t|e) = -1.081730001747917 ==> log prob of sentence so far: -3.6669815400625696

2GRAM: tr
ENGLISH: P(r|t) = -1.5560569993606441 ==> log prob of sentence so far: -3.5259427276132667
FRENCH: P(r|t) = -0.9624973465112773 ==> log prob of sentence so far: -4.629478886573847

2GRAM: ru
ENGLISH: P(u|r) = -1.7203818473421117 ==> log prob of sentence so far: -5.246324574955379
FRENCH: P(u|r) = -1.6687978889643627 ==> log prob of sentence so far: -6.298276775538209

2GRAM: um
ENGLISH: P(m|u) = -1.4654834543200839 ==> log prob of sentence so far: -6.7118080292754625
FRENCH: P(m|u) = -1.6406795484953514 ==> log prob of sentence so far: -7.93895632403356

2GRAM: mp
ENGLISH: P(p|m) = -1.2993194696217338 ==> log prob of sentence so far: -8.011127498897196
FRENCH: P(p|m) = -1.1678922975743729 ==> log prob of sentence so far: -9.106848621607933

2GRAM: ps
ENGLISH: P(s|p) = -1.4161621225198526 ==> log prob of sentence so far: -9.427289621417048
FRENCH: P(s|p) = -1.814594043958422 ==> log prob of sentence so far: -10.921442665566355

2GRAM: sd
ENGLISH: P(d|s) = -2.063829477589922 ==> log prob of sentence so far: -11.49111909900697
FRENCH: P(d|s) = -1.0845267273179306 ==> log prob of sentence so far: -12.005969392884285

2GRAM: di
ENGLISH: P(i|d) = -0.9226651782817907 ==> log prob of sentence so far: -12.41378427728876
FRENCH: P(i|d) = -0.9305015773390085 ==> log prob of sentence so far: -12.936470970223294

2GRAM: in
ENGLISH: P(n|i) = -0.5177328887875342 ==> log prob of sentence so far: -12.931517166076295
FRENCH: P(n|i) = -0.8962746820270037 ==> log prob of sentence so far: -13.832745652250297

2GRAM: ne
ENGLISH: P(e|n) = -1.0532701120323171 ==> log prob of sentence so far: -13.984787278108612
FRENCH: P(e|n) = -0.7543075705657655 ==> log prob of sentence so far: -14.587053222816063

2GRAM: ew
ENGLISH: P(w|e) = -1.446578168277128 ==> log prob of sentence so far: -15.43136544638574
FRENCH: P(w|e) = -3.411675196218452 ==> log prob of sentence so far: -17.998728419034514

2GRAM: wi
ENGLISH: P(i|w) = -0.7711762768763926 ==> log prob of sentence so far: -16.202541723262133
FRENCH: P(i|w) = -0.9610819339696304 ==> log prob of sentence so far: -18.959810353004144

2GRAM: it
ENGLISH: P(t|i) = -0.9082997757934181 ==> log prob of sentence so far: -17.11084149905555
FRENCH: P(t|i) = -0.7742072823534025 ==> log prob of sentence so far: -19.734017635357546

2GRAM: th
ENGLISH: P(h|t) = -0.4192831299636363 ==> log prob of sentence so far: -17.530124629019184
FRENCH: P(h|t) = -2.127206501261668 ==> log prob of sentence so far: -21.861224136619214

2GRAM: ht
ENGLISH: P(t|h) = -1.322132756030454 ==> log prob of sentence so far: -18.85225738504964
FRENCH: P(t|h) = -2.806578958377501 ==> log prob of sentence so far: -24.667803094996714

2GRAM: th
ENGLISH: P(h|t) = -0.4192831299636363 ==> log prob of sentence so far: -19.271540515013275
FRENCH: P(h|t) = -2.127206501261668 ==> log prob of sentence so far: -26.79500959625838

2GRAM: he
ENGLISH: P(e|h) = -0.37002759861537876 ==> log prob of sentence so far: -19.641568113628654
FRENCH: P(e|h) = -0.45804503705298444 ==> log prob of sentence so far: -27.253054633311365

2GRAM: em
ENGLISH: P(m|e) = -1.436032682775707 ==> log prob of sentence so far: -21.07760079640436
FRENCH: P(m|e) = -1.2279205528259898 ==> log prob of sentence so far: -28.480975186137353

2GRAM: ma
ENGLISH: P(a|m) = -0.7038280092488644 ==> log prob of sentence so far: -21.781428805653224
FRENCH: P(a|m) = -0.7372357130058481 ==> log prob of sentence so far: -29.2182108991432

2GRAM: ac
ENGLISH: P(c|a) = -1.4314000466535202 ==> log prob of sentence so far: -23.212828852306743
FRENCH: P(c|a) = -1.3380717042938233 ==> log prob of sentence so far: -30.556282603437026

2GRAM: cr
ENGLISH: P(r|c) = -1.2253554243610427 ==> log prob of sentence so far: -24.438184276667783
FRENCH: P(r|c) = -1.4301097148222799 ==> log prob of sentence so far: -31.986392318259306

2GRAM: ro
ENGLISH: P(o|r) = -0.9679454985579867 ==> log prob of sentence so far: -25.40612977522577
FRENCH: P(o|r) = -1.1139096014103482 ==> log prob of sentence so far: -33.100301919669654

2GRAM: on
ENGLISH: P(n|o) = -0.8622085952026249 ==> log prob of sentence so far: -26.268338370428395
FRENCH: P(n|o) = -0.5205456677173079 ==> log prob of sentence so far: -33.62084758738696

2GRAM: ns
ENGLISH: P(s|n) = -1.2471781899291021 ==> log prob of sentence so far: -27.515516560357497
FRENCH: P(s|n) = -0.9211627926268392 ==> log prob of sentence so far: -34.5420103800138

2GRAM: sa
ENGLISH: P(a|s) = -1.0355099388369886 ==> log prob of sentence so far: -28.551026499194485
FRENCH: P(a|s) = -0.9925773557188845 ==> log prob of sentence so far: -35.534587735732686

2GRAM: at
ENGLISH: P(t|a) = -0.8627525070949107 ==> log prob of sentence so far: -29.413779006289396
FRENCH: P(t|a) = -1.2479713976288138 ==> log prob of sentence so far: -36.7825591333615

2GRAM: tr
ENGLISH: P(r|t) = -1.5560569993606441 ==> log prob of sentence so far: -30.96983600565004
FRENCH: P(r|t) = -0.9624973465112773 ==> log prob of sentence so far: -37.74505647987278

2GRAM: re
ENGLISH: P(e|r) = -0.6282077999008819 ==> log prob of sentence so far: -31.598043805550923
FRENCH: P(e|r) = -0.49097082634029093 ==> log prob of sentence so far: -38.23602730621307

2GRAM: es
ENGLISH: P(s|e) = -0.944867640322014 ==> log prob of sentence so far: -32.54291144587294
FRENCH: P(s|e) = -0.7261499946209886 ==> log prob of sentence so far: -38.96217730083406

2GRAM: st
ENGLISH: P(t|s) = -0.7036883326029575 ==> log prob of sentence so far: -33.2465997784759
FRENCH: P(t|s) = -1.237330102985858 ==> log prob of sentence so far: -40.199507403819915

2GRAM: ta
ENGLISH: P(a|t) = -1.1697948806890075 ==> log prob of sentence so far: -34.41639465916491
FRENCH: P(a|t) = -0.8827723186309387 ==> log prob of sentence so far: -41.082279722450856

2GRAM: au
ENGLISH: P(u|a) = -2.1220107996271214 ==> log prob of sentence so far: -36.53840545879203
FRENCH: P(u|a) = -1.079016828317488 ==> log prob of sentence so far: -42.16129655076834

2GRAM: ur
ENGLISH: P(r|u) = -0.9178087681418121 ==> log prob of sentence so far: -37.45621422693384
FRENCH: P(r|u) = -0.7887730706784898 ==> log prob of sentence so far: -42.95006962144683

2GRAM: ra
ENGLISH: P(a|r) = -1.0362656096552068 ==> log prob of sentence so far: -38.49247983658905
FRENCH: P(a|r) = -0.9045486003753557 ==> log prob of sentence so far: -43.854618221822186

2GRAM: an
ENGLISH: P(n|a) = -0.704528505817304 ==> log prob of sentence so far: -39.19700834240635
FRENCH: P(n|a) = -0.8168159428818009 ==> log prob of sentence so far: -44.67143416470399

2GRAM: nt
ENGLISH: P(t|n) = -0.8262590589426815 ==> log prob of sentence so far: -40.02326740134903
FRENCH: P(t|n) = -0.6409503859281479 ==> log prob of sentence so far: -45.31238455063214

2GRAM: tl
ENGLISH: P(l|t) = -1.6843444856712593 ==> log prob of sentence so far: -41.70761188702029
FRENCH: P(l|t) = -1.2581757585032667 ==> log prob of sentence so far: -46.5705603091354

2GRAM: le
ENGLISH: P(e|l) = -0.6938243412569666 ==> log prob of sentence so far: -42.401436228277255
FRENCH: P(e|l) = -0.40129432934375414 ==> log prob of sentence so far: -46.97185463847916

2GRAM: ej
ENGLISH: P(j|e) = -2.8345982507664216 ==> log prob of sentence so far: -45.236034479043674
FRENCH: P(j|e) = -2.0396944174977167 ==> log prob of sentence so far: -49.01154905597687

2GRAM: ju
ENGLISH: P(u|j) = -0.6060261785455637 ==> log prob of sentence so far: -45.842060657589236
FRENCH: P(u|j) = -1.2036142244970975 ==> log prob of sentence so far: -50.215163280473966

2GRAM: ul
ENGLISH: P(l|u) = -1.0125590655074683 ==> log prob of sentence so far: -46.854619723096704
FRENCH: P(l|u) = -1.4380217917572147 ==> log prob of sentence so far: -51.65318507223118

2GRAM: le
ENGLISH: P(e|l) = -0.6938243412569666 ==> log prob of sentence so far: -47.54844406435367
FRENCH: P(e|l) = -0.40129432934375414 ==> log prob of sentence so far: -52.05447940157494

2GRAM: es
ENGLISH: P(s|e) = -0.944867640322014 ==> log prob of sentence so far: -48.49331170467568
FRENCH: P(s|e) = -0.7261499946209886 ==> log prob of sentence so far: -52.78062939619593

2GRAM: sv
ENGLISH: P(v|s) = -2.539334750977554 ==> log prob of sentence so far: -51.032646455653236
FRENCH: P(v|s) = -1.956488342986067 ==> log prob of sentence so far: -54.737117739182

2GRAM: ve
ENGLISH: P(e|v) = -0.17428026499063828 ==> log prob of sentence so far: -51.20692672064387
FRENCH: P(e|v) = -0.4815039345822809 ==> log prob of sentence so far: -55.218621673764275

2GRAM: er
ENGLISH: P(r|e) = -0.8561613604222861 ==> log prob of sentence so far: -52.063088081066155
FRENCH: P(r|e) = -1.0504664166531121 ==> log prob of sentence so far: -56.269088090417384

2GRAM: rn
ENGLISH: P(n|r) = -1.564879280247999 ==> log prob of sentence so far: -53.627967361314155
FRENCH: P(n|r) = -1.798333972346413 ==> log prob of sentence so far: -58.0674220627638

2GRAM: ne
ENGLISH: P(e|n) = -1.0532701120323171 ==> log prob of sentence so far: -54.68123747334647
FRENCH: P(e|n) = -0.7543075705657655 ==> log prob of sentence so far: -58.82172963332956

2GRAM: et
ENGLISH: P(t|e) = -1.1805749996736075 ==> log prob of sentence so far: -55.86181247302008
FRENCH: P(t|e) = -1.081730001747917 ==> log prob of sentence so far: -59.903459635077475

2GRAM: to
ENGLISH: P(o|t) = -0.9787383960113675 ==> log prob of sentence so far: -56.840550869031446
FRENCH: P(o|t) = -1.3522680394087057 ==> log prob of sentence so far: -61.25572767448618

2GRAM: ou
ENGLISH: P(u|o) = -0.9046394432126483 ==> log prob of sentence so far: -57.74519031224409
FRENCH: P(u|o) = -0.6277892700441801 ==> log prob of sentence so far: -61.88351694453036

2GRAM: ur
ENGLISH: P(r|u) = -0.9178087681418121 ==> log prob of sentence so far: -58.6629990803859
FRENCH: P(r|u) = -0.7887730706784898 ==> log prob of sentence so far: -62.67229001520885

2GRAM: re
ENGLISH: P(e|r) = -0.6282077999008819 ==> log prob of sentence so far: -59.291206880286786
FRENCH: P(e|r) = -0.49097082634029093 ==> log prob of sentence so far: -63.16326084154914

2GRAM: ei
ENGLISH: P(i|e) = -1.4961656878694436 ==> log prob of sentence so far: -60.78737256815623
FRENCH: P(i|e) = -1.7565578790303706 ==> log prob of sentence so far: -64.91981872057951

2GRAM: if
ENGLISH: P(f|i) = -1.676903383005364 ==> log prob of sentence so far: -62.464275951161596
FRENCH: P(f|i) = -1.8973227638823702 ==> log prob of sentence so far: -66.81714148446189

2GRAM: ff
ENGLISH: P(f|f) = -1.321331308860415 ==> log prob of sentence so far: -63.78560726002201
FRENCH: P(f|f) = -1.0496114499256262 ==> log prob of sentence so far: -67.8667529343875

2GRAM: fe
ENGLISH: P(e|f) = -1.129301522702586 ==> log prob of sentence so far: -64.9149087827246
FRENCH: P(e|f) = -0.9025987035889845 ==> log prob of sentence so far: -68.76935163797648

2GRAM: el
ENGLISH: P(l|e) = -1.3277804884685662 ==> log prob of sentence so far: -66.24268927119316
FRENCH: P(l|e) = -1.2044345212229748 ==> log prob of sentence so far: -69.97378615919946

2GRAM: lp
ENGLISH: P(p|l) = -2.1718826401533367 ==> log prob of sentence so far: -68.4145719113465
FRENCH: P(p|l) = -2.196770163799742 ==> log prob of sentence so far: -72.1705563229992

2GRAM: pa
ENGLISH: P(a|p) = -0.9079158130990952 ==> log prob of sentence so far: -69.3224877244456
FRENCH: P(a|p) = -0.6470605885380062 ==> log prob of sentence so far: -72.81761691153721

2GRAM: ar
ENGLISH: P(r|a) = -0.9854656313970852 ==> log prob of sentence so far: -70.30795335584268
FRENCH: P(r|a) = -1.0331920938948058 ==> log prob of sentence so far: -73.85080900543203

2GRAM: ri
ENGLISH: P(i|r) = -1.011900400480812 ==> log prob of sentence so far: -71.3198537563235
FRENCH: P(i|r) = -1.089298477748147 ==> log prob of sentence so far: -74.94010748318017

2GRAM: is
ENGLISH: P(s|i) = -0.8699344462536623 ==> log prob of sentence so far: -72.18978820257716
FRENCH: P(s|i) = -0.8503045030811127 ==> log prob of sentence so far: -75.79041198626129

According to the 2gram model, the sentence is in English
----------------
3GRAM MODEL:

3GRAM: the
ENGLISH: P(e|th) = -0.2045358758824928 ==> log prob of sentence so far: -0.2045358758824928
FRENCH: P(e|th) = -0.3852654323756641 ==> log prob of sentence so far: -0.3852654323756641

3GRAM: het
ENGLISH: P(t|he) = -1.440141923657465 ==> log prob of sentence so far: -1.644677799539958
FRENCH: P(t|he) = -1.7134790357084566 ==> log prob of sentence so far: -2.0987444680841207

3GRAM: etr
ENGLISH: P(r|et) = -1.4442381972842688 ==> log prob of sentence so far: -3.088915996824227
FRENCH: P(r|et) = -0.8436486436892003 ==> log prob of sentence so far: -2.9423931117733213

3GRAM: tru
ENGLISH: P(u|tr) = -0.8531550108252123 ==> log prob of sentence so far: -3.942071007649439
FRENCH: P(u|tr) = -1.695515514542488 ==> log prob of sentence so far: -4.637908626315809

3GRAM: rum
ENGLISH: P(m|ru) = -1.3363057560125244 ==> log prob of sentence so far: -5.278376763661964
FRENCH: P(m|ru) = -1.1605907908877482 ==> log prob of sentence so far: -5.7984994172035575

3GRAM: ump
ENGLISH: P(p|um) = -0.7049111979734239 ==> log prob of sentence so far: -5.983287961635387
FRENCH: P(p|um) = -2.256148982659935 ==> log prob of sentence so far: -8.054648399863492

3GRAM: mps
ENGLISH: P(s|mp) = -1.296552693309237 ==> log prob of sentence so far: -7.279840654944624
FRENCH: P(s|mp) = -0.9449595258702183 ==> log prob of sentence so far: -8.99960792573371

3GRAM: psd
ENGLISH: P(d|ps) = -1.6690067809585756 ==> log prob of sentence so far: -8.9488474359032
FRENCH: P(d|ps) = -0.5936810597551917 ==> log prob of sentence so far: -9.5932889854889

3GRAM: sdi
ENGLISH: P(i|sd) = -0.6769903602219288 ==> log prob of sentence so far: -9.62583779612513
FRENCH: P(i|sd) = -1.2091490899259203 ==> log prob of sentence so far: -10.802438075414821

3GRAM: din
ENGLISH: P(n|di) = -0.4238391810515103 ==> log prob of sentence so far: -10.04967697717664
FRENCH: P(n|di) = -1.3772668610648247 ==> log prob of sentence so far: -12.179704936479647

3GRAM: ine
ENGLISH: P(e|in) = -1.2389860564050168 ==> log prob of sentence so far: -11.288663033581656
FRENCH: P(e|in) = -0.4718897444274255 ==> log prob of sentence so far: -12.651594680907072

3GRAM: new
ENGLISH: P(w|ne) = -1.241183546451307 ==> log prob of sentence so far: -12.529846580032963
FRENCH: P(w|ne) = -2.6241621282975713 ==> log prob of sentence so far: -15.275756809204644

3GRAM: ewi
ENGLISH: P(i|ew) = -0.8712753095912965 ==> log prob of sentence so far: -13.40112188962426
FRENCH: P(i|ew) = -2.0644579892269186 ==> log prob of sentence so far: -17.340214798431564

3GRAM: wit
ENGLISH: P(t|wi) = -0.25158545081881956 ==> log prob of sentence so far: -13.65270734044308
FRENCH: P(t|wi) = -1.662757831681574 ==> log prob of sentence so far: -19.00297263011314

3GRAM: ith
ENGLISH: P(h|it) = -0.5086062734307452 ==> log prob of sentence so far: -14.161313613873824
FRENCH: P(h|it) = -2.167651180270026 ==> log prob of sentence so far: -21.170623810383162

3GRAM: tht
ENGLISH: P(t|th) = -1.739602132473143 ==> log prob of sentence so far: -15.900915746346968
FRENCH: P(t|th) = -2.8609366207000937 ==> log prob of sentence so far: -24.031560431083257

3GRAM: hth
ENGLISH: P(h|ht) = -0.4203982273659641 ==> log prob of sentence so far: -16.321313973712932
FRENCH: P(h|ht) = -1.6232492903979006 ==> log prob of sentence so far: -25.654809721481158

3GRAM: the
ENGLISH: P(e|th) = -0.2045358758824928 ==> log prob of sentence so far: -16.525849849595424
FRENCH: P(e|th) = -0.3852654323756641 ==> log prob of sentence so far: -26.040075153856822

3GRAM: hem
ENGLISH: P(m|he) = -1.2239521265529143 ==> log prob of sentence so far: -17.749801976148337
FRENCH: P(m|he) = -1.328828629467106 ==> log prob of sentence so far: -27.36890378332393

3GRAM: ema
ENGLISH: P(a|em) = -0.6313444526783568 ==> log prob of sentence so far: -18.381146428826693
FRENCH: P(a|em) = -0.7808434903498844 ==> log prob of sentence so far: -28.149747273673814

3GRAM: mac
ENGLISH: P(c|ma) = -1.683913827236914 ==> log prob of sentence so far: -20.065060256063607
FRENCH: P(c|ma) = -1.3998906448504629 ==> log prob of sentence so far: -29.549637918524276

3GRAM: acr
ENGLISH: P(r|ac) = -1.4293390775925727 ==> log prob of sentence so far: -21.49439933365618
FRENCH: P(r|ac) = -1.532616452350533 ==> log prob of sentence so far: -31.082254370874807

3GRAM: cro
ENGLISH: P(o|cr) = -0.8093277474880499 ==> log prob of sentence so far: -22.30372708114423
FRENCH: P(o|cr) = -0.5953981164368695 ==> log prob of sentence so far: -31.677652487311676

3GRAM: ron
ENGLISH: P(n|ro) = -1.1323618515057796 ==> log prob of sentence so far: -23.436088932650012
FRENCH: P(n|ro) = -0.8429145538567797 ==> log prob of sentence so far: -32.520567041168455

3GRAM: ons
ENGLISH: P(s|on) = -0.9343899383661486 ==> log prob of sentence so far: -24.37047887101616
FRENCH: P(s|on) = -0.566167526432315 ==> log prob of sentence so far: -33.08673456760077

3GRAM: nsa
ENGLISH: P(a|ns) = -1.0192662207310723 ==> log prob of sentence so far: -25.389745091747233
FRENCH: P(a|ns) = -1.1973421820323427 ==> log prob of sentence so far: -34.284076749633115

3GRAM: sat
ENGLISH: P(t|sa) = -1.265925325299067 ==> log prob of sentence so far: -26.655670417046302
FRENCH: P(t|sa) = -1.3992074939883428 ==> log prob of sentence so far: -35.68328424362146

3GRAM: atr
ENGLISH: P(r|at) = -1.9279961569045847 ==> log prob of sentence so far: -28.583666573950886
FRENCH: P(r|at) = -0.9140650386787865 ==> log prob of sentence so far: -36.59734928230024

3GRAM: tre
ENGLISH: P(e|tr) = -0.7361230241355003 ==> log prob of sentence so far: -29.319789598086388
FRENCH: P(e|tr) = -0.2180447270217422 ==> log prob of sentence so far: -36.815394009321984

3GRAM: res
ENGLISH: P(s|re) = -0.8768268614328087 ==> log prob of sentence so far: -30.196616459519195
FRENCH: P(s|re) = -0.617883484477163 ==> log prob of sentence so far: -37.433277493799146

3GRAM: est
ENGLISH: P(t|es) = -0.723965199933241 ==> log prob of sentence so far: -30.920581659452434
FRENCH: P(t|es) = -1.074267392428957 ==> log prob of sentence so far: -38.507544886228104

3GRAM: sta
ENGLISH: P(a|st) = -0.8511298782309611 ==> log prob of sentence so far: -31.771711537683395
FRENCH: P(a|st) = -0.7682219323189109 ==> log prob of sentence so far: -39.27576681854701

3GRAM: tau
ENGLISH: P(u|ta) = -2.5220341524164978 ==> log prob of sentence so far: -34.29374569009989
FRENCH: P(u|ta) = -1.120799560710891 ==> log prob of sentence so far: -40.396566379257905

3GRAM: aur
ENGLISH: P(r|au) = -1.9023655589976114 ==> log prob of sentence so far: -36.1961112490975
FRENCH: P(r|au) = -1.3550884128276917 ==> log prob of sentence so far: -41.751654792085596

3GRAM: ura
ENGLISH: P(a|ur) = -1.2232144566597312 ==> log prob of sentence so far: -37.41932570575723
FRENCH: P(a|ur) = -1.0147124128780374 ==> log prob of sentence so far: -42.766367204963636

3GRAM: ran
ENGLISH: P(n|ra) = -0.6176243868388317 ==> log prob of sentence so far: -38.036950092596065
FRENCH: P(n|ra) = -0.748064358042055 ==> log prob of sentence so far: -43.514431563005694

3GRAM: ant
ENGLISH: P(t|an) = -1.0401701906526726 ==> log prob of sentence so far: -39.07712028324874
FRENCH: P(t|an) = -0.49067183272548415 ==> log prob of sentence so far: -44.005103395731176

3GRAM: ntl
ENGLISH: P(l|nt) = -1.447387077538079 ==> log prob of sentence so far: -40.52450736078682
FRENCH: P(l|nt) = -1.0053279191710585 ==> log prob of sentence so far: -45.010431314902235

3GRAM: tle
ENGLISH: P(e|tl) = -0.36633574617709935 ==> log prob of sentence so far: -40.89084310696392
FRENCH: P(e|tl) = -0.22955790685645555 ==> log prob of sentence so far: -45.23998922175869

3GRAM: lej
ENGLISH: P(j|le) = -2.7565574198297664 ==> log prob of sentence so far: -43.64740052679369
FRENCH: P(j|le) = -2.1070914233166005 ==> log prob of sentence so far: -47.347080645075295

3GRAM: eju
ENGLISH: P(u|ej) = -0.656255935353433 ==> log prob of sentence so far: -44.303656462147124
FRENCH: P(u|ej) = -1.1868401652109695 ==> log prob of sentence so far: -48.53392081028626

3GRAM: jul
ENGLISH: P(l|ju) = -1.9107768156582345 ==> log prob of sentence so far: -46.214433277805355
FRENCH: P(l|ju) = -2.0507663112330423 ==> log prob of sentence so far: -50.5846871215193

3GRAM: ule
ENGLISH: P(e|ul) = -1.6832659239420016 ==> log prob of sentence so far: -47.89769920174736
FRENCH: P(e|ul) = -0.3424501165897319 ==> log prob of sentence so far: -50.92713723810903

3GRAM: les
ENGLISH: P(s|le) = -0.7101564523248174 ==> log prob of sentence so far: -48.607855654072175
FRENCH: P(s|le) = -0.48397761708198983 ==> log prob of sentence so far: -51.41111485519102

3GRAM: esv
ENGLISH: P(v|es) = -3.075963850776022 ==> log prob of sentence so far: -51.683819504848195
FRENCH: P(v|es) = -1.8501693273971493 ==> log prob of sentence so far: -53.26128418258817

3GRAM: sve
ENGLISH: P(e|sv) = -0.44761065721112403 ==> log prob of sentence so far: -52.13143016205932
FRENCH: P(e|sv) = -0.5468567248262058 ==> log prob of sentence so far: -53.808140907414376

3GRAM: ver
ENGLISH: P(r|ve) = -0.3855967161664635 ==> log prob of sentence so far: -52.51702687822578
FRENCH: P(r|ve) = -0.5174611042546211 ==> log prob of sentence so far: -54.325602011669

3GRAM: ern
ENGLISH: P(n|er) = -1.4795534818616247 ==> log prob of sentence so far: -53.9965803600874
FRENCH: P(n|er) = -1.5999126197925284 ==> log prob of sentence so far: -55.925514631461525

3GRAM: rne
ENGLISH: P(e|rn) = -0.7107498449029722 ==> log prob of sentence so far: -54.70733020499037
FRENCH: P(e|rn) = -0.4530440098652021 ==> log prob of sentence so far: -56.37855864132673

3GRAM: net
ENGLISH: P(t|ne) = -1.308926476510015 ==> log prob of sentence so far: -56.01625668150039
FRENCH: P(t|ne) = -1.1853806862636431 ==> log prob of sentence so far: -57.56393932759037

3GRAM: eto
ENGLISH: P(o|et) = -0.8489529677284406 ==> log prob of sentence so far: -56.86520964922883
FRENCH: P(o|et) = -1.2647106250950784 ==> log prob of sentence so far: -58.828649952685446

3GRAM: tou
ENGLISH: P(u|to) = -1.496586840863802 ==> log prob of sentence so far: -58.36179649009263
FRENCH: P(u|to) = -0.28023479324713285 ==> log prob of sentence so far: -59.10888474593258

3GRAM: our
ENGLISH: P(r|ou) = -0.9331113741598649 ==> log prob of sentence so far: -59.294907864252494
FRENCH: P(r|ou) = -0.6948640525655961 ==> log prob of sentence so far: -59.80374879849818

3GRAM: ure
ENGLISH: P(e|ur) = -0.6394892164010537 ==> log prob of sentence so far: -59.93439708065355
FRENCH: P(e|ur) = -0.6870282860527741 ==> log prob of sentence so far: -60.49077708455095

3GRAM: rei
ENGLISH: P(i|re) = -1.4001270472914906 ==> log prob of sentence so far: -61.33452412794504
FRENCH: P(i|re) = -1.6924934970334269 ==> log prob of sentence so far: -62.183270581584374

3GRAM: eif
ENGLISH: P(f|ei) = -1.8460607325268312 ==> log prob of sentence so far: -63.18058486047187
FRENCH: P(f|ei) = -3.616790486329716 ==> log prob of sentence so far: -65.80006106791409

3GRAM: iff
ENGLISH: P(f|if) = -1.0201580028935224 ==> log prob of sentence so far: -64.20074286336539
FRENCH: P(f|if) = -0.7924587154235205 ==> log prob of sentence so far: -66.59251978333761

3GRAM: ffe
ENGLISH: P(e|ff) = -0.6563257491994866 ==> log prob of sentence so far: -64.85706861256487
FRENCH: P(e|ff) = -0.4556416841794754 ==> log prob of sentence so far: -67.04816146751708

3GRAM: fel
ENGLISH: P(l|fe) = -0.9166351839913164 ==> log prob of sentence so far: -65.77370379655619
FRENCH: P(l|fe) = -2.4082399653118496 ==> log prob of sentence so far: -69.45640143282893

3GRAM: elp
ENGLISH: P(p|el) = -1.8779673491813562 ==> log prob of sentence so far: -67.65167114573755
FRENCH: P(p|el) = -2.553409358450332 ==> log prob of sentence so far: -72.00981079127926

3GRAM: lpa
ENGLISH: P(a|lp) = -0.8761593536907522 ==> log prob of sentence so far: -68.5278304994283
FRENCH: P(a|lp) = -0.6003193297516611 ==> log prob of sentence so far: -72.61013012103092

3GRAM: par
ENGLISH: P(r|pa) = -0.48565020314281593 ==> log prob of sentence so far: -69.01348070257112
FRENCH: P(r|pa) = -0.3235383556648062 ==> log prob of sentence so far: -72.93366847669573

3GRAM: ari
ENGLISH: P(i|ar) = -1.1814402876075736 ==> log prob of sentence so far: -70.19492099017869
FRENCH: P(i|ar) = -1.1151132512981732 ==> log prob of sentence so far: -74.0487817279939

3GRAM: ris
ENGLISH: P(s|ri) = -1.066497711756112 ==> log prob of sentence so far: -71.2614187019348
FRENCH: P(s|ri) = -0.8417457604585549 ==> log prob of sentence so far: -74.89052748845245

According to the 3gram model, the sentence is in English
----------------
4GRAM MODEL:

4GRAM: thet
ENGLISH: P(t|the) = -1.4411836478919087 ==> log prob of sentence so far: -1.4411836478919087
FRENCH: P(t|the) = -1.662757831681574 ==> log prob of sentence so far: -1.662757831681574

4GRAM: hetr
ENGLISH: P(r|het) = -0.9169847628126695 ==> log prob of sentence so far: -2.358168410704578
FRENCH: P(r|het) = -1.9731278535996988 ==> log prob of sentence so far: -3.6358856852812727

4GRAM: etru
ENGLISH: P(u|etr) = -0.6859363585839671 ==> log prob of sentence so far: -3.044104769288545
FRENCH: P(u|etr) = -1.9305013764698988 ==> log prob of sentence so far: -5.566387061751172

4GRAM: trum
ENGLISH: P(m|tru) = -1.3035046147918365 ==> log prob of sentence so far: -4.347609384080381
FRENCH: P(m|tru) = -0.5394131821900733 ==> log prob of sentence so far: -6.105800243941245

4GRAM: rump
ENGLISH: P(p|rum) = -0.5730962953926458 ==> log prob of sentence so far: -4.920705679473027
FRENCH: P(p|rum) = -2.2041199826559246 ==> log prob of sentence so far: -8.30992022659717

4GRAM: umps
ENGLISH: P(s|ump) = -0.8394209071225663 ==> log prob of sentence so far: -5.760126586595593
FRENCH: P(s|ump) = -1.5563025007672873 ==> log prob of sentence so far: -9.866222727364457

4GRAM: mpsd
ENGLISH: P(d|mps) = -2.1271047983648077 ==> log prob of sentence so far: -7.887231384960401
FRENCH: P(d|mps) = -0.5871684359266173 ==> log prob of sentence so far: -10.453391163291075

4GRAM: psdi
ENGLISH: P(i|psd) = -0.6746106584765741 ==> log prob of sentence so far: -8.561842043436975
FRENCH: P(i|psd) = -1.7829501332654123 ==> log prob of sentence so far: -12.236341296556487

4GRAM: sdin
ENGLISH: P(n|sdi) = -1.1777910439335757 ==> log prob of sentence so far: -9.739633087370551
FRENCH: P(n|sdi) = -1.5178207322576007 ==> log prob of sentence so far: -13.754162028814088

4GRAM: dine
ENGLISH: P(e|din) = -1.8116844137265449 ==> log prob of sentence so far: -11.551317501097095
FRENCH: P(e|din) = -0.6020599913279624 ==> log prob of sentence so far: -14.35622202014205

4GRAM: inew
ENGLISH: P(w|ine) = -1.4396324484598342 ==> log prob of sentence so far: -12.99094994955693
FRENCH: P(w|ine) = -3.622006673006805 ==> log prob of sentence so far: -17.978228693148857

4GRAM: newi
ENGLISH: P(i|new) = -0.9442121679483974 ==> log prob of sentence so far: -13.935162117505326
FRENCH: P(i|new) = -1.8325089127062364 ==> log prob of sentence so far: -19.810737605855092

4GRAM: ewit
ENGLISH: P(t|ewi) = -0.3744382464025673 ==> log prob of sentence so far: -14.309600363907894
FRENCH: P(t|ewi) = -1.4313637641589874 ==> log prob of sentence so far: -21.24210137001408

4GRAM: with
ENGLISH: P(h|wit) = -0.0202522101017731 ==> log prob of sentence so far: -14.329852574009667
FRENCH: P(h|wit) = -1.4313637641589874 ==> log prob of sentence so far: -22.673465134173068

4GRAM: itht
ENGLISH: P(t|ith) = -0.7184071244702421 ==> log prob of sentence so far: -15.04825969847991
FRENCH: P(t|ith) = -2.146128035678238 ==> log prob of sentence so far: -24.819593169851306

4GRAM: thth
ENGLISH: P(h|tht) = -0.059826566151451446 ==> log prob of sentence so far: -15.108086264631362
FRENCH: P(h|tht) = -1.4313637641589874 ==> log prob of sentence so far: -26.250956934010294

4GRAM: hthe
ENGLISH: P(e|hth) = -0.12272924323198477 ==> log prob of sentence so far: -15.230815507863348
FRENCH: P(e|hth) = -1.4313637641589874 ==> log prob of sentence so far: -27.68232069816928

4GRAM: them
ENGLISH: P(m|the) = -1.1387346455790048 ==> log prob of sentence so far: -16.369550153442354
FRENCH: P(m|the) = -1.4664631865376059 ==> log prob of sentence so far: -29.148783884706887

4GRAM: hema
ENGLISH: P(a|hem) = -0.542954753605018 ==> log prob of sentence so far: -16.91250490704737
FRENCH: P(a|hem) = -0.7868374295687363 ==> log prob of sentence so far: -29.935621314275622

4GRAM: emac
ENGLISH: P(c|ema) = -1.8577790717733458 ==> log prob of sentence so far: -18.770283978820718
FRENCH: P(c|ema) = -1.5680153715724372 ==> log prob of sentence so far: -31.503636685848058

4GRAM: macr
ENGLISH: P(r|mac) = -1.376171263909866 ==> log prob of sentence so far: -20.146455242730585
FRENCH: P(r|mac) = -1.2041199826559248 ==> log prob of sentence so far: -32.70775666850398

4GRAM: acro
ENGLISH: P(o|acr) = -0.4825841504211646 ==> log prob of sentence so far: -20.62903939315175
FRENCH: P(o|acr) = -0.6472875312653393 ==> log prob of sentence so far: -33.355044199769324

4GRAM: cron
ENGLISH: P(n|cro) = -1.804236818697885 ==> log prob of sentence so far: -22.433276211849634
FRENCH: P(n|cro) = -2.655138434811382 ==> log prob of sentence so far: -36.01018263458071

4GRAM: rons
ENGLISH: P(s|ron) = -1.1713274692596174 ==> log prob of sentence so far: -23.60460368110925
FRENCH: P(s|ron) = -0.6221415044024278 ==> log prob of sentence so far: -36.63232413898314

4GRAM: onsa
ENGLISH: P(a|ons) = -1.0487986170539039 ==> log prob of sentence so far: -24.653402298163154
FRENCH: P(a|ons) = -1.131478544374805 ==> log prob of sentence so far: -37.763802683357945

4GRAM: nsat
ENGLISH: P(t|nsa) = -1.1561410321012917 ==> log prob of sentence so far: -25.809543330264447
FRENCH: P(t|nsa) = -1.1515365051020947 ==> log prob of sentence so far: -38.91533918846004

4GRAM: satr
ENGLISH: P(r|sat) = -1.9430703311269109 ==> log prob of sentence so far: -27.752613661391358
FRENCH: P(r|sat) = -0.8763557337446989 ==> log prob of sentence so far: -39.791694922204734

4GRAM: atre
ENGLISH: P(e|atr) = -0.6690067809585756 ==> log prob of sentence so far: -28.421620442349933
FRENCH: P(e|atr) = -0.22062365858705013 ==> log prob of sentence so far: -40.012318580791785

4GRAM: tres
ENGLISH: P(s|tre) = -0.9905584437671585 ==> log prob of sentence so far: -29.412178886117093
FRENCH: P(s|tre) = -0.5517857188905029 ==> log prob of sentence so far: -40.564104299682285

4GRAM: rest
ENGLISH: P(t|res) = -0.6945981119404484 ==> log prob of sentence so far: -30.10677699805754
FRENCH: P(t|res) = -1.1971037641146685 ==> log prob of sentence so far: -41.76120806379695

4GRAM: esta
ENGLISH: P(a|est) = -0.9747442771827041 ==> log prob of sentence so far: -31.081521275240245
FRENCH: P(a|est) = -0.9197538711583594 ==> log prob of sentence so far: -42.680961934955306

4GRAM: stau
ENGLISH: P(u|sta) = -2.6866362692622934 ==> log prob of sentence so far: -33.768157544502536
FRENCH: P(u|sta) = -1.422334447617187 ==> log prob of sentence so far: -44.103296382572495

4GRAM: taur
ENGLISH: P(r|tau) = -0.8239087409443188 ==> log prob of sentence so far: -34.592066285446855
FRENCH: P(r|tau) = -1.7026119081257154 ==> log prob of sentence so far: -45.80590829069821

4GRAM: aura
ENGLISH: P(a|aur) = -1.6020599913279623 ==> log prob of sentence so far: -36.19412627677482
FRENCH: P(a|aur) = -0.1942405920548342 ==> log prob of sentence so far: -46.000148882753045

4GRAM: uran
ENGLISH: P(n|ura) = -0.8681633440829503 ==> log prob of sentence so far: -37.06228962085777
FRENCH: P(n|ura) = -0.871087818639788 ==> log prob of sentence so far: -46.87123670139283

4GRAM: rant
ENGLISH: P(t|ran) = -1.1317761294418531 ==> log prob of sentence so far: -38.19406575029962
FRENCH: P(t|ran) = -0.7175464365875052 ==> log prob of sentence so far: -47.588783137980336

4GRAM: antl
ENGLISH: P(l|ant) = -1.2630802566387906 ==> log prob of sentence so far: -39.457146006938416
FRENCH: P(l|ant) = -0.9424516732098337 ==> log prob of sentence so far: -48.53123481119017

4GRAM: ntle
ENGLISH: P(e|ntl) = -0.5791653837267914 ==> log prob of sentence so far: -40.036311390665205
FRENCH: P(e|ntl) = -0.21394725697656794 ==> log prob of sentence so far: -48.745182068166734

4GRAM: tlej
ENGLISH: P(j|tle) = -2.332726931850425 ==> log prob of sentence so far: -42.36903832251563
FRENCH: P(j|tle) = -2.376857599704018 ==> log prob of sentence so far: -51.12203966787075

4GRAM: leju
ENGLISH: P(u|lej) = -1.255272505103306 ==> log prob of sentence so far: -43.624310827618935
FRENCH: P(u|lej) = -0.8137691095934388 ==> log prob of sentence so far: -51.93580877746419

4GRAM: ejul
ENGLISH: P(l|eju) = -2.0170333392987803 ==> log prob of sentence so far: -45.64134416691771
FRENCH: P(l|eju) = -2.220108088040055 ==> log prob of sentence so far: -54.155916865504246

4GRAM: jule
ENGLISH: P(e|jul) = -1.505149978319906 ==> log prob of sentence so far: -47.14649414523762
FRENCH: P(e|jul) = -0.7781512503836436 ==> log prob of sentence so far: -54.93406811588789

4GRAM: ules
ENGLISH: P(s|ule) = -0.6090088512832903 ==> log prob of sentence so far: -47.75550299652091
FRENCH: P(s|ule) = -0.6081003457489349 ==> log prob of sentence so far: -55.54216846163683

4GRAM: lesv
ENGLISH: P(v|les) = -2.6462636538200157 ==> log prob of sentence so far: -50.401766650340925
FRENCH: P(v|les) = -1.735416384678934 ==> log prob of sentence so far: -57.27758484631576

4GRAM: esve
ENGLISH: P(e|esv) = -0.7085153222422492 ==> log prob of sentence so far: -51.110281972583174
FRENCH: P(e|esv) = -0.493066817665408 ==> log prob of sentence so far: -57.77065166398117

4GRAM: sver
ENGLISH: P(r|sve) = -0.18293068358598671 ==> log prob of sentence so far: -51.29321265616916
FRENCH: P(r|sve) = -0.24061407319232575 ==> log prob of sentence so far: -58.011265737173495

4GRAM: vern
ENGLISH: P(n|ver) = -1.9310546884085518 ==> log prob of sentence so far: -53.22426734457771
FRENCH: P(n|ver) = -1.3491625946672234 ==> log prob of sentence so far: -59.360428331840716

4GRAM: erne
ENGLISH: P(e|ern) = -1.017911589308702 ==> log prob of sentence so far: -54.242178933886414
FRENCH: P(e|ern) = -0.5271734105065372 ==> log prob of sentence so far: -59.88760174234725

4GRAM: rnet
ENGLISH: P(t|rne) = -2.2663885100087673 ==> log prob of sentence so far: -56.50856744389518
FRENCH: P(t|rne) = -1.4921850011555384 ==> log prob of sentence so far: -61.37978674350279

4GRAM: neto
ENGLISH: P(o|net) = -0.8551893398978301 ==> log prob of sentence so far: -57.36375678379301
FRENCH: P(o|net) = -1.3737771317061962 ==> log prob of sentence so far: -62.75356387520899

4GRAM: etou
ENGLISH: P(u|eto) = -1.389272856210652 ==> log prob of sentence so far: -58.75302964000366
FRENCH: P(u|eto) = -0.28681545288412735 ==> log prob of sentence so far: -63.04037932809312

4GRAM: tour
ENGLISH: P(r|tou) = -1.1117104708745449 ==> log prob of sentence so far: -59.8647401108782
FRENCH: P(r|tou) = -0.7579655851759836 ==> log prob of sentence so far: -63.7983449132691

4GRAM: oure
ENGLISH: P(e|our) = -1.1804699616591983 ==> log prob of sentence so far: -61.0452100725374
FRENCH: P(e|our) = -1.1767121233242566 ==> log prob of sentence so far: -64.97505703659336

4GRAM: urei
ENGLISH: P(i|ure) = -1.2735413914143934 ==> log prob of sentence so far: -62.31875146395179
FRENCH: P(i|ure) = -2.0882131527557446 ==> log prob of sentence so far: -67.0632701893491

4GRAM: reif
ENGLISH: P(f|rei) = -2.0161043667907683 ==> log prob of sentence so far: -64.33485583074255
FRENCH: P(f|rei) = -2.782472624166286 ==> log prob of sentence so far: -69.84574281351539

4GRAM: eiff
ENGLISH: P(f|eif) = -2.0791812460476247 ==> log prob of sentence so far: -66.41403707679018
FRENCH: P(f|eif) = -1.4313637641589874 ==> log prob of sentence so far: -71.27710657767437

4GRAM: iffe
ENGLISH: P(e|iff) = -0.28888110608438616 ==> log prob of sentence so far: -66.70291818287457
FRENCH: P(e|iff) = -0.41017446508904926 ==> log prob of sentence so far: -71.68728104276342

4GRAM: ffel
ENGLISH: P(l|ffe) = -2.645422269349092 ==> log prob of sentence so far: -69.34834045222367
FRENCH: P(l|ffe) = -2.1968207439144254 ==> log prob of sentence so far: -73.88410178667785

4GRAM: felp
ENGLISH: P(p|fel) = -2.5888317255942073 ==> log prob of sentence so far: -71.93717217781787
FRENCH: P(p|fel) = -1.505149978319906 ==> log prob of sentence so far: -75.38925176499775

4GRAM: elpa
ENGLISH: P(a|elp) = -1.515873843711679 ==> log prob of sentence so far: -73.45304602152954
FRENCH: P(a|elp) = -0.7781512503836436 ==> log prob of sentence so far: -76.1674030153814

4GRAM: lpar
ENGLISH: P(r|lpa) = -0.585669575139793 ==> log prob of sentence so far: -74.03871559666933
FRENCH: P(r|lpa) = -0.3907614240449142 ==> log prob of sentence so far: -76.5581644394263

4GRAM: pari
ENGLISH: P(i|par) = -1.4274003612462587 ==> log prob of sentence so far: -75.46611595791559
FRENCH: P(i|par) = -1.738860805062924 ==> log prob of sentence so far: -78.29702524448923

4GRAM: aris
ENGLISH: P(s|ari) = -1.2601522697213927 ==> log prob of sentence so far: -76.72626822763698
FRENCH: P(s|ari) = -1.1043647920658737 ==> log prob of sentence so far: -79.40139003655511

According to the 4gram model, the sentence is in English
----------------
