Las chicas son muy guapas y simpaticas.

1GRAM MODEL:

1GRAM: l
ENGLISH: P(l) = -1.3477680404759382 ==> log prob of sentence so far: -1.3477680404759382
FRENCH: P(l) = -1.268210145276409 ==> log prob of sentence so far: -1.268210145276409
DUTCH: P(l) = -1.424888573378627 ==> log prob of sentence so far: -1.424888573378627
PORTUGUESE: P(l) = -1.4370345298164877 ==> log prob of sentence so far: -1.4370345298164877
SPANISH: P(l) = -1.280216305870861 ==> log prob of sentence so far: -1.280216305870861

1GRAM: a
ENGLISH: P(a) = -1.0867855556195258 ==> log prob of sentence so far: -2.434553596095464
FRENCH: P(a) = -1.0763486860884999 ==> log prob of sentence so far: -2.3445588313649086
DUTCH: P(a) = -1.1153867027045747 ==> log prob of sentence so far: -2.540275276083202
PORTUGUESE: P(a) = -0.8318864457343189 ==> log prob of sentence so far: -2.268920975550807
SPANISH: P(a) = -0.9020151018641022 ==> log prob of sentence so far: -2.1822314077349634

1GRAM: s
ENGLISH: P(s) = -1.1711384807336087 ==> log prob of sentence so far: -3.6056920768290723
FRENCH: P(s) = -1.064443204906708 ==> log prob of sentence so far: -3.409002036271617
DUTCH: P(s) = -1.4604412026800553 ==> log prob of sentence so far: -4.000716478763257
PORTUGUESE: P(s) = -1.1128885199376846 ==> log prob of sentence so far: -3.3818094954884916
SPANISH: P(s) = -1.1432550023265262 ==> log prob of sentence so far: -3.3254864100614894

1GRAM: c
ENGLISH: P(c) = -1.6265913319842618 ==> log prob of sentence so far: -5.232283408813334
FRENCH: P(c) = -1.4922252463165038 ==> log prob of sentence so far: -4.9012272825881205
DUTCH: P(c) = -1.8230802698228596 ==> log prob of sentence so far: -5.823796748586117
PORTUGUESE: P(c) = -1.4658062720267373 ==> log prob of sentence so far: -4.847615767515229
SPANISH: P(c) = -1.4008083135031741 ==> log prob of sentence so far: -4.7262947235646635

1GRAM: h
ENGLISH: P(h) = -1.1802717018481115 ==> log prob of sentence so far: -6.412555110661446
FRENCH: P(h) = -2.105661505277561 ==> log prob of sentence so far: -7.006888787865682
DUTCH: P(h) = -1.4907882132713295 ==> log prob of sentence so far: -7.314584961857447
PORTUGUESE: P(h) = -1.8092516224324593 ==> log prob of sentence so far: -6.6568673899476885
SPANISH: P(h) = -1.8922415939752475 ==> log prob of sentence so far: -6.6185363175399115

1GRAM: i
ENGLISH: P(i) = -1.1625228822481477 ==> log prob of sentence so far: -7.575077992909593
FRENCH: P(i) = -1.1352025755293589 ==> log prob of sentence so far: -8.142091363395041
DUTCH: P(i) = -1.2262442278424301 ==> log prob of sentence so far: -8.540829189699878
PORTUGUESE: P(i) = -1.2396906121447568 ==> log prob of sentence so far: -7.896558002092445
SPANISH: P(i) = -1.2231489528257042 ==> log prob of sentence so far: -7.841685270365616

1GRAM: c
ENGLISH: P(c) = -1.6265913319842618 ==> log prob of sentence so far: -9.201669324893855
FRENCH: P(c) = -1.4922252463165038 ==> log prob of sentence so far: -9.634316609711545
DUTCH: P(c) = -1.8230802698228596 ==> log prob of sentence so far: -10.363909459522738
PORTUGUESE: P(c) = -1.4658062720267373 ==> log prob of sentence so far: -9.362364274119182
SPANISH: P(c) = -1.4008083135031741 ==> log prob of sentence so far: -9.24249358386879

1GRAM: a
ENGLISH: P(a) = -1.0867855556195258 ==> log prob of sentence so far: -10.288454880513381
FRENCH: P(a) = -1.0763486860884999 ==> log prob of sentence so far: -10.710665295800045
DUTCH: P(a) = -1.1153867027045747 ==> log prob of sentence so far: -11.479296162227312
PORTUGUESE: P(a) = -0.8318864457343189 ==> log prob of sentence so far: -10.194250719853502
SPANISH: P(a) = -0.9020151018641022 ==> log prob of sentence so far: -10.144508685732891

1GRAM: s
ENGLISH: P(s) = -1.1711384807336087 ==> log prob of sentence so far: -11.45959336124699
FRENCH: P(s) = -1.064443204906708 ==> log prob of sentence so far: -11.775108500706752
DUTCH: P(s) = -1.4604412026800553 ==> log prob of sentence so far: -12.939737364907367
PORTUGUESE: P(s) = -1.1128885199376846 ==> log prob of sentence so far: -11.307139239791185
SPANISH: P(s) = -1.1432550023265262 ==> log prob of sentence so far: -11.287763688059417

1GRAM: s
ENGLISH: P(s) = -1.1711384807336087 ==> log prob of sentence so far: -12.630731841980598
FRENCH: P(s) = -1.064443204906708 ==> log prob of sentence so far: -12.83955170561346
DUTCH: P(s) = -1.4604412026800553 ==> log prob of sentence so far: -14.400178567587423
PORTUGUESE: P(s) = -1.1128885199376846 ==> log prob of sentence so far: -12.42002775972887
SPANISH: P(s) = -1.1432550023265262 ==> log prob of sentence so far: -12.431018690385944

1GRAM: o
ENGLISH: P(o) = -1.1377809800580025 ==> log prob of sentence so far: -13.7685128220386
FRENCH: P(o) = -1.2743410778784847 ==> log prob of sentence so far: -14.113892783491945
DUTCH: P(o) = -1.199814333953728 ==> log prob of sentence so far: -15.599992901541151
PORTUGUESE: P(o) = -0.9821306993687576 ==> log prob of sentence so far: -13.402158459097627
SPANISH: P(o) = -0.9966256638806575 ==> log prob of sentence so far: -13.4276443542666

1GRAM: n
ENGLISH: P(n) = -1.161594332338253 ==> log prob of sentence so far: -14.930107154376852
FRENCH: P(n) = -1.1226334875045167 ==> log prob of sentence so far: -15.236526270996462
DUTCH: P(n) = -0.9654176577239543 ==> log prob of sentence so far: -16.565410559265107
PORTUGUESE: P(n) = -1.3242807280507187 ==> log prob of sentence so far: -14.726439187148346
SPANISH: P(n) = -1.1498323276049258 ==> log prob of sentence so far: -14.577476681871527

1GRAM: m
ENGLISH: P(m) = -1.6111138474359583 ==> log prob of sentence so far: -16.54122100181281
FRENCH: P(m) = -1.5129506660683787 ==> log prob of sentence so far: -16.74947693706484
DUTCH: P(m) = -1.6188728802133567 ==> log prob of sentence so far: -18.184283439478463
PORTUGUESE: P(m) = -1.3143867575166186 ==> log prob of sentence so far: -16.040825944664963
SPANISH: P(m) = -1.4970849446101568 ==> log prob of sentence so far: -16.074561626481685

1GRAM: u
ENGLISH: P(u) = -1.5524903643928334 ==> log prob of sentence so far: -18.093711366205646
FRENCH: P(u) = -1.2061319526021832 ==> log prob of sentence so far: -17.955608889667026
DUTCH: P(u) = -1.7453584472298034 ==> log prob of sentence so far: -19.929641886708268
PORTUGUESE: P(u) = -1.314188784008179 ==> log prob of sentence so far: -17.35501472867314
SPANISH: P(u) = -1.3656700797443349 ==> log prob of sentence so far: -17.44023170622602

1GRAM: y
ENGLISH: P(y) = -1.7506034466063691 ==> log prob of sentence so far: -19.844314812812016
FRENCH: P(y) = -2.672363548703873 ==> log prob of sentence so far: -20.6279724383709
DUTCH: P(y) = -3.5708485069501386 ==> log prob of sentence so far: -23.500490393658406
PORTUGUESE: P(y) = -3.3458344054838407 ==> log prob of sentence so far: -20.700849134156982
SPANISH: P(y) = -1.910660668875661 ==> log prob of sentence so far: -19.35089237510168

1GRAM: g
ENGLISH: P(g) = -1.6600726669637438 ==> log prob of sentence so far: -21.504387479775758
FRENCH: P(g) = -2.028482543846692 ==> log prob of sentence so far: -22.656454982217593
DUTCH: P(g) = -1.483976244216252 ==> log prob of sentence so far: -24.984466637874657
PORTUGUESE: P(g) = -1.9282491615020383 ==> log prob of sentence so far: -22.62909829565902
SPANISH: P(g) = -1.9669330155016567 ==> log prob of sentence so far: -21.317825390603335

1GRAM: u
ENGLISH: P(u) = -1.5524903643928334 ==> log prob of sentence so far: -23.056877844168593
FRENCH: P(u) = -1.2061319526021832 ==> log prob of sentence so far: -23.862586934819777
DUTCH: P(u) = -1.7453584472298034 ==> log prob of sentence so far: -26.729825085104462
PORTUGUESE: P(u) = -1.314188784008179 ==> log prob of sentence so far: -23.9432870796672
SPANISH: P(u) = -1.3656700797443349 ==> log prob of sentence so far: -22.68349547034767

1GRAM: a
ENGLISH: P(a) = -1.0867855556195258 ==> log prob of sentence so far: -24.143663399788117
FRENCH: P(a) = -1.0763486860884999 ==> log prob of sentence so far: -24.93893562090828
DUTCH: P(a) = -1.1153867027045747 ==> log prob of sentence so far: -27.84521178780904
PORTUGUESE: P(a) = -0.8318864457343189 ==> log prob of sentence so far: -24.77517352540152
SPANISH: P(a) = -0.9020151018641022 ==> log prob of sentence so far: -23.58551057221177

1GRAM: p
ENGLISH: P(p) = -1.7418320758292147 ==> log prob of sentence so far: -25.885495475617333
FRENCH: P(p) = -1.5386383932073906 ==> log prob of sentence so far: -26.477574014115667
DUTCH: P(p) = -1.8900969986171776 ==> log prob of sentence so far: -29.735308786426216
PORTUGUESE: P(p) = -1.6180384927791052 ==> log prob of sentence so far: -26.393212018180627
SPANISH: P(p) = -1.6225576461192528 ==> log prob of sentence so far: -25.20806821833102

1GRAM: a
ENGLISH: P(a) = -1.0867855556195258 ==> log prob of sentence so far: -26.972281031236857
FRENCH: P(a) = -1.0763486860884999 ==> log prob of sentence so far: -27.55392270020417
DUTCH: P(a) = -1.1153867027045747 ==> log prob of sentence so far: -30.850695489130793
PORTUGUESE: P(a) = -0.8318864457343189 ==> log prob of sentence so far: -27.225098463914946
SPANISH: P(a) = -0.9020151018641022 ==> log prob of sentence so far: -26.110083320195123

1GRAM: s
ENGLISH: P(s) = -1.1711384807336087 ==> log prob of sentence so far: -28.143419511970468
FRENCH: P(s) = -1.064443204906708 ==> log prob of sentence so far: -28.618365905110878
DUTCH: P(s) = -1.4604412026800553 ==> log prob of sentence so far: -32.311136691810844
PORTUGUESE: P(s) = -1.1128885199376846 ==> log prob of sentence so far: -28.33798698385263
SPANISH: P(s) = -1.1432550023265262 ==> log prob of sentence so far: -27.25333832252165

1GRAM: y
ENGLISH: P(y) = -1.7506034466063691 ==> log prob of sentence so far: -29.894022958576837
FRENCH: P(y) = -2.672363548703873 ==> log prob of sentence so far: -31.290729453814752
DUTCH: P(y) = -3.5708485069501386 ==> log prob of sentence so far: -35.88198519876099
PORTUGUESE: P(y) = -3.3458344054838407 ==> log prob of sentence so far: -31.683821389336472
SPANISH: P(y) = -1.910660668875661 ==> log prob of sentence so far: -29.16399899139731

1GRAM: s
ENGLISH: P(s) = -1.1711384807336087 ==> log prob of sentence so far: -31.065161439310447
FRENCH: P(s) = -1.064443204906708 ==> log prob of sentence so far: -32.35517265872146
DUTCH: P(s) = -1.4604412026800553 ==> log prob of sentence so far: -37.342426401441045
PORTUGUESE: P(s) = -1.1128885199376846 ==> log prob of sentence so far: -32.796709909274156
SPANISH: P(s) = -1.1432550023265262 ==> log prob of sentence so far: -30.307253993723837

1GRAM: i
ENGLISH: P(i) = -1.1625228822481477 ==> log prob of sentence so far: -32.2276843215586
FRENCH: P(i) = -1.1352025755293589 ==> log prob of sentence so far: -33.49037523425082
DUTCH: P(i) = -1.2262442278424301 ==> log prob of sentence so far: -38.568670629283474
PORTUGUESE: P(i) = -1.2396906121447568 ==> log prob of sentence so far: -34.03640052141891
SPANISH: P(i) = -1.2231489528257042 ==> log prob of sentence so far: -31.53040294654954

1GRAM: m
ENGLISH: P(m) = -1.6111138474359583 ==> log prob of sentence so far: -33.83879816899456
FRENCH: P(m) = -1.5129506660683787 ==> log prob of sentence so far: -35.0033259003192
DUTCH: P(m) = -1.6188728802133567 ==> log prob of sentence so far: -40.187543509496834
PORTUGUESE: P(m) = -1.3143867575166186 ==> log prob of sentence so far: -35.35078727893553
SPANISH: P(m) = -1.4970849446101568 ==> log prob of sentence so far: -33.027487891159694

1GRAM: p
ENGLISH: P(p) = -1.7418320758292147 ==> log prob of sentence so far: -35.58063024482377
FRENCH: P(p) = -1.5386383932073906 ==> log prob of sentence so far: -36.54196429352659
DUTCH: P(p) = -1.8900969986171776 ==> log prob of sentence so far: -42.07764050811401
PORTUGUESE: P(p) = -1.6180384927791052 ==> log prob of sentence so far: -36.968825771714634
SPANISH: P(p) = -1.6225576461192528 ==> log prob of sentence so far: -34.65004553727895

1GRAM: a
ENGLISH: P(a) = -1.0867855556195258 ==> log prob of sentence so far: -36.6674158004433
FRENCH: P(a) = -1.0763486860884999 ==> log prob of sentence so far: -37.61831297961509
DUTCH: P(a) = -1.1153867027045747 ==> log prob of sentence so far: -43.193027210818585
PORTUGUESE: P(a) = -0.8318864457343189 ==> log prob of sentence so far: -37.800712217448954
SPANISH: P(a) = -0.9020151018641022 ==> log prob of sentence so far: -35.55206063914305

1GRAM: t
ENGLISH: P(t) = -1.0342201967944733 ==> log prob of sentence so far: -37.70163599723777
FRENCH: P(t) = -1.1659631947814317 ==> log prob of sentence so far: -38.784276174396524
DUTCH: P(t) = -1.2498796929138756 ==> log prob of sentence so far: -44.442906903732464
PORTUGUESE: P(t) = -1.3798312063329417 ==> log prob of sentence so far: -39.1805434237819
SPANISH: P(t) = -1.403591206998156 ==> log prob of sentence so far: -36.95565184614121

1GRAM: i
ENGLISH: P(i) = -1.1625228822481477 ==> log prob of sentence so far: -38.86415887948592
FRENCH: P(i) = -1.1352025755293589 ==> log prob of sentence so far: -39.91947874992589
DUTCH: P(i) = -1.2262442278424301 ==> log prob of sentence so far: -45.66915113157489
PORTUGUESE: P(i) = -1.2396906121447568 ==> log prob of sentence so far: -40.420234035926654
SPANISH: P(i) = -1.2231489528257042 ==> log prob of sentence so far: -38.17880079896691

1GRAM: c
ENGLISH: P(c) = -1.6265913319842618 ==> log prob of sentence so far: -40.490750211470186
FRENCH: P(c) = -1.4922252463165038 ==> log prob of sentence so far: -41.41170399624239
DUTCH: P(c) = -1.8230802698228596 ==> log prob of sentence so far: -47.49223140139775
PORTUGUESE: P(c) = -1.4658062720267373 ==> log prob of sentence so far: -41.886040307953394
SPANISH: P(c) = -1.4008083135031741 ==> log prob of sentence so far: -39.57960911247009

1GRAM: a
ENGLISH: P(a) = -1.0867855556195258 ==> log prob of sentence so far: -41.577535767089714
FRENCH: P(a) = -1.0763486860884999 ==> log prob of sentence so far: -42.48805268233089
DUTCH: P(a) = -1.1153867027045747 ==> log prob of sentence so far: -48.60761810410233
PORTUGUESE: P(a) = -0.8318864457343189 ==> log prob of sentence so far: -42.71792675368771
SPANISH: P(a) = -0.9020151018641022 ==> log prob of sentence so far: -40.48162421433419

1GRAM: s
ENGLISH: P(s) = -1.1711384807336087 ==> log prob of sentence so far: -42.748674247823324
FRENCH: P(s) = -1.064443204906708 ==> log prob of sentence so far: -43.5524958872376
DUTCH: P(s) = -1.4604412026800553 ==> log prob of sentence so far: -50.06805930678239
PORTUGUESE: P(s) = -1.1128885199376846 ==> log prob of sentence so far: -43.8308152736254
SPANISH: P(s) = -1.1432550023265262 ==> log prob of sentence so far: -41.624879216660716

According to the 1gram model, the sentence is in Spanish
----------------
2GRAM MODEL:

2GRAM: la
ENGLISH: P(a|l) = -1.0027641708741657 ==> log prob of sentence so far: -1.0027641708741657
FRENCH: P(a|l) = -0.6762997112259611 ==> log prob of sentence so far: -0.6762997112259611
DUTCH: P(a|l) = -0.848878917110163 ==> log prob of sentence so far: -0.848878917110163
PORTUGUESE: P(a|l) = -0.7564541255435201 ==> log prob of sentence so far: -0.7564541255435201
SPANISH: P(a|l) = -0.5718569948189756 ==> log prob of sentence so far: -0.5718569948189756

2GRAM: as
ENGLISH: P(s|a) = -0.995910514082602 ==> log prob of sentence so far: -1.9986746849567676
FRENCH: P(s|a) = -1.2507281545079583 ==> log prob of sentence so far: -1.9270278657339195
DUTCH: P(s|a) = -1.3356180529788597 ==> log prob of sentence so far: -2.1844969700890227
PORTUGUESE: P(s|a) = -0.8895302127969347 ==> log prob of sentence so far: -1.6459843383404547
SPANISH: P(s|a) = -0.8835163661215447 ==> log prob of sentence so far: -1.4553733609405204

2GRAM: sc
ENGLISH: P(c|s) = -1.5669662488707838 ==> log prob of sentence so far: -3.5656409338275514
FRENCH: P(c|s) = -1.3370172793798611 ==> log prob of sentence so far: -3.264045145113781
DUTCH: P(c|s) = -0.769286901073913 ==> log prob of sentence so far: -2.9537838711629356
PORTUGUESE: P(c|s) = -1.3504869940443363 ==> log prob of sentence so far: -2.996471332384791
SPANISH: P(c|s) = -1.2707264581962423 ==> log prob of sentence so far: -2.7260998191367625

2GRAM: ch
ENGLISH: P(h|c) = -0.7745689449973607 ==> log prob of sentence so far: -4.340209878824912
FRENCH: P(h|c) = -0.9479565791630733 ==> log prob of sentence so far: -4.212001724276854
DUTCH: P(h|c) = -0.10690253881743296 ==> log prob of sentence so far: -3.060686409980369
PORTUGUESE: P(h|c) = -1.2975641529258992 ==> log prob of sentence so far: -4.29403548531069
SPANISH: P(h|c) = -0.9754915383166474 ==> log prob of sentence so far: -3.7015913574534096

2GRAM: hi
ENGLISH: P(i|h) = -0.7928573275989894 ==> log prob of sentence so far: -5.133067206423902
FRENCH: P(i|h) = -1.074094396317325 ==> log prob of sentence so far: -5.28609612059418
DUTCH: P(i|h) = -0.8275983339847758 ==> log prob of sentence so far: -3.8882847439651447
PORTUGUESE: P(i|h) = -1.3746740790191159 ==> log prob of sentence so far: -5.668709564329806
SPANISH: P(i|h) = -1.1578054550326515 ==> log prob of sentence so far: -4.859396812486061

2GRAM: ic
ENGLISH: P(c|i) = -1.35018856406613 ==> log prob of sentence so far: -6.4832557704900315
FRENCH: P(c|i) = -1.6343700461201585 ==> log prob of sentence so far: -6.920466166714338
DUTCH: P(c|i) = -1.4698485826926067 ==> log prob of sentence so far: -5.358133326657751
PORTUGUESE: P(c|i) = -1.3108660769852483 ==> log prob of sentence so far: -6.979575641315054
SPANISH: P(c|i) = -1.2033830830735444 ==> log prob of sentence so far: -6.062779895559605

2GRAM: ca
ENGLISH: P(a|c) = -0.8459452928196711 ==> log prob of sentence so far: -7.329201063309703
FRENCH: P(a|c) = -0.9171071236047728 ==> log prob of sentence so far: -7.83757329031911
DUTCH: P(a|c) = -1.4771212267457954 ==> log prob of sentence so far: -6.835254553403546
PORTUGUESE: P(a|c) = -0.5297426478977518 ==> log prob of sentence so far: -7.509318289212806
SPANISH: P(a|c) = -0.6388758977703215 ==> log prob of sentence so far: -6.701655793329927

2GRAM: as
ENGLISH: P(s|a) = -0.995910514082602 ==> log prob of sentence so far: -8.325111577392304
FRENCH: P(s|a) = -1.2507281545079583 ==> log prob of sentence so far: -9.088301444827069
DUTCH: P(s|a) = -1.3356180529788597 ==> log prob of sentence so far: -8.170872606382407
PORTUGUESE: P(s|a) = -0.8895302127969347 ==> log prob of sentence so far: -8.398848502009741
SPANISH: P(s|a) = -0.8835163661215447 ==> log prob of sentence so far: -7.585172159451472

2GRAM: ss
ENGLISH: P(s|s) = -1.176098256781299 ==> log prob of sentence so far: -9.501209834173604
FRENCH: P(s|s) = -1.0371097074545013 ==> log prob of sentence so far: -10.12541115228157
DUTCH: P(s|s) = -1.5641980832683546 ==> log prob of sentence so far: -9.735070689650762
PORTUGUESE: P(s|s) = -1.0061755193435797 ==> log prob of sentence so far: -9.405024021353322
SPANISH: P(s|s) = -1.6489403028335414 ==> log prob of sentence so far: -9.234112462285013

2GRAM: so
ENGLISH: P(o|s) = -1.0111224881605467 ==> log prob of sentence so far: -10.512332322334151
FRENCH: P(o|s) = -1.2153335101547453 ==> log prob of sentence so far: -11.340744662436315
DUTCH: P(o|s) = -1.511129847621839 ==> log prob of sentence so far: -11.246200537272601
PORTUGUESE: P(o|s) = -0.9952743821834318 ==> log prob of sentence so far: -10.400298403536754
SPANISH: P(o|s) = -1.1410509467742458 ==> log prob of sentence so far: -10.37516340905926

2GRAM: on
ENGLISH: P(n|o) = -0.8621497540785806 ==> log prob of sentence so far: -11.374482076412733
FRENCH: P(n|o) = -0.5204118850636741 ==> log prob of sentence so far: -11.861156547499988
DUTCH: P(n|o) = -0.8621908452791233 ==> log prob of sentence so far: -12.108391382551725
PORTUGUESE: P(n|o) = -1.1338148365834484 ==> log prob of sentence so far: -11.534113240120202
SPANISH: P(n|o) = -0.8456166240856485 ==> log prob of sentence so far: -11.220780033144909

2GRAM: nm
ENGLISH: P(m|n) = -2.108620200858114 ==> log prob of sentence so far: -13.483102277270847
FRENCH: P(m|n) = -1.986621293096669 ==> log prob of sentence so far: -13.847777840596656
DUTCH: P(m|n) = -1.5290947394323398 ==> log prob of sentence so far: -13.637486121984065
PORTUGUESE: P(m|n) = -4.03007043078299 ==> log prob of sentence so far: -15.564183670903192
SPANISH: P(m|n) = -1.635762498281905 ==> log prob of sentence so far: -12.856542531426813

2GRAM: mu
ENGLISH: P(u|m) = -1.408353048850719 ==> log prob of sentence so far: -14.891455326121566
FRENCH: P(u|m) = -1.8013056100567408 ==> log prob of sentence so far: -15.649083450653396
DUTCH: P(u|m) = -2.199807654785815 ==> log prob of sentence so far: -15.83729377676988
PORTUGUESE: P(u|m) = -1.4737301889034666 ==> log prob of sentence so far: -17.037913859806658
SPANISH: P(u|m) = -1.1885653655874622 ==> log prob of sentence so far: -14.045107897014276

2GRAM: uy
ENGLISH: P(y|u) = -3.0471919462460058 ==> log prob of sentence so far: -17.93864727236757
FRENCH: P(y|u) = -2.8860163447631386 ==> log prob of sentence so far: -18.535099795416535
DUTCH: P(y|u) = -2.090139866731244 ==> log prob of sentence so far: -17.927433643501125
PORTUGUESE: P(y|u) = -8.033865971793883 ==> log prob of sentence so far: -25.07177983160054
SPANISH: P(y|u) = -1.7548244808038185 ==> log prob of sentence so far: -15.799932377818095

2GRAM: yg
ENGLISH: P(g|y) = -1.8647800496950713 ==> log prob of sentence so far: -19.803427322062642
FRENCH: P(g|y) = -1.7368381407633249 ==> log prob of sentence so far: -20.27193793617986
DUTCH: P(g|y) = -1.7442814414858339 ==> log prob of sentence so far: -19.67171508498696
PORTUGUESE: P(g|y) = -6.004332553496696 ==> log prob of sentence so far: -31.076112385097236
SPANISH: P(g|y) = -2.1969216241839082 ==> log prob of sentence so far: -17.996854002002003

2GRAM: gu
ENGLISH: P(u|g) = -1.5279030301971037 ==> log prob of sentence so far: -21.331330352259748
FRENCH: P(u|g) = -1.0059309733997657 ==> log prob of sentence so far: -21.277868909579627
DUTCH: P(u|g) = -1.890453726247074 ==> log prob of sentence so far: -21.562168811234034
PORTUGUESE: P(u|g) = -0.5170025313122228 ==> log prob of sentence so far: -31.59311491640946
SPANISH: P(u|g) = -0.6174885303254681 ==> log prob of sentence so far: -18.61434253232747

2GRAM: ua
ENGLISH: P(a|u) = -1.640653504405477 ==> log prob of sentence so far: -22.971983856665226
FRENCH: P(a|u) = -1.4761443231776055 ==> log prob of sentence so far: -22.754013232757234
DUTCH: P(a|u) = -1.8512580840489934 ==> log prob of sentence so far: -23.413426895283028
PORTUGUESE: P(a|u) = -0.9838730761665687 ==> log prob of sentence so far: -32.57698799257603
SPANISH: P(a|u) = -1.2253867974936514 ==> log prob of sentence so far: -19.83972932982112

2GRAM: ap
ENGLISH: P(p|a) = -1.5836640486275186 ==> log prob of sentence so far: -24.555647905292744
FRENCH: P(p|a) = -1.2573034165041044 ==> log prob of sentence so far: -24.01131664926134
DUTCH: P(p|a) = -1.8682295041550623 ==> log prob of sentence so far: -25.28165639943809
PORTUGUESE: P(p|a) = -1.4616622015855416 ==> log prob of sentence so far: -34.03865019416157
SPANISH: P(p|a) = -1.4636449949570474 ==> log prob of sentence so far: -21.30337432477817

2GRAM: pa
ENGLISH: P(a|p) = -0.9076895487310349 ==> log prob of sentence so far: -25.46333745402378
FRENCH: P(a|p) = -0.6468271846395081 ==> log prob of sentence so far: -24.658143833900848
DUTCH: P(a|p) = -0.8545332867530722 ==> log prob of sentence so far: -26.136189686191162
PORTUGUESE: P(a|p) = -0.6217856918748285 ==> log prob of sentence so far: -34.660435886036396
SPANISH: P(a|p) = -0.5954506082046607 ==> log prob of sentence so far: -21.89882493298283

2GRAM: as
ENGLISH: P(s|a) = -0.995910514082602 ==> log prob of sentence so far: -26.459247968106382
FRENCH: P(s|a) = -1.2507281545079583 ==> log prob of sentence so far: -25.908871988408805
DUTCH: P(s|a) = -1.3356180529788597 ==> log prob of sentence so far: -27.47180773917002
PORTUGUESE: P(s|a) = -0.8895302127969347 ==> log prob of sentence so far: -35.54996609883333
SPANISH: P(s|a) = -0.8835163661215447 ==> log prob of sentence so far: -22.782341299104374

2GRAM: sy
ENGLISH: P(y|s) = -2.1763079158009373 ==> log prob of sentence so far: -28.63555588390732
FRENCH: P(y|s) = -2.4671107071013534 ==> log prob of sentence so far: -28.37598269551016
DUTCH: P(y|s) = -3.538468700117312 ==> log prob of sentence so far: -31.010276439287335
PORTUGUESE: P(y|s) = -3.2138055707340785 ==> log prob of sentence so far: -38.76377166956741
SPANISH: P(y|s) = -1.563758139931145 ==> log prob of sentence so far: -24.34609943903552

2GRAM: ys
ENGLISH: P(s|y) = -0.97032057027631 ==> log prob of sentence so far: -29.60587645418363
FRENCH: P(s|y) = -0.9979415045803389 ==> log prob of sentence so far: -29.3739242000905
DUTCH: P(s|y) = -1.3463544611922609 ==> log prob of sentence so far: -32.356630900479594
PORTUGUESE: P(s|y) = -0.7490576356529701 ==> log prob of sentence so far: -39.51282930522038
SPANISH: P(s|y) = -1.1765004078527874 ==> log prob of sentence so far: -25.52259984688831

2GRAM: si
ENGLISH: P(i|s) = -1.1208410395233397 ==> log prob of sentence so far: -30.72671749370697
FRENCH: P(i|s) = -1.1848462397998183 ==> log prob of sentence so far: -30.558770439890317
DUTCH: P(i|s) = -1.6519886911664843 ==> log prob of sentence so far: -34.00861959164608
PORTUGUESE: P(i|s) = -1.3239481364332142 ==> log prob of sentence so far: -40.836777441653595
SPANISH: P(i|s) = -1.0245172025290996 ==> log prob of sentence so far: -26.54711704941741

2GRAM: im
ENGLISH: P(m|i) = -1.3479746537468398 ==> log prob of sentence so far: -32.07469214745381
FRENCH: P(m|i) = -1.5427405073207079 ==> log prob of sentence so far: -32.101510947211025
DUTCH: P(m|i) = -2.1539209593341178 ==> log prob of sentence so far: -36.1625405509802
PORTUGUESE: P(m|i) = -1.1489542969681235 ==> log prob of sentence so far: -41.985731738621716
SPANISH: P(m|i) = -1.4591015483632326 ==> log prob of sentence so far: -28.00621859778064

2GRAM: mp
ENGLISH: P(p|m) = -1.2992622100569797 ==> log prob of sentence so far: -33.37395435751079
FRENCH: P(p|m) = -1.1677771395533287 ==> log prob of sentence so far: -33.269288086764355
DUTCH: P(p|m) = -2.042809550142508 ==> log prob of sentence so far: -38.205350101122704
PORTUGUESE: P(p|m) = -1.1555509346253887 ==> log prob of sentence so far: -43.141282673247105
SPANISH: P(p|m) = -1.1412002316605312 ==> log prob of sentence so far: -29.147418829441172

2GRAM: pa
ENGLISH: P(a|p) = -0.9076895487310349 ==> log prob of sentence so far: -34.281643906241825
FRENCH: P(a|p) = -0.6468271846395081 ==> log prob of sentence so far: -33.91611527140386
DUTCH: P(a|p) = -0.8545332867530722 ==> log prob of sentence so far: -39.05988338787578
PORTUGUESE: P(a|p) = -0.6217856918748285 ==> log prob of sentence so far: -43.76306836512193
SPANISH: P(a|p) = -0.5954506082046607 ==> log prob of sentence so far: -29.742869437645833

2GRAM: at
ENGLISH: P(t|a) = -0.8627002964232751 ==> log prob of sentence so far: -35.1443442026651
FRENCH: P(t|a) = -1.2479403766820554 ==> log prob of sentence so far: -35.16405564808591
DUTCH: P(t|a) = -1.109621860489706 ==> log prob of sentence so far: -40.16950524836548
PORTUGUESE: P(t|a) = -1.5397393675816842 ==> log prob of sentence so far: -45.30280773270361
SPANISH: P(t|a) = -1.5459743472234357 ==> log prob of sentence so far: -31.288843784869268

2GRAM: ti
ENGLISH: P(i|t) = -1.0855635961925398 ==> log prob of sentence so far: -36.229907798857646
FRENCH: P(i|t) = -0.9859430671365581 ==> log prob of sentence so far: -36.14999871522247
DUTCH: P(i|t) = -1.222308746546021 ==> log prob of sentence so far: -41.3918139949115
PORTUGUESE: P(i|t) = -0.9908854802565534 ==> log prob of sentence so far: -46.293693212960164
SPANISH: P(i|t) = -0.9480408042281732 ==> log prob of sentence so far: -32.23688458909744

2GRAM: ic
ENGLISH: P(c|i) = -1.35018856406613 ==> log prob of sentence so far: -37.580096362923776
FRENCH: P(c|i) = -1.6343700461201585 ==> log prob of sentence so far: -37.784368761342634
DUTCH: P(c|i) = -1.4698485826926067 ==> log prob of sentence so far: -42.86166257760411
PORTUGUESE: P(c|i) = -1.3108660769852483 ==> log prob of sentence so far: -47.60455928994541
SPANISH: P(c|i) = -1.2033830830735444 ==> log prob of sentence so far: -33.44026767217099

2GRAM: ca
ENGLISH: P(a|c) = -0.8459452928196711 ==> log prob of sentence so far: -38.42604165574345
FRENCH: P(a|c) = -0.9171071236047728 ==> log prob of sentence so far: -38.701475884947406
DUTCH: P(a|c) = -1.4771212267457954 ==> log prob of sentence so far: -44.3387838043499
PORTUGUESE: P(a|c) = -0.5297426478977518 ==> log prob of sentence so far: -48.13430193784316
SPANISH: P(a|c) = -0.6388758977703215 ==> log prob of sentence so far: -34.07914356994131

2GRAM: as
ENGLISH: P(s|a) = -0.995910514082602 ==> log prob of sentence so far: -39.42195216982605
FRENCH: P(s|a) = -1.2507281545079583 ==> log prob of sentence so far: -39.95220403945537
DUTCH: P(s|a) = -1.3356180529788597 ==> log prob of sentence so far: -45.67440185732876
PORTUGUESE: P(s|a) = -0.8895302127969347 ==> log prob of sentence so far: -49.0238321506401
SPANISH: P(s|a) = -0.8835163661215447 ==> log prob of sentence so far: -34.962659936062856

According to the 2gram model, the sentence is in Spanish
----------------
3GRAM MODEL:

3GRAM: las
ENGLISH: P(s|la) = -0.7910506820893538 ==> log prob of sentence so far: -0.7910506820893538
FRENCH: P(s|la) = -1.2019031146052002 ==> log prob of sentence so far: -1.2019031146052002
DUTCH: P(s|la) = -1.4506136592174546 ==> log prob of sentence so far: -1.4506136592174546
PORTUGUESE: P(s|la) = -0.8435130476491027 ==> log prob of sentence so far: -0.8435130476491027
SPANISH: P(s|la) = -0.699610411401436 ==> log prob of sentence so far: -0.699610411401436

3GRAM: asc
ENGLISH: P(c|as) = -1.6779853887775404 ==> log prob of sentence so far: -2.469036070866894
FRENCH: P(c|as) = -1.4347582818696705 ==> log prob of sentence so far: -2.636661396474871
DUTCH: P(c|as) = -1.4730105647853529 ==> log prob of sentence so far: -2.9236242240028076
PORTUGUESE: P(c|as) = -1.2552725983495165 ==> log prob of sentence so far: -2.0987856459986194
SPANISH: P(c|as) = -1.1898096251289494 ==> log prob of sentence so far: -1.8894200365303853

3GRAM: sch
ENGLISH: P(h|sc) = -1.0531561978040525 ==> log prob of sentence so far: -3.5221922686709464
FRENCH: P(h|sc) = -1.1300938280665012 ==> log prob of sentence so far: -3.766755224541372
DUTCH: P(h|sc) = -0.014462629966339085 ==> log prob of sentence so far: -2.9380868539691467
PORTUGUESE: P(h|sc) = -1.3448091510001876 ==> log prob of sentence so far: -3.443594796998807
SPANISH: P(h|sc) = -1.7485100725978044 ==> log prob of sentence so far: -3.63793010912819

3GRAM: chi
ENGLISH: P(i|ch) = -0.80725033724173 ==> log prob of sentence so far: -4.329442605912677
FRENCH: P(i|ch) = -1.0001732678936315 ==> log prob of sentence so far: -4.766928492435003
DUTCH: P(i|ch) = -1.060970228339133 ==> log prob of sentence so far: -3.99905708230828
PORTUGUESE: P(i|ch) = -1.3869448053254398 ==> log prob of sentence so far: -4.830539602324247
SPANISH: P(i|ch) = -1.4471579749404373 ==> log prob of sentence so far: -5.0850880840686274

3GRAM: hic
ENGLISH: P(c|hi) = -1.139853342507013 ==> log prob of sentence so far: -5.46929594841969
FRENCH: P(c|hi) = -1.8827094548593704 ==> log prob of sentence so far: -6.649637947294373
DUTCH: P(c|hi) = -3.2955242444146844 ==> log prob of sentence so far: -7.294581326722964
PORTUGUESE: P(c|hi) = -1.125928382807313 ==> log prob of sentence so far: -5.95646798513156
SPANISH: P(c|hi) = -0.9167936578066375 ==> log prob of sentence so far: -6.001881741875265

3GRAM: ica
ENGLISH: P(a|ic) = -0.7085323160386622 ==> log prob of sentence so far: -6.177828264458352
FRENCH: P(a|ic) = -0.7292247455730823 ==> log prob of sentence so far: -7.378862692867456
DUTCH: P(a|ic) = -1.4882370099313287 ==> log prob of sentence so far: -8.782818336654293
PORTUGUESE: P(a|ic) = -0.3017182737923422 ==> log prob of sentence so far: -6.258186258923902
SPANISH: P(a|ic) = -0.4056503274358752 ==> log prob of sentence so far: -6.407532069311141

3GRAM: cas
ENGLISH: P(s|ca) = -1.003255404554763 ==> log prob of sentence so far: -7.181083669013115
FRENCH: P(s|ca) = -1.409369475824422 ==> log prob of sentence so far: -8.788232168691877
DUTCH: P(s|ca) = -0.7717214807466343 ==> log prob of sentence so far: -9.554539817400928
PORTUGUESE: P(s|ca) = -0.8465016342278653 ==> log prob of sentence so far: -7.104687893151768
SPANISH: P(s|ca) = -0.9323214983686431 ==> log prob of sentence so far: -7.339853567679784

3GRAM: ass
ENGLISH: P(s|as) = -1.0130953880672142 ==> log prob of sentence so far: -8.19417905708033
FRENCH: P(s|as) = -0.5504721787050254 ==> log prob of sentence so far: -9.338704347396902
DUTCH: P(s|as) = -1.4367984676602255 ==> log prob of sentence so far: -10.991338285061152
PORTUGUESE: P(s|as) = -0.8461485507409818 ==> log prob of sentence so far: -7.95083644389275
SPANISH: P(s|as) = -1.4678171174887091 ==> log prob of sentence so far: -8.807670685168492

3GRAM: sso
ENGLISH: P(o|ss) = -0.8444492377363348 ==> log prob of sentence so far: -9.038628294816665
FRENCH: P(o|ss) = -0.8344722374001027 ==> log prob of sentence so far: -10.173176584797005
DUTCH: P(o|ss) = -1.731240101152997 ==> log prob of sentence so far: -12.722578386214149
PORTUGUESE: P(o|ss) = -0.7148745387577568 ==> log prob of sentence so far: -8.665710982650507
SPANISH: P(o|ss) = -0.7419098029289318 ==> log prob of sentence so far: -9.549580488097424

3GRAM: son
ENGLISH: P(n|so) = -0.939482940020788 ==> log prob of sentence so far: -9.978111234837453
FRENCH: P(n|so) = -0.4122714959472701 ==> log prob of sentence so far: -10.585448080744275
DUTCH: P(n|so) = -0.6949132934813709 ==> log prob of sentence so far: -13.41749167969552
PORTUGUESE: P(n|so) = -1.1848268667336628 ==> log prob of sentence so far: -9.850537849384171
SPANISH: P(n|so) = -0.8713338542218568 ==> log prob of sentence so far: -10.420914342319282

3GRAM: onm
ENGLISH: P(m|on) = -2.1000394339153043 ==> log prob of sentence so far: -12.078150668752757
FRENCH: P(m|on) = -1.849755968069983 ==> log prob of sentence so far: -12.435204048814258
DUTCH: P(m|on) = -1.6606681524670577 ==> log prob of sentence so far: -15.078159832162576
PORTUGUESE: P(m|on) = -7.215373840459889 ==> log prob of sentence so far: -17.06591168984406
SPANISH: P(m|on) = -1.293941936834713 ==> log prob of sentence so far: -11.714856279153995

3GRAM: nmu
ENGLISH: P(u|nm) = -1.3027642206266736 ==> log prob of sentence so far: -13.380914889379431
FRENCH: P(u|nm) = -1.774919561433238 ==> log prob of sentence so far: -14.210123610247496
DUTCH: P(u|nm) = -1.9472914580081413 ==> log prob of sentence so far: -17.025451290170718
PORTUGUESE: P(u|nm) = -4.001127700277035 ==> log prob of sentence so far: -21.067039390121096
SPANISH: P(u|nm) = -0.8799234914200026 ==> log prob of sentence so far: -12.594779770573998

3GRAM: muy
ENGLISH: P(y|mu) = -6.954243764066016 ==> log prob of sentence so far: -20.335158653445447
FRENCH: P(y|mu) = -6.5250481776675056 ==> log prob of sentence so far: -20.735171787915
DUTCH: P(y|mu) = -5.792409901465634 ==> log prob of sentence so far: -22.817861191636354
PORTUGUESE: P(y|mu) = -6.556305637327219 ==> log prob of sentence so far: -27.623345027448316
SPANISH: P(y|mu) = -0.6399020930442637 ==> log prob of sentence so far: -13.234681863618261

3GRAM: uyg
ENGLISH: P(g|uy) = -5.3802582877321985 ==> log prob of sentence so far: -25.715416941177644
FRENCH: P(g|uy) = -5.748208190210503 ==> log prob of sentence so far: -26.483379978125505
DUTCH: P(g|uy) = -5.77817006940345 ==> log prob of sentence so far: -28.596031261039805
PORTUGUESE: P(g|uy) = -1.4313637641589874 ==> log prob of sentence so far: -29.054708791607304
SPANISH: P(g|uy) = -1.942824310912937 ==> log prob of sentence so far: -15.1775061745312

3GRAM: ygu
ENGLISH: P(u|yg) = -1.3802116438314722 ==> log prob of sentence so far: -27.095628585009116
FRENCH: P(u|yg) = -5.431405583095624 ==> log prob of sentence so far: -31.91478556122113
DUTCH: P(u|yg) = -4.301594211829356 ==> log prob of sentence so far: -32.89762547286916
PORTUGUESE: P(u|yg) = -1.4313637641589874 ==> log prob of sentence so far: -30.48607255576629
SPANISH: P(u|yg) = -1.431362155818762 ==> log prob of sentence so far: -16.60886833034996

3GRAM: gua
ENGLISH: P(a|gu) = -1.5469772314255996 ==> log prob of sentence so far: -28.642605816434717
FRENCH: P(a|gu) = -1.2379788404673573 ==> log prob of sentence so far: -33.152764401688486
DUTCH: P(a|gu) = -0.49009208435852447 ==> log prob of sentence so far: -33.38771755722768
PORTUGUESE: P(a|gu) = -1.1455935041758085 ==> log prob of sentence so far: -31.6316660599421
SPANISH: P(a|gu) = -0.8151964050679686 ==> log prob of sentence so far: -17.42406473541793

3GRAM: uap
ENGLISH: P(p|ua) = -2.7859996310233845 ==> log prob of sentence so far: -31.4286054474581
FRENCH: P(p|ua) = -1.3872088308897703 ==> log prob of sentence so far: -34.539973232578255
DUTCH: P(p|ua) = -6.008611241872328 ==> log prob of sentence so far: -39.39632879910001
PORTUGUESE: P(p|ua) = -1.5189122779514017 ==> log prob of sentence so far: -33.1505783378935
SPANISH: P(p|ua) = -2.1219767080518888 ==> log prob of sentence so far: -19.546041443469818

3GRAM: apa
ENGLISH: P(a|ap) = -1.1435534196991282 ==> log prob of sentence so far: -32.57215886715723
FRENCH: P(a|ap) = -1.10537517503188 ==> log prob of sentence so far: -35.645348407610136
DUTCH: P(a|ap) = -1.504104124563889 ==> log prob of sentence so far: -40.9004329236639
PORTUGUESE: P(a|ap) = -0.5730462335398981 ==> log prob of sentence so far: -33.7236245714334
SPANISH: P(a|ap) = -0.5069222114468591 ==> log prob of sentence so far: -20.052963654916677

3GRAM: pas
ENGLISH: P(s|pa) = -0.8778347264321748 ==> log prob of sentence so far: -33.449993593589404
FRENCH: P(s|pa) = -0.5274822085996688 ==> log prob of sentence so far: -36.17283061620981
DUTCH: P(s|pa) = -1.2244673652615017 ==> log prob of sentence so far: -42.1249002889254
PORTUGUESE: P(s|pa) = -0.8127461035227327 ==> log prob of sentence so far: -34.53637067495613
SPANISH: P(s|pa) = -0.8916634312014036 ==> log prob of sentence so far: -20.944627086118082

3GRAM: asy
ENGLISH: P(y|as) = -1.8750609824621234 ==> log prob of sentence so far: -35.32505457605153
FRENCH: P(y|as) = -3.205588947376585 ==> log prob of sentence so far: -39.37841956358639
DUTCH: P(y|as) = -7.135769340584339 ==> log prob of sentence so far: -49.26066962950974
PORTUGUESE: P(y|as) = -3.094107422649358 ==> log prob of sentence so far: -37.63047809760549
SPANISH: P(y|as) = -1.4230047962124928 ==> log prob of sentence so far: -22.367631882330574

3GRAM: sys
ENGLISH: P(s|sy) = -1.1771634421103885 ==> log prob of sentence so far: -36.50221801816192
FRENCH: P(s|sy) = -1.0990789781357682 ==> log prob of sentence so far: -40.477498541722156
DUTCH: P(s|sy) = -0.6022987637593642 ==> log prob of sentence so far: -49.86296839326911
PORTUGUESE: P(s|sy) = -5.000112901888685 ==> log prob of sentence so far: -42.630590999494174
SPANISH: P(s|sy) = -1.0259892307550942 ==> log prob of sentence so far: -23.39362111308567

3GRAM: ysi
ENGLISH: P(i|ys) = -1.1243257217909939 ==> log prob of sentence so far: -37.626543739952915
FRENCH: P(i|ys) = -0.7329952170728052 ==> log prob of sentence so far: -41.21049375879496
DUTCH: P(i|ys) = -0.47745405298625254 ==> log prob of sentence so far: -50.34042244625536
PORTUGUESE: P(i|ys) = -0.77819950103718 ==> log prob of sentence so far: -43.40879050053135
SPANISH: P(i|ys) = -0.6005314650895878 ==> log prob of sentence so far: -23.994152578175257

3GRAM: sim
ENGLISH: P(m|si) = -1.5346373599415037 ==> log prob of sentence so far: -39.16118109989442
FRENCH: P(m|si) = -1.4203175250419457 ==> log prob of sentence so far: -42.630811283836906
DUTCH: P(m|si) = -2.187502672761994 ==> log prob of sentence so far: -52.527925119017354
PORTUGUESE: P(m|si) = -0.6330745345523634 ==> log prob of sentence so far: -44.04186503508372
SPANISH: P(m|si) = -1.3159518767499654 ==> log prob of sentence so far: -25.310104454925224

3GRAM: imp
ENGLISH: P(p|im) = -1.0225042938784548 ==> log prob of sentence so far: -40.183685393772876
FRENCH: P(p|im) = -0.773679160414603 ==> log prob of sentence so far: -43.40449044425151
DUTCH: P(p|im) = -1.3273601478393429 ==> log prob of sentence so far: -53.8552852668567
PORTUGUESE: P(p|im) = -0.8304254901735828 ==> log prob of sentence so far: -44.8722905252573
SPANISH: P(p|im) = -0.9013733086891202 ==> log prob of sentence so far: -26.211477763614344

3GRAM: mpa
ENGLISH: P(a|mp) = -0.7027804243334275 ==> log prob of sentence so far: -40.8864658181063
FRENCH: P(a|mp) = -0.7221179071993865 ==> log prob of sentence so far: -44.12660835145089
DUTCH: P(a|mp) = -1.0993912592116657 ==> log prob of sentence so far: -54.95467652606836
PORTUGUESE: P(a|mp) = -0.7638932782996319 ==> log prob of sentence so far: -45.63618380355693
SPANISH: P(a|mp) = -0.8080418053712803 ==> log prob of sentence so far: -27.019519568985626

3GRAM: pat
ENGLISH: P(t|pa) = -1.2125975145110368 ==> log prob of sentence so far: -42.09906333261734
FRENCH: P(t|pa) = -1.6684625748020916 ==> log prob of sentence so far: -45.79507092625298
DUTCH: P(t|pa) = -1.7787519656738533 ==> log prob of sentence so far: -56.73342849174222
PORTUGUESE: P(t|pa) = -1.7893780353728608 ==> log prob of sentence so far: -47.425561838929795
SPANISH: P(t|pa) = -1.5388012716005215 ==> log prob of sentence so far: -28.55832084058615

3GRAM: ati
ENGLISH: P(i|at) = -0.846762495174724 ==> log prob of sentence so far: -42.94582582779206
FRENCH: P(i|at) = -0.5114857751076818 ==> log prob of sentence so far: -46.30655670136066
DUTCH: P(i|at) = -1.262377063933118 ==> log prob of sentence so far: -57.99580555567533
PORTUGUESE: P(i|at) = -0.7701918633256049 ==> log prob of sentence so far: -48.1957537022554
SPANISH: P(i|at) = -0.8499511949853655 ==> log prob of sentence so far: -29.408272035571514

3GRAM: tic
ENGLISH: P(c|ti) = -1.1283453842423383 ==> log prob of sentence so far: -44.0741712120344
FRENCH: P(c|ti) = -1.4981314141353606 ==> log prob of sentence so far: -47.80468811549602
DUTCH: P(c|ti) = -2.0844106700506435 ==> log prob of sentence so far: -60.08021622572598
PORTUGUESE: P(c|ti) = -1.1838350069957417 ==> log prob of sentence so far: -49.379588709251145
SPANISH: P(c|ti) = -1.2198947168514118 ==> log prob of sentence so far: -30.628166752422924

3GRAM: ica
ENGLISH: P(a|ic) = -0.7085323160386622 ==> log prob of sentence so far: -44.782703528073064
FRENCH: P(a|ic) = -0.7292247455730823 ==> log prob of sentence so far: -48.533912861069105
DUTCH: P(a|ic) = -1.4882370099313287 ==> log prob of sentence so far: -61.56845323565731
PORTUGUESE: P(a|ic) = -0.3017182737923422 ==> log prob of sentence so far: -49.681306983043484
SPANISH: P(a|ic) = -0.4056503274358752 ==> log prob of sentence so far: -31.0338170798588

3GRAM: cas
ENGLISH: P(s|ca) = -1.003255404554763 ==> log prob of sentence so far: -45.78595893262783
FRENCH: P(s|ca) = -1.409369475824422 ==> log prob of sentence so far: -49.943282336893525
DUTCH: P(s|ca) = -0.7717214807466343 ==> log prob of sentence so far: -62.34017471640394
PORTUGUESE: P(s|ca) = -0.8465016342278653 ==> log prob of sentence so far: -50.52780861727135
SPANISH: P(s|ca) = -0.9323214983686431 ==> log prob of sentence so far: -31.966138578227444

According to the 3gram model, the sentence is in Spanish
----------------
4GRAM MODEL:

4GRAM: lasc
ENGLISH: P(c|las) = -1.9835573276752225 ==> log prob of sentence so far: -1.9835573276752225
FRENCH: P(c|las) = -1.4358088739995347 ==> log prob of sentence so far: -1.4358088739995347
DUTCH: P(c|las) = -0.5740441515418206 ==> log prob of sentence so far: -0.5740441515418206
PORTUGUESE: P(c|las) = -1.3324395961354794 ==> log prob of sentence so far: -1.3324395961354794
SPANISH: P(c|las) = -0.8386501860362374 ==> log prob of sentence so far: -0.8386501860362374

4GRAM: asch
ENGLISH: P(h|asc) = -1.201399883010057 ==> log prob of sentence so far: -3.1849572106852797
FRENCH: P(h|asc) = -1.4698207278468571 ==> log prob of sentence so far: -2.9056296018463916
DUTCH: P(h|asc) = -0.43233090202310714 ==> log prob of sentence so far: -1.0063750535649278
PORTUGUESE: P(h|asc) = -1.085524324285013 ==> log prob of sentence so far: -2.417963920420492
SPANISH: P(h|asc) = -1.6977244182019726 ==> log prob of sentence so far: -2.53637460423821

4GRAM: schi
ENGLISH: P(i|sch) = -0.7582188283081306 ==> log prob of sentence so far: -3.9431760389934105
FRENCH: P(i|sch) = -1.0244457884164775 ==> log prob of sentence so far: -3.930075390262869
DUTCH: P(i|sch) = -0.7768055815490865 ==> log prob of sentence so far: -1.7831806351140145
PORTUGUESE: P(i|sch) = -0.9164773071167136 ==> log prob of sentence so far: -3.334441227537206
SPANISH: P(i|sch) = -0.4771628720931604 ==> log prob of sentence so far: -3.0135374763313703

4GRAM: chic
ENGLISH: P(c|chi) = -1.8512549080351295 ==> log prob of sentence so far: -5.79443094702854
FRENCH: P(c|chi) = -2.3996347928488158 ==> log prob of sentence so far: -6.329710183111684
DUTCH: P(c|chi) = -2.6190526176819096 ==> log prob of sentence so far: -4.402233252795924
PORTUGUESE: P(c|chi) = -1.2041471224989482 ==> log prob of sentence so far: -4.538588350036154
SPANISH: P(c|chi) = -0.5942520815229957 ==> log prob of sentence so far: -3.6077895578543657

4GRAM: hica
ENGLISH: P(a|hic) = -1.8645082807085764 ==> log prob of sentence so far: -7.658939227737116
FRENCH: P(a|hic) = -4.778339403895484 ==> log prob of sentence so far: -11.10804958700717
DUTCH: P(a|hic) = -4.001127700277035 ==> log prob of sentence so far: -8.403360953072958
PORTUGUESE: P(a|hic) = -0.5643595934904767 ==> log prob of sentence so far: -5.1029479435266305
SPANISH: P(a|hic) = -1.1139578280657803 ==> log prob of sentence so far: -4.721747385920146

4GRAM: icas
ENGLISH: P(s|ica) = -2.049986183885698 ==> log prob of sentence so far: -9.708925411622815
FRENCH: P(s|ica) = -6.34044927081706 ==> log prob of sentence so far: -17.44849885782423
DUTCH: P(s|ica) = -5.361776927401738 ==> log prob of sentence so far: -13.765137880474697
PORTUGUESE: P(s|ica) = -1.0606999464507683 ==> log prob of sentence so far: -6.1636478899773985
SPANISH: P(s|ica) = -1.303528829547455 ==> log prob of sentence so far: -6.025276215467601

4GRAM: cass
ENGLISH: P(s|cas) = -1.8034519806665041 ==> log prob of sentence so far: -11.512377392289318
FRENCH: P(s|cas) = -0.78659272048093 ==> log prob of sentence so far: -18.23509157830516
DUTCH: P(s|cas) = -5.531512126526995 ==> log prob of sentence so far: -19.29665000700169
PORTUGUESE: P(s|cas) = -1.5667304280024363 ==> log prob of sentence so far: -7.730378317979834
SPANISH: P(s|cas) = -2.1015064583256295 ==> log prob of sentence so far: -8.12678267379323

4GRAM: asso
ENGLISH: P(o|ass) = -0.8762670760787525 ==> log prob of sentence so far: -12.38864446836807
FRENCH: P(o|ass) = -1.5411946612196192 ==> log prob of sentence so far: -19.77628623952478
DUTCH: P(o|ass) = -1.2218568561008087 ==> log prob of sentence so far: -20.518506863102502
PORTUGUESE: P(o|ass) = -0.7660547779977368 ==> log prob of sentence so far: -8.49643309597757
SPANISH: P(o|ass) = -0.6966210619017533 ==> log prob of sentence so far: -8.823403735694983

4GRAM: sson
ENGLISH: P(n|sso) = -1.2118075514704671 ==> log prob of sentence so far: -13.600452019838539
FRENCH: P(n|sso) = -0.3736816706243919 ==> log prob of sentence so far: -20.149967910149172
DUTCH: P(n|sso) = -4.845259319443209 ==> log prob of sentence so far: -25.36376618254571
PORTUGUESE: P(n|sso) = -1.1066214468443087 ==> log prob of sentence so far: -9.60305454282188
SPANISH: P(n|sso) = -0.3458524660733412 ==> log prob of sentence so far: -9.169256201768324

4GRAM: sonm
ENGLISH: P(m|son) = -2.2161567611134934 ==> log prob of sentence so far: -15.816608780952032
FRENCH: P(m|son) = -1.7425671142427674 ==> log prob of sentence so far: -21.89253502439194
DUTCH: P(m|son) = -1.633459871033045 ==> log prob of sentence so far: -26.997226053578757
PORTUGUESE: P(m|son) = -6.021200052895396 ==> log prob of sentence so far: -15.624254595717275
SPANISH: P(m|son) = -1.2652125178486742 ==> log prob of sentence so far: -10.434468719616998

4GRAM: onmu
ENGLISH: P(u|onm) = -0.8219416945957149 ==> log prob of sentence so far: -16.638550475547746
FRENCH: P(u|onm) = -1.8892872732036627 ==> log prob of sentence so far: -23.781822297595603
DUTCH: P(u|onm) = -5.886505389413904 ==> log prob of sentence so far: -32.88373144299266
PORTUGUESE: P(u|onm) = -1.4313637641589874 ==> log prob of sentence so far: -17.055618359876263
SPANISH: P(u|onm) = -0.8310907469029869 ==> log prob of sentence so far: -11.265559466519985

4GRAM: nmuy
ENGLISH: P(y|nmu) = -5.397985172949654 ==> log prob of sentence so far: -22.0365356484974
FRENCH: P(y|nmu) = -4.95436795417073 ==> log prob of sentence so far: -28.736190251766335
DUTCH: P(y|nmu) = -5.146208682879298 ==> log prob of sentence so far: -38.02994012587196
PORTUGUESE: P(y|nmu) = -1.4313637641589874 ==> log prob of sentence so far: -18.48698212403525
SPANISH: P(y|nmu) = -0.7403742516433033 ==> log prob of sentence so far: -12.005933718163288

4GRAM: muyg
ENGLISH: P(g|muy) = -1.4313637641589874 ==> log prob of sentence so far: -23.467899412656386
FRENCH: P(g|muy) = -1.4313637641589874 ==> log prob of sentence so far: -30.167554015925322
DUTCH: P(g|muy) = -1.4313637641589874 ==> log prob of sentence so far: -39.46130389003095
PORTUGUESE: P(g|muy) = -1.4313637641589874 ==> log prob of sentence so far: -19.91834588819424
SPANISH: P(g|muy) = -1.7269913089227926 ==> log prob of sentence so far: -13.73292502708608

4GRAM: uygu
ENGLISH: P(u|uyg) = -1.4313637641589874 ==> log prob of sentence so far: -24.899263176815374
FRENCH: P(u|uyg) = -1.4313637641589874 ==> log prob of sentence so far: -31.59891778008431
DUTCH: P(u|uyg) = -1.4313637641589874 ==> log prob of sentence so far: -40.892667654189935
PORTUGUESE: P(u|uyg) = -1.4313637641589874 ==> log prob of sentence so far: -21.349709652353226
SPANISH: P(u|uyg) = -4.477497480263115 ==> log prob of sentence so far: -18.210422507349197

4GRAM: ygua
ENGLISH: P(a|ygu) = -0.653316244325504 ==> log prob of sentence so far: -25.552579421140877
FRENCH: P(a|ygu) = -1.4313637641589874 ==> log prob of sentence so far: -33.030281544243294
DUTCH: P(a|ygu) = -1.4313637641589874 ==> log prob of sentence so far: -42.32403141834892
PORTUGUESE: P(a|ygu) = -1.4313637641589874 ==> log prob of sentence so far: -22.781073416512214
SPANISH: P(a|ygu) = -4.001127700277035 ==> log prob of sentence so far: -22.21155020762623

4GRAM: guap
ENGLISH: P(p|gua) = -5.230515337808497 ==> log prob of sentence so far: -30.783094758949375
FRENCH: P(p|gua) = -1.5681888137085491 ==> log prob of sentence so far: -34.59847035795185
DUTCH: P(p|gua) = -5.740383219293597 ==> log prob of sentence so far: -48.06441463764252
PORTUGUESE: P(p|gua) = -5.755894665144436 ==> log prob of sentence so far: -28.53696808165665
SPANISH: P(p|gua) = -1.4533176060422548 ==> log prob of sentence so far: -23.664867813668486

4GRAM: uapa
ENGLISH: P(a|uap) = -0.0010842730001722966 ==> log prob of sentence so far: -30.784179031949545
FRENCH: P(a|uap) = -1.0718924594825614 ==> log prob of sentence so far: -35.67036281743441
DUTCH: P(a|uap) = -1.4313637641589874 ==> log prob of sentence so far: -49.49577840180151
PORTUGUESE: P(a|uap) = -0.477151522399076 ==> log prob of sentence so far: -29.014119604055725
SPANISH: P(a|uap) = -0.36812358848208615 ==> log prob of sentence so far: -24.03299140215057

4GRAM: apas
ENGLISH: P(s|apa) = -0.8826199028072439 ==> log prob of sentence so far: -31.666798934756788
FRENCH: P(s|apa) = -0.5263431791238888 ==> log prob of sentence so far: -36.1967059965583
DUTCH: P(s|apa) = -5.114030202518486 ==> log prob of sentence so far: -54.609808604319994
PORTUGUESE: P(s|apa) = -1.0704094252481837 ==> log prob of sentence so far: -30.08452902930391
SPANISH: P(s|apa) = -0.8628666990858721 ==> log prob of sentence so far: -24.895858101236442

4GRAM: pasy
ENGLISH: P(y|pas) = -6.442483845455617 ==> log prob of sentence so far: -38.1092827802124
FRENCH: P(y|pas) = -7.113944220894932 ==> log prob of sentence so far: -43.31065021745323
DUTCH: P(y|pas) = -5.612811396472215 ==> log prob of sentence so far: -60.22262000079221
PORTUGUESE: P(y|pas) = -6.296670893080922 ==> log prob of sentence so far: -36.38119992238483
SPANISH: P(y|pas) = -6.447162064057971 ==> log prob of sentence so far: -31.343020165294412

4GRAM: asys
ENGLISH: P(s|asy) = -1.2130791090734623 ==> log prob of sentence so far: -39.322361889285865
FRENCH: P(s|asy) = -4.301594211829356 ==> log prob of sentence so far: -47.61224442928258
DUTCH: P(s|asy) = -1.4313637641589874 ==> log prob of sentence so far: -61.6539837649512
PORTUGUESE: P(s|asy) = -4.477497480263115 ==> log prob of sentence so far: -40.85869740264795
SPANISH: P(s|asy) = -0.9542464157556381 ==> log prob of sentence so far: -32.29726658105005

4GRAM: sysi
ENGLISH: P(i|sys) = -1.431362155818762 ==> log prob of sentence so far: -40.753724045104626
FRENCH: P(i|sys) = -5.204190549775811 ==> log prob of sentence so far: -52.81643497905839
DUTCH: P(i|sys) = -4.001127700277035 ==> log prob of sentence so far: -65.65511146522823
PORTUGUESE: P(i|sys) = -1.4313637641589874 ==> log prob of sentence so far: -42.290061166806936
SPANISH: P(i|sys) = -0.574047372415496 ==> log prob of sentence so far: -32.871313953465545

4GRAM: ysim
ENGLISH: P(m|ysi) = -1.2483265470645633 ==> log prob of sentence so far: -42.00205059216919
FRENCH: P(m|ysi) = -5.431405583095624 ==> log prob of sentence so far: -58.24784056215402
DUTCH: P(m|ysi) = -4.001127700277035 ==> log prob of sentence so far: -69.65623916550527
PORTUGUESE: P(m|ysi) = -4.477497480263115 ==> log prob of sentence so far: -46.767558647070054
SPANISH: P(m|ysi) = -1.2492034036151827 ==> log prob of sentence so far: -34.12051735708073

4GRAM: simp
ENGLISH: P(p|sim) = -0.3963653300433994 ==> log prob of sentence so far: -42.39841592221259
FRENCH: P(p|sim) = -0.29512828311188033 ==> log prob of sentence so far: -58.5429688452659
DUTCH: P(p|sim) = -4.301594211829356 ==> log prob of sentence so far: -73.95783337733462
PORTUGUESE: P(p|sim) = -0.5669014113163939 ==> log prob of sentence so far: -47.33446005838645
SPANISH: P(p|sim) = -0.9739035708316321 ==> log prob of sentence so far: -35.09442092791236

4GRAM: impa
ENGLISH: P(a|imp) = -0.9080002345090487 ==> log prob of sentence so far: -43.30641615672164
FRENCH: P(a|imp) = -0.8960313592602048 ==> log prob of sentence so far: -59.4390002045261
DUTCH: P(a|imp) = -4.903231109767353 ==> log prob of sentence so far: -78.86106448710197
PORTUGUESE: P(a|imp) = -0.9064757664452009 ==> log prob of sentence so far: -48.240935824831645
SPANISH: P(a|imp) = -1.2787568009416432 ==> log prob of sentence so far: -36.373177728854

4GRAM: mpat
ENGLISH: P(t|mpa) = -0.9758177801944891 ==> log prob of sentence so far: -44.28223393691613
FRENCH: P(t|mpa) = -0.94639158906141 ==> log prob of sentence so far: -60.385391793587516
DUTCH: P(t|mpa) = -0.8452158921663467 ==> log prob of sentence so far: -79.70628037926832
PORTUGUESE: P(t|mpa) = -1.329060302600248 ==> log prob of sentence so far: -49.56999612743189
SPANISH: P(t|mpa) = -1.4183012250165654 ==> log prob of sentence so far: -37.791478953870566

4GRAM: pati
ENGLISH: P(i|pat) = -0.4771289978675759 ==> log prob of sentence so far: -44.7593629347837
FRENCH: P(i|pat) = -0.5718083566622582 ==> log prob of sentence so far: -60.957200150249776
DUTCH: P(i|pat) = -5.079275332992986 ==> log prob of sentence so far: -84.78555571226131
PORTUGUESE: P(i|pat) = -1.3222296339217225 ==> log prob of sentence so far: -50.892225761353615
SPANISH: P(i|pat) = -0.8519502819320863 ==> log prob of sentence so far: -38.64342923580265

4GRAM: atic
ENGLISH: P(c|ati) = -1.4195051494015245 ==> log prob of sentence so far: -46.178868084185225
FRENCH: P(c|ati) = -1.7993389553241281 ==> log prob of sentence so far: -62.75653910557391
DUTCH: P(c|ati) = -6.1072187911649385 ==> log prob of sentence so far: -90.89277450342625
PORTUGUESE: P(c|ati) = -1.0470006987649074 ==> log prob of sentence so far: -51.93922646011852
SPANISH: P(c|ati) = -1.0993879457100975 ==> log prob of sentence so far: -39.74281718151275

4GRAM: tica
ENGLISH: P(a|tic) = -0.5380796236014789 ==> log prob of sentence so far: -46.7169477077867
FRENCH: P(a|tic) = -0.7251285575555148 ==> log prob of sentence so far: -63.48166766312942
DUTCH: P(a|tic) = -5.0414953244516 ==> log prob of sentence so far: -95.93426982787786
PORTUGUESE: P(a|tic) = -0.24305476520890668 ==> log prob of sentence so far: -52.18228122532742
SPANISH: P(a|tic) = -0.5288381021745998 ==> log prob of sentence so far: -40.27165528368735

4GRAM: icas
ENGLISH: P(s|ica) = -2.049986183885698 ==> log prob of sentence so far: -48.7669338916724
FRENCH: P(s|ica) = -6.34044927081706 ==> log prob of sentence so far: -69.82211693394648
DUTCH: P(s|ica) = -5.361776927401738 ==> log prob of sentence so far: -101.29604675527959
PORTUGUESE: P(s|ica) = -1.0606999464507683 ==> log prob of sentence so far: -53.24298117177819
SPANISH: P(s|ica) = -1.303528829547455 ==> log prob of sentence so far: -41.575184113234805

According to the 4gram model, the sentence is in Spanish
----------------
