NTSB exhorte l'installation d'altimetres radar.

1GRAM MODEL:

1GRAM: n
ENGLISH: P(n) = -1.161594332338253 ==> log prob of sentence so far: -1.161594332338253
FRENCH: P(n) = -1.1226334875045167 ==> log prob of sentence so far: -1.1226334875045167
DUTCH: P(n) = -0.9654176577239543 ==> log prob of sentence so far: -0.9654176577239543
PORTUGUESE: P(n) = -1.3242807280507187 ==> log prob of sentence so far: -1.3242807280507187
SPANISH: P(n) = -1.1498323276049258 ==> log prob of sentence so far: -1.1498323276049258

1GRAM: t
ENGLISH: P(t) = -1.0342201967944733 ==> log prob of sentence so far: -2.1958145291327265
FRENCH: P(t) = -1.1659631947814317 ==> log prob of sentence so far: -2.2885966822859487
DUTCH: P(t) = -1.2498796929138756 ==> log prob of sentence so far: -2.21529735063783
PORTUGUESE: P(t) = -1.3798312063329417 ==> log prob of sentence so far: -2.7041119343836604
SPANISH: P(t) = -1.403591206998156 ==> log prob of sentence so far: -2.553423534603082

1GRAM: s
ENGLISH: P(s) = -1.1711384807336087 ==> log prob of sentence so far: -3.366953009866335
FRENCH: P(s) = -1.064443204906708 ==> log prob of sentence so far: -3.353039887192657
DUTCH: P(s) = -1.4604412026800553 ==> log prob of sentence so far: -3.6757385533178852
PORTUGUESE: P(s) = -1.1128885199376846 ==> log prob of sentence so far: -3.817000454321345
SPANISH: P(s) = -1.1432550023265262 ==> log prob of sentence so far: -3.696678536929608

1GRAM: b
ENGLISH: P(b) = -1.7519588996635036 ==> log prob of sentence so far: -5.118911909529839
FRENCH: P(b) = -2.0519153276062747 ==> log prob of sentence so far: -5.404955214798932
DUTCH: P(b) = -1.8074883611170944 ==> log prob of sentence so far: -5.4832269144349794
PORTUGUESE: P(b) = -2.0435293524217983 ==> log prob of sentence so far: -5.860529806743143
SPANISH: P(b) = -1.8063459379660145 ==> log prob of sentence so far: -5.503024474895622

1GRAM: e
ENGLISH: P(e) = -0.9100671672480583 ==> log prob of sentence so far: -6.0289790767778975
FRENCH: P(e) = -0.7669595030100278 ==> log prob of sentence so far: -6.17191471780896
DUTCH: P(e) = -0.7296416717344202 ==> log prob of sentence so far: -6.2128685861693995
PORTUGUESE: P(e) = -0.880437397131492 ==> log prob of sentence so far: -6.740967203874635
SPANISH: P(e) = -0.8816440718926534 ==> log prob of sentence so far: -6.384668546788276

1GRAM: x
ENGLISH: P(x) = -2.96172497028826 ==> log prob of sentence so far: -8.990704047066158
FRENCH: P(x) = -2.338707155153559 ==> log prob of sentence so far: -8.510621872962519
DUTCH: P(x) = -3.7900964260918477 ==> log prob of sentence so far: -10.002965012261248
PORTUGUESE: P(x) = -2.6768279590656334 ==> log prob of sentence so far: -9.41779516294027
SPANISH: P(x) = -2.6674434188599196 ==> log prob of sentence so far: -9.052111965648194

1GRAM: h
ENGLISH: P(h) = -1.1802717018481115 ==> log prob of sentence so far: -10.17097574891427
FRENCH: P(h) = -2.105661505277561 ==> log prob of sentence so far: -10.61628337824008
DUTCH: P(h) = -1.4907882132713295 ==> log prob of sentence so far: -11.493753225532577
PORTUGUESE: P(h) = -1.8092516224324593 ==> log prob of sentence so far: -11.227046785372728
SPANISH: P(h) = -1.8922415939752475 ==> log prob of sentence so far: -10.944353559623442

1GRAM: o
ENGLISH: P(o) = -1.1377809800580025 ==> log prob of sentence so far: -11.308756728972272
FRENCH: P(o) = -1.2743410778784847 ==> log prob of sentence so far: -11.890624456118566
DUTCH: P(o) = -1.199814333953728 ==> log prob of sentence so far: -12.693567559486306
PORTUGUESE: P(o) = -0.9821306993687576 ==> log prob of sentence so far: -12.209177484741486
SPANISH: P(o) = -0.9966256638806575 ==> log prob of sentence so far: -11.9409792235041

1GRAM: r
ENGLISH: P(r) = -1.2612711446511347 ==> log prob of sentence so far: -12.570027873623406
FRENCH: P(r) = -1.1840252806546812 ==> log prob of sentence so far: -13.074649736773248
DUTCH: P(r) = -1.254198637640079 ==> log prob of sentence so far: -13.947766197126384
PORTUGUESE: P(r) = -1.194537098985067 ==> log prob of sentence so far: -13.403714583726554
SPANISH: P(r) = -1.191039284734038 ==> log prob of sentence so far: -13.132018508238136

1GRAM: t
ENGLISH: P(t) = -1.0342201967944733 ==> log prob of sentence so far: -13.60424807041788
FRENCH: P(t) = -1.1659631947814317 ==> log prob of sentence so far: -14.24061293155468
DUTCH: P(t) = -1.2498796929138756 ==> log prob of sentence so far: -15.19764589004026
PORTUGUESE: P(t) = -1.3798312063329417 ==> log prob of sentence so far: -14.783545790059495
SPANISH: P(t) = -1.403591206998156 ==> log prob of sentence so far: -14.535609715236292

1GRAM: e
ENGLISH: P(e) = -0.9100671672480583 ==> log prob of sentence so far: -14.514315237665938
FRENCH: P(e) = -0.7669595030100278 ==> log prob of sentence so far: -15.007572434564707
DUTCH: P(e) = -0.7296416717344202 ==> log prob of sentence so far: -15.92728756177468
PORTUGUESE: P(e) = -0.880437397131492 ==> log prob of sentence so far: -15.663983187190988
SPANISH: P(e) = -0.8816440718926534 ==> log prob of sentence so far: -15.417253787128946

1GRAM: l
ENGLISH: P(l) = -1.3477680404759382 ==> log prob of sentence so far: -15.862083278141876
FRENCH: P(l) = -1.268210145276409 ==> log prob of sentence so far: -16.275782579841117
DUTCH: P(l) = -1.424888573378627 ==> log prob of sentence so far: -17.352176135153307
PORTUGUESE: P(l) = -1.4370345298164877 ==> log prob of sentence so far: -17.101017717007476
SPANISH: P(l) = -1.280216305870861 ==> log prob of sentence so far: -16.697470092999808

1GRAM: i
ENGLISH: P(i) = -1.1625228822481477 ==> log prob of sentence so far: -17.024606160390025
FRENCH: P(i) = -1.1352025755293589 ==> log prob of sentence so far: -17.410985155370476
DUTCH: P(i) = -1.2262442278424301 ==> log prob of sentence so far: -18.578420362995736
PORTUGUESE: P(i) = -1.2396906121447568 ==> log prob of sentence so far: -18.340708329152232
SPANISH: P(i) = -1.2231489528257042 ==> log prob of sentence so far: -17.92061904582551

1GRAM: n
ENGLISH: P(n) = -1.161594332338253 ==> log prob of sentence so far: -18.18620049272828
FRENCH: P(n) = -1.1226334875045167 ==> log prob of sentence so far: -18.53361864287499
DUTCH: P(n) = -0.9654176577239543 ==> log prob of sentence so far: -19.54383802071969
PORTUGUESE: P(n) = -1.3242807280507187 ==> log prob of sentence so far: -19.664989057202952
SPANISH: P(n) = -1.1498323276049258 ==> log prob of sentence so far: -19.070451373430437

1GRAM: s
ENGLISH: P(s) = -1.1711384807336087 ==> log prob of sentence so far: -19.35733897346189
FRENCH: P(s) = -1.064443204906708 ==> log prob of sentence so far: -19.5980618477817
DUTCH: P(s) = -1.4604412026800553 ==> log prob of sentence so far: -21.004279223399745
PORTUGUESE: P(s) = -1.1128885199376846 ==> log prob of sentence so far: -20.777877577140636
SPANISH: P(s) = -1.1432550023265262 ==> log prob of sentence so far: -20.213706375756963

1GRAM: t
ENGLISH: P(t) = -1.0342201967944733 ==> log prob of sentence so far: -20.39155917025636
FRENCH: P(t) = -1.1659631947814317 ==> log prob of sentence so far: -20.764025042563134
DUTCH: P(t) = -1.2498796929138756 ==> log prob of sentence so far: -22.25415891631362
PORTUGUESE: P(t) = -1.3798312063329417 ==> log prob of sentence so far: -22.157708783473577
SPANISH: P(t) = -1.403591206998156 ==> log prob of sentence so far: -21.61729758275512

1GRAM: a
ENGLISH: P(a) = -1.0867855556195258 ==> log prob of sentence so far: -21.478344725875886
FRENCH: P(a) = -1.0763486860884999 ==> log prob of sentence so far: -21.840373728651635
DUTCH: P(a) = -1.1153867027045747 ==> log prob of sentence so far: -23.369545619018197
PORTUGUESE: P(a) = -0.8318864457343189 ==> log prob of sentence so far: -22.989595229207897
SPANISH: P(a) = -0.9020151018641022 ==> log prob of sentence so far: -22.519312684619223

1GRAM: l
ENGLISH: P(l) = -1.3477680404759382 ==> log prob of sentence so far: -22.826112766351823
FRENCH: P(l) = -1.268210145276409 ==> log prob of sentence so far: -23.108583873928044
DUTCH: P(l) = -1.424888573378627 ==> log prob of sentence so far: -24.794434192396825
PORTUGUESE: P(l) = -1.4370345298164877 ==> log prob of sentence so far: -24.426629759024383
SPANISH: P(l) = -1.280216305870861 ==> log prob of sentence so far: -23.799528990490085

1GRAM: l
ENGLISH: P(l) = -1.3477680404759382 ==> log prob of sentence so far: -24.17388080682776
FRENCH: P(l) = -1.268210145276409 ==> log prob of sentence so far: -24.376794019204453
DUTCH: P(l) = -1.424888573378627 ==> log prob of sentence so far: -26.219322765775452
PORTUGUESE: P(l) = -1.4370345298164877 ==> log prob of sentence so far: -25.86366428884087
SPANISH: P(l) = -1.280216305870861 ==> log prob of sentence so far: -25.079745296360947

1GRAM: a
ENGLISH: P(a) = -1.0867855556195258 ==> log prob of sentence so far: -25.260666362447285
FRENCH: P(a) = -1.0763486860884999 ==> log prob of sentence so far: -25.453142705292954
DUTCH: P(a) = -1.1153867027045747 ==> log prob of sentence so far: -27.33470946848003
PORTUGUESE: P(a) = -0.8318864457343189 ==> log prob of sentence so far: -26.69555073457519
SPANISH: P(a) = -0.9020151018641022 ==> log prob of sentence so far: -25.98176039822505

1GRAM: t
ENGLISH: P(t) = -1.0342201967944733 ==> log prob of sentence so far: -26.294886559241757
FRENCH: P(t) = -1.1659631947814317 ==> log prob of sentence so far: -26.619105900074388
DUTCH: P(t) = -1.2498796929138756 ==> log prob of sentence so far: -28.584589161393904
PORTUGUESE: P(t) = -1.3798312063329417 ==> log prob of sentence so far: -28.07538194090813
SPANISH: P(t) = -1.403591206998156 ==> log prob of sentence so far: -27.385351605223207

1GRAM: i
ENGLISH: P(i) = -1.1625228822481477 ==> log prob of sentence so far: -27.457409441489904
FRENCH: P(i) = -1.1352025755293589 ==> log prob of sentence so far: -27.754308475603747
DUTCH: P(i) = -1.2262442278424301 ==> log prob of sentence so far: -29.810833389236333
PORTUGUESE: P(i) = -1.2396906121447568 ==> log prob of sentence so far: -29.315072553052886
SPANISH: P(i) = -1.2231489528257042 ==> log prob of sentence so far: -28.60850055804891

1GRAM: o
ENGLISH: P(o) = -1.1377809800580025 ==> log prob of sentence so far: -28.59519042154791
FRENCH: P(o) = -1.2743410778784847 ==> log prob of sentence so far: -29.028649553482232
DUTCH: P(o) = -1.199814333953728 ==> log prob of sentence so far: -31.01064772319006
PORTUGUESE: P(o) = -0.9821306993687576 ==> log prob of sentence so far: -30.297203252421642
SPANISH: P(o) = -0.9966256638806575 ==> log prob of sentence so far: -29.605126221929567

1GRAM: n
ENGLISH: P(n) = -1.161594332338253 ==> log prob of sentence so far: -29.756784753886162
FRENCH: P(n) = -1.1226334875045167 ==> log prob of sentence so far: -30.151283040986748
DUTCH: P(n) = -0.9654176577239543 ==> log prob of sentence so far: -31.976065380914015
PORTUGUESE: P(n) = -1.3242807280507187 ==> log prob of sentence so far: -31.621483980472362
SPANISH: P(n) = -1.1498323276049258 ==> log prob of sentence so far: -30.754958549534493

1GRAM: d
ENGLISH: P(d) = -1.3961796679426524 ==> log prob of sentence so far: -31.152964421828813
FRENCH: P(d) = -1.4202617777502686 ==> log prob of sentence so far: -31.571544818737017
DUTCH: P(d) = -1.2011818240390888 ==> log prob of sentence so far: -33.177247204953105
PORTUGUESE: P(d) = -1.3354018349367311 ==> log prob of sentence so far: -32.956885815409095
SPANISH: P(d) = -1.2907600057475275 ==> log prob of sentence so far: -32.04571855528202

1GRAM: a
ENGLISH: P(a) = -1.0867855556195258 ==> log prob of sentence so far: -32.23974997744834
FRENCH: P(a) = -1.0763486860884999 ==> log prob of sentence so far: -32.64789350482552
DUTCH: P(a) = -1.1153867027045747 ==> log prob of sentence so far: -34.29263390765768
PORTUGUESE: P(a) = -0.8318864457343189 ==> log prob of sentence so far: -33.788772261143414
SPANISH: P(a) = -0.9020151018641022 ==> log prob of sentence so far: -32.947733657146124

1GRAM: l
ENGLISH: P(l) = -1.3477680404759382 ==> log prob of sentence so far: -33.58751801792428
FRENCH: P(l) = -1.268210145276409 ==> log prob of sentence so far: -33.916103650101924
DUTCH: P(l) = -1.424888573378627 ==> log prob of sentence so far: -35.717522481036305
PORTUGUESE: P(l) = -1.4370345298164877 ==> log prob of sentence so far: -35.2258067909599
SPANISH: P(l) = -1.280216305870861 ==> log prob of sentence so far: -34.22794996301698

1GRAM: t
ENGLISH: P(t) = -1.0342201967944733 ==> log prob of sentence so far: -34.621738214718754
FRENCH: P(t) = -1.1659631947814317 ==> log prob of sentence so far: -35.08206684488336
DUTCH: P(t) = -1.2498796929138756 ==> log prob of sentence so far: -36.96740217395018
PORTUGUESE: P(t) = -1.3798312063329417 ==> log prob of sentence so far: -36.605637997292845
SPANISH: P(t) = -1.403591206998156 ==> log prob of sentence so far: -35.63154117001514

1GRAM: i
ENGLISH: P(i) = -1.1625228822481477 ==> log prob of sentence so far: -35.7842610969669
FRENCH: P(i) = -1.1352025755293589 ==> log prob of sentence so far: -36.21726942041272
DUTCH: P(i) = -1.2262442278424301 ==> log prob of sentence so far: -38.193646401792606
PORTUGUESE: P(i) = -1.2396906121447568 ==> log prob of sentence so far: -37.8453286094376
SPANISH: P(i) = -1.2231489528257042 ==> log prob of sentence so far: -36.85469012284084

1GRAM: m
ENGLISH: P(m) = -1.6111138474359583 ==> log prob of sentence so far: -37.39537494440286
FRENCH: P(m) = -1.5129506660683787 ==> log prob of sentence so far: -37.7302200864811
DUTCH: P(m) = -1.6188728802133567 ==> log prob of sentence so far: -39.812519282005965
PORTUGUESE: P(m) = -1.3143867575166186 ==> log prob of sentence so far: -39.15971536695422
SPANISH: P(m) = -1.4970849446101568 ==> log prob of sentence so far: -38.351775067451

1GRAM: e
ENGLISH: P(e) = -0.9100671672480583 ==> log prob of sentence so far: -38.30544211165092
FRENCH: P(e) = -0.7669595030100278 ==> log prob of sentence so far: -38.497179589491125
DUTCH: P(e) = -0.7296416717344202 ==> log prob of sentence so far: -40.542160953740385
PORTUGUESE: P(e) = -0.880437397131492 ==> log prob of sentence so far: -40.04015276408571
SPANISH: P(e) = -0.8816440718926534 ==> log prob of sentence so far: -39.23341913934365

1GRAM: t
ENGLISH: P(t) = -1.0342201967944733 ==> log prob of sentence so far: -39.33966230844539
FRENCH: P(t) = -1.1659631947814317 ==> log prob of sentence so far: -39.66314278427256
DUTCH: P(t) = -1.2498796929138756 ==> log prob of sentence so far: -41.79204064665426
PORTUGUESE: P(t) = -1.3798312063329417 ==> log prob of sentence so far: -41.419983970418656
SPANISH: P(t) = -1.403591206998156 ==> log prob of sentence so far: -40.63701034634181

1GRAM: r
ENGLISH: P(r) = -1.2612711446511347 ==> log prob of sentence so far: -40.60093345309652
FRENCH: P(r) = -1.1840252806546812 ==> log prob of sentence so far: -40.84716806492724
DUTCH: P(r) = -1.254198637640079 ==> log prob of sentence so far: -43.04623928429434
PORTUGUESE: P(r) = -1.194537098985067 ==> log prob of sentence so far: -42.61452106940372
SPANISH: P(r) = -1.191039284734038 ==> log prob of sentence so far: -41.82804963107585

1GRAM: e
ENGLISH: P(e) = -0.9100671672480583 ==> log prob of sentence so far: -41.51100062034458
FRENCH: P(e) = -0.7669595030100278 ==> log prob of sentence so far: -41.61412756793727
DUTCH: P(e) = -0.7296416717344202 ==> log prob of sentence so far: -43.77588095602876
PORTUGUESE: P(e) = -0.880437397131492 ==> log prob of sentence so far: -43.494958466535216
SPANISH: P(e) = -0.8816440718926534 ==> log prob of sentence so far: -42.7096937029685

1GRAM: s
ENGLISH: P(s) = -1.1711384807336087 ==> log prob of sentence so far: -42.68213910107819
FRENCH: P(s) = -1.064443204906708 ==> log prob of sentence so far: -42.678570772843976
DUTCH: P(s) = -1.4604412026800553 ==> log prob of sentence so far: -45.236322158708816
PORTUGUESE: P(s) = -1.1128885199376846 ==> log prob of sentence so far: -44.6078469864729
SPANISH: P(s) = -1.1432550023265262 ==> log prob of sentence so far: -43.85294870529503

1GRAM: r
ENGLISH: P(r) = -1.2612711446511347 ==> log prob of sentence so far: -43.943410245729325
FRENCH: P(r) = -1.1840252806546812 ==> log prob of sentence so far: -43.862596053498656
DUTCH: P(r) = -1.254198637640079 ==> log prob of sentence so far: -46.490520796348896
PORTUGUESE: P(r) = -1.194537098985067 ==> log prob of sentence so far: -45.802384085457966
SPANISH: P(r) = -1.191039284734038 ==> log prob of sentence so far: -45.043987990029066

1GRAM: a
ENGLISH: P(a) = -1.0867855556195258 ==> log prob of sentence so far: -45.03019580134885
FRENCH: P(a) = -1.0763486860884999 ==> log prob of sentence so far: -44.93894473958716
DUTCH: P(a) = -1.1153867027045747 ==> log prob of sentence so far: -47.60590749905347
PORTUGUESE: P(a) = -0.8318864457343189 ==> log prob of sentence so far: -46.634270531192286
SPANISH: P(a) = -0.9020151018641022 ==> log prob of sentence so far: -45.94600309189317

1GRAM: d
ENGLISH: P(d) = -1.3961796679426524 ==> log prob of sentence so far: -46.42637546929151
FRENCH: P(d) = -1.4202617777502686 ==> log prob of sentence so far: -46.35920651733743
DUTCH: P(d) = -1.2011818240390888 ==> log prob of sentence so far: -48.80708932309256
PORTUGUESE: P(d) = -1.3354018349367311 ==> log prob of sentence so far: -47.96967236612902
SPANISH: P(d) = -1.2907600057475275 ==> log prob of sentence so far: -47.2367630976407

1GRAM: a
ENGLISH: P(a) = -1.0867855556195258 ==> log prob of sentence so far: -47.513161024911035
FRENCH: P(a) = -1.0763486860884999 ==> log prob of sentence so far: -47.43555520342593
DUTCH: P(a) = -1.1153867027045747 ==> log prob of sentence so far: -49.92247602579714
PORTUGUESE: P(a) = -0.8318864457343189 ==> log prob of sentence so far: -48.80155881186334
SPANISH: P(a) = -0.9020151018641022 ==> log prob of sentence so far: -48.1387781995048

1GRAM: r
ENGLISH: P(r) = -1.2612711446511347 ==> log prob of sentence so far: -48.77443216956217
FRENCH: P(r) = -1.1840252806546812 ==> log prob of sentence so far: -48.61958048408061
DUTCH: P(r) = -1.254198637640079 ==> log prob of sentence so far: -51.17667466343722
PORTUGUESE: P(r) = -1.194537098985067 ==> log prob of sentence so far: -49.9960959108484
SPANISH: P(r) = -1.191039284734038 ==> log prob of sentence so far: -49.32981748423884

According to the 1gram model, the sentence is in French
----------------
2GRAM MODEL:

2GRAM: nt
ENGLISH: P(t|n) = -0.8261940752663046 ==> log prob of sentence so far: -0.8261940752663046
FRENCH: P(t|n) = -0.6408600630358113 ==> log prob of sentence so far: -0.6408600630358113
DUTCH: P(t|n) = -1.281432011562829 ==> log prob of sentence so far: -1.281432011562829
PORTUGUESE: P(t|n) = -0.6689528439577966 ==> log prob of sentence so far: -0.6689528439577966
SPANISH: P(t|n) = -0.7925809998639457 ==> log prob of sentence so far: -0.7925809998639457

2GRAM: ts
ENGLISH: P(s|t) = -1.3509262260280694 ==> log prob of sentence so far: -2.177120301294374
FRENCH: P(s|t) = -1.2204485268634018 ==> log prob of sentence so far: -1.8613085898992132
DUTCH: P(s|t) = -1.336154869913733 ==> log prob of sentence so far: -2.617586881476562
PORTUGUESE: P(s|t) = -3.196353323914472 ==> log prob of sentence so far: -3.8653061678722684
SPANISH: P(s|t) = -3.4612497451371644 ==> log prob of sentence so far: -4.25383074500111

2GRAM: sb
ENGLISH: P(b|s) = -1.6901890740278063 ==> log prob of sentence so far: -3.86730937532218
FRENCH: P(b|s) = -2.0221188760299156 ==> log prob of sentence so far: -3.883427465929129
DUTCH: P(b|s) = -1.8460731020560188 ==> log prob of sentence so far: -4.463659983532581
PORTUGUESE: P(b|s) = -2.0319660399924504 ==> log prob of sentence so far: -5.897272207864718
SPANISH: P(b|s) = -2.1005954801761355 ==> log prob of sentence so far: -6.354426225177246

2GRAM: be
ENGLISH: P(e|b) = -0.6124827817378138 ==> log prob of sentence so far: -4.479792157059994
FRENCH: P(e|b) = -1.0597810398801784 ==> log prob of sentence so far: -4.943208505809308
DUTCH: P(e|b) = -0.4069224752407621 ==> log prob of sentence so far: -4.8705824587733435
PORTUGUESE: P(e|b) = -0.6189409902265741 ==> log prob of sentence so far: -6.516213198091292
SPANISH: P(e|b) = -1.0799410068479625 ==> log prob of sentence so far: -7.434367232025208

2GRAM: ex
ENGLISH: P(x|e) = -2.163311779540198 ==> log prob of sentence so far: -6.643103936600192
FRENCH: P(x|e) = -2.2668647176646584 ==> log prob of sentence so far: -7.210073223473966
DUTCH: P(x|e) = -3.1799700935892483 ==> log prob of sentence so far: -8.050552552362593
PORTUGUESE: P(x|e) = -2.129867341014404 ==> log prob of sentence so far: -8.646080539105697
SPANISH: P(x|e) = -2.1204994735653004 ==> log prob of sentence so far: -9.55486670559051

2GRAM: xh
ENGLISH: P(h|x) = -1.3900094360650037 ==> log prob of sentence so far: -8.033113372665195
FRENCH: P(h|x) = -1.5296501952425048 ==> log prob of sentence so far: -8.739723418716471
DUTCH: P(h|x) = -1.2174901952210946 ==> log prob of sentence so far: -9.268042747583687
PORTUGUESE: P(h|x) = -2.370123540465855 ==> log prob of sentence so far: -11.016204079571551
SPANISH: P(h|x) = -2.290581631115289 ==> log prob of sentence so far: -11.845448336705799

2GRAM: ho
ENGLISH: P(o|h) = -1.1036237117294738 ==> log prob of sentence so far: -9.13673708439467
FRENCH: P(o|h) = -0.8324131354765649 ==> log prob of sentence so far: -9.572136554193037
DUTCH: P(o|h) = -1.0173147475160884 ==> log prob of sentence so far: -10.285357495099776
PORTUGUESE: P(o|h) = -0.5397555324379388 ==> log prob of sentence so far: -11.55595961200949
SPANISH: P(o|h) = -0.53265146317386 ==> log prob of sentence so far: -12.378099799879658

2GRAM: or
ENGLISH: P(r|o) = -0.9302655731986038 ==> log prob of sentence so far: -10.067002657593273
FRENCH: P(r|o) = -1.0253507228460323 ==> log prob of sentence so far: -10.597487277039068
DUTCH: P(r|o) = -0.9350731339873284 ==> log prob of sentence so far: -11.220430629087105
PORTUGUESE: P(r|o) = -0.9137672725841739 ==> log prob of sentence so far: -12.469726884593664
SPANISH: P(r|o) = -0.9210779786670829 ==> log prob of sentence so far: -13.299177778546742

2GRAM: rt
ENGLISH: P(t|r) = -1.0948125923050884 ==> log prob of sentence so far: -11.16181524989836
FRENCH: P(t|r) = -1.3945481554181967 ==> log prob of sentence so far: -11.992035432457264
DUTCH: P(t|r) = -1.2880491202180324 ==> log prob of sentence so far: -12.508479749305137
PORTUGUESE: P(t|r) = -1.311553390548879 ==> log prob of sentence so far: -13.781280275142542
SPANISH: P(t|r) = -1.376659555932075 ==> log prob of sentence so far: -14.675837334478818

2GRAM: te
ENGLISH: P(e|t) = -1.0588721640199654 ==> log prob of sentence so far: -12.220687413918325
FRENCH: P(e|t) = -0.6740385697517565 ==> log prob of sentence so far: -12.66607400220902
DUTCH: P(e|t) = -0.5035716637055169 ==> log prob of sentence so far: -13.012051413010653
PORTUGUESE: P(e|t) = -0.5750111338550872 ==> log prob of sentence so far: -14.35629140899763
SPANISH: P(e|t) = -0.610612183505976 ==> log prob of sentence so far: -15.286449517984794

2GRAM: el
ENGLISH: P(l|e) = -1.3277714623143466 ==> log prob of sentence so far: -13.548458876232672
FRENCH: P(l|e) = -1.2044160491360067 ==> log prob of sentence so far: -13.870490051345028
DUTCH: P(l|e) = -1.163689929268216 ==> log prob of sentence so far: -14.175741342278869
PORTUGUESE: P(l|e) = -1.1286515794375676 ==> log prob of sentence so far: -15.484942988435197
SPANISH: P(l|e) = -0.9033131575225964 ==> log prob of sentence so far: -16.18976267550739

2GRAM: li
ENGLISH: P(i|l) = -0.9280383306091224 ==> log prob of sentence so far: -14.476497206841795
FRENCH: P(i|l) = -1.202907271383646 ==> log prob of sentence so far: -15.073397322728674
DUTCH: P(i|l) = -0.7909619263713471 ==> log prob of sentence so far: -14.966703268650216
PORTUGUESE: P(i|l) = -1.0725941890314552 ==> log prob of sentence so far: -16.557537177466653
SPANISH: P(i|l) = -1.2536149091759239 ==> log prob of sentence so far: -17.44337758468331

2GRAM: in
ENGLISH: P(n|i) = -0.5176579041052046 ==> log prob of sentence so far: -14.994155110947
FRENCH: P(n|i) = -0.8961969700107313 ==> log prob of sentence so far: -15.969594292739405
DUTCH: P(n|i) = -0.724713680821401 ==> log prob of sentence so far: -15.691416949471616
PORTUGUESE: P(n|i) = -0.8296477200785563 ==> log prob of sentence so far: -17.387184897545207
SPANISH: P(n|i) = -0.9630827822323391 ==> log prob of sentence so far: -18.40646036691565

2GRAM: ns
ENGLISH: P(s|n) = -1.247150129249582 ==> log prob of sentence so far: -16.24130524019658
FRENCH: P(s|n) = -0.9210890299548589 ==> log prob of sentence so far: -16.890683322694265
DUTCH: P(s|n) = -1.3140887609311036 ==> log prob of sentence so far: -17.00550571040272
PORTUGUESE: P(s|n) = -1.3598679121877721 ==> log prob of sentence so far: -18.74705280973298
SPANISH: P(s|n) = -1.3580277596494101 ==> log prob of sentence so far: -19.76448812656506

2GRAM: st
ENGLISH: P(t|s) = -0.703615149506461 ==> log prob of sentence so far: -16.944920389703043
FRENCH: P(t|s) = -1.2372979453647666 ==> log prob of sentence so far: -18.12798126805903
DUTCH: P(t|s) = -0.5214462076050936 ==> log prob of sentence so far: -17.526951918007814
PORTUGUESE: P(t|s) = -0.9394210950183153 ==> log prob of sentence so far: -19.686473904751296
SPANISH: P(t|s) = -0.8813298145086538 ==> log prob of sentence so far: -20.645817941073712

2GRAM: ta
ENGLISH: P(a|t) = -1.169766777925248 ==> log prob of sentence so far: -18.11468716762829
FRENCH: P(a|t) = -0.8826874285690166 ==> log prob of sentence so far: -19.01066869662805
DUTCH: P(a|t) = -1.3099994184831316 ==> log prob of sentence so far: -18.836951336490944
PORTUGUESE: P(a|t) = -0.6254286242593543 ==> log prob of sentence so far: -20.31190252901065
SPANISH: P(a|t) = -0.5849250903062503 ==> log prob of sentence so far: -21.230743031379962

2GRAM: al
ENGLISH: P(l|a) = -0.9618849878669015 ==> log prob of sentence so far: -19.076572155495192
FRENCH: P(l|a) = -1.191788348852632 ==> log prob of sentence so far: -20.20245704548068
DUTCH: P(l|a) = -1.1010390327564752 ==> log prob of sentence so far: -19.93799036924742
PORTUGUESE: P(l|a) = -1.1791842990823678 ==> log prob of sentence so far: -21.491086828093017
SPANISH: P(l|a) = -1.014901147648574 ==> log prob of sentence so far: -22.245644179028535

2GRAM: ll
ENGLISH: P(l|l) = -0.8383393064566734 ==> log prob of sentence so far: -19.914911461951867
FRENCH: P(l|l) = -1.086007341658571 ==> log prob of sentence so far: -21.288464387139253
DUTCH: P(l|l) = -1.1374968210205643 ==> log prob of sentence so far: -21.075487190267985
PORTUGUESE: P(l|l) = -0.8235019440763791 ==> log prob of sentence so far: -22.314588772169397
SPANISH: P(l|l) = -1.1342961751439897 ==> log prob of sentence so far: -23.379940354172525

2GRAM: la
ENGLISH: P(a|l) = -1.0027641708741657 ==> log prob of sentence so far: -20.917675632826032
FRENCH: P(a|l) = -0.6762997112259611 ==> log prob of sentence so far: -21.964764098365215
DUTCH: P(a|l) = -0.848878917110163 ==> log prob of sentence so far: -21.924366107378148
PORTUGUESE: P(a|l) = -0.7564541255435201 ==> log prob of sentence so far: -23.071042897712918
SPANISH: P(a|l) = -0.5718569948189756 ==> log prob of sentence so far: -23.9517973489915

2GRAM: at
ENGLISH: P(t|a) = -0.8627002964232751 ==> log prob of sentence so far: -21.780375929249306
FRENCH: P(t|a) = -1.2479403766820554 ==> log prob of sentence so far: -23.21270447504727
DUTCH: P(t|a) = -1.109621860489706 ==> log prob of sentence so far: -23.033987967867855
PORTUGUESE: P(t|a) = -1.5397393675816842 ==> log prob of sentence so far: -24.610782265294603
SPANISH: P(t|a) = -1.5459743472234357 ==> log prob of sentence so far: -25.497771696214937

2GRAM: ti
ENGLISH: P(i|t) = -1.0855635961925398 ==> log prob of sentence so far: -22.865939525441846
FRENCH: P(i|t) = -0.9859430671365581 ==> log prob of sentence so far: -24.198647542183828
DUTCH: P(i|t) = -1.222308746546021 ==> log prob of sentence so far: -24.256296714413875
PORTUGUESE: P(i|t) = -0.9908854802565534 ==> log prob of sentence so far: -25.601667745551158
SPANISH: P(i|t) = -0.9480408042281732 ==> log prob of sentence so far: -26.44581250044311

2GRAM: io
ENGLISH: P(o|i) = -1.4835440219970804 ==> log prob of sentence so far: -24.349483547438926
FRENCH: P(o|i) = -1.375620728964325 ==> log prob of sentence so far: -25.574268271148153
DUTCH: P(o|i) = -2.38944922444412 ==> log prob of sentence so far: -26.645745938857996
PORTUGUESE: P(o|i) = -1.1246035460047463 ==> log prob of sentence so far: -26.726271291555904
SPANISH: P(o|i) = -1.0266555056371443 ==> log prob of sentence so far: -27.472468006080256

2GRAM: on
ENGLISH: P(n|o) = -0.8621497540785806 ==> log prob of sentence so far: -25.211633301517505
FRENCH: P(n|o) = -0.5204118850636741 ==> log prob of sentence so far: -26.094680156211826
DUTCH: P(n|o) = -0.8621908452791233 ==> log prob of sentence so far: -27.50793678413712
PORTUGUESE: P(n|o) = -1.1338148365834484 ==> log prob of sentence so far: -27.86008612813935
SPANISH: P(n|o) = -0.8456166240856485 ==> log prob of sentence so far: -28.318084630165902

2GRAM: nd
ENGLISH: P(d|n) = -0.7554392102850928 ==> log prob of sentence so far: -25.9670725118026
FRENCH: P(d|n) = -1.0270994306363883 ==> log prob of sentence so far: -27.121779586848213
DUTCH: P(d|n) = -0.7083647278113894 ==> log prob of sentence so far: -28.216301511948508
PORTUGUESE: P(d|n) = -0.9229038544827289 ==> log prob of sentence so far: -28.78298998262208
SPANISH: P(d|n) = -0.8649861809096311 ==> log prob of sentence so far: -29.183070811075535

2GRAM: da
ENGLISH: P(a|d) = -0.9999284458511455 ==> log prob of sentence so far: -26.967000957653745
FRENCH: P(a|d) = -0.9713541406086308 ==> log prob of sentence so far: -28.093133727456845
DUTCH: P(a|d) = -0.9673872099111954 ==> log prob of sentence so far: -29.183688721859703
PORTUGUESE: P(a|d) = -0.6376138977514921 ==> log prob of sentence so far: -29.420603880373573
SPANISH: P(a|d) = -0.888193250674662 ==> log prob of sentence so far: -30.071264061750195

2GRAM: al
ENGLISH: P(l|a) = -0.9618849878669015 ==> log prob of sentence so far: -27.928885945520648
FRENCH: P(l|a) = -1.191788348852632 ==> log prob of sentence so far: -29.284922076309478
DUTCH: P(l|a) = -1.1010390327564752 ==> log prob of sentence so far: -30.284727754616178
PORTUGUESE: P(l|a) = -1.1791842990823678 ==> log prob of sentence so far: -30.599788179455942
SPANISH: P(l|a) = -1.014901147648574 ==> log prob of sentence so far: -31.086165209398768

2GRAM: lt
ENGLISH: P(t|l) = -1.4624082379821057 ==> log prob of sentence so far: -29.391294183502755
FRENCH: P(t|l) = -2.334920864131207 ==> log prob of sentence so far: -31.619842940440684
DUTCH: P(t|l) = -1.7743187891222352 ==> log prob of sentence so far: -32.05904654373841
PORTUGUESE: P(t|l) = -1.4960596725129245 ==> log prob of sentence so far: -32.09584785196887
SPANISH: P(t|l) = -1.6225578118790978 ==> log prob of sentence so far: -32.70872302127786

2GRAM: ti
ENGLISH: P(i|t) = -1.0855635961925398 ==> log prob of sentence so far: -30.476857779695294
FRENCH: P(i|t) = -0.9859430671365581 ==> log prob of sentence so far: -32.605786007577244
DUTCH: P(i|t) = -1.222308746546021 ==> log prob of sentence so far: -33.28135529028443
PORTUGUESE: P(i|t) = -0.9908854802565534 ==> log prob of sentence so far: -33.08673333222542
SPANISH: P(i|t) = -0.9480408042281732 ==> log prob of sentence so far: -33.65676382550603

2GRAM: im
ENGLISH: P(m|i) = -1.3479746537468398 ==> log prob of sentence so far: -31.824832433442133
FRENCH: P(m|i) = -1.5427405073207079 ==> log prob of sentence so far: -34.14852651489795
DUTCH: P(m|i) = -2.1539209593341178 ==> log prob of sentence so far: -35.435276249618546
PORTUGUESE: P(m|i) = -1.1489542969681235 ==> log prob of sentence so far: -34.23568762919354
SPANISH: P(m|i) = -1.4591015483632326 ==> log prob of sentence so far: -35.11586537386927

2GRAM: me
ENGLISH: P(e|m) = -0.594327582688585 ==> log prob of sentence so far: -32.41916001613072
FRENCH: P(e|m) = -0.4303478891398023 ==> log prob of sentence so far: -34.578874404037755
DUTCH: P(e|m) = -0.45919100953454645 ==> log prob of sentence so far: -35.894467259153096
PORTUGUESE: P(e|m) = -0.7090561122253235 ==> log prob of sentence so far: -34.94474374141887
SPANISH: P(e|m) = -0.5843536650182802 ==> log prob of sentence so far: -35.700219038887546

2GRAM: et
ENGLISH: P(t|e) = -1.180554303161955 ==> log prob of sentence so far: -33.59971431929267
FRENCH: P(t|e) = -1.0817042416520077 ==> log prob of sentence so far: -35.66057864568976
DUTCH: P(t|e) = -1.1837220388469751 ==> log prob of sentence so far: -37.07818929800007
PORTUGUESE: P(t|e) = -1.5517962448096445 ==> log prob of sentence so far: -36.49653998622851
SPANISH: P(t|e) = -1.594320967128409 ==> log prob of sentence so far: -37.29454000601596

2GRAM: tr
ENGLISH: P(r|t) = -1.5560820060954994 ==> log prob of sentence so far: -35.155796325388174
FRENCH: P(r|t) = -0.9624195664002474 ==> log prob of sentence so far: -36.62299821209001
DUTCH: P(r|t) = -1.383741559099192 ==> log prob of sentence so far: -38.46193085709926
PORTUGUESE: P(r|t) = -0.9945083954195567 ==> log prob of sentence so far: -37.49104838164807
SPANISH: P(r|t) = -0.900395712337028 ==> log prob of sentence so far: -38.19493571835299

2GRAM: re
ENGLISH: P(e|r) = -0.6281156240702467 ==> log prob of sentence so far: -35.78391194945842
FRENCH: P(e|r) = -0.4908603992084843 ==> log prob of sentence so far: -37.1138586112985
DUTCH: P(e|r) = -0.7943708230201308 ==> log prob of sentence so far: -39.25630168011939
PORTUGUESE: P(e|r) = -0.738408097289601 ==> log prob of sentence so far: -38.22945647893767
SPANISH: P(e|r) = -0.6817295650586808 ==> log prob of sentence so far: -38.87666528341167

2GRAM: es
ENGLISH: P(s|e) = -0.9448348293174055 ==> log prob of sentence so far: -36.72874677877583
FRENCH: P(s|e) = -0.7261117562826892 ==> log prob of sentence so far: -37.83997036758119
DUTCH: P(s|e) = -1.4885357923574787 ==> log prob of sentence so far: -40.744837472476874
PORTUGUESE: P(s|e) = -0.8219917719022634 ==> log prob of sentence so far: -39.05144825083993
SPANISH: P(s|e) = -0.7772969067309046 ==> log prob of sentence so far: -39.65396219014257

2GRAM: sr
ENGLISH: P(r|s) = -2.212383272160215 ==> log prob of sentence so far: -38.941130050936046
FRENCH: P(r|s) = -1.729309248647965 ==> log prob of sentence so far: -39.56927961622915
DUTCH: P(r|s) = -2.5384784716087974 ==> log prob of sentence so far: -43.28331594408567
PORTUGUESE: P(r|s) = -2.138262587311459 ==> log prob of sentence so far: -41.18971083815139
SPANISH: P(r|s) = -2.037720749982981 ==> log prob of sentence so far: -41.69168294012555

2GRAM: ra
ENGLISH: P(a|r) = -1.0362014961588926 ==> log prob of sentence so far: -39.97733154709494
FRENCH: P(a|r) = -0.904461939720802 ==> log prob of sentence so far: -40.47374155594996
DUTCH: P(a|r) = -1.1498146264318359 ==> log prob of sentence so far: -44.433130570517505
PORTUGUESE: P(a|r) = -0.5220671552286296 ==> log prob of sentence so far: -41.71177799338002
SPANISH: P(a|r) = -0.6564151913168392 ==> log prob of sentence so far: -42.34809813144239

2GRAM: ad
ENGLISH: P(d|a) = -1.3608745354130198 ==> log prob of sentence so far: -41.33820608250796
FRENCH: P(d|a) = -1.6548379642725894 ==> log prob of sentence so far: -42.128579520222544
DUTCH: P(d|a) = -1.3383053424525784 ==> log prob of sentence so far: -45.771435912970084
PORTUGUESE: P(d|a) = -1.0654628781151698 ==> log prob of sentence so far: -42.77724087149519
SPANISH: P(d|a) = -1.018364926750513 ==> log prob of sentence so far: -43.366463058192906

2GRAM: da
ENGLISH: P(a|d) = -0.9999284458511455 ==> log prob of sentence so far: -42.338134528359106
FRENCH: P(a|d) = -0.9713541406086308 ==> log prob of sentence so far: -43.09993366083118
DUTCH: P(a|d) = -0.9673872099111954 ==> log prob of sentence so far: -46.73882312288128
PORTUGUESE: P(a|d) = -0.6376138977514921 ==> log prob of sentence so far: -43.41485476924668
SPANISH: P(a|d) = -0.888193250674662 ==> log prob of sentence so far: -44.25465630886757

2GRAM: ar
ENGLISH: P(r|a) = -0.985420063231861 ==> log prob of sentence so far: -43.32355459159097
FRENCH: P(r|a) = -1.0331352651346224 ==> log prob of sentence so far: -44.1330689259658
DUTCH: P(r|a) = -0.9127486552516607 ==> log prob of sentence so far: -47.65157177813294
PORTUGUESE: P(r|a) = -1.010573902122766 ==> log prob of sentence so far: -44.425428671369446
SPANISH: P(r|a) = -0.9443454432936655 ==> log prob of sentence so far: -45.19900175216123

According to the 2gram model, the sentence is in English
----------------
3GRAM MODEL:

3GRAM: nts
ENGLISH: P(s|nt) = -1.2987430542805143 ==> log prob of sentence so far: -1.2987430542805143
FRENCH: P(s|nt) = -0.9917380261528627 ==> log prob of sentence so far: -0.9917380261528627
DUTCH: P(s|nt) = -1.4889533031584383 ==> log prob of sentence so far: -1.4889533031584383
PORTUGUESE: P(s|nt) = -3.361118059500668 ==> log prob of sentence so far: -3.361118059500668
SPANISH: P(s|nt) = -3.6093377945464336 ==> log prob of sentence so far: -3.6093377945464336

3GRAM: tsb
ENGLISH: P(b|ts) = -1.53230593714163 ==> log prob of sentence so far: -2.8310489914221444
FRENCH: P(b|ts) = -2.2106153395647 ==> log prob of sentence so far: -3.202353365717563
DUTCH: P(b|ts) = -1.6782138427175122 ==> log prob of sentence so far: -3.1671671458759505
PORTUGUESE: P(b|ts) = -4.778339403895484 ==> log prob of sentence so far: -8.139457463396152
SPANISH: P(b|ts) = -4.699195778770342 ==> log prob of sentence so far: -8.308533573316776

3GRAM: sbe
ENGLISH: P(e|sb) = -0.5767807374098561 ==> log prob of sentence so far: -3.4078297288320005
FRENCH: P(e|sb) = -1.0321858645530648 ==> log prob of sentence so far: -4.234539230270627
DUTCH: P(e|sb) = -0.31220027249969595 ==> log prob of sentence so far: -3.4793674183756464
PORTUGUESE: P(e|sb) = -0.6020662771071172 ==> log prob of sentence so far: -8.741523740503268
SPANISH: P(e|sb) = -1.5207002620072096 ==> log prob of sentence so far: -9.829233835323986

3GRAM: bex
ENGLISH: P(x|be) = -3.30220123365357 ==> log prob of sentence so far: -6.71003096248557
FRENCH: P(x|be) = -6.722636061099859 ==> log prob of sentence so far: -10.957175291370486
DUTCH: P(x|be) = -3.400840236886943 ==> log prob of sentence so far: -6.8802076552625895
PORTUGUESE: P(x|be) = -2.3891466745968732 ==> log prob of sentence so far: -11.130670415100141
SPANISH: P(x|be) = -6.673944390927611 ==> log prob of sentence so far: -16.5031782262516

3GRAM: exh
ENGLISH: P(h|ex) = -1.334677341217825 ==> log prob of sentence so far: -8.044708303703395
FRENCH: P(h|ex) = -2.5017237936567356 ==> log prob of sentence so far: -13.458899085027221
DUTCH: P(h|ex) = -1.2218568561008087 ==> log prob of sentence so far: -8.102064511363398
PORTUGUESE: P(h|ex) = -2.029367339946925 ==> log prob of sentence so far: -13.160037755047066
SPANISH: P(h|ex) = -1.9469356031932619 ==> log prob of sentence so far: -18.45011382944486

3GRAM: xho
ENGLISH: P(o|xh) = -1.1461404435011588 ==> log prob of sentence so far: -9.190848747204553
FRENCH: P(o|xh) = -0.9176571672856698 ==> log prob of sentence so far: -14.376556252312891
DUTCH: P(o|xh) = -4.602342191036227 ==> log prob of sentence so far: -12.704406702399625
PORTUGUESE: P(o|xh) = -4.301594211829356 ==> log prob of sentence so far: -17.46163196687642
SPANISH: P(o|xh) = -0.30129048119100055 ==> log prob of sentence so far: -18.75140431063586

3GRAM: hor
ENGLISH: P(r|ho) = -1.03901215028391 ==> log prob of sentence so far: -10.229860897488463
FRENCH: P(r|ho) = -0.6545746808094364 ==> log prob of sentence so far: -15.031130933122327
DUTCH: P(r|ho) = -1.8747188382695132 ==> log prob of sentence so far: -14.57912554066914
PORTUGUESE: P(r|ho) = -0.5047057920772152 ==> log prob of sentence so far: -17.966337758953635
SPANISH: P(r|ho) = -0.2790125797610002 ==> log prob of sentence so far: -19.03041689039686

3GRAM: ort
ENGLISH: P(t|or) = -0.7613659987551252 ==> log prob of sentence so far: -10.991226896243587
FRENCH: P(t|or) = -0.7243763526156735 ==> log prob of sentence so far: -15.755507285738
DUTCH: P(t|or) = -0.945852473051499 ==> log prob of sentence so far: -15.524978013720638
PORTUGUESE: P(t|or) = -0.9563785314593884 ==> log prob of sentence so far: -18.922716290413025
SPANISH: P(t|or) = -1.312626655292726 ==> log prob of sentence so far: -20.343043545689586

3GRAM: rte
ENGLISH: P(e|rt) = -1.1080896622882226 ==> log prob of sentence so far: -12.09931655853181
FRENCH: P(e|rt) = -0.47979440123032097 ==> log prob of sentence so far: -16.23530168696832
DUTCH: P(e|rt) = -0.5956042178317085 ==> log prob of sentence so far: -16.120582231552348
PORTUGUESE: P(e|rt) = -0.5491564268812634 ==> log prob of sentence so far: -19.47187271729429
SPANISH: P(e|rt) = -0.5436224744786946 ==> log prob of sentence so far: -20.88666602016828

3GRAM: tel
ENGLISH: P(l|te) = -1.321696182583331 ==> log prob of sentence so far: -13.42101274111514
FRENCH: P(l|te) = -1.3087389333288661 ==> log prob of sentence so far: -17.544040620297185
DUTCH: P(l|te) = -1.0340903418403502 ==> log prob of sentence so far: -17.1546725733927
PORTUGUESE: P(l|te) = -1.5881336525163383 ==> log prob of sentence so far: -21.060006369810626
SPANISH: P(l|te) = -1.2525546208924425 ==> log prob of sentence so far: -22.139220641060724

3GRAM: eli
ENGLISH: P(i|el) = -0.8552764671417498 ==> log prob of sentence so far: -14.27628920825689
FRENCH: P(i|el) = -1.2612480785272904 ==> log prob of sentence so far: -18.805288698824477
DUTCH: P(i|el) = -0.6921120919975182 ==> log prob of sentence so far: -17.846784665390217
PORTUGUESE: P(i|el) = -1.1054594606076387 ==> log prob of sentence so far: -22.165465830418263
SPANISH: P(i|el) = -1.4512124979984729 ==> log prob of sentence so far: -23.590433139059197

3GRAM: lin
ENGLISH: P(n|li) = -0.5615292196059892 ==> log prob of sentence so far: -14.837818427862878
FRENCH: P(n|li) = -0.8786191158578196 ==> log prob of sentence so far: -19.683907814682296
DUTCH: P(n|li) = -0.7864510337666809 ==> log prob of sentence so far: -18.6332356991569
PORTUGUESE: P(n|li) = -0.9088014241029584 ==> log prob of sentence so far: -23.07426725452122
SPANISH: P(n|li) = -0.8769326474586707 ==> log prob of sentence so far: -24.467365786517867

3GRAM: ins
ENGLISH: P(s|in) = -1.2655808600883163 ==> log prob of sentence so far: -16.103399287951195
FRENCH: P(s|in) = -0.9040438544899299 ==> log prob of sentence so far: -20.587951669172227
DUTCH: P(s|in) = -1.4492854873887653 ==> log prob of sentence so far: -20.082521186545662
PORTUGUESE: P(s|in) = -1.534433899373761 ==> log prob of sentence so far: -24.60870115389498
SPANISH: P(s|in) = -1.2821407918918544 ==> log prob of sentence so far: -25.749506578409722

3GRAM: nst
ENGLISH: P(t|ns) = -0.647054199787835 ==> log prob of sentence so far: -16.75045348773903
FRENCH: P(t|ns) = -1.2221311915422064 ==> log prob of sentence so far: -21.810082860714434
DUTCH: P(t|ns) = -0.5163191026429825 ==> log prob of sentence so far: -20.598840289188644
PORTUGUESE: P(t|ns) = -0.8596260800884874 ==> log prob of sentence so far: -25.468327233983466
SPANISH: P(t|ns) = -1.1303342588898877 ==> log prob of sentence so far: -26.87984083729961

3GRAM: sta
ENGLISH: P(a|st) = -0.8507876372559308 ==> log prob of sentence so far: -17.60124112499496
FRENCH: P(a|st) = -0.7669392216395228 ==> log prob of sentence so far: -22.577022082353956
DUTCH: P(a|st) = -0.9673728905825068 ==> log prob of sentence so far: -21.56621317977115
PORTUGUESE: P(a|st) = -0.4661783553845564 ==> log prob of sentence so far: -25.934505589368023
SPANISH: P(a|st) = -0.3817158097683041 ==> log prob of sentence so far: -27.261556647067916

3GRAM: tal
ENGLISH: P(l|ta) = -0.9221167037797671 ==> log prob of sentence so far: -18.523357828774728
FRENCH: P(l|ta) = -1.0603801792938086 ==> log prob of sentence so far: -23.637402261647765
DUTCH: P(l|ta) = -0.5662617585960065 ==> log prob of sentence so far: -22.132474938367157
PORTUGUESE: P(l|ta) = -1.0659288065133803 ==> log prob of sentence so far: -27.000434395881403
SPANISH: P(l|ta) = -1.1485544123635445 ==> log prob of sentence so far: -28.41011105943146

3GRAM: all
ENGLISH: P(l|al) = -0.4467942688831874 ==> log prob of sentence so far: -18.970152097657916
FRENCH: P(l|al) = -0.9308231002608077 ==> log prob of sentence so far: -24.56822536190857
DUTCH: P(l|al) = -0.634094048349114 ==> log prob of sentence so far: -22.76656898671627
PORTUGUESE: P(l|al) = -1.1478247534687802 ==> log prob of sentence so far: -28.14825914935018
SPANISH: P(l|al) = -0.9607688040296294 ==> log prob of sentence so far: -29.37087986346109

3GRAM: lla
ENGLISH: P(a|ll) = -1.0928252283257733 ==> log prob of sentence so far: -20.062977325983688
FRENCH: P(a|ll) = -0.9478840089192453 ==> log prob of sentence so far: -25.516109370827817
DUTCH: P(a|ll) = -0.9446387506164161 ==> log prob of sentence so far: -23.711207737332685
PORTUGUESE: P(a|ll) = -0.3504186485849997 ==> log prob of sentence so far: -28.49867779793518
SPANISH: P(a|ll) = -0.43123881429029487 ==> log prob of sentence so far: -29.802118677751388

3GRAM: lat
ENGLISH: P(t|la) = -1.056533174808395 ==> log prob of sentence so far: -21.11951050079208
FRENCH: P(t|la) = -1.0649695664240757 ==> log prob of sentence so far: -26.581078937251892
DUTCH: P(t|la) = -1.146736108267869 ==> log prob of sentence so far: -24.857943845600555
PORTUGUESE: P(t|la) = -1.387580538052971 ==> log prob of sentence so far: -29.886258335988153
SPANISH: P(t|la) = -1.4313637550197988 ==> log prob of sentence so far: -31.233482432771186

3GRAM: ati
ENGLISH: P(i|at) = -0.846762495174724 ==> log prob of sentence so far: -21.966272995966804
FRENCH: P(i|at) = -0.5114857751076818 ==> log prob of sentence so far: -27.092564712359575
DUTCH: P(i|at) = -1.262377063933118 ==> log prob of sentence so far: -26.120320909533675
PORTUGUESE: P(i|at) = -0.7701918633256049 ==> log prob of sentence so far: -30.656450199313756
SPANISH: P(i|at) = -0.8499511949853655 ==> log prob of sentence so far: -32.08343362775655

3GRAM: tio
ENGLISH: P(o|ti) = -0.822398836432575 ==> log prob of sentence so far: -22.78867183239938
FRENCH: P(o|ti) = -0.6082844753543465 ==> log prob of sentence so far: -27.70084918771392
DUTCH: P(o|ti) = -2.222711887683538 ==> log prob of sentence so far: -28.343032797217212
PORTUGUESE: P(o|ti) = -1.9039913806518691 ==> log prob of sentence so far: -32.56044157996563
SPANISH: P(o|ti) = -1.237992920086456 ==> log prob of sentence so far: -33.321426547843004

3GRAM: ion
ENGLISH: P(n|io) = -0.18198127026042726 ==> log prob of sentence so far: -22.970653102659806
FRENCH: P(n|io) = -0.0432303984715507 ==> log prob of sentence so far: -27.74407958618547
DUTCH: P(n|io) = -0.6734252373634899 ==> log prob of sentence so far: -29.0164580345807
PORTUGUESE: P(n|io) = -1.3750772328562757 ==> log prob of sentence so far: -33.935518812821904
SPANISH: P(n|io) = -0.45630940146700516 ==> log prob of sentence so far: -33.777735949310006

3GRAM: ond
ENGLISH: P(d|on) = -1.319910113769833 ==> log prob of sentence so far: -24.29056321642964
FRENCH: P(d|on) = -0.8226039758953893 ==> log prob of sentence so far: -28.56668356208086
DUTCH: P(d|on) = -0.43488963970445826 ==> log prob of sentence so far: -29.45134767428516
PORTUGUESE: P(d|on) = -0.9435320016804137 ==> log prob of sentence so far: -34.87905081450232
SPANISH: P(d|on) = -0.9417595176064 ==> log prob of sentence so far: -34.719495466916406

3GRAM: nda
ENGLISH: P(a|nd) = -1.0953466728389187 ==> log prob of sentence so far: -25.385909889268557
FRENCH: P(a|nd) = -0.7611319293501124 ==> log prob of sentence so far: -29.327815491430975
DUTCH: P(a|nd) = -1.049617562949038 ==> log prob of sentence so far: -30.500965237234198
PORTUGUESE: P(a|nd) = -0.655424262822428 ==> log prob of sentence so far: -35.53447507732475
SPANISH: P(a|nd) = -0.9351294541113719 ==> log prob of sentence so far: -35.654624921027775

3GRAM: dal
ENGLISH: P(l|da) = -1.0236157183331203 ==> log prob of sentence so far: -26.409525607601676
FRENCH: P(l|da) = -1.577305264308818 ==> log prob of sentence so far: -30.905120755739794
DUTCH: P(l|da) = -1.5520514709486002 ==> log prob of sentence so far: -32.053016708182795
PORTUGUESE: P(l|da) = -1.5545475806727962 ==> log prob of sentence so far: -37.089022657997546
SPANISH: P(l|da) = -1.338076945655183 ==> log prob of sentence so far: -36.99270186668296

3GRAM: alt
ENGLISH: P(t|al) = -1.4824057671423039 ==> log prob of sentence so far: -27.89193137474398
FRENCH: P(t|al) = -1.9682486120753984 ==> log prob of sentence so far: -32.873369367815194
DUTCH: P(t|al) = -1.2688709458566827 ==> log prob of sentence so far: -33.32188765403948
PORTUGUESE: P(t|al) = -1.266854536672318 ==> log prob of sentence so far: -38.355877194669866
SPANISH: P(t|al) = -1.4340885814659594 ==> log prob of sentence so far: -38.426790448148914

3GRAM: lti
ENGLISH: P(i|lt) = -1.1668350597737296 ==> log prob of sentence so far: -29.058766434517707
FRENCH: P(i|lt) = -0.980260093930792 ==> log prob of sentence so far: -33.85362946174599
DUTCH: P(i|lt) = -0.5706154328841102 ==> log prob of sentence so far: -33.89250308692359
PORTUGUESE: P(i|lt) = -0.6762813545020594 ==> log prob of sentence so far: -39.032158549171925
SPANISH: P(i|lt) = -0.8669183088732435 ==> log prob of sentence so far: -39.29370875702216

3GRAM: tim
ENGLISH: P(m|ti) = -0.9995097854261241 ==> log prob of sentence so far: -30.05827621994383
FRENCH: P(m|ti) = -1.3090752774479892 ==> log prob of sentence so far: -35.16270473919398
DUTCH: P(m|ti) = -1.9497131489800001 ==> log prob of sentence so far: -35.84221623590359
PORTUGUESE: P(m|ti) = -0.8401611331090408 ==> log prob of sentence so far: -39.87231968228097
SPANISH: P(m|ti) = -1.1940874788118876 ==> log prob of sentence so far: -40.48779623583405

3GRAM: ime
ENGLISH: P(e|im) = -0.59228676711466 ==> log prob of sentence so far: -30.650562987058493
FRENCH: P(e|im) = -0.4825506946556722 ==> log prob of sentence so far: -35.64525543384965
DUTCH: P(e|im) = -0.5969860979128019 ==> log prob of sentence so far: -36.4392023338164
PORTUGUESE: P(e|im) = -0.4923090626768416 ==> log prob of sentence so far: -40.364628744957805
SPANISH: P(e|im) = -0.7059108112448308 ==> log prob of sentence so far: -41.19370704707888

3GRAM: met
ENGLISH: P(t|me) = -0.9003943109516163 ==> log prob of sentence so far: -31.550957298010108
FRENCH: P(t|me) = -1.0323634528119021 ==> log prob of sentence so far: -36.67761888666155
DUTCH: P(t|me) = -0.5764402912483229 ==> log prob of sentence so far: -37.01564262506472
PORTUGUESE: P(t|me) = -1.520631269555315 ==> log prob of sentence so far: -41.88526001451312
SPANISH: P(t|me) = -1.3902634557856175 ==> log prob of sentence so far: -42.583970502864496

3GRAM: etr
ENGLISH: P(r|et) = -1.4442913800325938 ==> log prob of sentence so far: -32.9952486780427
FRENCH: P(r|et) = -0.8432234697875669 ==> log prob of sentence so far: -37.520842356449116
DUTCH: P(r|et) = -1.4688892204663002 ==> log prob of sentence so far: -38.48453184553102
PORTUGUESE: P(r|et) = -1.0511533132904527 ==> log prob of sentence so far: -42.93641332780358
SPANISH: P(r|et) = -0.9255979704547319 ==> log prob of sentence so far: -43.50956847331923

3GRAM: tre
ENGLISH: P(e|tr) = -0.7342738835794658 ==> log prob of sentence so far: -33.72952256162217
FRENCH: P(e|tr) = -0.21701372909853026 ==> log prob of sentence so far: -37.73785608554765
DUTCH: P(e|tr) = -0.5258700726334268 ==> log prob of sentence so far: -39.01040191816445
PORTUGUESE: P(e|tr) = -0.6297563417389637 ==> log prob of sentence so far: -43.56616966954254
SPANISH: P(e|tr) = -0.7479498252168811 ==> log prob of sentence so far: -44.257518298536105

3GRAM: res
ENGLISH: P(s|re) = -0.8764823074851932 ==> log prob of sentence so far: -34.60600486910736
FRENCH: P(s|re) = -0.6175517891960948 ==> log prob of sentence so far: -38.35540787474374
DUTCH: P(s|re) = -1.9299045396772672 ==> log prob of sentence so far: -40.940306457841714
PORTUGUESE: P(s|re) = -0.603780349096915 ==> log prob of sentence so far: -44.169950018639454
SPANISH: P(s|re) = -0.6496047969774809 ==> log prob of sentence so far: -44.90712309551358

3GRAM: esr
ENGLISH: P(r|es) = -2.483916676013349 ==> log prob of sentence so far: -37.08992154512071
FRENCH: P(r|es) = -1.609612397362749 ==> log prob of sentence so far: -39.965020272106486
DUTCH: P(r|es) = -3.0825846253066684 ==> log prob of sentence so far: -44.02289108314838
PORTUGUESE: P(r|es) = -2.330945493040195 ==> log prob of sentence so far: -46.50089551167965
SPANISH: P(r|es) = -2.296086601506725 ==> log prob of sentence so far: -47.203209697020306

3GRAM: sra
ENGLISH: P(a|sr) = -0.8566512503313181 ==> log prob of sentence so far: -37.94657279545203
FRENCH: P(a|sr) = -0.7146626540859583 ==> log prob of sentence so far: -40.67968292619244
DUTCH: P(a|sr) = -0.6989928039128404 ==> log prob of sentence so far: -44.72188388706122
PORTUGUESE: P(a|sr) = -0.6094920809375992 ==> log prob of sentence so far: -47.11038759261725
SPANISH: P(a|sr) = -0.7935298475714477 ==> log prob of sentence so far: -47.996739544591755

3GRAM: rad
ENGLISH: P(d|ra) = -1.5361497219362987 ==> log prob of sentence so far: -39.482722517388325
FRENCH: P(d|ra) = -1.6657900891504356 ==> log prob of sentence so far: -42.345473015342876
DUTCH: P(d|ra) = -1.3249681365099149 ==> log prob of sentence so far: -46.046852023571134
PORTUGUESE: P(d|ra) = -1.0987635589173659 ==> log prob of sentence so far: -48.20915115153462
SPANISH: P(d|ra) = -1.008051143806687 ==> log prob of sentence so far: -49.004790688398444

3GRAM: ada
ENGLISH: P(a|ad) = -1.0177627074937854 ==> log prob of sentence so far: -40.50048522488211
FRENCH: P(a|ad) = -1.2284276829116236 ==> log prob of sentence so far: -43.5739006982545
DUTCH: P(a|ad) = -1.2985413860215056 ==> log prob of sentence so far: -47.34539340959264
PORTUGUESE: P(a|ad) = -0.6141181501287987 ==> log prob of sentence so far: -48.823269301663416
SPANISH: P(a|ad) = -0.7885334919240508 ==> log prob of sentence so far: -49.79332418032249

3GRAM: dar
ENGLISH: P(r|da) = -1.0432112685011026 ==> log prob of sentence so far: -41.543696493383216
FRENCH: P(r|da) = -1.714143006852568 ==> log prob of sentence so far: -45.288043705107064
DUTCH: P(r|da) = -2.4842954252327636 ==> log prob of sentence so far: -49.829688834825404
PORTUGUESE: P(r|da) = -1.3426181668684898 ==> log prob of sentence so far: -50.165887468531906
SPANISH: P(r|da) = -1.020809965516505 ==> log prob of sentence so far: -50.814134145839

According to the 3gram model, the sentence is in English
----------------
4GRAM MODEL:

4GRAM: ntsb
ENGLISH: P(b|nts) = -1.392110595429333 ==> log prob of sentence so far: -1.392110595429333
FRENCH: P(b|nts) = -2.0245573171144384 ==> log prob of sentence so far: -2.0245573171144384
DUTCH: P(b|nts) = -5.845114170652589 ==> log prob of sentence so far: -5.845114170652589
PORTUGUESE: P(b|nts) = -4.001127700277035 ==> log prob of sentence so far: -4.001127700277035
SPANISH: P(b|nts) = -4.001127700277035 ==> log prob of sentence so far: -4.001127700277035

4GRAM: tsbe
ENGLISH: P(e|tsb) = -0.8029827345544457 ==> log prob of sentence so far: -2.1950933299837785
FRENCH: P(e|tsb) = -5.230515337808497 ==> log prob of sentence so far: -7.255072654922936
DUTCH: P(e|tsb) = -0.32226871827548087 ==> log prob of sentence so far: -6.16738288892807
PORTUGUESE: P(e|tsb) = -1.4313637641589874 ==> log prob of sentence so far: -5.432491464436023
SPANISH: P(e|tsb) = -1.4313637641589874 ==> log prob of sentence so far: -5.432491464436023

4GRAM: sbex
ENGLISH: P(x|sbe) = -6.523749847533894 ==> log prob of sentence so far: -8.718843177517673
FRENCH: P(x|sbe) = -5.7160250578160445 ==> log prob of sentence so far: -12.971097712738981
DUTCH: P(x|sbe) = -5.98228299502251 ==> log prob of sentence so far: -12.14966588395058
PORTUGUESE: P(x|sbe) = -5.579813310485899 ==> log prob of sentence so far: -11.012304774921923
SPANISH: P(x|sbe) = -4.778339403895484 ==> log prob of sentence so far: -10.210830868331506

4GRAM: bexh
ENGLISH: P(h|bex) = -4.301594211829356 ==> log prob of sentence so far: -13.02043738934703
FRENCH: P(h|bex) = -1.4313637641589874 ==> log prob of sentence so far: -14.402461476897969
DUTCH: P(h|bex) = -0.0010842730001722966 ==> log prob of sentence so far: -12.150750156950751
PORTUGUESE: P(h|bex) = -4.301594211829356 ==> log prob of sentence so far: -15.31389898675128
SPANISH: P(h|bex) = -1.4313637641589874 ==> log prob of sentence so far: -11.642194632490494

4GRAM: exho
ENGLISH: P(o|exh) = -1.5562904380704103 ==> log prob of sentence so far: -14.576727827417441
FRENCH: P(o|exh) = -4.301594211829356 ==> log prob of sentence so far: -18.704055688727326
DUTCH: P(o|exh) = -4.477497480263115 ==> log prob of sentence so far: -16.628247637213867
PORTUGUESE: P(o|exh) = -4.301594211829356 ==> log prob of sentence so far: -19.615493198580637
SPANISH: P(o|exh) = -0.30129048119100055 ==> log prob of sentence so far: -11.943485113681493

4GRAM: xhor
ENGLISH: P(r|xho) = -0.47745405298625254 ==> log prob of sentence so far: -15.054181880403693
FRENCH: P(r|xho) = -1.041451897174737 ==> log prob of sentence so far: -19.745507585902065
DUTCH: P(r|xho) = -1.4313637641589874 ==> log prob of sentence so far: -18.059611401372855
PORTUGUESE: P(r|xho) = -1.4313637641589874 ==> log prob of sentence so far: -21.046856962739625
SPANISH: P(r|xho) = -5.425019841305206E-4 ==> log prob of sentence so far: -11.944027615665624

4GRAM: hort
ENGLISH: P(t|hor) = -0.7552903537951379 ==> log prob of sentence so far: -15.80947223419883
FRENCH: P(t|hor) = -6.247979645781918 ==> log prob of sentence so far: -25.993487231683982
DUTCH: P(t|hor) = -5.204190549775811 ==> log prob of sentence so far: -23.263801951148665
PORTUGUESE: P(t|hor) = -1.5622913027978247 ==> log prob of sentence so far: -22.60914826553745
SPANISH: P(t|hor) = -1.5058632600524657 ==> log prob of sentence so far: -13.44989087571809

4GRAM: orte
ENGLISH: P(e|ort) = -1.376316270024048 ==> log prob of sentence so far: -17.185788504222877
FRENCH: P(e|ort) = -0.31966187150521086 ==> log prob of sentence so far: -26.313149103189193
DUTCH: P(e|ort) = -0.6663037867991445 ==> log prob of sentence so far: -23.93010573794781
PORTUGUESE: P(e|ort) = -0.498388058607702 ==> log prob of sentence so far: -23.10753632414515
SPANISH: P(e|ort) = -0.6345940714596134 ==> log prob of sentence so far: -14.084484947177703

4GRAM: rtel
ENGLISH: P(l|rte) = -2.0225549249516086 ==> log prob of sentence so far: -19.208343429174487
FRENCH: P(l|rte) = -1.316270358004736 ==> log prob of sentence so far: -27.62941946119393
DUTCH: P(l|rte) = -0.7317657722128629 ==> log prob of sentence so far: -24.661871510160672
PORTUGUESE: P(l|rte) = -1.6180440416352189 ==> log prob of sentence so far: -24.72558036578037
SPANISH: P(l|rte) = -1.223584065783102 ==> log prob of sentence so far: -15.308069012960805

4GRAM: teli
ENGLISH: P(i|tel) = -1.6483577541358863 ==> log prob of sentence so far: -20.856701183310374
FRENCH: P(i|tel) = -1.2671724055742295 ==> log prob of sentence so far: -28.89659186676816
DUTCH: P(i|tel) = -0.6408047682508192 ==> log prob of sentence so far: -25.302676278411493
PORTUGUESE: P(i|tel) = -1.301034338442327 ==> log prob of sentence so far: -26.0266147042227
SPANISH: P(i|tel) = -1.4244147707817412 ==> log prob of sentence so far: -16.732483783742545

4GRAM: elin
ENGLISH: P(n|eli) = -0.6091616190194756 ==> log prob of sentence so far: -21.46586280232985
FRENCH: P(n|eli) = -0.9499337096123798 ==> log prob of sentence so far: -29.84652557638054
DUTCH: P(n|eli) = -0.8939473705762692 ==> log prob of sentence so far: -26.196623648987764
PORTUGUESE: P(n|eli) = -0.9005018697679686 ==> log prob of sentence so far: -26.927116573990666
SPANISH: P(n|eli) = -0.7284679952466426 ==> log prob of sentence so far: -17.460951778989187

4GRAM: lins
ENGLISH: P(s|lin) = -1.8334645171443396 ==> log prob of sentence so far: -23.299327319474187
FRENCH: P(s|lin) = -1.0114316802416976 ==> log prob of sentence so far: -30.857957256622235
DUTCH: P(s|lin) = -1.5660611779971272 ==> log prob of sentence so far: -27.76268482698489
PORTUGUESE: P(s|lin) = -5.929432209812925 ==> log prob of sentence so far: -32.85654878380359
SPANISH: P(s|lin) = -1.540952075117732 ==> log prob of sentence so far: -19.00190385410692

4GRAM: inst
ENGLISH: P(t|ins) = -0.40508483996920586 ==> log prob of sentence so far: -23.704412159443393
FRENCH: P(t|ins) = -0.7348454033147602 ==> log prob of sentence so far: -31.592802659936996
DUTCH: P(t|ins) = -0.3208450020369753 ==> log prob of sentence so far: -28.083529829021867
PORTUGUESE: P(t|ins) = -0.2710854878449811 ==> log prob of sentence so far: -33.12763427164857
SPANISH: P(t|ins) = -0.4493252365981566 ==> log prob of sentence so far: -19.451229090705077

4GRAM: nsta
ENGLISH: P(a|nst) = -0.5193990275956609 ==> log prob of sentence so far: -24.223811187039054
FRENCH: P(a|nst) = -0.4399243037527535 ==> log prob of sentence so far: -32.03272696368975
DUTCH: P(a|nst) = -0.9393034121732292 ==> log prob of sentence so far: -29.022833241195094
PORTUGUESE: P(a|nst) = -0.1972973952852693 ==> log prob of sentence so far: -33.324931666933836
SPANISH: P(a|nst) = -0.10091359769055391 ==> log prob of sentence so far: -19.55214268839563

4GRAM: stal
ENGLISH: P(l|sta) = -1.407828517662807 ==> log prob of sentence so far: -25.63163970470186
FRENCH: P(l|sta) = -1.2086212176535522 ==> log prob of sentence so far: -33.2413481813433
DUTCH: P(l|sta) = -1.0616919490046999 ==> log prob of sentence so far: -30.084525190199795
PORTUGUESE: P(l|sta) = -1.70969208666002 ==> log prob of sentence so far: -35.034623753593856
SPANISH: P(l|sta) = -1.2556031564620365 ==> log prob of sentence so far: -20.807745844857667

4GRAM: tall
ENGLISH: P(l|tal) = -0.3813621810237527 ==> log prob of sentence so far: -26.013001885725615
FRENCH: P(l|tal) = -1.1238526777188806 ==> log prob of sentence so far: -34.36520085906218
DUTCH: P(l|tal) = -0.5770716673707453 ==> log prob of sentence so far: -30.66159685757054
PORTUGUESE: P(l|tal) = -2.250382918612966 ==> log prob of sentence so far: -37.28500667220682
SPANISH: P(l|tal) = -0.788878620120593 ==> log prob of sentence so far: -21.59662446497826

4GRAM: alla
ENGLISH: P(a|all) = -1.136179195239924 ==> log prob of sentence so far: -27.14918108096554
FRENCH: P(a|all) = -0.4781207773420359 ==> log prob of sentence so far: -34.84332163640421
DUTCH: P(a|all) = -2.0530717561993206 ==> log prob of sentence so far: -32.71466861376986
PORTUGUESE: P(a|all) = -0.8856047030196501 ==> log prob of sentence so far: -38.17061137522647
SPANISH: P(a|all) = -0.5611035178892726 ==> log prob of sentence so far: -22.15772798286753

4GRAM: llat
ENGLISH: P(t|lla) = -0.9201995372541314 ==> log prob of sentence so far: -28.06938061821967
FRENCH: P(t|lla) = -1.3891662742878348 ==> log prob of sentence so far: -36.23248791069205
DUTCH: P(t|lla) = -0.9234901641142194 ==> log prob of sentence so far: -33.63815877788408
PORTUGUESE: P(t|lla) = -1.3458426658922267 ==> log prob of sentence so far: -39.5164540411187
SPANISH: P(t|lla) = -1.5682007308844554 ==> log prob of sentence so far: -23.725928713751987

4GRAM: lati
ENGLISH: P(i|lat) = -0.49801347176327615 ==> log prob of sentence so far: -28.567394089982947
FRENCH: P(i|lat) = -0.6448803293112124 ==> log prob of sentence so far: -36.877368240003264
DUTCH: P(i|lat) = -1.5797801680483439 ==> log prob of sentence so far: -35.217938945932424
PORTUGUESE: P(i|lat) = -0.634261497189732 ==> log prob of sentence so far: -40.15071553830843
SPANISH: P(i|lat) = -0.7140388891036105 ==> log prob of sentence so far: -24.439967602855596

4GRAM: atio
ENGLISH: P(o|ati) = -0.510533672433806 ==> log prob of sentence so far: -29.077927762416753
FRENCH: P(o|ati) = -0.2576063791680767 ==> log prob of sentence so far: -37.13497461917134
DUTCH: P(o|ati) = -1.8061670813197126 ==> log prob of sentence so far: -37.02410602725214
PORTUGUESE: P(o|ati) = -6.193131836535509 ==> log prob of sentence so far: -46.34384737484394
SPANISH: P(o|ati) = -1.9444673736354725 ==> log prob of sentence so far: -26.384434976491068

4GRAM: tion
ENGLISH: P(n|tio) = -0.02086451325067738 ==> log prob of sentence so far: -29.09879227566743
FRENCH: P(n|tio) = -0.0029180946494629205 ==> log prob of sentence so far: -37.137892713820804
DUTCH: P(n|tio) = -1.3569412831467944E-4 ==> log prob of sentence so far: -37.024241721380456
PORTUGUESE: P(n|tio) = -5.0414953244516 ==> log prob of sentence so far: -51.38534269929554
SPANISH: P(n|tio) = -0.9128584222712043 ==> log prob of sentence so far: -27.29729339876227

4GRAM: iond
ENGLISH: P(d|ion) = -2.221735580860006 ==> log prob of sentence so far: -31.320527856527438
FRENCH: P(d|ion) = -0.7700855235316844 ==> log prob of sentence so far: -37.90797823735249
DUTCH: P(d|ion) = -1.2787695993812975 ==> log prob of sentence so far: -38.303011320761755
PORTUGUESE: P(d|ion) = -1.5910501317500407 ==> log prob of sentence so far: -52.97639283104558
SPANISH: P(d|ion) = -0.7295231184935463 ==> log prob of sentence so far: -28.026816517255817

4GRAM: onda
ENGLISH: P(a|ond) = -1.4070408552247116 ==> log prob of sentence so far: -32.72756871175215
FRENCH: P(a|ond) = -1.2346862071044715 ==> log prob of sentence so far: -39.14266444445696
DUTCH: P(a|ond) = -1.5549212532276064 ==> log prob of sentence so far: -39.85793257398936
PORTUGUESE: P(a|ond) = -0.8404822721594317 ==> log prob of sentence so far: -53.816875103205014
SPANISH: P(a|ond) = -1.3971497463297133 ==> log prob of sentence so far: -29.42396626358553

4GRAM: ndal
ENGLISH: P(l|nda) = -0.7672358965678668 ==> log prob of sentence so far: -33.49480460832002
FRENCH: P(l|nda) = -1.5609970828037056 ==> log prob of sentence so far: -40.703661527260664
DUTCH: P(l|nda) = -1.5773701301863208 ==> log prob of sentence so far: -41.43530270417568
PORTUGUESE: P(l|nda) = -1.4913608182506213 ==> log prob of sentence so far: -55.30823592145563
SPANISH: P(l|nda) = -1.1749328755029949 ==> log prob of sentence so far: -30.598899139088527

4GRAM: dalt
ENGLISH: P(t|dal) = -2.0530672981013183 ==> log prob of sentence so far: -35.547871906421335
FRENCH: P(t|dal) = -5.8692469784582295 ==> log prob of sentence so far: -46.57290850571889
DUTCH: P(t|dal) = -1.5797767396242324 ==> log prob of sentence so far: -43.01507944379991
PORTUGUESE: P(t|dal) = -1.7853049182517642 ==> log prob of sentence so far: -57.093540839707394
SPANISH: P(t|dal) = -1.1719399523482874 ==> log prob of sentence so far: -31.770839091436812

4GRAM: alti
ENGLISH: P(i|alt) = -0.9294217198706287 ==> log prob of sentence so far: -36.47729362629197
FRENCH: P(i|alt) = -1.3010365097066525 ==> log prob of sentence so far: -47.87394501542555
DUTCH: P(i|alt) = -0.2976844386454568 ==> log prob of sentence so far: -43.31276388244537
PORTUGUESE: P(i|alt) = -0.8412104543431056 ==> log prob of sentence so far: -57.9347512940505
SPANISH: P(i|alt) = -1.4857201207837594 ==> log prob of sentence so far: -33.25655921222057

4GRAM: ltim
ENGLISH: P(m|lti) = -0.5598722249840632 ==> log prob of sentence so far: -37.03716585127603
FRENCH: P(m|lti) = -5.255335231998303 ==> log prob of sentence so far: -53.12928024742385
DUTCH: P(m|lti) = -5.832525517766038 ==> log prob of sentence so far: -49.145289400211404
PORTUGUESE: P(m|lti) = -0.14931749869293073 ==> log prob of sentence so far: -58.08406879274343
SPANISH: P(m|lti) = -0.33818876313745627 ==> log prob of sentence so far: -33.59474797535803

4GRAM: time
ENGLISH: P(e|tim) = -0.07698008595248218 ==> log prob of sentence so far: -37.114145937228514
FRENCH: P(e|tim) = -0.293795972186736 ==> log prob of sentence so far: -53.423076219610586
DUTCH: P(e|tim) = -5.176166530242563 ==> log prob of sentence so far: -54.321455930453965
PORTUGUESE: P(e|tim) = -0.4106283596007626 ==> log prob of sentence so far: -58.494697152344195
SPANISH: P(e|tim) = -2.0170007692482503 ==> log prob of sentence so far: -35.61174874460628

4GRAM: imet
ENGLISH: P(t|ime) = -0.9704625752774395 ==> log prob of sentence so far: -38.08460851250595
FRENCH: P(t|ime) = -0.8184476242559404 ==> log prob of sentence so far: -54.241523843866524
DUTCH: P(t|ime) = -0.7781719302854563 ==> log prob of sentence so far: -55.099627860739425
PORTUGUESE: P(t|ime) = -1.66900357549328 ==> log prob of sentence so far: -60.16370072783747
SPANISH: P(t|ime) = -1.6812346024914822 ==> log prob of sentence so far: -37.29298334709776

4GRAM: metr
ENGLISH: P(r|met) = -1.4858445388172687 ==> log prob of sentence so far: -39.57045305132322
FRENCH: P(r|met) = -0.2499451145940847 ==> log prob of sentence so far: -54.49146895846061
DUTCH: P(r|met) = -2.0175509413066335 ==> log prob of sentence so far: -57.117178802046055
PORTUGUESE: P(r|met) = -1.0934312113268347 ==> log prob of sentence so far: -61.25713193916431
SPANISH: P(r|met) = -0.9067005478211597 ==> log prob of sentence so far: -38.19968389491892

4GRAM: etre
ENGLISH: P(e|etr) = -0.7088817027782865 ==> log prob of sentence so far: -40.279334754101505
FRENCH: P(e|etr) = -0.2114781116106145 ==> log prob of sentence so far: -54.702947070071225
DUTCH: P(e|etr) = -0.6277039466533196 ==> log prob of sentence so far: -57.744882748699375
PORTUGUESE: P(e|etr) = -0.9031008440976435 ==> log prob of sentence so far: -62.160232783261954
SPANISH: P(e|etr) = -0.8068024659650413 ==> log prob of sentence so far: -39.00648636088396

4GRAM: tres
ENGLISH: P(s|tre) = -0.9826660482160143 ==> log prob of sentence so far: -41.262000802317516
FRENCH: P(s|tre) = -0.5502003514040471 ==> log prob of sentence so far: -55.25314742147527
DUTCH: P(s|tre) = -6.439336799867772 ==> log prob of sentence so far: -64.18421954856714
PORTUGUESE: P(s|tre) = -0.7781552715990597 ==> log prob of sentence so far: -62.938388054861015
SPANISH: P(s|tre) = -0.6763552199042413 ==> log prob of sentence so far: -39.6828415807882

4GRAM: resr
ENGLISH: P(r|res) = -3.181515089946481 ==> log prob of sentence so far: -44.443515892263996
FRENCH: P(r|res) = -1.947071583291832 ==> log prob of sentence so far: -57.2002190047671
DUTCH: P(r|res) = -5.612811396472215 ==> log prob of sentence so far: -69.79703094503935
PORTUGUESE: P(r|res) = -6.755114250864444 ==> log prob of sentence so far: -69.69350230572546
SPANISH: P(r|res) = -2.1016568568304996 ==> log prob of sentence so far: -41.7844984376187

4GRAM: esra
ENGLISH: P(a|esr) = -1.1356756655110916 ==> log prob of sentence so far: -45.57919155777509
FRENCH: P(a|esr) = -0.6585430945932051 ==> log prob of sentence so far: -57.858762099360305
DUTCH: P(a|esr) = -4.301594211829356 ==> log prob of sentence so far: -74.0986251568687
PORTUGUESE: P(a|esr) = -0.676742178103865 ==> log prob of sentence so far: -70.37024448382932
SPANISH: P(a|esr) = -0.801654821921208 ==> log prob of sentence so far: -42.58615325953991

4GRAM: srad
ENGLISH: P(d|sra) = -1.122226325536255 ==> log prob of sentence so far: -46.70141788331134
FRENCH: P(d|sra) = -2.326297759872308 ==> log prob of sentence so far: -60.18505985923262
DUTCH: P(d|sra) = -4.903231109767353 ==> log prob of sentence so far: -79.00185626663605
PORTUGUESE: P(d|sra) = -5.462436932900274 ==> log prob of sentence so far: -75.8326814167296
SPANISH: P(d|sra) = -5.568232240985412 ==> log prob of sentence so far: -48.15438550052532

4GRAM: rada
ENGLISH: P(a|rad) = -1.3553887224147885 ==> log prob of sentence so far: -48.05680660572613
FRENCH: P(a|rad) = -0.7210649779133701 ==> log prob of sentence so far: -60.90612483714599
DUTCH: P(a|rad) = -1.8692035511813665 ==> log prob of sentence so far: -80.87105981781743
PORTUGUESE: P(a|rad) = -0.5201589853758852 ==> log prob of sentence so far: -76.35284040210549
SPANISH: P(a|rad) = -0.7476484676683693 ==> log prob of sentence so far: -48.90203396819369

4GRAM: adar
ENGLISH: P(r|ada) = -1.1012333038374555 ==> log prob of sentence so far: -49.158039909563584
FRENCH: P(r|ada) = -5.8692469784582295 ==> log prob of sentence so far: -66.77537181560422
DUTCH: P(r|ada) = -1.8450707433757263 ==> log prob of sentence so far: -82.71613056119315
PORTUGUESE: P(r|ada) = -1.437173712060681 ==> log prob of sentence so far: -77.79001411416617
SPANISH: P(r|ada) = -1.1959003647051434 ==> log prob of sentence so far: -50.09793433289884

According to the 4gram model, the sentence is in English
----------------
