La sonde InSight de la NASA a atterri.

1GRAM MODEL:

1GRAM: l
ENGLISH: P(l) = -1.3477688854210008 ==> log prob of sentence so far: -1.3477688854210008
FRENCH: P(l) = -1.2682124802855221 ==> log prob of sentence so far: -1.2682124802855221
DUTCH: P(l) = -1.4248882579214401 ==> log prob of sentence so far: -1.4248882579214401
PORTUGUESE: P(l) = -1.4370332293417125 ==> log prob of sentence so far: -1.4370332293417125
SPANISH: P(l) = -1.2802204153542895 ==> log prob of sentence so far: -1.2802204153542895

1GRAM: a
ENGLISH: P(a) = -1.086788681042454 ==> log prob of sentence so far: -2.4345575664634547
FRENCH: P(a) = -1.076353095105509 ==> log prob of sentence so far: -2.344565575391031
DUTCH: P(a) = -1.115393510092554 ==> log prob of sentence so far: -2.540281768013994
PORTUGUESE: P(a) = -0.8319048847689273 ==> log prob of sentence so far: -2.26893811411064
SPANISH: P(a) = -0.902025778564821 ==> log prob of sentence so far: -2.1822461939191107

1GRAM: s
ENGLISH: P(s) = -1.1711410127286013 ==> log prob of sentence so far: -3.605698579192056
FRENCH: P(s) = -1.064447714889656 ==> log prob of sentence so far: -3.4090132902806873
DUTCH: P(s) = -1.460439695007922 ==> log prob of sentence so far: -4.000721463021916
PORTUGUESE: P(s) = -1.1129010285568741 ==> log prob of sentence so far: -3.381839142667514
SPANISH: P(s) = -1.1432621669802536 ==> log prob of sentence so far: -3.3255083608993643

1GRAM: o
ENGLISH: P(o) = -1.1377837605854946 ==> log prob of sentence so far: -4.74348233977755
FRENCH: P(o) = -1.2743433303176548 ==> log prob of sentence so far: -4.683356620598342
DUTCH: P(o) = -1.1998196708165811 ==> log prob of sentence so far: -5.200541133838497
PORTUGUESE: P(o) = -0.982146444324746 ==> log prob of sentence so far: -4.36398558699226
SPANISH: P(o) = -0.9966351897105246 ==> log prob of sentence so far: -4.322143550609889

1GRAM: n
ENGLISH: P(n) = -1.1615969374026291 ==> log prob of sentence so far: -5.90507927718018
FRENCH: P(n) = -1.1226374766145046 ==> log prob of sentence so far: -5.805994097212847
DUTCH: P(n) = -0.9654264661937975 ==> log prob of sentence so far: -6.165967600032294
PORTUGUESE: P(n) = -1.3242854314663415 ==> log prob of sentence so far: -5.688271018458601
SPANISH: P(n) = -1.1498393665103084 ==> log prob of sentence so far: -5.471982917120197

1GRAM: d
ENGLISH: P(d) = -1.396179917541683 ==> log prob of sentence so far: -7.301259194721863
FRENCH: P(d) = -1.4202616779892512 ==> log prob of sentence so far: -7.226255775202098
DUTCH: P(d) = -1.2011871346521803 ==> log prob of sentence so far: -7.367154734684474
PORTUGUESE: P(d) = -1.3354060130264946 ==> log prob of sentence so far: -7.023677031485096
SPANISH: P(d) = -1.290763837647315 ==> log prob of sentence so far: -6.762746754767512

1GRAM: e
ENGLISH: P(e) = -0.9100712180599071 ==> log prob of sentence so far: -8.21133041278177
FRENCH: P(e) = -0.7669658145224565 ==> log prob of sentence so far: -7.993221589724555
DUTCH: P(e) = -0.7296525128280946 ==> log prob of sentence so far: -8.096807247512569
PORTUGUESE: P(e) = -0.8804550652146593 ==> log prob of sentence so far: -7.904132096699755
SPANISH: P(e) = -0.8816549652595953 ==> log prob of sentence so far: -7.6444017200271075

1GRAM: i
ENGLISH: P(i) = -1.162525480273911 ==> log prob of sentence so far: -9.37385589305568
FRENCH: P(i) = -1.1352064426688435 ==> log prob of sentence so far: -9.128428032393398
DUTCH: P(i) = -1.2262490424361108 ==> log prob of sentence so far: -9.32305628994868
PORTUGUESE: P(i) = -1.2396988999998464 ==> log prob of sentence so far: -9.1438309966996
SPANISH: P(i) = -1.2231544531761491 ==> log prob of sentence so far: -8.867556173203257

1GRAM: n
ENGLISH: P(n) = -1.1615969374026291 ==> log prob of sentence so far: -10.53545283045831
FRENCH: P(n) = -1.1226374766145046 ==> log prob of sentence so far: -10.251065509007903
DUTCH: P(n) = -0.9654264661937975 ==> log prob of sentence so far: -10.288482756142477
PORTUGUESE: P(n) = -1.3242854314663415 ==> log prob of sentence so far: -10.468116428165942
SPANISH: P(n) = -1.1498393665103084 ==> log prob of sentence so far: -10.017395539713565

1GRAM: s
ENGLISH: P(s) = -1.1711410127286013 ==> log prob of sentence so far: -11.70659384318691
FRENCH: P(s) = -1.064447714889656 ==> log prob of sentence so far: -11.31551322389756
DUTCH: P(s) = -1.460439695007922 ==> log prob of sentence so far: -11.7489224511504
PORTUGUESE: P(s) = -1.1129010285568741 ==> log prob of sentence so far: -11.581017456722815
SPANISH: P(s) = -1.1432621669802536 ==> log prob of sentence so far: -11.160657706693819

1GRAM: i
ENGLISH: P(i) = -1.162525480273911 ==> log prob of sentence so far: -12.869119323460822
FRENCH: P(i) = -1.1352064426688435 ==> log prob of sentence so far: -12.450719666566403
DUTCH: P(i) = -1.2262490424361108 ==> log prob of sentence so far: -12.97517149358651
PORTUGUESE: P(i) = -1.2396988999998464 ==> log prob of sentence so far: -12.820716356722661
SPANISH: P(i) = -1.2231544531761491 ==> log prob of sentence so far: -12.383812159869969

1GRAM: g
ENGLISH: P(g) = -1.660068197743731 ==> log prob of sentence so far: -14.529187521204554
FRENCH: P(g) = -2.0284572462247623 ==> log prob of sentence so far: -14.479176912791166
DUTCH: P(g) = -1.4839738919024508 ==> log prob of sentence so far: -14.459145385488961
PORTUGUESE: P(g) = -1.9281927529386005 ==> log prob of sentence so far: -14.748909109661263
SPANISH: P(g) = -1.9668935166461363 ==> log prob of sentence so far: -14.350705676516105

1GRAM: h
ENGLISH: P(h) = -1.180274162400034 ==> log prob of sentence so far: -15.709461683604587
FRENCH: P(h) = -2.1056297044472685 ==> log prob of sentence so far: -16.584806617238435
DUTCH: P(h) = -1.4907856078212052 ==> log prob of sentence so far: -15.949930993310167
PORTUGUESE: P(h) = -1.8092147133299747 ==> log prob of sentence so far: -16.558123822991238
SPANISH: P(h) = -1.8922107698506663 ==> log prob of sentence so far: -16.24291644636677

1GRAM: t
ENGLISH: P(t) = -1.0342236377842724 ==> log prob of sentence so far: -16.74368532138886
FRENCH: P(t) = -1.1659667480967535 ==> log prob of sentence so far: -17.75077336533519
DUTCH: P(t) = -1.2498840127620319 ==> log prob of sentence so far: -17.1998150060722
PORTUGUESE: P(t) = -1.3798331462051736 ==> log prob of sentence so far: -17.93795696919641
SPANISH: P(t) = -1.4035916054876783 ==> log prob of sentence so far: -17.646508051854447

1GRAM: d
ENGLISH: P(d) = -1.396179917541683 ==> log prob of sentence so far: -18.139865238930543
FRENCH: P(d) = -1.4202616779892512 ==> log prob of sentence so far: -19.17103504332444
DUTCH: P(d) = -1.2011871346521803 ==> log prob of sentence so far: -18.40100214072438
PORTUGUESE: P(d) = -1.3354060130264946 ==> log prob of sentence so far: -19.273362982222906
SPANISH: P(d) = -1.290763837647315 ==> log prob of sentence so far: -18.937271889501762

1GRAM: e
ENGLISH: P(e) = -0.9100712180599071 ==> log prob of sentence so far: -19.04993645699045
FRENCH: P(e) = -0.7669658145224565 ==> log prob of sentence so far: -19.938000857846898
DUTCH: P(e) = -0.7296525128280946 ==> log prob of sentence so far: -19.130654653552476
PORTUGUESE: P(e) = -0.8804550652146593 ==> log prob of sentence so far: -20.153818047437564
SPANISH: P(e) = -0.8816549652595953 ==> log prob of sentence so far: -19.818926854761358

1GRAM: l
ENGLISH: P(l) = -1.3477688854210008 ==> log prob of sentence so far: -20.397705342411452
FRENCH: P(l) = -1.2682124802855221 ==> log prob of sentence so far: -21.20621333813242
DUTCH: P(l) = -1.4248882579214401 ==> log prob of sentence so far: -20.555542911473918
PORTUGUESE: P(l) = -1.4370332293417125 ==> log prob of sentence so far: -21.590851276779276
SPANISH: P(l) = -1.2802204153542895 ==> log prob of sentence so far: -21.099147270115648

1GRAM: a
ENGLISH: P(a) = -1.086788681042454 ==> log prob of sentence so far: -21.484494023453905
FRENCH: P(a) = -1.076353095105509 ==> log prob of sentence so far: -22.282566433237932
DUTCH: P(a) = -1.115393510092554 ==> log prob of sentence so far: -21.670936421566473
PORTUGUESE: P(a) = -0.8319048847689273 ==> log prob of sentence so far: -22.422756161548204
SPANISH: P(a) = -0.902025778564821 ==> log prob of sentence so far: -22.001173048680467

1GRAM: n
ENGLISH: P(n) = -1.1615969374026291 ==> log prob of sentence so far: -22.646090960856533
FRENCH: P(n) = -1.1226374766145046 ==> log prob of sentence so far: -23.405203909852435
DUTCH: P(n) = -0.9654264661937975 ==> log prob of sentence so far: -22.63636288776027
PORTUGUESE: P(n) = -1.3242854314663415 ==> log prob of sentence so far: -23.747041593014544
SPANISH: P(n) = -1.1498393665103084 ==> log prob of sentence so far: -23.151012415190777

1GRAM: a
ENGLISH: P(a) = -1.086788681042454 ==> log prob of sentence so far: -23.732879641898986
FRENCH: P(a) = -1.076353095105509 ==> log prob of sentence so far: -24.481557004957946
DUTCH: P(a) = -1.115393510092554 ==> log prob of sentence so far: -23.751756397852823
PORTUGUESE: P(a) = -0.8319048847689273 ==> log prob of sentence so far: -24.57894647778347
SPANISH: P(a) = -0.902025778564821 ==> log prob of sentence so far: -24.053038193755597

1GRAM: s
ENGLISH: P(s) = -1.1711410127286013 ==> log prob of sentence so far: -24.904020654627587
FRENCH: P(s) = -1.064447714889656 ==> log prob of sentence so far: -25.546004719847602
DUTCH: P(s) = -1.460439695007922 ==> log prob of sentence so far: -25.212196092860744
PORTUGUESE: P(s) = -1.1129010285568741 ==> log prob of sentence so far: -25.691847506340345
SPANISH: P(s) = -1.1432621669802536 ==> log prob of sentence so far: -25.19630036073585

1GRAM: a
ENGLISH: P(a) = -1.086788681042454 ==> log prob of sentence so far: -25.99080933567004
FRENCH: P(a) = -1.076353095105509 ==> log prob of sentence so far: -26.622357814953112
DUTCH: P(a) = -1.115393510092554 ==> log prob of sentence so far: -26.327589602953296
PORTUGUESE: P(a) = -0.8319048847689273 ==> log prob of sentence so far: -26.523752391109273
SPANISH: P(a) = -0.902025778564821 ==> log prob of sentence so far: -26.09832613930067

1GRAM: a
ENGLISH: P(a) = -1.086788681042454 ==> log prob of sentence so far: -27.077598016712493
FRENCH: P(a) = -1.076353095105509 ==> log prob of sentence so far: -27.698710910058622
DUTCH: P(a) = -1.115393510092554 ==> log prob of sentence so far: -27.442983113045848
PORTUGUESE: P(a) = -0.8319048847689273 ==> log prob of sentence so far: -27.3556572758782
SPANISH: P(a) = -0.902025778564821 ==> log prob of sentence so far: -27.00035191786549

1GRAM: a
ENGLISH: P(a) = -1.086788681042454 ==> log prob of sentence so far: -28.164386697754946
FRENCH: P(a) = -1.076353095105509 ==> log prob of sentence so far: -28.775064005164133
DUTCH: P(a) = -1.115393510092554 ==> log prob of sentence so far: -28.5583766231384
PORTUGUESE: P(a) = -0.8319048847689273 ==> log prob of sentence so far: -28.18756216064713
SPANISH: P(a) = -0.902025778564821 ==> log prob of sentence so far: -27.90237769643031

1GRAM: t
ENGLISH: P(t) = -1.0342236377842724 ==> log prob of sentence so far: -29.198610335539218
FRENCH: P(t) = -1.1659667480967535 ==> log prob of sentence so far: -29.941030753260886
DUTCH: P(t) = -1.2498840127620319 ==> log prob of sentence so far: -29.80826063590043
PORTUGUESE: P(t) = -1.3798331462051736 ==> log prob of sentence so far: -29.5673953068523
SPANISH: P(t) = -1.4035916054876783 ==> log prob of sentence so far: -29.30596930191799

1GRAM: t
ENGLISH: P(t) = -1.0342236377842724 ==> log prob of sentence so far: -30.23283397332349
FRENCH: P(t) = -1.1659667480967535 ==> log prob of sentence so far: -31.10699750135764
DUTCH: P(t) = -1.2498840127620319 ==> log prob of sentence so far: -31.058144648662463
PORTUGUESE: P(t) = -1.3798331462051736 ==> log prob of sentence so far: -30.947228453057473
SPANISH: P(t) = -1.4035916054876783 ==> log prob of sentence so far: -30.709560907405667

1GRAM: e
ENGLISH: P(e) = -0.9100712180599071 ==> log prob of sentence so far: -31.1429051913834
FRENCH: P(e) = -0.7669658145224565 ==> log prob of sentence so far: -31.873963315880097
DUTCH: P(e) = -0.7296525128280946 ==> log prob of sentence so far: -31.78779716149056
PORTUGUESE: P(e) = -0.8804550652146593 ==> log prob of sentence so far: -31.82768351827213
SPANISH: P(e) = -0.8816549652595953 ==> log prob of sentence so far: -31.591215872665263

1GRAM: r
ENGLISH: P(r) = -1.261272901312096 ==> log prob of sentence so far: -32.404178092695496
FRENCH: P(r) = -1.1840286390704569 ==> log prob of sentence so far: -33.05799195495055
DUTCH: P(r) = -1.2542028641369134 ==> log prob of sentence so far: -33.04200002562747
PORTUGUESE: P(r) = -1.1945470328532288 ==> log prob of sentence so far: -33.02223055112536
SPANISH: P(r) = -1.191045490967515 ==> log prob of sentence so far: -32.78226136363278

1GRAM: r
ENGLISH: P(r) = -1.261272901312096 ==> log prob of sentence so far: -33.66545099400759
FRENCH: P(r) = -1.1840286390704569 ==> log prob of sentence so far: -34.24202059402101
DUTCH: P(r) = -1.2542028641369134 ==> log prob of sentence so far: -34.29620288976439
PORTUGUESE: P(r) = -1.1945470328532288 ==> log prob of sentence so far: -34.21677758397859
SPANISH: P(r) = -1.191045490967515 ==> log prob of sentence so far: -33.973306854600295

1GRAM: i
ENGLISH: P(i) = -1.162525480273911 ==> log prob of sentence so far: -34.827976474281506
FRENCH: P(i) = -1.1352064426688435 ==> log prob of sentence so far: -35.37722703668985
DUTCH: P(i) = -1.2262490424361108 ==> log prob of sentence so far: -35.5224519322005
PORTUGUESE: P(i) = -1.2396988999998464 ==> log prob of sentence so far: -35.456476483978435
SPANISH: P(i) = -1.2231544531761491 ==> log prob of sentence so far: -35.196461307776445

According to the 1gram model, the sentence is in English
----------------
2GRAM MODEL:

2GRAM: la
ENGLISH: P(a|l) = -1.002845754477944 ==> log prob of sentence so far: -1.002845754477944
FRENCH: P(a|l) = -0.6764237550347996 ==> log prob of sentence so far: -0.6764237550347996
DUTCH: P(a|l) = -0.8491467397430521 ==> log prob of sentence so far: -0.8491467397430521
PORTUGUESE: P(a|l) = -0.7569922463492522 ==> log prob of sentence so far: -0.7569922463492522
SPANISH: P(a|l) = -0.5721136719799362 ==> log prob of sentence so far: -0.5721136719799362

2GRAM: as
ENGLISH: P(s|a) = -0.9959554224973615 ==> log prob of sentence so far: -1.9988011769753056
FRENCH: P(s|a) = -1.2507587495318242 ==> log prob of sentence so far: -1.9271825045666238
DUTCH: P(s|a) = -1.3356478739431539 ==> log prob of sentence so far: -2.184794613686206
PORTUGUESE: P(s|a) = -0.8896545678044128 ==> log prob of sentence so far: -1.646646814153665
SPANISH: P(s|a) = -0.8836063027500674 ==> log prob of sentence so far: -1.4557199747300036

2GRAM: so
ENGLISH: P(o|s) = -1.0111774823342699 ==> log prob of sentence so far: -3.009978659309575
FRENCH: P(o|s) = -1.215368805365552 ==> log prob of sentence so far: -3.142551309932176
DUTCH: P(o|s) = -1.5110287358391203 ==> log prob of sentence so far: -3.6958233495253263
PORTUGUESE: P(o|s) = -0.9954880145576683 ==> log prob of sentence so far: -2.6421348287113333
SPANISH: P(o|s) = -1.141156161564585 ==> log prob of sentence so far: -2.596876136294589

2GRAM: on
ENGLISH: P(n|o) = -0.8622085952026249 ==> log prob of sentence so far: -3.8721872545122
FRENCH: P(n|o) = -0.5205456677173079 ==> log prob of sentence so far: -3.663096977649484
DUTCH: P(n|o) = -0.8623470116246322 ==> log prob of sentence so far: -4.558170361149958
PORTUGUESE: P(n|o) = -1.1339351022385673 ==> log prob of sentence so far: -3.776069930949901
SPANISH: P(n|o) = -0.8457337450674146 ==> log prob of sentence so far: -3.4426098813620034

2GRAM: nd
ENGLISH: P(d|n) = -0.7555075870204362 ==> log prob of sentence so far: -4.627694841532636
FRENCH: P(d|n) = -1.0271635643855614 ==> log prob of sentence so far: -4.690260542035046
DUTCH: P(d|n) = -0.7084727897131017 ==> log prob of sentence so far: -5.26664315086306
PORTUGUESE: P(d|n) = -0.9232606120641835 ==> log prob of sentence so far: -4.699330543014084
SPANISH: P(d|n) = -0.8651467046625252 ==> log prob of sentence so far: -4.307756586024529

2GRAM: de
ENGLISH: P(e|d) = -0.8320988657918726 ==> log prob of sentence so far: -5.4597937073245095
FRENCH: P(e|d) = -0.290519189469436 ==> log prob of sentence so far: -4.980779731504482
DUTCH: P(e|d) = -0.2930997673019719 ==> log prob of sentence so far: -5.559742918165032
PORTUGUESE: P(e|d) = -0.42006324395929795 ==> log prob of sentence so far: -5.119393786973382
SPANISH: P(e|d) = -0.4535790367760275 ==> log prob of sentence so far: -4.761335622800557

2GRAM: ei
ENGLISH: P(i|e) = -1.4961656878694436 ==> log prob of sentence so far: -6.955959395193953
FRENCH: P(i|e) = -1.7565578790303706 ==> log prob of sentence so far: -6.737337610534853
DUTCH: P(i|e) = -1.4742673362450123 ==> log prob of sentence so far: -7.0340102544100445
PORTUGUESE: P(i|e) = -1.3450327856152111 ==> log prob of sentence so far: -6.464426572588593
SPANISH: P(i|e) = -2.075784000140471 ==> log prob of sentence so far: -6.837119622941028

2GRAM: in
ENGLISH: P(n|i) = -0.5177328887875342 ==> log prob of sentence so far: -7.473692283981487
FRENCH: P(n|i) = -0.8962746820270037 ==> log prob of sentence so far: -7.633612292561857
DUTCH: P(n|i) = -0.7248968858466274 ==> log prob of sentence so far: -7.758907140256672
PORTUGUESE: P(n|i) = -0.829970148409874 ==> log prob of sentence so far: -7.294396720998467
SPANISH: P(n|i) = -0.9632502725052745 ==> log prob of sentence so far: -7.800369895446303

2GRAM: ns
ENGLISH: P(s|n) = -1.2471781899291021 ==> log prob of sentence so far: -8.720870473910589
FRENCH: P(s|n) = -0.9211627926268392 ==> log prob of sentence so far: -8.554775085188696
DUTCH: P(s|n) = -1.314116636768266 ==> log prob of sentence so far: -9.073023777024938
PORTUGUESE: P(s|n) = -1.359930599644835 ==> log prob of sentence so far: -8.654327320643302
SPANISH: P(s|n) = -1.3580552240181254 ==> log prob of sentence so far: -9.158425119464429

2GRAM: si
ENGLISH: P(i|s) = -1.1208857310233835 ==> log prob of sentence so far: -9.841756204933972
FRENCH: P(i|s) = -1.184885635307546 ==> log prob of sentence so far: -9.739660720496243
DUTCH: P(i|s) = -1.6516926029734016 ==> log prob of sentence so far: -10.72471637999834
PORTUGUESE: P(i|s) = -1.3240133259889628 ==> log prob of sentence so far: -9.978340646632265
SPANISH: P(i|s) = -1.0246505924931477 ==> log prob of sentence so far: -10.183075711957576

2GRAM: ig
ENGLISH: P(g|i) = -1.4583316297190163 ==> log prob of sentence so far: -11.300087834652988
FRENCH: P(g|i) = -1.7738250369287822 ==> log prob of sentence so far: -11.513485757425025
DUTCH: P(g|i) = -1.1154065054608313 ==> log prob of sentence so far: -11.84012288545917
PORTUGUESE: P(g|i) = -1.6178554993507985 ==> log prob of sentence so far: -11.596196145983065
SPANISH: P(g|i) = -1.5299079423641992 ==> log prob of sentence so far: -11.712983654321775

2GRAM: gh
ENGLISH: P(h|g) = -0.7730459912317178 ==> log prob of sentence so far: -12.073133825884707
FRENCH: P(h|g) = -3.0726174765452368 ==> log prob of sentence so far: -14.586103233970261
DUTCH: P(h|g) = -1.6292683934234915 ==> log prob of sentence so far: -13.46939127888266
PORTUGUESE: P(h|g) = -3.72916478969277 ==> log prob of sentence so far: -15.325360935675835
SPANISH: P(h|g) = -3.054394156123875 ==> log prob of sentence so far: -14.76737781044565

2GRAM: ht
ENGLISH: P(t|h) = -1.322132756030454 ==> log prob of sentence so far: -13.39526658191516
FRENCH: P(t|h) = -2.806578958377501 ==> log prob of sentence so far: -17.392682192347763
DUTCH: P(t|h) = -0.8548953790444958 ==> log prob of sentence so far: -14.324286657927157
PORTUGUESE: P(t|h) = -3.37045140442245 ==> log prob of sentence so far: -18.695812340098286
SPANISH: P(t|h) = -3.494803694464529 ==> log prob of sentence so far: -18.262181504910178

2GRAM: td
ENGLISH: P(d|t) = -2.226418270912645 ==> log prob of sentence so far: -15.621684852827805
FRENCH: P(d|t) = -1.237245793322422 ==> log prob of sentence so far: -18.629927985670186
DUTCH: P(d|t) = -1.2624171163009719 ==> log prob of sentence so far: -15.586703774228129
PORTUGUESE: P(d|t) = -3.79901873063048 ==> log prob of sentence so far: -22.494831070728765
SPANISH: P(d|t) = -3.6165505280491983 ==> log prob of sentence so far: -21.878732032959377

2GRAM: de
ENGLISH: P(e|d) = -0.8320988657918726 ==> log prob of sentence so far: -16.45378371861968
FRENCH: P(e|d) = -0.290519189469436 ==> log prob of sentence so far: -18.92044717513962
DUTCH: P(e|d) = -0.2930997673019719 ==> log prob of sentence so far: -15.8798035415301
PORTUGUESE: P(e|d) = -0.42006324395929795 ==> log prob of sentence so far: -22.914894314688063
SPANISH: P(e|d) = -0.4535790367760275 ==> log prob of sentence so far: -22.332311069735404

2GRAM: el
ENGLISH: P(l|e) = -1.3277804884685662 ==> log prob of sentence so far: -17.781564207088245
FRENCH: P(l|e) = -1.2044345212229748 ==> log prob of sentence so far: -20.124881696362596
DUTCH: P(l|e) = -1.1637226950598198 ==> log prob of sentence so far: -17.04352623658992
PORTUGUESE: P(l|e) = -1.1287459762359933 ==> log prob of sentence so far: -24.043640290924056
SPANISH: P(l|e) = -0.9033967676475738 ==> log prob of sentence so far: -23.23570783738298

2GRAM: la
ENGLISH: P(a|l) = -1.002845754477944 ==> log prob of sentence so far: -18.78440996156619
FRENCH: P(a|l) = -0.6764237550347996 ==> log prob of sentence so far: -20.801305451397397
DUTCH: P(a|l) = -0.8491467397430521 ==> log prob of sentence so far: -17.89267297633297
PORTUGUESE: P(a|l) = -0.7569922463492522 ==> log prob of sentence so far: -24.80063253727331
SPANISH: P(a|l) = -0.5721136719799362 ==> log prob of sentence so far: -23.807821509362913

2GRAM: an
ENGLISH: P(n|a) = -0.704528505817304 ==> log prob of sentence so far: -19.488938467383495
FRENCH: P(n|a) = -0.8168159428818009 ==> log prob of sentence so far: -21.618121394279196
DUTCH: P(n|a) = -0.5910185862296213 ==> log prob of sentence so far: -18.48369156256259
PORTUGUESE: P(n|a) = -1.130412158232544 ==> log prob of sentence so far: -25.931044695505854
SPANISH: P(n|a) = -0.8951547416513979 ==> log prob of sentence so far: -24.702976251014313

2GRAM: na
ENGLISH: P(a|n) = -1.24610849854619 ==> log prob of sentence so far: -20.735046965929683
FRENCH: P(a|n) = -1.1335472623560008 ==> log prob of sentence so far: -22.751668656635196
DUTCH: P(a|n) = -1.2185950002690131 ==> log prob of sentence so far: -19.702286562831603
PORTUGUESE: P(a|n) = -0.7416089597288706 ==> log prob of sentence so far: -26.672653655234726
SPANISH: P(a|n) = -0.9403755142775989 ==> log prob of sentence so far: -25.64335176529191

2GRAM: as
ENGLISH: P(s|a) = -0.9959554224973615 ==> log prob of sentence so far: -21.731002388427044
FRENCH: P(s|a) = -1.2507587495318242 ==> log prob of sentence so far: -24.00242740616702
DUTCH: P(s|a) = -1.3356478739431539 ==> log prob of sentence so far: -21.037934436774755
PORTUGUESE: P(s|a) = -0.8896545678044128 ==> log prob of sentence so far: -27.56230822303914
SPANISH: P(s|a) = -0.8836063027500674 ==> log prob of sentence so far: -26.526958068041978

2GRAM: sa
ENGLISH: P(a|s) = -1.0355099388369886 ==> log prob of sentence so far: -22.76651232726403
FRENCH: P(a|s) = -0.9925773557188845 ==> log prob of sentence so far: -24.995004761885905
DUTCH: P(a|s) = -1.4565512929236417 ==> log prob of sentence so far: -22.494485729698397
PORTUGUESE: P(a|s) = -0.9309666696001164 ==> log prob of sentence so far: -28.493274892639256
SPANISH: P(a|s) = -0.9783166229678957 ==> log prob of sentence so far: -27.505274691009873

2GRAM: aa
ENGLISH: P(a|a) = -2.851604551394758 ==> log prob of sentence so far: -25.61811687865879
FRENCH: P(a|a) = -2.5174314226664896 ==> log prob of sentence so far: -27.512436184552396
DUTCH: P(a|a) = -0.7150564354104252 ==> log prob of sentence so far: -23.20954216510882
PORTUGUESE: P(a|a) = -1.3989157753997843 ==> log prob of sentence so far: -29.892190668039042
SPANISH: P(a|a) = -1.7313364385900687 ==> log prob of sentence so far: -29.236611129599943

2GRAM: aa
ENGLISH: P(a|a) = -2.851604551394758 ==> log prob of sentence so far: -28.469721430053546
FRENCH: P(a|a) = -2.5174314226664896 ==> log prob of sentence so far: -30.029867607218886
DUTCH: P(a|a) = -0.7150564354104252 ==> log prob of sentence so far: -23.924598600519246
PORTUGUESE: P(a|a) = -1.3989157753997843 ==> log prob of sentence so far: -31.291106443438828
SPANISH: P(a|a) = -1.7313364385900687 ==> log prob of sentence so far: -30.967947568190013

2GRAM: at
ENGLISH: P(t|a) = -0.8627525070949107 ==> log prob of sentence so far: -29.332473937148457
FRENCH: P(t|a) = -1.2479713976288138 ==> log prob of sentence so far: -31.2778390048477
DUTCH: P(t|a) = -1.1097120347995644 ==> log prob of sentence so far: -25.03431063531881
PORTUGUESE: P(t|a) = -1.5396804063374159 ==> log prob of sentence so far: -32.830786849776246
SPANISH: P(t|a) = -1.5459294951996159 ==> log prob of sentence so far: -32.51387706338963

2GRAM: tt
ENGLISH: P(t|t) = -1.2608815244736162 ==> log prob of sentence so far: -30.593355461622075
FRENCH: P(t|t) = -1.3533095134855202 ==> log prob of sentence so far: -32.63114851833322
DUTCH: P(t|t) = -1.3899093111056346 ==> log prob of sentence so far: -26.424219946424444
PORTUGUESE: P(t|t) = -2.038093882221347 ==> log prob of sentence so far: -34.86888073199759
SPANISH: P(t|t) = -3.6165505280491983 ==> log prob of sentence so far: -36.130427591438824

2GRAM: te
ENGLISH: P(e|t) = -1.0589086136007413 ==> log prob of sentence so far: -31.652264075222817
FRENCH: P(e|t) = -0.674136919284091 ==> log prob of sentence so far: -33.30528543761731
DUTCH: P(e|t) = -0.5037931098324119 ==> log prob of sentence so far: -26.928013056256855
PORTUGUESE: P(e|t) = -0.5755227896680853 ==> log prob of sentence so far: -35.44440352166568
SPANISH: P(e|t) = -0.6109410826889178 ==> log prob of sentence so far: -36.74136867412774

2GRAM: er
ENGLISH: P(r|e) = -0.8561613604222861 ==> log prob of sentence so far: -32.5084254356451
FRENCH: P(r|e) = -1.0504664166531121 ==> log prob of sentence so far: -34.35575185427042
DUTCH: P(r|e) = -0.8727420982068449 ==> log prob of sentence so far: -27.8007551544637
PORTUGUESE: P(r|e) = -0.9762482313577309 ==> log prob of sentence so far: -36.42065175302341
SPANISH: P(r|e) = -0.9099180534364051 ==> log prob of sentence so far: -37.65128672756415

2GRAM: rr
ENGLISH: P(r|r) = -1.7102610518659274 ==> log prob of sentence so far: -34.21868648751103
FRENCH: P(r|r) = -1.5201709551562572 ==> log prob of sentence so far: -35.87592280942668
DUTCH: P(r|r) = -2.0520658655430077 ==> log prob of sentence so far: -29.852821020006708
PORTUGUESE: P(r|r) = -1.5241134141485952 ==> log prob of sentence so far: -37.944765167172
SPANISH: P(r|r) = -1.5235232895603124 ==> log prob of sentence so far: -39.17481001712446

2GRAM: ri
ENGLISH: P(i|r) = -1.011900400480812 ==> log prob of sentence so far: -35.23058688799184
FRENCH: P(i|r) = -1.089298477748147 ==> log prob of sentence so far: -36.96522128717483
DUTCH: P(i|r) = -1.047195222171667 ==> log prob of sentence so far: -30.900016242178374
PORTUGUESE: P(i|r) = -0.9397982893707645 ==> log prob of sentence so far: -38.884563456542764
SPANISH: P(i|r) = -1.0006758571955157 ==> log prob of sentence so far: -40.175485874319975

According to the 2gram model, the sentence is in Dutch
----------------
3GRAM MODEL:

3GRAM: las
ENGLISH: P(s|la) = -0.7920724726651367 ==> log prob of sentence so far: -0.7920724726651367
FRENCH: P(s|la) = -1.2021827708965591 ==> log prob of sentence so far: -1.2021827708965591
DUTCH: P(s|la) = -1.4503900051932743 ==> log prob of sentence so far: -1.4503900051932743
PORTUGUESE: P(s|la) = -0.846516531689791 ==> log prob of sentence so far: -0.846516531689791
SPANISH: P(s|la) = -0.7005679359013088 ==> log prob of sentence so far: -0.7005679359013088

3GRAM: aso
ENGLISH: P(o|as) = -1.2873955558226626 ==> log prob of sentence so far: -2.079468028487799
FRENCH: P(o|as) = -1.3425574084429248 ==> log prob of sentence so far: -2.5447401793394837
DUTCH: P(o|as) = -1.3105753135702116 ==> log prob of sentence so far: -2.760965318763486
PORTUGUESE: P(o|as) = -1.2082044698002476 ==> log prob of sentence so far: -2.0547210014900386
SPANISH: P(o|as) = -1.2444234873078275 ==> log prob of sentence so far: -1.9449914232091363

3GRAM: son
ENGLISH: P(n|so) = -0.9401123399274564 ==> log prob of sentence so far: -3.0195803684152556
FRENCH: P(n|so) = -0.41368515737012385 ==> log prob of sentence so far: -2.9584253367096074
DUTCH: P(n|so) = -0.7054484127773072 ==> log prob of sentence so far: -3.466413731540793
PORTUGUESE: P(n|so) = -1.1862625549089194 ==> log prob of sentence so far: -3.240983556398958
SPANISH: P(n|so) = -0.8736390690426928 ==> log prob of sentence so far: -2.8186304922518293

3GRAM: ond
ENGLISH: P(d|on) = -1.3200306972485392 ==> log prob of sentence so far: -4.339611065663795
FRENCH: P(d|on) = -0.8229868114477428 ==> log prob of sentence so far: -3.78141214815735
DUTCH: P(d|on) = -0.4363204112518607 ==> log prob of sentence so far: -3.902734142792654
PORTUGUESE: P(d|on) = -0.9457967260479999 ==> log prob of sentence so far: -4.186780282446958
SPANISH: P(d|on) = -0.9425383891795018 ==> log prob of sentence so far: -3.761168881431331

3GRAM: nde
ENGLISH: P(e|nd) = -0.9331708415948902 ==> log prob of sentence so far: -5.272781907258685
FRENCH: P(e|nd) = -0.49567486076651623 ==> log prob of sentence so far: -4.277087008923866
DUTCH: P(e|nd) = -0.2399716147581721 ==> log prob of sentence so far: -4.142705757550826
PORTUGUESE: P(e|nd) = -0.6181404738852057 ==> log prob of sentence so far: -4.804920756332164
SPANISH: P(e|nd) = -0.6921786603607862 ==> log prob of sentence so far: -4.453347541792118

3GRAM: dei
ENGLISH: P(i|de) = -1.9951018900139572 ==> log prob of sentence so far: -7.267883797272642
FRENCH: P(i|de) = -2.859673712246171 ==> log prob of sentence so far: -7.136760721170036
DUTCH: P(i|de) = -1.6743189600970483 ==> log prob of sentence so far: -5.817024717647874
PORTUGUESE: P(i|de) = -1.2306226739238615 ==> log prob of sentence so far: -6.035543430256025
SPANISH: P(i|de) = -2.0214325331742535 ==> log prob of sentence so far: -6.474780074966372

3GRAM: ein
ENGLISH: P(n|ei) = -0.440430936285403 ==> log prob of sentence so far: -7.708314733558045
FRENCH: P(n|ei) = -0.5960149981361579 ==> log prob of sentence so far: -7.732775719306194
DUTCH: P(n|ei) = -0.5973024142146572 ==> log prob of sentence so far: -6.414327131862532
PORTUGUESE: P(n|ei) = -1.2200747589673322 ==> log prob of sentence so far: -7.255618189223357
SPANISH: P(n|ei) = -0.35825666582355564 ==> log prob of sentence so far: -6.833036740789927

3GRAM: ins
ENGLISH: P(s|in) = -1.265665140129588 ==> log prob of sentence so far: -8.973979873687632
FRENCH: P(s|in) = -0.9046547686775224 ==> log prob of sentence so far: -8.637430487983718
DUTCH: P(s|in) = -1.4491827179086336 ==> log prob of sentence so far: -7.863509849771165
PORTUGUESE: P(s|in) = -1.5335088611883352 ==> log prob of sentence so far: -8.789127050411693
SPANISH: P(s|in) = -1.282779643091688 ==> log prob of sentence so far: -8.115816383881615

3GRAM: nsi
ENGLISH: P(i|ns) = -0.9253084203868317 ==> log prob of sentence so far: -9.899288294074465
FRENCH: P(i|ns) = -0.8153320439253546 ==> log prob of sentence so far: -9.452762531909073
DUTCH: P(i|ns) = -1.6842828319723067 ==> log prob of sentence so far: -9.547792681743472
PORTUGUESE: P(i|ns) = -0.9944792330902167 ==> log prob of sentence so far: -9.78360628350191
SPANISH: P(i|ns) = -0.7514575115710477 ==> log prob of sentence so far: -8.867273895452662

3GRAM: sig
ENGLISH: P(g|si) = -1.261782394386066 ==> log prob of sentence so far: -11.16107068846053
FRENCH: P(g|si) = -1.6749794164908165 ==> log prob of sentence so far: -11.12774194839989
DUTCH: P(g|si) = -1.2393333040018584 ==> log prob of sentence so far: -10.78712598574533
PORTUGUESE: P(g|si) = -1.3191754853321291 ==> log prob of sentence so far: -11.10278176883404
SPANISH: P(g|si) = -1.3607134520123279 ==> log prob of sentence so far: -10.22798734746499

3GRAM: igh
ENGLISH: P(h|ig) = -0.1677081107245844 ==> log prob of sentence so far: -11.328778799185114
FRENCH: P(h|ig) = -2.5390760987927767 ==> log prob of sentence so far: -13.666818047192667
DUTCH: P(h|ig) = -1.0869627663288624 ==> log prob of sentence so far: -11.874088752074194
PORTUGUESE: P(h|ig) = -2.8129133566428557 ==> log prob of sentence so far: -13.915695125476896
SPANISH: P(h|ig) = -2.640812580319979 ==> log prob of sentence so far: -12.86879992778497

3GRAM: ght
ENGLISH: P(t|gh) = -0.23131240116511437 ==> log prob of sentence so far: -11.560091200350229
FRENCH: P(t|gh) = -0.8573324964312684 ==> log prob of sentence so far: -14.524150543623936
DUTCH: P(t|gh) = -2.8102325179950842 ==> log prob of sentence so far: -14.684321270069278
PORTUGUESE: P(t|gh) = -1.4313637641589874 ==> log prob of sentence so far: -15.347058889635884
SPANISH: P(t|gh) = -1.505149978319906 ==> log prob of sentence so far: -14.373949906104876

3GRAM: htd
ENGLISH: P(d|ht) = -2.0901304263507567 ==> log prob of sentence so far: -13.650221626700986
FRENCH: P(d|ht) = -1.6232492903979006 ==> log prob of sentence so far: -16.147399834021837
DUTCH: P(d|ht) = -1.2599017748284946 ==> log prob of sentence so far: -15.944223044897772
PORTUGUESE: P(d|ht) = -1.4471580313422192 ==> log prob of sentence so far: -16.7942169209781
SPANISH: P(d|ht) = -1.4471580313422192 ==> log prob of sentence so far: -15.821107937447096

3GRAM: tde
ENGLISH: P(e|td) = -0.6895772799021149 ==> log prob of sentence so far: -14.339798906603102
FRENCH: P(e|td) = -0.2063184627735822 ==> log prob of sentence so far: -16.353718296795417
DUTCH: P(e|td) = -0.23043133896164422 ==> log prob of sentence so far: -16.174654383859416
PORTUGUESE: P(e|td) = -0.9700367766225568 ==> log prob of sentence so far: -17.764253697600658
SPANISH: P(e|td) = -0.8061799739838872 ==> log prob of sentence so far: -16.627287911430983

3GRAM: del
ENGLISH: P(l|de) = -1.4412868937305443 ==> log prob of sentence so far: -15.781085800333646
FRENCH: P(l|de) = -0.8551199711589463 ==> log prob of sentence so far: -17.208838267954363
DUTCH: P(l|de) = -1.2988722656161749 ==> log prob of sentence so far: -17.47352664947559
PORTUGUESE: P(l|de) = -1.2405839932309684 ==> log prob of sentence so far: -19.004837690831625
SPANISH: P(l|de) = -0.627010285066825 ==> log prob of sentence so far: -17.254298196497807

3GRAM: ela
ENGLISH: P(a|el) = -1.0851784088144227 ==> log prob of sentence so far: -16.866264209148067
FRENCH: P(a|el) = -0.5476221870499376 ==> log prob of sentence so far: -17.7564604550043
DUTCH: P(a|el) = -1.1667856453476384 ==> log prob of sentence so far: -18.64031229482323
PORTUGUESE: P(a|el) = -0.9796031211564948 ==> log prob of sentence so far: -19.98444081198812
SPANISH: P(a|el) = -0.7037581334414895 ==> log prob of sentence so far: -17.958056329939296

3GRAM: lan
ENGLISH: P(n|la) = -0.6156622312360238 ==> log prob of sentence so far: -17.48192644038409
FRENCH: P(n|la) = -0.8298102549387191 ==> log prob of sentence so far: -18.58627070994302
DUTCH: P(n|la) = -0.3430470000161367 ==> log prob of sentence so far: -18.983359294839364
PORTUGUESE: P(n|la) = -1.1249387366083 ==> log prob of sentence so far: -21.10937954859642
SPANISH: P(n|la) = -1.082015897428906 ==> log prob of sentence so far: -19.040072227368203

3GRAM: ana
ENGLISH: P(a|an) = -1.5179238364296928 ==> log prob of sentence so far: -18.99985027681378
FRENCH: P(a|an) = -1.3024080844782078 ==> log prob of sentence so far: -19.888678794421228
DUTCH: P(a|an) = -1.493695029025874 ==> log prob of sentence so far: -20.47705432386524
PORTUGUESE: P(a|an) = -0.8366666329820078 ==> log prob of sentence so far: -21.946046181578428
SPANISH: P(a|an) = -0.9338298519544077 ==> log prob of sentence so far: -19.97390207932261

3GRAM: nas
ENGLISH: P(s|na) = -1.1243764390409263 ==> log prob of sentence so far: -20.124226715854707
FRENCH: P(s|na) = -1.8889336203207834 ==> log prob of sentence so far: -21.777612414742013
DUTCH: P(s|na) = -2.1611112005234006 ==> log prob of sentence so far: -22.63816552438864
PORTUGUESE: P(s|na) = -0.9543565723373945 ==> log prob of sentence so far: -22.900402753915824
SPANISH: P(s|na) = -0.8529519674002835 ==> log prob of sentence so far: -20.826854046722893

3GRAM: asa
ENGLISH: P(a|as) = -1.11707388191701 ==> log prob of sentence so far: -21.24130059777172
FRENCH: P(a|as) = -1.0319982064077229 ==> log prob of sentence so far: -22.809610621149737
DUTCH: P(a|as) = -1.3439990690571613 ==> log prob of sentence so far: -23.982164593445802
PORTUGUESE: P(a|as) = -0.9248836998479871 ==> log prob of sentence so far: -23.825286453763812
SPANISH: P(a|as) = -0.945156768454615 ==> log prob of sentence so far: -21.77201081517751

3GRAM: saa
ENGLISH: P(a|sa) = -4.053385799817482 ==> log prob of sentence so far: -25.294686397589203
FRENCH: P(a|sa) = -2.4460745518233193 ==> log prob of sentence so far: -25.255685172973056
DUTCH: P(a|sa) = -0.7534736234678842 ==> log prob of sentence so far: -24.735638216913685
PORTUGUESE: P(a|sa) = -1.7095487420800242 ==> log prob of sentence so far: -25.534835195843836
SPANISH: P(a|sa) = -1.9377388335081995 ==> log prob of sentence so far: -23.709749648685708

3GRAM: aaa
ENGLISH: P(a|aa) = -2.387389826338729 ==> log prob of sentence so far: -27.682076223927933
FRENCH: P(a|aa) = -2.5774917998372255 ==> log prob of sentence so far: -27.833176972810282
DUTCH: P(a|aa) = -2.5952828267765327 ==> log prob of sentence so far: -27.330921043690218
PORTUGUESE: P(a|aa) = -1.5972074885335503 ==> log prob of sentence so far: -27.132042684377385
SPANISH: P(a|aa) = -2.3644169745283743 ==> log prob of sentence so far: -26.074166623214083

3GRAM: aat
ENGLISH: P(t|aa) = -1.2734464740318927 ==> log prob of sentence so far: -28.955522697959825
FRENCH: P(t|aa) = -1.1795517911651878 ==> log prob of sentence so far: -29.01272876397547
DUTCH: P(t|aa) = -1.3048891459583363 ==> log prob of sentence so far: -28.635810189648552
PORTUGUESE: P(t|aa) = -1.521486774595432 ==> log prob of sentence so far: -28.653529458972816
SPANISH: P(t|aa) = -1.4241851795318639 ==> log prob of sentence so far: -27.498351802745947

3GRAM: att
ENGLISH: P(t|at) = -0.8568478069535959 ==> log prob of sentence so far: -29.81237050491342
FRENCH: P(t|at) = -0.9306431767120671 ==> log prob of sentence so far: -29.943371940687538
DUTCH: P(t|at) = -1.382986295766378 ==> log prob of sentence so far: -30.01879648541493
PORTUGUESE: P(t|at) = -1.4995938963758184 ==> log prob of sentence so far: -30.153123355348633
SPANISH: P(t|at) = -2.928737144597974 ==> log prob of sentence so far: -30.427088947343922

3GRAM: tte
ENGLISH: P(e|tt) = -0.8915752914384356 ==> log prob of sentence so far: -30.703945796351857
FRENCH: P(e|tt) = -0.22584029542978878 ==> log prob of sentence so far: -30.169212236117325
DUTCH: P(e|tt) = -0.1458920701837598 ==> log prob of sentence so far: -30.16468855559869
PORTUGUESE: P(e|tt) = -0.31931878137629094 ==> log prob of sentence so far: -30.472442136724926
SPANISH: P(e|tt) = -1.0280287236002434 ==> log prob of sentence so far: -31.455117670944166

3GRAM: ter
ENGLISH: P(r|te) = -0.4558490196269567 ==> log prob of sentence so far: -31.159794815978813
FRENCH: P(r|te) = -0.8798178774714153 ==> log prob of sentence so far: -31.04903011358874
DUTCH: P(r|te) = -0.783941929264539 ==> log prob of sentence so far: -30.94863048486323
PORTUGUESE: P(r|te) = -0.8501539118041451 ==> log prob of sentence so far: -31.32259604852907
SPANISH: P(r|te) = -0.9643831591480365 ==> log prob of sentence so far: -32.419500830092204

3GRAM: err
ENGLISH: P(r|er) = -1.68756463075446 ==> log prob of sentence so far: -32.84735944673327
FRENCH: P(r|er) = -1.228112584656406 ==> log prob of sentence so far: -32.27714269824514
DUTCH: P(r|er) = -1.9434285588125133 ==> log prob of sentence so far: -32.892059043675744
PORTUGUESE: P(r|er) = -1.324187895605079 ==> log prob of sentence so far: -32.64678394413415
SPANISH: P(r|er) = -1.4523104123210575 ==> log prob of sentence so far: -33.87181124241326

3GRAM: rri
ENGLISH: P(i|rr) = -0.5806866301735132 ==> log prob of sentence so far: -33.42804607690678
FRENCH: P(i|rr) = -0.6848010481418075 ==> log prob of sentence so far: -32.96194374638695
DUTCH: P(i|rr) = -0.7740541022425986 ==> log prob of sentence so far: -33.666113145918345
PORTUGUESE: P(i|rr) = -0.6484851138139739 ==> log prob of sentence so far: -33.295269057948126
SPANISH: P(i|rr) = -0.6460440136586039 ==> log prob of sentence so far: -34.51785525607186

According to the 3gram model, the sentence is in French
----------------
4GRAM MODEL:

4GRAM: laso
ENGLISH: P(o|las) = -2.292888692709275 ==> log prob of sentence so far: -2.292888692709275
FRENCH: P(o|las) = -1.2181306970987396 ==> log prob of sentence so far: -1.2181306970987396
DUTCH: P(o|las) = -2.24551266781415 ==> log prob of sentence so far: -2.24551266781415
PORTUGUESE: P(o|las) = -1.2064738880494021 ==> log prob of sentence so far: -1.2064738880494021
SPANISH: P(o|las) = -1.3952402320767257 ==> log prob of sentence so far: -1.3952402320767257

4GRAM: ason
ENGLISH: P(n|aso) = -0.27387774962036643 ==> log prob of sentence so far: -2.5667664423296412
FRENCH: P(n|aso) = -0.29560124395258297 ==> log prob of sentence so far: -1.5137319410513226
DUTCH: P(n|aso) = -0.5509074688805811 ==> log prob of sentence so far: -2.796420136694731
PORTUGUESE: P(n|aso) = -1.1898795435413145 ==> log prob of sentence so far: -2.3963534315907165
SPANISH: P(n|aso) = -1.2724745352109283 ==> log prob of sentence so far: -2.667714767287654

4GRAM: sond
ENGLISH: P(d|son) = -1.8973035944546994 ==> log prob of sentence so far: -4.4640700367843404
FRENCH: P(d|son) = -1.183153113543168 ==> log prob of sentence so far: -2.6968850545944907
DUTCH: P(d|son) = -0.8053034964272584 ==> log prob of sentence so far: -3.6017236331219893
PORTUGUESE: P(d|son) = -0.9415482388111193 ==> log prob of sentence so far: -3.337901670401836
SPANISH: P(d|son) = -1.2723058444020865 ==> log prob of sentence so far: -3.9400206116897403

4GRAM: onde
ENGLISH: P(e|ond) = -0.3438824955812491 ==> log prob of sentence so far: -4.807952532365589
FRENCH: P(e|ond) = -0.4057891164410759 ==> log prob of sentence so far: -3.1026741710355665
DUTCH: P(e|ond) = -0.17480977544101017 ==> log prob of sentence so far: -3.7765334085629996
PORTUGUESE: P(e|ond) = -0.15335367142288248 ==> log prob of sentence so far: -3.4912553418247185
SPANISH: P(e|ond) = -0.22534019346521916 ==> log prob of sentence so far: -4.165360805154959

4GRAM: ndei
ENGLISH: P(i|nde) = -2.9180303367848803 ==> log prob of sentence so far: -7.725982869150469
FRENCH: P(i|nde) = -2.5359969758069623 ==> log prob of sentence so far: -5.638671146842529
DUTCH: P(i|nde) = -1.7064495412602092 ==> log prob of sentence so far: -5.482982949823208
PORTUGUESE: P(i|nde) = -1.56473566830415 ==> log prob of sentence so far: -5.055991010128869
SPANISH: P(i|nde) = -2.0870065835595812 ==> log prob of sentence so far: -6.252367388714541

4GRAM: dein
ENGLISH: P(n|dei) = -0.39629806160506087 ==> log prob of sentence so far: -8.12228093075553
FRENCH: P(n|dei) = -1.3152704347785915 ==> log prob of sentence so far: -6.9539415816211205
DUTCH: P(n|dei) = -0.13663403158808943 ==> log prob of sentence so far: -5.619616981411298
PORTUGUESE: P(n|dei) = -1.0349174611104137 ==> log prob of sentence so far: -6.090908471239283
SPANISH: P(n|dei) = -0.40248763642275825 ==> log prob of sentence so far: -6.654855025137299

4GRAM: eins
ENGLISH: P(s|ein) = -1.0105972427711463 ==> log prob of sentence so far: -9.132878173526676
FRENCH: P(s|ein) = -1.229230703238956 ==> log prob of sentence so far: -8.183172284860076
DUTCH: P(s|ein) = -1.295651667089979 ==> log prob of sentence so far: -6.915268648501277
PORTUGUESE: P(s|ein) = -1.30582887854575 ==> log prob of sentence so far: -7.396737349785033
SPANISH: P(s|ein) = -1.0357155522665344 ==> log prob of sentence so far: -7.690570577403833

4GRAM: insi
ENGLISH: P(i|ins) = -1.1339507571274012 ==> log prob of sentence so far: -10.266828930654077
FRENCH: P(i|ins) = -0.6711974261173693 ==> log prob of sentence so far: -8.854369710977446
DUTCH: P(i|ins) = -2.531478917042255 ==> log prob of sentence so far: -9.446747565543532
PORTUGUESE: P(i|ins) = -0.9094301650229626 ==> log prob of sentence so far: -8.306167514807996
SPANISH: P(i|ins) = -0.6152214373859333 ==> log prob of sentence so far: -8.305792014789766

4GRAM: nsig
ENGLISH: P(g|nsi) = -1.2309495490785556 ==> log prob of sentence so far: -11.497778479732633
FRENCH: P(g|nsi) = -1.6668830873287201 ==> log prob of sentence so far: -10.521252798306167
DUTCH: P(g|nsi) = -0.635483746814912 ==> log prob of sentence so far: -10.082231312358445
PORTUGUESE: P(g|nsi) = -1.3802112417116061 ==> log prob of sentence so far: -9.686378756519602
SPANISH: P(g|nsi) = -1.2594484457574422 ==> log prob of sentence so far: -9.565240460547209

4GRAM: sigh
ENGLISH: P(h|sig) = -0.3190939957417167 ==> log prob of sentence so far: -11.81687247547435
FRENCH: P(h|sig) = -2.27415784926368 ==> log prob of sentence so far: -12.795410647569847
DUTCH: P(h|sig) = -1.3152704347785915 ==> log prob of sentence so far: -11.397501747137037
PORTUGUESE: P(h|sig) = -2.0 ==> log prob of sentence so far: -11.686378756519602
SPANISH: P(h|sig) = -2.361727836017593 ==> log prob of sentence so far: -11.926968296564802

4GRAM: ight
ENGLISH: P(t|igh) = -0.05930383574153822 ==> log prob of sentence so far: -11.876176311215888
FRENCH: P(t|igh) = -0.7781512503836436 ==> log prob of sentence so far: -13.57356189795349
DUTCH: P(t|igh) = -2.505149978319906 ==> log prob of sentence so far: -13.902651725456943
PORTUGUESE: P(t|igh) = -1.4313637641589874 ==> log prob of sentence so far: -13.11774252067859
SPANISH: P(t|igh) = -1.4471580313422192 ==> log prob of sentence so far: -13.374126327907021

4GRAM: ghtd
ENGLISH: P(d|ght) = -1.9007737442647628 ==> log prob of sentence so far: -13.77695005548065
FRENCH: P(d|ght) = -1.4771212547196624 ==> log prob of sentence so far: -15.050683152673153
DUTCH: P(d|ght) = -1.4313637641589874 ==> log prob of sentence so far: -15.33401548961593
PORTUGUESE: P(d|ght) = -1.4313637641589874 ==> log prob of sentence so far: -14.549106284837578
SPANISH: P(d|ght) = -1.4313637641589874 ==> log prob of sentence so far: -14.805490092066009

4GRAM: htde
ENGLISH: P(e|htd) = -0.9030899869919435 ==> log prob of sentence so far: -14.680040042472594
FRENCH: P(e|htd) = -1.4313637641589874 ==> log prob of sentence so far: -16.48204691683214
DUTCH: P(e|htd) = -0.5075038837133833 ==> log prob of sentence so far: -15.841519373329314
PORTUGUESE: P(e|htd) = -1.4313637641589874 ==> log prob of sentence so far: -15.980470048996565
SPANISH: P(e|htd) = -1.4313637641589874 ==> log prob of sentence so far: -16.236853856224997

4GRAM: tdel
ENGLISH: P(l|tde) = -1.018483405694013 ==> log prob of sentence so far: -15.698523448166608
FRENCH: P(l|tde) = -0.8072988970295628 ==> log prob of sentence so far: -17.2893458138617
DUTCH: P(l|tde) = -1.6781100451392235 ==> log prob of sentence so far: -17.519629418468536
PORTUGUESE: P(l|tde) = -1.4471580313422192 ==> log prob of sentence so far: -17.427628080338785
SPANISH: P(l|tde) = -1.0 ==> log prob of sentence so far: -17.236853856224997

4GRAM: dela
ENGLISH: P(a|del) = -0.9553135198018504 ==> log prob of sentence so far: -16.65383696796846
FRENCH: P(a|del) = -0.26708520119398044 ==> log prob of sentence so far: -17.556431015055683
DUTCH: P(a|del) = -0.9587322736922711 ==> log prob of sentence so far: -18.478361692160806
PORTUGUESE: P(a|del) = -1.2276010785054476 ==> log prob of sentence so far: -18.655229158844232
SPANISH: P(a|del) = -0.4137905206888524 ==> log prob of sentence so far: -17.65064437691385

4GRAM: elan
ENGLISH: P(n|ela) = -0.58966435677516 ==> log prob of sentence so far: -17.24350132474362
FRENCH: P(n|ela) = -0.9293666797615195 ==> log prob of sentence so far: -18.4857976948172
DUTCH: P(n|ela) = -0.4000681622993454 ==> log prob of sentence so far: -18.87842985446015
PORTUGUESE: P(n|ela) = -1.0216699792317956 ==> log prob of sentence so far: -19.676899138076028
SPANISH: P(n|ela) = -0.9385446376203682 ==> log prob of sentence so far: -18.589189014534217

4GRAM: lana
ENGLISH: P(a|lan) = -2.0842607715768997 ==> log prob of sentence so far: -19.32776209632052
FRENCH: P(a|lan) = -1.2135084693607596 ==> log prob of sentence so far: -19.699306164177962
DUTCH: P(a|lan) = -2.1188156515495113 ==> log prob of sentence so far: -20.997245506009662
PORTUGUESE: P(a|lan) = -0.6251252953966558 ==> log prob of sentence so far: -20.302024433472685
SPANISH: P(a|lan) = -1.0165992618194617 ==> log prob of sentence so far: -19.605788276353678

4GRAM: anas
ENGLISH: P(s|ana) = -1.2581017951221705 ==> log prob of sentence so far: -20.58586389144269
FRENCH: P(s|ana) = -2.112030157662556 ==> log prob of sentence so far: -21.811336321840518
DUTCH: P(s|ana) = -2.0187004986662433 ==> log prob of sentence so far: -23.015946004675904
PORTUGUESE: P(s|ana) = -0.9156791142999641 ==> log prob of sentence so far: -21.21770354777265
SPANISH: P(s|ana) = -0.7302484078483918 ==> log prob of sentence so far: -20.33603668420207

4GRAM: nasa
ENGLISH: P(a|nas) = -1.0839801289293935 ==> log prob of sentence so far: -21.669844020372082
FRENCH: P(a|nas) = -1.05202900000401 ==> log prob of sentence so far: -22.863365321844526
DUTCH: P(a|nas) = -1.3010299956639813 ==> log prob of sentence so far: -24.316976000339885
PORTUGUESE: P(a|nas) = -0.993897401013146 ==> log prob of sentence so far: -22.211600948785797
SPANISH: P(a|nas) = -1.3204430367081164 ==> log prob of sentence so far: -21.656479720910188

4GRAM: asaa
ENGLISH: P(a|asa) = -3.041392685158225 ==> log prob of sentence so far: -24.711236705530307
FRENCH: P(a|asa) = -2.3180633349627615 ==> log prob of sentence so far: -25.181428656807288
DUTCH: P(a|asa) = -1.0621479067488444 ==> log prob of sentence so far: -25.37912390708873
PORTUGUESE: P(a|asa) = -1.669659364825772 ==> log prob of sentence so far: -23.88126031361157
SPANISH: P(a|asa) = -1.9074113607745862 ==> log prob of sentence so far: -23.563891081684773

4GRAM: saaa
ENGLISH: P(a|saa) = -1.4313637641589874 ==> log prob of sentence so far: -26.142600469689295
FRENCH: P(a|saa) = -1.8325089127062364 ==> log prob of sentence so far: -27.013937569513523
DUTCH: P(a|saa) = -2.3010299956639813 ==> log prob of sentence so far: -27.68015390275271
PORTUGUESE: P(a|saa) = -1.9912260756924949 ==> log prob of sentence so far: -25.872486389304065
SPANISH: P(a|saa) = -1.9138138523837167 ==> log prob of sentence so far: -25.47770493406849

4GRAM: aaat
ENGLISH: P(t|aaa) = -1.4313637641589874 ==> log prob of sentence so far: -27.573964233848283
FRENCH: P(t|aaa) = -1.4313637641589874 ==> log prob of sentence so far: -28.44530133367251
DUTCH: P(t|aaa) = -1.7481880270062005 ==> log prob of sentence so far: -29.42834192975891
PORTUGUESE: P(t|aaa) = -1.4673614174305063 ==> log prob of sentence so far: -27.33984780673457
SPANISH: P(t|aaa) = -1.505149978319906 ==> log prob of sentence so far: -26.982854912388397

4GRAM: aatt
ENGLISH: P(t|aat) = -0.8808135922807914 ==> log prob of sentence so far: -28.454777826129074
FRENCH: P(t|aat) = -0.46852108295774486 ==> log prob of sentence so far: -28.913822416630257
DUTCH: P(t|aat) = -1.4559319556497243 ==> log prob of sentence so far: -30.884273885408636
PORTUGUESE: P(t|aat) = -0.8860566476931632 ==> log prob of sentence so far: -28.225904454427734
SPANISH: P(t|aat) = -1.9344984512435677 ==> log prob of sentence so far: -28.917353363631964

4GRAM: atte
ENGLISH: P(e|att) = -0.7641260943585879 ==> log prob of sentence so far: -29.218903920487662
FRENCH: P(e|att) = -0.2684557755529448 ==> log prob of sentence so far: -29.1822781921832
DUTCH: P(e|att) = -0.2853780501211851 ==> log prob of sentence so far: -31.16965193552982
PORTUGUESE: P(e|att) = -0.38021124171160603 ==> log prob of sentence so far: -28.60611569613934
SPANISH: P(e|att) = -1.4471580313422192 ==> log prob of sentence so far: -30.364511394974183

4GRAM: tter
ENGLISH: P(r|tte) = -0.19803810184872864 ==> log prob of sentence so far: -29.41694202233639
FRENCH: P(r|tte) = -1.013374793059819 ==> log prob of sentence so far: -30.19565298524302
DUTCH: P(r|tte) = -0.9458419674128935 ==> log prob of sentence so far: -32.11549390294272
PORTUGUESE: P(r|tte) = -0.5805203134718526 ==> log prob of sentence so far: -29.186636009611192
SPANISH: P(r|tte) = -1.4471580313422192 ==> log prob of sentence so far: -31.811669426316403

4GRAM: terr
ENGLISH: P(r|ter) = -1.2083320220322744 ==> log prob of sentence so far: -30.625274044368663
FRENCH: P(r|ter) = -0.5809671914211595 ==> log prob of sentence so far: -30.776620176664178
DUTCH: P(r|ter) = -1.9425041061680808 ==> log prob of sentence so far: -34.0579980091108
PORTUGUESE: P(r|ter) = -0.5280336364465744 ==> log prob of sentence so far: -29.714669646057768
SPANISH: P(r|ter) = -0.7531326096232628 ==> log prob of sentence so far: -32.564802035939664

4GRAM: erri
ENGLISH: P(i|err) = -0.6282219258252568 ==> log prob of sentence so far: -31.25349597019392
FRENCH: P(i|err) = -0.9268042610923853 ==> log prob of sentence so far: -31.703424437756563
DUTCH: P(i|err) = -0.6736641390712486 ==> log prob of sentence so far: -34.731662148182046
PORTUGUESE: P(i|err) = -1.7895807121644256 ==> log prob of sentence so far: -31.504250358222194
SPANISH: P(i|err) = -1.0166257423829834 ==> log prob of sentence so far: -33.58142777832265

According to the 4gram model, the sentence is in English
----------------
