The Trumps dine with the Macrons at Restaurant le Jules Verne - Tour Eiffel Paris.

1GRAM MODEL:

1GRAM: t
ENGLISH: P(t) = -1.034220196106131 ==> log prob of sentence so far: -1.034220196106131
FRENCH: P(t) = -1.165963194070616 ==> log prob of sentence so far: -1.165963194070616

1GRAM: h
ENGLISH: P(h) = -1.1802717013558974 ==> log prob of sentence so far: -2.2144918974620285
FRENCH: P(h) = -2.105661511639352 ==> log prob of sentence so far: -3.271624705709968

1GRAM: e
ENGLISH: P(e) = -0.9100671664377266 ==> log prob of sentence so far: -3.124559063899755
FRENCH: P(e) = -0.7669595017474583 ==> log prob of sentence so far: -4.0385842074574265

1GRAM: t
ENGLISH: P(t) = -1.034220196106131 ==> log prob of sentence so far: -4.158779260005886
FRENCH: P(t) = -1.165963194070616 ==> log prob of sentence so far: -5.204547401528043

1GRAM: r
ENGLISH: P(r) = -1.261271144299728 ==> log prob of sentence so far: -5.420050404305615
FRENCH: P(r) = -1.1840252799828537 ==> log prob of sentence so far: -6.3885726815108965

1GRAM: u
ENGLISH: P(u) = -1.5524903648320154 ==> log prob of sentence so far: -6.97254076913763
FRENCH: P(u) = -1.2061319519803348 ==> log prob of sentence so far: -7.594704633491231

1GRAM: m
ENGLISH: P(m) = -1.6111138481089953 ==> log prob of sentence so far: -8.583654617246626
FRENCH: P(m) = -1.5129506664806158 ==> log prob of sentence so far: -9.107655299971848

1GRAM: p
ENGLISH: P(p) = -1.7418320771526665 ==> log prob of sentence so far: -10.325486694399293
FRENCH: P(p) = -1.5386383937439996 ==> log prob of sentence so far: -10.646293693715847

1GRAM: s
ENGLISH: P(s) = -1.1711384802271032 ==> log prob of sentence so far: -11.496625174626397
FRENCH: P(s) = -1.0644432040045189 ==> log prob of sentence so far: -11.710736897720366

1GRAM: d
ENGLISH: P(d) = -1.3961796678927219 ==> log prob of sentence so far: -12.89280484251912
FRENCH: P(d) = -1.4202617777702253 ==> log prob of sentence so far: -13.130998675490591

1GRAM: i
ENGLISH: P(i) = -1.162522881728433 ==> log prob of sentence so far: -14.055327724247553
FRENCH: P(i) = -1.1352025747557652 ==> log prob of sentence so far: -14.266201250246358

1GRAM: n
ENGLISH: P(n) = -1.1615943318171305 ==> log prob of sentence so far: -15.216922056064684
FRENCH: P(n) = -1.122633486706524 ==> log prob of sentence so far: -15.388834736952882

1GRAM: e
ENGLISH: P(e) = -0.9100671664377266 ==> log prob of sentence so far: -16.12698922250241
FRENCH: P(e) = -0.7669595017474583 ==> log prob of sentence so far: -16.15579423870034

1GRAM: w
ENGLISH: P(w) = -1.6313578037561856 ==> log prob of sentence so far: -17.758347026258594
FRENCH: P(w) = -3.9217829676855915 ==> log prob of sentence so far: -20.077577206385932

1GRAM: i
ENGLISH: P(i) = -1.162522881728433 ==> log prob of sentence so far: -18.920869907987026
FRENCH: P(i) = -1.1352025747557652 ==> log prob of sentence so far: -21.2127797811417

1GRAM: t
ENGLISH: P(t) = -1.034220196106131 ==> log prob of sentence so far: -19.955090104093156
FRENCH: P(t) = -1.165963194070616 ==> log prob of sentence so far: -22.378742975212315

1GRAM: h
ENGLISH: P(h) = -1.1802717013558974 ==> log prob of sentence so far: -21.135361805449055
FRENCH: P(h) = -2.105661511639352 ==> log prob of sentence so far: -24.484404486851666

1GRAM: t
ENGLISH: P(t) = -1.034220196106131 ==> log prob of sentence so far: -22.169582001555185
FRENCH: P(t) = -1.165963194070616 ==> log prob of sentence so far: -25.650367680922283

1GRAM: h
ENGLISH: P(h) = -1.1802717013558974 ==> log prob of sentence so far: -23.349853702911084
FRENCH: P(h) = -2.105661511639352 ==> log prob of sentence so far: -27.756029192561634

1GRAM: e
ENGLISH: P(e) = -0.9100671664377266 ==> log prob of sentence so far: -24.25992086934881
FRENCH: P(e) = -0.7669595017474583 ==> log prob of sentence so far: -28.522988694309092

1GRAM: m
ENGLISH: P(m) = -1.6111138481089953 ==> log prob of sentence so far: -25.871034717457807
FRENCH: P(m) = -1.5129506664806158 ==> log prob of sentence so far: -30.03593936078971

1GRAM: a
ENGLISH: P(a) = -1.08678555499431 ==> log prob of sentence so far: -26.957820272452118
FRENCH: P(a) = -1.076348685206508 ==> log prob of sentence so far: -31.112288045996216

1GRAM: c
ENGLISH: P(c) = -1.626591332724491 ==> log prob of sentence so far: -28.58441160517661
FRENCH: P(c) = -1.4922252466336208 ==> log prob of sentence so far: -32.60451329262984

1GRAM: r
ENGLISH: P(r) = -1.261271144299728 ==> log prob of sentence so far: -29.845682749476335
FRENCH: P(r) = -1.1840252799828537 ==> log prob of sentence so far: -33.788538572612694

1GRAM: o
ENGLISH: P(o) = -1.1377809795017801 ==> log prob of sentence so far: -30.983463728978116
FRENCH: P(o) = -1.2743410774278996 ==> log prob of sentence so far: -35.06287965004059

1GRAM: n
ENGLISH: P(n) = -1.1615943318171305 ==> log prob of sentence so far: -32.14505806079524
FRENCH: P(n) = -1.122633486706524 ==> log prob of sentence so far: -36.18551313674712

1GRAM: s
ENGLISH: P(s) = -1.1711384802271032 ==> log prob of sentence so far: -33.31619654102234
FRENCH: P(s) = -1.0644432040045189 ==> log prob of sentence so far: -37.24995634075164

1GRAM: a
ENGLISH: P(a) = -1.08678555499431 ==> log prob of sentence so far: -34.40298209601665
FRENCH: P(a) = -1.076348685206508 ==> log prob of sentence so far: -38.32630502595815

1GRAM: t
ENGLISH: P(t) = -1.034220196106131 ==> log prob of sentence so far: -35.437202292122784
FRENCH: P(t) = -1.165963194070616 ==> log prob of sentence so far: -39.49226822002876

1GRAM: r
ENGLISH: P(r) = -1.261271144299728 ==> log prob of sentence so far: -36.69847343642251
FRENCH: P(r) = -1.1840252799828537 ==> log prob of sentence so far: -40.67629350001162

1GRAM: e
ENGLISH: P(e) = -0.9100671664377266 ==> log prob of sentence so far: -37.60854060286024
FRENCH: P(e) = -0.7669595017474583 ==> log prob of sentence so far: -41.443253001759075

1GRAM: s
ENGLISH: P(s) = -1.1711384802271032 ==> log prob of sentence so far: -38.77967908308734
FRENCH: P(s) = -1.0644432040045189 ==> log prob of sentence so far: -42.507696205763594

1GRAM: t
ENGLISH: P(t) = -1.034220196106131 ==> log prob of sentence so far: -39.81389927919347
FRENCH: P(t) = -1.165963194070616 ==> log prob of sentence so far: -43.67365939983421

1GRAM: a
ENGLISH: P(a) = -1.08678555499431 ==> log prob of sentence so far: -40.90068483418778
FRENCH: P(a) = -1.076348685206508 ==> log prob of sentence so far: -44.75000808504072

1GRAM: u
ENGLISH: P(u) = -1.5524903648320154 ==> log prob of sentence so far: -42.453175199019796
FRENCH: P(u) = -1.2061319519803348 ==> log prob of sentence so far: -45.95614003702105

1GRAM: r
ENGLISH: P(r) = -1.261271144299728 ==> log prob of sentence so far: -43.71444634331952
FRENCH: P(r) = -1.1840252799828537 ==> log prob of sentence so far: -47.140165317003905

1GRAM: a
ENGLISH: P(a) = -1.08678555499431 ==> log prob of sentence so far: -44.80123189831383
FRENCH: P(a) = -1.076348685206508 ==> log prob of sentence so far: -48.21651400221042

1GRAM: n
ENGLISH: P(n) = -1.1615943318171305 ==> log prob of sentence so far: -45.96282623013096
FRENCH: P(n) = -1.122633486706524 ==> log prob of sentence so far: -49.33914748891694

1GRAM: t
ENGLISH: P(t) = -1.034220196106131 ==> log prob of sentence so far: -46.99704642623709
FRENCH: P(t) = -1.165963194070616 ==> log prob of sentence so far: -50.50511068298756

1GRAM: l
ENGLISH: P(l) = -1.3477680403069134 ==> log prob of sentence so far: -48.344814466544
FRENCH: P(l) = -1.2682101448093062 ==> log prob of sentence so far: -51.773320827796866

1GRAM: e
ENGLISH: P(e) = -0.9100671664377266 ==> log prob of sentence so far: -49.25488163298173
FRENCH: P(e) = -0.7669595017474583 ==> log prob of sentence so far: -52.54028032954432

1GRAM: j
ENGLISH: P(j) = -2.945027151073803 ==> log prob of sentence so far: -52.19990878405553
FRENCH: P(j) = -2.209620279826156 ==> log prob of sentence so far: -54.74990060937048

1GRAM: u
ENGLISH: P(u) = -1.5524903648320154 ==> log prob of sentence so far: -53.75239914888755
FRENCH: P(u) = -1.2061319519803348 ==> log prob of sentence so far: -55.95603256135081

1GRAM: l
ENGLISH: P(l) = -1.3477680403069134 ==> log prob of sentence so far: -55.10016718919446
FRENCH: P(l) = -1.2682101448093062 ==> log prob of sentence so far: -57.22424270616012

1GRAM: e
ENGLISH: P(e) = -0.9100671664377266 ==> log prob of sentence so far: -56.010234355632186
FRENCH: P(e) = -0.7669595017474583 ==> log prob of sentence so far: -57.99120220790758

1GRAM: s
ENGLISH: P(s) = -1.1711384802271032 ==> log prob of sentence so far: -57.181372835859285
FRENCH: P(s) = -1.0644432040045189 ==> log prob of sentence so far: -59.055645411912096

1GRAM: v
ENGLISH: P(v) = -2.0436385157662738 ==> log prob of sentence so far: -59.22501135162556
FRENCH: P(v) = -1.8278552100459284 ==> log prob of sentence so far: -60.88350062195802

1GRAM: e
ENGLISH: P(e) = -0.9100671664377266 ==> log prob of sentence so far: -60.13507851806329
FRENCH: P(e) = -0.7669595017474583 ==> log prob of sentence so far: -61.65046012370548

1GRAM: r
ENGLISH: P(r) = -1.261271144299728 ==> log prob of sentence so far: -61.396349662363015
FRENCH: P(r) = -1.1840252799828537 ==> log prob of sentence so far: -62.83448540368833

1GRAM: n
ENGLISH: P(n) = -1.1615943318171305 ==> log prob of sentence so far: -62.55794399418014
FRENCH: P(n) = -1.122633486706524 ==> log prob of sentence so far: -63.95711889039486

1GRAM: e
ENGLISH: P(e) = -0.9100671664377266 ==> log prob of sentence so far: -63.46801116061787
FRENCH: P(e) = -0.7669595017474583 ==> log prob of sentence so far: -64.72407839214232

1GRAM: t
ENGLISH: P(t) = -1.034220196106131 ==> log prob of sentence so far: -64.502231356724
FRENCH: P(t) = -1.165963194070616 ==> log prob of sentence so far: -65.89004158621293

1GRAM: o
ENGLISH: P(o) = -1.1377809795017801 ==> log prob of sentence so far: -65.64001233622578
FRENCH: P(o) = -1.2743410774278996 ==> log prob of sentence so far: -67.16438266364084

1GRAM: u
ENGLISH: P(u) = -1.5524903648320154 ==> log prob of sentence so far: -67.19250270105779
FRENCH: P(u) = -1.2061319519803348 ==> log prob of sentence so far: -68.37051461562118

1GRAM: r
ENGLISH: P(r) = -1.261271144299728 ==> log prob of sentence so far: -68.45377384535752
FRENCH: P(r) = -1.1840252799828537 ==> log prob of sentence so far: -69.55453989560402

1GRAM: e
ENGLISH: P(e) = -0.9100671664377266 ==> log prob of sentence so far: -69.36384101179524
FRENCH: P(e) = -0.7669595017474583 ==> log prob of sentence so far: -70.32149939735149

1GRAM: i
ENGLISH: P(i) = -1.162522881728433 ==> log prob of sentence so far: -70.52636389352368
FRENCH: P(i) = -1.1352025747557652 ==> log prob of sentence so far: -71.45670197210725

1GRAM: f
ENGLISH: P(f) = -1.6602800178172739 ==> log prob of sentence so far: -72.18664391134095
FRENCH: P(f) = -1.9917488938770878 ==> log prob of sentence so far: -73.44845086598434

1GRAM: f
ENGLISH: P(f) = -1.6602800178172739 ==> log prob of sentence so far: -73.84692392915822
FRENCH: P(f) = -1.9917488938770878 ==> log prob of sentence so far: -75.44019975986143

1GRAM: e
ENGLISH: P(e) = -0.9100671664377266 ==> log prob of sentence so far: -74.75699109559595
FRENCH: P(e) = -0.7669595017474583 ==> log prob of sentence so far: -76.2071592616089

1GRAM: l
ENGLISH: P(l) = -1.3477680403069134 ==> log prob of sentence so far: -76.10475913590287
FRENCH: P(l) = -1.2682101448093062 ==> log prob of sentence so far: -77.4753694064182

1GRAM: p
ENGLISH: P(p) = -1.7418320771526665 ==> log prob of sentence so far: -77.84659121305553
FRENCH: P(p) = -1.5386383937439996 ==> log prob of sentence so far: -79.01400780016219

1GRAM: a
ENGLISH: P(a) = -1.08678555499431 ==> log prob of sentence so far: -78.93337676804984
FRENCH: P(a) = -1.076348685206508 ==> log prob of sentence so far: -80.0903564853687

1GRAM: r
ENGLISH: P(r) = -1.261271144299728 ==> log prob of sentence so far: -80.19464791234957
FRENCH: P(r) = -1.1840252799828537 ==> log prob of sentence so far: -81.27438176535155

1GRAM: i
ENGLISH: P(i) = -1.162522881728433 ==> log prob of sentence so far: -81.357170794078
FRENCH: P(i) = -1.1352025747557652 ==> log prob of sentence so far: -82.40958434010732

1GRAM: s
ENGLISH: P(s) = -1.1711384802271032 ==> log prob of sentence so far: -82.5283092743051
FRENCH: P(s) = -1.0644432040045189 ==> log prob of sentence so far: -83.47402754411183

According to the 1gram model, the sentence is in English
----------------
2GRAM MODEL:

2GRAM: th
ENGLISH: P(h|t) = -0.41922455380664086 ==> log prob of sentence so far: -0.41922455380664086
FRENCH: P(h|t) = -2.127706282322321 ==> log prob of sentence so far: -2.127706282322321

2GRAM: he
ENGLISH: P(e|h) = -0.3699456961286581 ==> log prob of sentence so far: -0.7891702499352989
FRENCH: P(e|h) = -0.45712142827039787 ==> log prob of sentence so far: -2.5848277105927187

2GRAM: et
ENGLISH: P(t|e) = -1.1805542990214501 ==> log prob of sentence so far: -1.9697245489567492
FRENCH: P(t|e) = -1.08170423649854 ==> log prob of sentence so far: -3.6665319470912587

2GRAM: tr
ENGLISH: P(r|t) = -1.5560820110987414 ==> log prob of sentence so far: -3.5258065600554906
FRENCH: P(r|t) = -0.9624195508382004 ==> log prob of sentence so far: -4.628951497929459

2GRAM: ru
ENGLISH: P(u|r) = -1.7204943073924195 ==> log prob of sentence so far: -5.246300867447911
FRENCH: P(u|r) = -1.6688974702942976 ==> log prob of sentence so far: -6.297848968223757

2GRAM: um
ENGLISH: P(m|u) = -1.4655094816424232 ==> log prob of sentence so far: -6.711810349090333
FRENCH: P(m|u) = -1.6407688905817346 ==> log prob of sentence so far: -7.938617858805491

2GRAM: mp
ENGLISH: P(p|m) = -1.2992621985970703 ==> log prob of sentence so far: -8.011072547687403
FRENCH: P(p|m) = -1.1677771165060902 ==> log prob of sentence so far: -9.10639497531158

2GRAM: ps
ENGLISH: P(s|p) = -1.4161630232389817 ==> log prob of sentence so far: -9.427235570926385
FRENCH: P(s|p) = -1.8150193204638296 ==> log prob of sentence so far: -10.92141429577541

2GRAM: sd
ENGLISH: P(d|s) = -2.064143553957153 ==> log prob of sentence so far: -11.491379124883538
FRENCH: P(d|s) = -1.0844756868001968 ==> log prob of sentence so far: -12.005889982575606

2GRAM: di
ENGLISH: P(i|d) = -0.9225600224026376 ==> log prob of sentence so far: -12.413939147286175
FRENCH: P(i|d) = -0.9303567030668124 ==> log prob of sentence so far: -12.936246685642418

2GRAM: in
ENGLISH: P(n|i) = -0.5176578891035971 ==> log prob of sentence so far: -12.931597036389773
FRENCH: P(n|i) = -0.8961969544626189 ==> log prob of sentence so far: -13.832443640105037

2GRAM: ne
ENGLISH: P(e|n) = -1.0532206154149155 ==> log prob of sentence so far: -13.984817651804688
FRENCH: P(e|n) = -0.7542226797268654 ==> log prob of sentence so far: -14.586666319831902

2GRAM: ew
ENGLISH: P(w|e) = -1.4465819148478067 ==> log prob of sentence so far: -15.431399566652495
FRENCH: P(w|e) = -3.416425987955355 ==> log prob of sentence so far: -18.003092307787256

2GRAM: wi
ENGLISH: P(i|w) = -0.770979412400462 ==> log prob of sentence so far: -16.202378979052956
FRENCH: P(i|w) = -0.9190780923760739 ==> log prob of sentence so far: -18.92217040016333

2GRAM: it
ENGLISH: P(t|i) = -0.9082406380281335 ==> log prob of sentence so far: -17.11061961708109
FRENCH: P(t|i) = -0.7741212801413213 ==> log prob of sentence so far: -19.696291680304654

2GRAM: th
ENGLISH: P(h|t) = -0.41922455380664086 ==> log prob of sentence so far: -17.529844170887728
FRENCH: P(h|t) = -2.127706282322321 ==> log prob of sentence so far: -21.823997962626976

2GRAM: ht
ENGLISH: P(t|h) = -1.3221154288348034 ==> log prob of sentence so far: -18.85195959972253
FRENCH: P(t|h) = -2.8318697742805017 ==> log prob of sentence so far: -24.655867736907478

2GRAM: th
ENGLISH: P(h|t) = -0.41922455380664086 ==> log prob of sentence so far: -19.27118415352917
FRENCH: P(h|t) = -2.127706282322321 ==> log prob of sentence so far: -26.7835740192298

2GRAM: he
ENGLISH: P(e|h) = -0.3699456961286581 ==> log prob of sentence so far: -19.641129849657826
FRENCH: P(e|h) = -0.45712142827039787 ==> log prob of sentence so far: -27.240695447500197

2GRAM: em
ENGLISH: P(m|e) = -1.4360351488070457 ==> log prob of sentence so far: -21.077164998464873
FRENCH: P(m|e) = -1.2279037227559553 ==> log prob of sentence so far: -28.46859917025615

2GRAM: ma
ENGLISH: P(a|m) = -0.7036307148843848 ==> log prob of sentence so far: -21.780795713349256
FRENCH: P(a|m) = -0.7370260153920789 ==> log prob of sentence so far: -29.20562518564823

2GRAM: ac
ENGLISH: P(c|a) = -1.4314028442699953 ==> log prob of sentence so far: -23.212198557619253
FRENCH: P(c|a) = -1.3380559315026561 ==> log prob of sentence so far: -30.543681117150886

2GRAM: cr
ENGLISH: P(r|c) = -1.225266964265096 ==> log prob of sentence so far: -24.43746552188435
FRENCH: P(r|c) = -1.4301186975992826 ==> log prob of sentence so far: -31.97379981475017

2GRAM: ro
ENGLISH: P(o|r) = -0.9678746655871442 ==> log prob of sentence so far: -25.40534018747149
FRENCH: P(o|r) = -1.113846900292781 ==> log prob of sentence so far: -33.08764671504295

2GRAM: on
ENGLISH: P(n|o) = -0.8621497423065837 ==> log prob of sentence so far: -26.267489929778076
FRENCH: P(n|o) = -0.5204118582964626 ==> log prob of sentence so far: -33.60805857333941

2GRAM: ns
ENGLISH: P(s|n) = -1.2471501236353728 ==> log prob of sentence so far: -27.514640053413448
FRENCH: P(s|n) = -0.9210890151969363 ==> log prob of sentence so far: -34.52914758853635

2GRAM: sa
ENGLISH: P(a|s) = -1.0354569999643435 ==> log prob of sentence so far: -28.55009705337779
FRENCH: P(a|s) = -0.992517773991393 ==> log prob of sentence so far: -35.52166536252774

2GRAM: at
ENGLISH: P(t|a) = -0.8627002859779346 ==> log prob of sentence so far: -29.412797339355723
FRENCH: P(t|a) = -1.247940370475458 ==> log prob of sentence so far: -36.769605733003196

2GRAM: tr
ENGLISH: P(r|t) = -1.5560820110987414 ==> log prob of sentence so far: -30.968879350454465
FRENCH: P(r|t) = -0.9624195508382004 ==> log prob of sentence so far: -37.732025283841395

2GRAM: re
ENGLISH: P(e|r) = -0.628115605628671 ==> log prob of sentence so far: -31.596994956083137
FRENCH: P(e|r) = -0.49086037711507113 ==> log prob of sentence so far: -38.222885660956464

2GRAM: es
ENGLISH: P(s|e) = -0.9448348227533898 ==> log prob of sentence so far: -32.54182977883653
FRENCH: P(s|e) = -0.7261117486329816 ==> log prob of sentence so far: -38.948997409589445

2GRAM: st
ENGLISH: P(t|s) = -0.7036151348650846 ==> log prob of sentence so far: -33.24544491370161
FRENCH: P(t|s) = -1.237297938930775 ==> log prob of sentence so far: -40.18629534852022

2GRAM: ta
ENGLISH: P(a|t) = -1.1697667723029095 ==> log prob of sentence so far: -34.41521168600452
FRENCH: P(a|t) = -0.8826874115845678 ==> log prob of sentence so far: -41.06898276010479

2GRAM: au
ENGLISH: P(u|a) = -2.1223080013027937 ==> log prob of sentence so far: -36.53751968730731
FRENCH: P(u|a) = -1.0789644781459928 ==> log prob of sentence so far: -42.14794723825078

2GRAM: ur
ENGLISH: P(r|u) = -0.9176649397398913 ==> log prob of sentence so far: -37.4551846270472
FRENCH: P(r|u) = -0.7886730035857709 ==> log prob of sentence so far: -42.93662024183655

2GRAM: ra
ENGLISH: P(a|r) = -1.0362014833313207 ==> log prob of sentence so far: -38.49138611037852
FRENCH: P(a|r) = -0.9044619223819287 ==> log prob of sentence so far: -43.84108216421848

2GRAM: an
ENGLISH: P(n|a) = -0.7044700719963498 ==> log prob of sentence so far: -39.19585618237487
FRENCH: P(n|a) = -0.8167432712437924 ==> log prob of sentence so far: -44.65782543546227

2GRAM: nt
ENGLISH: P(t|n) = -0.8261940622653209 ==> log prob of sentence so far: -40.02205024464019
FRENCH: P(t|n) = -0.6408600449649795 ==> log prob of sentence so far: -45.29868548042725

2GRAM: tl
ENGLISH: P(l|t) = -1.6844004883584218 ==> log prob of sentence so far: -41.70645073299861
FRENCH: P(l|t) = -1.2581393294740408 ==> log prob of sentence so far: -46.55682480990129

2GRAM: le
ENGLISH: P(e|l) = -0.6937165011526335 ==> log prob of sentence so far: -42.40016723415125
FRENCH: P(e|l) = -0.4011572582950946 ==> log prob of sentence so far: -46.95798206819639

2GRAM: ej
ENGLISH: P(j|e) = -2.8358547710584587 ==> log prob of sentence so far: -45.236022005209705
FRENCH: P(j|e) = -2.0398490308988433 ==> log prob of sentence so far: -48.99783109909523

2GRAM: ju
ENGLISH: P(u|j) = -0.6016606400520957 ==> log prob of sentence so far: -45.8376826452618
FRENCH: P(u|j) = -1.2031059862067204 ==> log prob of sentence so far: -50.20093708530195

2GRAM: ul
ENGLISH: P(l|u) = -1.0124316073394557 ==> log prob of sentence so far: -46.85011425260126
FRENCH: P(l|u) = -1.438028936039373 ==> log prob of sentence so far: -51.638966021341325

2GRAM: le
ENGLISH: P(e|l) = -0.6937165011526335 ==> log prob of sentence so far: -47.543830753753895
FRENCH: P(e|l) = -0.4011572582950946 ==> log prob of sentence so far: -52.04012327963642

2GRAM: es
ENGLISH: P(s|e) = -0.9448348227533898 ==> log prob of sentence so far: -48.48866557650729
FRENCH: P(s|e) = -0.7261117486329816 ==> log prob of sentence so far: -52.7662350282694

2GRAM: sv
ENGLISH: P(v|s) = -2.54045531267003 ==> log prob of sentence so far: -51.02912088917732
FRENCH: P(v|s) = -1.9567259728580684 ==> log prob of sentence so far: -54.722961001127466

2GRAM: ve
ENGLISH: P(e|v) = -0.17366635336049932 ==> log prob of sentence so far: -51.20278724253782
FRENCH: P(e|v) = -0.48101971902132806 ==> log prob of sentence so far: -55.20398072014879

2GRAM: er
ENGLISH: P(r|e) = -0.8561254368903566 ==> log prob of sentence so far: -52.05891267942818
FRENCH: P(r|e) = -1.0504391006754108 ==> log prob of sentence so far: -56.254419820824204

2GRAM: rn
ENGLISH: P(n|r) = -1.56492471548134 ==> log prob of sentence so far: -53.62383739490952
FRENCH: P(n|r) = -1.7985117613302346 ==> log prob of sentence so far: -58.052931582154436

2GRAM: ne
ENGLISH: P(e|n) = -1.0532206154149155 ==> log prob of sentence so far: -54.67705801032444
FRENCH: P(e|n) = -0.7542226797268654 ==> log prob of sentence so far: -58.8071542618813

2GRAM: et
ENGLISH: P(t|e) = -1.1805542990214501 ==> log prob of sentence so far: -55.85761230934589
FRENCH: P(t|e) = -1.08170423649854 ==> log prob of sentence so far: -59.88885849837984

2GRAM: to
ENGLISH: P(o|t) = -0.9786971013634347 ==> log prob of sentence so far: -56.836309410709326
FRENCH: P(o|t) = -1.3522518776071424 ==> log prob of sentence so far: -61.241110375986985

2GRAM: ou
ENGLISH: P(u|o) = -0.9045829397217254 ==> log prob of sentence so far: -57.740892350431054
FRENCH: P(u|o) = -0.6276609377180441 ==> log prob of sentence so far: -61.868771313705025

2GRAM: ur
ENGLISH: P(r|u) = -0.9176649397398913 ==> log prob of sentence so far: -58.65855729017095
FRENCH: P(r|u) = -0.7886730035857709 ==> log prob of sentence so far: -62.657444317290796

2GRAM: re
ENGLISH: P(e|r) = -0.628115605628671 ==> log prob of sentence so far: -59.28667289579962
FRENCH: P(e|r) = -0.49086037711507113 ==> log prob of sentence so far: -63.148304694405866

2GRAM: ei
ENGLISH: P(i|e) = -1.4961758908979572 ==> log prob of sentence so far: -60.78284878669758
FRENCH: P(i|e) = -1.7566153914074607 ==> log prob of sentence so far: -64.90492008581333

2GRAM: if
ENGLISH: P(f|i) = -1.676974487159998 ==> log prob of sentence so far: -62.45982327385757
FRENCH: P(f|i) = -1.8975498978680236 ==> log prob of sentence so far: -66.80246998368135

2GRAM: ff
ENGLISH: P(f|f) = -1.321277270346639 ==> log prob of sentence so far: -63.781100544204214
FRENCH: P(f|f) = -1.049156468636785 ==> log prob of sentence so far: -67.85162645231813

2GRAM: fe
ENGLISH: P(e|f) = -1.1291672444997787 ==> log prob of sentence so far: -64.91026778870399
FRENCH: P(e|f) = -0.9020447530772935 ==> log prob of sentence so far: -68.75367120539542

2GRAM: el
ENGLISH: P(l|e) = -1.327771460508567 ==> log prob of sentence so far: -66.23803924921256
FRENCH: P(l|e) = -1.2044160454405197 ==> log prob of sentence so far: -69.95808725083594

2GRAM: lp
ENGLISH: P(p|l) = -2.1725107536690484 ==> log prob of sentence so far: -68.4105500028816
FRENCH: P(p|l) = -2.197537530204924 ==> log prob of sentence so far: -72.15562478104087

2GRAM: pa
ENGLISH: P(a|p) = -0.9076895034466613 ==> log prob of sentence so far: -69.31823950632827
FRENCH: P(a|p) = -0.6468271379316752 ==> log prob of sentence so far: -72.80245191897255

2GRAM: ar
ENGLISH: P(r|a) = -0.98542005411536 ==> log prob of sentence so far: -70.30365956044363
FRENCH: P(r|a) = -1.0331352537647966 ==> log prob of sentence so far: -73.83558717273735

2GRAM: ri
ENGLISH: P(i|r) = -1.0118337604432819 ==> log prob of sentence so far: -71.31549332088692
FRENCH: P(i|r) = -1.0892323230118923 ==> log prob of sentence so far: -74.92481949574925

2GRAM: is
ENGLISH: P(s|i) = -0.8698730474375823 ==> log prob of sentence so far: -72.1853663683245
FRENCH: P(s|i) = -0.8502233835532343 ==> log prob of sentence so far: -75.77504287930248

According to the 2gram model, the sentence is in English
----------------
3GRAM MODEL:

3GRAM: the
ENGLISH: P(e|th) = -0.20437434030792398 ==> log prob of sentence so far: -0.20437434030792398
FRENCH: P(e|th) = -0.3708817759380016 ==> log prob of sentence so far: -0.3708817759380016

3GRAM: het
ENGLISH: P(t|he) = -1.44015534450804 ==> log prob of sentence so far: -1.6445296848159638
FRENCH: P(t|he) = -1.7164670857844722 ==> log prob of sentence so far: -2.087348861722474

3GRAM: etr
ENGLISH: P(r|et) = -1.444291390690616 ==> log prob of sentence so far: -3.08882107550658
FRENCH: P(r|et) = -0.8432233846635783 ==> log prob of sentence so far: -2.930572246386052

3GRAM: tru
ENGLISH: P(u|tr) = -0.8514567843827048 ==> log prob of sentence so far: -3.9402778598892847
FRENCH: P(u|tr) = -1.6965175511292239 ==> log prob of sentence so far: -4.627089797515276

3GRAM: rum
ENGLISH: P(m|ru) = -1.3353464431032718 ==> log prob of sentence so far: -5.275624302992556
FRENCH: P(m|ru) = -1.1580022312020044 ==> log prob of sentence so far: -5.78509202871728

3GRAM: ump
ENGLISH: P(p|um) = -0.6999287121909108 ==> log prob of sentence so far: -5.975553015183467
FRENCH: P(p|um) = -2.291812687467119 ==> log prob of sentence so far: -8.076904716184398

3GRAM: mps
ENGLISH: P(s|mp) = -1.2953774931129696 ==> log prob of sentence so far: -7.270930508296436
FRENCH: P(s|mp) = -0.9423839028786604 ==> log prob of sentence so far: -9.019288619063058

3GRAM: psd
ENGLISH: P(d|ps) = -1.6763418117264048 ==> log prob of sentence so far: -8.94727232002284
FRENCH: P(d|ps) = -0.5777274132876826 ==> log prob of sentence so far: -9.59701603235074

3GRAM: sdi
ENGLISH: P(i|sd) = -0.6684669493391583 ==> log prob of sentence so far: -9.615739269361999
FRENCH: P(i|sd) = -1.2087100199064011 ==> log prob of sentence so far: -10.805726052257143

3GRAM: din
ENGLISH: P(n|di) = -0.4226691382024194 ==> log prob of sentence so far: -10.038408407564418
FRENCH: P(n|di) = -1.3771141528644772 ==> log prob of sentence so far: -12.18284020512162

3GRAM: ine
ENGLISH: P(e|in) = -1.238889519293708 ==> log prob of sentence so far: -11.277297926858125
FRENCH: P(e|in) = -0.4711066547549466 ==> log prob of sentence so far: -12.653946859876566

3GRAM: new
ENGLISH: P(w|ne) = -1.2408474035275008 ==> log prob of sentence so far: -12.518145330385625
FRENCH: P(w|ne) = -2.633756927514406 ==> log prob of sentence so far: -15.287703787390972

3GRAM: ewi
ENGLISH: P(i|ew) = -0.8702718946272693 ==> log prob of sentence so far: -13.388417225012894
FRENCH: P(i|ew) = -Infinity ==> log prob of sentence so far: -Infinity

3GRAM: wit
ENGLISH: P(t|wi) = -0.2501862499675404 ==> log prob of sentence so far: -13.638603474980435
FRENCH: P(t|wi) = -Infinity ==> log prob of sentence so far: -Infinity

3GRAM: ith
ENGLISH: P(h|it) = -0.5079774624346324 ==> log prob of sentence so far: -14.146580937415068
FRENCH: P(h|it) = -2.1707762214163977 ==> log prob of sentence so far: -Infinity

3GRAM: tht
ENGLISH: P(t|th) = -1.7397935741790762 ==> log prob of sentence so far: -15.886374511594145
FRENCH: P(t|th) = -Infinity ==> log prob of sentence so far: -Infinity

3GRAM: hth
ENGLISH: P(h|ht) = -0.41863932476400895 ==> log prob of sentence so far: -16.305013836358153
FRENCH: P(h|ht) = -Infinity ==> log prob of sentence so far: -Infinity

3GRAM: the
ENGLISH: P(e|th) = -0.20437434030792398 ==> log prob of sentence so far: -16.50938817666608
FRENCH: P(e|th) = -0.3708817759380016 ==> log prob of sentence so far: -Infinity

3GRAM: hem
ENGLISH: P(m|he) = -1.2238720886327588 ==> log prob of sentence so far: -17.73326026529884
FRENCH: P(m|he) = -1.3282869144015907 ==> log prob of sentence so far: -Infinity

3GRAM: ema
ENGLISH: P(a|em) = -0.6301947309135739 ==> log prob of sentence so far: -18.36345499621241
FRENCH: P(a|em) = -0.7802197709864411 ==> log prob of sentence so far: -Infinity

3GRAM: mac
ENGLISH: P(c|ma) = -1.6849789819066943 ==> log prob of sentence so far: -20.048433978119107
FRENCH: P(c|ma) = -1.3998411334260228 ==> log prob of sentence so far: -Infinity

3GRAM: acr
ENGLISH: P(r|ac) = -1.4294051040256353 ==> log prob of sentence so far: -21.47783908214474
FRENCH: P(r|ac) = -1.5332765637484609 ==> log prob of sentence so far: -Infinity

3GRAM: cro
ENGLISH: P(o|cr) = -0.8061799739838872 ==> log prob of sentence so far: -22.284019056128628
FRENCH: P(o|cr) = -0.5896507333461425 ==> log prob of sentence so far: -Infinity

3GRAM: ron
ENGLISH: P(n|ro) = -1.1318723525445349 ==> log prob of sentence so far: -23.41589140867316
FRENCH: P(n|ro) = -0.8417212192546439 ==> log prob of sentence so far: -Infinity

3GRAM: ons
ENGLISH: P(s|on) = -0.9339789884185266 ==> log prob of sentence so far: -24.34987039709169
FRENCH: P(s|on) = -0.56572586743725 ==> log prob of sentence so far: -Infinity

3GRAM: nsa
ENGLISH: P(a|ns) = -1.0183125581379533 ==> log prob of sentence so far: -25.368182955229642
FRENCH: P(a|ns) = -1.1969807345155727 ==> log prob of sentence so far: -Infinity

3GRAM: sat
ENGLISH: P(t|sa) = -1.2656346732438137 ==> log prob of sentence so far: -26.633817628473455
FRENCH: P(t|sa) = -1.3991739037432724 ==> log prob of sentence so far: -Infinity

3GRAM: atr
ENGLISH: P(r|at) = -1.9292485807496051 ==> log prob of sentence so far: -28.56306620922306
FRENCH: P(r|at) = -0.9128860139800419 ==> log prob of sentence so far: -Infinity

3GRAM: tre
ENGLISH: P(e|tr) = -0.7342735124711671 ==> log prob of sentence so far: -29.297339721694225
FRENCH: P(e|tr) = -0.21701352257942158 ==> log prob of sentence so far: -Infinity

3GRAM: res
ENGLISH: P(s|re) = -0.8764822385109647 ==> log prob of sentence so far: -30.17382196020519
FRENCH: P(s|re) = -0.6175517228087953 ==> log prob of sentence so far: -Infinity

3GRAM: est
ENGLISH: P(t|es) = -0.723605514531276 ==> log prob of sentence so far: -30.897427474736464
FRENCH: P(t|es) = -1.0741259303443658 ==> log prob of sentence so far: -Infinity

3GRAM: sta
ENGLISH: P(a|st) = -0.8507875687467926 ==> log prob of sentence so far: -31.748215043483256
FRENCH: P(a|st) = -0.7669389644459209 ==> log prob of sentence so far: -Infinity

3GRAM: tau
ENGLISH: P(u|ta) = -2.533652455097955 ==> log prob of sentence so far: -34.281867498581214
FRENCH: P(u|ta) = -1.1203479421377074 ==> log prob of sentence so far: -Infinity

3GRAM: aur
ENGLISH: P(r|au) = -1.9227995760038339 ==> log prob of sentence so far: -36.204667074585046
FRENCH: P(r|au) = -1.354937658483145 ==> log prob of sentence so far: -Infinity

3GRAM: ura
ENGLISH: P(a|ur) = -1.2225795776927373 ==> log prob of sentence so far: -37.42724665227778
FRENCH: P(a|ur) = -1.014219434859442 ==> log prob of sentence so far: -Infinity

3GRAM: ran
ENGLISH: P(n|ra) = -0.6166102645727883 ==> log prob of sentence so far: -38.04385691685057
FRENCH: P(n|ra) = -0.7472746839105738 ==> log prob of sentence so far: -Infinity

3GRAM: ant
ENGLISH: P(t|an) = -1.0399535742850767 ==> log prob of sentence so far: -39.08381049113565
FRENCH: P(t|an) = -0.4901086014779933 ==> log prob of sentence so far: -Infinity

3GRAM: ntl
ENGLISH: P(l|nt) = -1.4474332787256188 ==> log prob of sentence so far: -40.53124376986127
FRENCH: P(l|nt) = -1.0050337335415642 ==> log prob of sentence so far: -Infinity

3GRAM: tle
ENGLISH: P(e|tl) = -0.36347628406791793 ==> log prob of sentence so far: -40.894720053929184
FRENCH: P(e|tl) = -0.22752661738535043 ==> log prob of sentence so far: -Infinity

3GRAM: lej
ENGLISH: P(j|le) = -2.771114822229228 ==> log prob of sentence so far: -43.665834876158414
FRENCH: P(j|le) = -2.108606559449081 ==> log prob of sentence so far: -Infinity

3GRAM: eju
ENGLISH: P(u|ej) = -0.6290434810135559 ==> log prob of sentence so far: -44.29487835717197
FRENCH: P(u|ej) = -1.1846914308175989 ==> log prob of sentence so far: -Infinity

3GRAM: jul
ENGLISH: P(l|ju) = -1.9574476493145363 ==> log prob of sentence so far: -46.252326006486506
FRENCH: P(l|ju) = -2.1271047983648077 ==> log prob of sentence so far: -Infinity

3GRAM: ule
ENGLISH: P(e|ul) = -1.6851499990706542 ==> log prob of sentence so far: -47.93747600555716
FRENCH: P(e|ul) = -0.3391707620263511 ==> log prob of sentence so far: -Infinity

3GRAM: les
ENGLISH: P(s|le) = -0.7096084905185048 ==> log prob of sentence so far: -48.647084496075664
FRENCH: P(s|le) = -0.48363728865690647 ==> log prob of sentence so far: -Infinity

3GRAM: esv
ENGLISH: P(v|es) = -3.096701501610003 ==> log prob of sentence so far: -51.74378599768566
FRENCH: P(v|es) = -1.8506182093392025 ==> log prob of sentence so far: -Infinity

3GRAM: sve
ENGLISH: P(e|sv) = -0.42034411827365686 ==> log prob of sentence so far: -52.16413011595932
FRENCH: P(e|sv) = -0.5394231393045121 ==> log prob of sentence so far: -Infinity

3GRAM: ver
ENGLISH: P(r|ve) = -0.3846945002492691 ==> log prob of sentence so far: -52.548824616208584
FRENCH: P(r|ve) = -0.5160072564817239 ==> log prob of sentence so far: -Infinity

3GRAM: ern
ENGLISH: P(n|er) = -1.4796130094975388 ==> log prob of sentence so far: -54.028437625706125
FRENCH: P(n|er) = -1.6002043896310785 ==> log prob of sentence so far: -Infinity

3GRAM: rne
ENGLISH: P(e|rn) = -0.7074094750852227 ==> log prob of sentence so far: -54.73584710079135
FRENCH: P(e|rn) = -0.4460660764892311 ==> log prob of sentence so far: -Infinity

3GRAM: net
ENGLISH: P(t|ne) = -1.3087056194777347 ==> log prob of sentence so far: -56.04455272026908
FRENCH: P(t|ne) = -1.1851242106061812 ==> log prob of sentence so far: -Infinity

3GRAM: eto
ENGLISH: P(o|et) = -0.8483975391281252 ==> log prob of sentence so far: -56.8929502593972
FRENCH: P(o|et) = -1.2645405785537294 ==> log prob of sentence so far: -Infinity

3GRAM: tou
ENGLISH: P(u|to) = -1.4967206397131412 ==> log prob of sentence so far: -58.38967089911034
FRENCH: P(u|to) = -0.27773513009370226 ==> log prob of sentence so far: -Infinity

3GRAM: our
ENGLISH: P(r|ou) = -0.9326674845605442 ==> log prob of sentence so far: -59.32233838367089
FRENCH: P(r|ou) = -0.6943373531005168 ==> log prob of sentence so far: -Infinity

3GRAM: ure
ENGLISH: P(e|ur) = -0.6380103185251103 ==> log prob of sentence so far: -59.960348702196
FRENCH: P(e|ur) = -0.6863628733185169 ==> log prob of sentence so far: -Infinity

3GRAM: rei
ENGLISH: P(i|re) = -1.4001107370753176 ==> log prob of sentence so far: -61.36045943927132
FRENCH: P(i|re) = -1.69284691927723 ==> log prob of sentence so far: -Infinity

3GRAM: eif
ENGLISH: P(f|ei) = -1.848732324669351 ==> log prob of sentence so far: -63.209191763940666
FRENCH: P(f|ei) = -Infinity ==> log prob of sentence so far: -Infinity

3GRAM: iff
ENGLISH: P(f|if) = -1.0176753120422888 ==> log prob of sentence so far: -64.22686707598295
FRENCH: P(f|if) = -0.7857403859931953 ==> log prob of sentence so far: -Infinity

3GRAM: ffe
ENGLISH: P(e|ff) = -0.6513525773912198 ==> log prob of sentence so far: -64.87821965337417
FRENCH: P(e|ff) = -0.44771162540303333 ==> log prob of sentence so far: -Infinity

3GRAM: fel
ENGLISH: P(l|fe) = -0.9140478787840466 ==> log prob of sentence so far: -65.79226753215822
FRENCH: P(l|fe) = -2.468839448857906 ==> log prob of sentence so far: -Infinity

3GRAM: elp
ENGLISH: P(p|el) = -1.8799964810672123 ==> log prob of sentence so far: -67.67226401322543
FRENCH: P(p|el) = -2.5633624094866074 ==> log prob of sentence so far: -Infinity

3GRAM: lpa
ENGLISH: P(a|lp) = -0.8622537330205384 ==> log prob of sentence so far: -68.53451774624597
FRENCH: P(a|lp) = -0.5805203134718526 ==> log prob of sentence so far: -Infinity

3GRAM: par
ENGLISH: P(r|pa) = -0.48330789041855243 ==> log prob of sentence so far: -69.01782563666453
FRENCH: P(r|pa) = -0.32239224003994266 ==> log prob of sentence so far: -Infinity

3GRAM: ari
ENGLISH: P(i|ar) = -1.1811450844055302 ==> log prob of sentence so far: -70.19897072107005
FRENCH: P(i|ar) = -1.1145899848207181 ==> log prob of sentence so far: -Infinity

3GRAM: ris
ENGLISH: P(s|ri) = -1.0658727727192114 ==> log prob of sentence so far: -71.26484349378927
FRENCH: P(s|ri) = -0.8406183069419609 ==> log prob of sentence so far: -Infinity

According to the 3gram model, the sentence is in English
----------------
4GRAM MODEL:

4GRAM: thet
ENGLISH: P(t|the) = -1.441202159185113 ==> log prob of sentence so far: -1.441202159185113
FRENCH: P(t|the) = -1.693140460675295 ==> log prob of sentence so far: -1.693140460675295

4GRAM: hetr
ENGLISH: P(r|het) = -0.9127628697344277 ==> log prob of sentence so far: -2.3539650289195406
FRENCH: P(r|het) = -Infinity ==> log prob of sentence so far: -Infinity

4GRAM: etru
ENGLISH: P(u|etr) = -0.6690067809585756 ==> log prob of sentence so far: -3.022971809878116
FRENCH: P(u|etr) = -1.9398311337680387 ==> log prob of sentence so far: -Infinity

4GRAM: trum
ENGLISH: P(m|tru) = -1.2997507768248082 ==> log prob of sentence so far: -4.322722586702924
FRENCH: P(m|tru) = -0.4943232848272847 ==> log prob of sentence so far: -Infinity

4GRAM: rump
ENGLISH: P(p|rum) = -0.47712125471966244 ==> log prob of sentence so far: -4.799843841422587
FRENCH: P(p|rum) = -Infinity ==> log prob of sentence so far: -Infinity

4GRAM: umps
ENGLISH: P(s|ump) = -0.8166095022028192 ==> log prob of sentence so far: -5.616453343625406
FRENCH: P(s|ump) = -Infinity ==> log prob of sentence so far: -Infinity

4GRAM: mpsd
ENGLISH: P(d|mps) = -Infinity ==> log prob of sentence so far: -Infinity
FRENCH: P(d|mps) = -0.5579444478342641 ==> log prob of sentence so far: -Infinity

4GRAM: psdi
ENGLISH: P(i|psd) = -0.4149733479708179 ==> log prob of sentence so far: -Infinity
FRENCH: P(i|psd) = -1.8920946026904804 ==> log prob of sentence so far: -Infinity

4GRAM: sdin
ENGLISH: P(n|sdi) = -1.157607853361668 ==> log prob of sentence so far: -Infinity
FRENCH: P(n|sdi) = -1.5228787452803376 ==> log prob of sentence so far: -Infinity

4GRAM: dine
ENGLISH: P(e|din) = -1.8170693164140133 ==> log prob of sentence so far: -Infinity
FRENCH: P(e|din) = -0.5665216659489734 ==> log prob of sentence so far: -Infinity

4GRAM: inew
ENGLISH: P(w|ine) = -1.4399396743370376 ==> log prob of sentence so far: -Infinity
FRENCH: P(w|ine) = -Infinity ==> log prob of sentence so far: -Infinity

4GRAM: newi
ENGLISH: P(i|new) = -0.932248215733157 ==> log prob of sentence so far: -Infinity
FRENCH: P(i|new) = -Infinity ==> log prob of sentence so far: -Infinity

4GRAM: ewit
ENGLISH: P(t|ewi) = -0.36503783879694957 ==> log prob of sentence so far: -Infinity
FRENCH: P(t|ewi) = NaN ==> log prob of sentence so far: NaN

4GRAM: with
ENGLISH: P(h|wit) = -0.017685786656383103 ==> log prob of sentence so far: -Infinity
FRENCH: P(h|wit) = NaN ==> log prob of sentence so far: NaN

4GRAM: itht
ENGLISH: P(t|ith) = -0.7164555767356107 ==> log prob of sentence so far: -Infinity
FRENCH: P(t|ith) = -Infinity ==> log prob of sentence so far: NaN

4GRAM: thth
ENGLISH: P(h|tht) = -0.05087981004790004 ==> log prob of sentence so far: -Infinity
FRENCH: P(h|tht) = NaN ==> log prob of sentence so far: NaN

4GRAM: hthe
ENGLISH: P(e|hth) = -0.11787688212081314 ==> log prob of sentence so far: -Infinity
FRENCH: P(e|hth) = NaN ==> log prob of sentence so far: NaN

4GRAM: them
ENGLISH: P(m|the) = -1.1385946300688137 ==> log prob of sentence so far: -Infinity
FRENCH: P(m|the) = -1.4712917110589385 ==> log prob of sentence so far: NaN

4GRAM: hema
ENGLISH: P(a|hem) = -0.5395922800860928 ==> log prob of sentence so far: -Infinity
FRENCH: P(a|hem) = -0.7403626894942439 ==> log prob of sentence so far: NaN

4GRAM: emac
ENGLISH: P(c|ema) = -1.8683278807327317 ==> log prob of sentence so far: -Infinity
FRENCH: P(c|ema) = -1.5700907852529205 ==> log prob of sentence so far: NaN

4GRAM: macr
ENGLISH: P(r|mac) = -1.3710678622717363 ==> log prob of sentence so far: -Infinity
FRENCH: P(r|mac) = -1.1903316981702914 ==> log prob of sentence so far: NaN

4GRAM: acro
ENGLISH: P(o|acr) = -0.43831917065871046 ==> log prob of sentence so far: -Infinity
FRENCH: P(o|acr) = -0.5910646070264992 ==> log prob of sentence so far: NaN

4GRAM: cron
ENGLISH: P(n|cro) = -1.845098040014257 ==> log prob of sentence so far: -Infinity
FRENCH: P(n|cro) = -Infinity ==> log prob of sentence so far: NaN

4GRAM: rons
ENGLISH: P(s|ron) = -1.165233331467473 ==> log prob of sentence so far: -Infinity
FRENCH: P(s|ron) = -0.6126963061737474 ==> log prob of sentence so far: NaN

4GRAM: onsa
ENGLISH: P(a|ons) = -1.0456630684531387 ==> log prob of sentence so far: -Infinity
FRENCH: P(a|ons) = -1.130556084589906 ==> log prob of sentence so far: NaN

4GRAM: nsat
ENGLISH: P(t|nsa) = -1.1487054585660488 ==> log prob of sentence so far: -Infinity
FRENCH: P(t|nsa) = -1.1450187260536475 ==> log prob of sentence so far: NaN

4GRAM: satr
ENGLISH: P(r|sat) = -1.9912260756924949 ==> log prob of sentence so far: -Infinity
FRENCH: P(r|sat) = -0.8598839610702502 ==> log prob of sentence so far: NaN

4GRAM: atre
ENGLISH: P(e|atr) = -0.6320232147054056 ==> log prob of sentence so far: -Infinity
FRENCH: P(e|atr) = -0.20760831050174613 ==> log prob of sentence so far: NaN

4GRAM: tres
ENGLISH: P(s|tre) = -0.9826644376675178 ==> log prob of sentence so far: -Infinity
FRENCH: P(s|tre) = -0.5502000335035921 ==> log prob of sentence so far: NaN

4GRAM: rest
ENGLISH: P(t|res) = -0.6915992944379517 ==> log prob of sentence so far: -Infinity
FRENCH: P(t|res) = -1.1964422137766837 ==> log prob of sentence so far: NaN

4GRAM: esta
ENGLISH: P(a|est) = -0.9731660350126999 ==> log prob of sentence so far: -Infinity
FRENCH: P(a|est) = -0.9176487071628685 ==> log prob of sentence so far: NaN

4GRAM: stau
ENGLISH: P(u|sta) = -2.7502511875699738 ==> log prob of sentence so far: -Infinity
FRENCH: P(u|sta) = -1.4225003038276822 ==> log prob of sentence so far: NaN

4GRAM: taur
ENGLISH: P(r|tau) = -0.6283889300503115 ==> log prob of sentence so far: -Infinity
FRENCH: P(r|tau) = -1.7141434072506752 ==> log prob of sentence so far: NaN

4GRAM: aura
ENGLISH: P(a|aur) = -Infinity ==> log prob of sentence so far: -Infinity
FRENCH: P(a|aur) = -0.17001711134348807 ==> log prob of sentence so far: NaN

4GRAM: uran
ENGLISH: P(n|ura) = -0.8473898367938416 ==> log prob of sentence so far: -Infinity
FRENCH: P(n|ura) = -0.8650844415954554 ==> log prob of sentence so far: NaN

4GRAM: rant
ENGLISH: P(t|ran) = -1.1293637111743307 ==> log prob of sentence so far: -Infinity
FRENCH: P(t|ran) = -0.7130659916010008 ==> log prob of sentence so far: NaN

4GRAM: antl
ENGLISH: P(l|ant) = -1.2618329694600743 ==> log prob of sentence so far: -Infinity
FRENCH: P(l|ant) = -0.9411180653554141 ==> log prob of sentence so far: NaN

4GRAM: ntle
ENGLISH: P(e|ntl) = -0.5651288729320995 ==> log prob of sentence so far: -Infinity
FRENCH: P(e|ntl) = -0.20940251759033676 ==> log prob of sentence so far: NaN

4GRAM: tlej
ENGLISH: P(j|tle) = -2.3921104650113136 ==> log prob of sentence so far: -Infinity
FRENCH: P(j|tle) = -2.4079571294295614 ==> log prob of sentence so far: NaN

4GRAM: leju
ENGLISH: P(u|lej) = -1.146128035678238 ==> log prob of sentence so far: -Infinity
FRENCH: P(u|lej) = -0.7781512503836436 ==> log prob of sentence so far: NaN

4GRAM: ejul
ENGLISH: P(l|eju) = -Infinity ==> log prob of sentence so far: -Infinity
FRENCH: P(l|eju) = -Infinity ==> log prob of sentence so far: NaN

4GRAM: jule
ENGLISH: P(e|jul) = -Infinity ==> log prob of sentence so far: -Infinity
FRENCH: P(e|jul) = 0.0 ==> log prob of sentence so far: NaN

4GRAM: ules
ENGLISH: P(s|ule) = -0.5228787452803376 ==> log prob of sentence so far: -Infinity
FRENCH: P(s|ule) = -0.6014495984208723 ==> log prob of sentence so far: NaN

4GRAM: lesv
ENGLISH: P(v|les) = -2.7095526127800826 ==> log prob of sentence so far: -Infinity
FRENCH: P(v|les) = -1.736716964144693 ==> log prob of sentence so far: NaN

4GRAM: esve
ENGLISH: P(e|esv) = -0.3979400086720376 ==> log prob of sentence so far: -Infinity
FRENCH: P(e|esv) = -0.47712125471966244 ==> log prob of sentence so far: NaN

4GRAM: sver
ENGLISH: P(r|sve) = -0.11007145906602726 ==> log prob of sentence so far: -Infinity
FRENCH: P(r|sve) = -0.2134600089100682 ==> log prob of sentence so far: NaN

4GRAM: vern
ENGLISH: P(n|ver) = -1.9368229589262056 ==> log prob of sentence so far: -Infinity
FRENCH: P(n|ver) = -1.3483895290942234 ==> log prob of sentence so far: NaN

4GRAM: erne
ENGLISH: P(e|ern) = -1.010949180303132 ==> log prob of sentence so far: -Infinity
FRENCH: P(e|ern) = -0.5085297189712866 ==> log prob of sentence so far: NaN

4GRAM: rnet
ENGLISH: P(t|rne) = -2.421603926869831 ==> log prob of sentence so far: -Infinity
FRENCH: P(t|rne) = -1.4965837344890947 ==> log prob of sentence so far: NaN

4GRAM: neto
ENGLISH: P(o|net) = -0.8402991571324882 ==> log prob of sentence so far: -Infinity
FRENCH: P(o|net) = -1.3729120029701065 ==> log prob of sentence so far: NaN

4GRAM: etou
ENGLISH: P(u|eto) = -1.388949856089265 ==> log prob of sentence so far: -Infinity
FRENCH: P(u|eto) = -0.2770297192602147 ==> log prob of sentence so far: NaN

4GRAM: tour
ENGLISH: P(r|tou) = -1.10162211509587 ==> log prob of sentence so far: -Infinity
FRENCH: P(r|tou) = -0.7539855890415258 ==> log prob of sentence so far: NaN

4GRAM: oure
ENGLISH: P(e|our) = -1.1779551867318394 ==> log prob of sentence so far: -Infinity
FRENCH: P(e|our) = -1.17534182922018 ==> log prob of sentence so far: NaN

4GRAM: urei
ENGLISH: P(i|ure) = -1.2712763233072033 ==> log prob of sentence so far: -Infinity
FRENCH: P(i|ure) = -2.1034927331289173 ==> log prob of sentence so far: NaN

4GRAM: reif
ENGLISH: P(f|rei) = -2.0549958615291413 ==> log prob of sentence so far: -Infinity
FRENCH: P(f|rei) = -Infinity ==> log prob of sentence so far: NaN

4GRAM: eiff
ENGLISH: P(f|eif) = -Infinity ==> log prob of sentence so far: -Infinity
FRENCH: P(f|eif) = NaN ==> log prob of sentence so far: NaN

4GRAM: iffe
ENGLISH: P(e|iff) = -0.2498774732165999 ==> log prob of sentence so far: -Infinity
FRENCH: P(e|iff) = -0.36382082552343664 ==> log prob of sentence so far: NaN

4GRAM: ffel
ENGLISH: P(l|ffe) = -Infinity ==> log prob of sentence so far: -Infinity
FRENCH: P(l|ffe) = -2.3483048630481607 ==> log prob of sentence so far: NaN

4GRAM: felp
ENGLISH: P(p|fel) = -Infinity ==> log prob of sentence so far: -Infinity
FRENCH: P(p|fel) = -Infinity ==> log prob of sentence so far: NaN

4GRAM: elpa
ENGLISH: P(a|elp) = -1.5378190950732742 ==> log prob of sentence so far: -Infinity
FRENCH: P(a|elp) = -0.6020599913279624 ==> log prob of sentence so far: NaN

4GRAM: lpar
ENGLISH: P(r|lpa) = -0.47712125471966244 ==> log prob of sentence so far: -Infinity
FRENCH: P(r|lpa) = -0.3152704347785914 ==> log prob of sentence so far: NaN

4GRAM: pari
ENGLISH: P(i|par) = -1.427635891639744 ==> log prob of sentence so far: -Infinity
FRENCH: P(i|par) = -1.7417776599678523 ==> log prob of sentence so far: NaN

4GRAM: aris
ENGLISH: P(s|ari) = -1.2569332890847706 ==> log prob of sentence so far: -Infinity
FRENCH: P(s|ari) = -1.0974361117785136 ==> log prob of sentence so far: NaN

According to the 4gram model, the sentence is in English
----------------
