Ce week-end, on as faits du brainstorming pour notre marketing, pendent que tu tapais sur ton smartphone.

1GRAM MODEL:

1GRAM: c
ENGLISH: P(c) = -1.626591332724491 ==> log prob of sentence so far: -1.626591332724491
FRENCH: P(c) = -1.4922252466336208 ==> log prob of sentence so far: -1.4922252466336208

1GRAM: e
ENGLISH: P(e) = -0.9100671664377266 ==> log prob of sentence so far: -2.5366584991622174
FRENCH: P(e) = -0.7669595017474583 ==> log prob of sentence so far: -2.259184748381079

1GRAM: w
ENGLISH: P(w) = -1.6313578037561856 ==> log prob of sentence so far: -4.168016302918403
FRENCH: P(w) = -3.9217829676855915 ==> log prob of sentence so far: -6.180967716066671

1GRAM: e
ENGLISH: P(e) = -0.9100671664377266 ==> log prob of sentence so far: -5.078083469356129
FRENCH: P(e) = -0.7669595017474583 ==> log prob of sentence so far: -6.947927217814129

1GRAM: e
ENGLISH: P(e) = -0.9100671664377266 ==> log prob of sentence so far: -5.988150635793856
FRENCH: P(e) = -0.7669595017474583 ==> log prob of sentence so far: -7.714886719561588

1GRAM: k
ENGLISH: P(k) = -2.072718062988138 ==> log prob of sentence so far: -8.060868698781993
FRENCH: P(k) = -3.5376650026411762 ==> log prob of sentence so far: -11.252551722202764

1GRAM: e
ENGLISH: P(e) = -0.9100671664377266 ==> log prob of sentence so far: -8.97093586521972
FRENCH: P(e) = -0.7669595017474583 ==> log prob of sentence so far: -12.019511223950222

1GRAM: n
ENGLISH: P(n) = -1.1615943318171305 ==> log prob of sentence so far: -10.132530197036852
FRENCH: P(n) = -1.122633486706524 ==> log prob of sentence so far: -13.142144710656746

1GRAM: d
ENGLISH: P(d) = -1.3961796678927219 ==> log prob of sentence so far: -11.528709864929574
FRENCH: P(d) = -1.4202617777702253 ==> log prob of sentence so far: -14.562406488426971

1GRAM: o
ENGLISH: P(o) = -1.1377809795017801 ==> log prob of sentence so far: -12.666490844431355
FRENCH: P(o) = -1.2743410774278996 ==> log prob of sentence so far: -15.836747565854871

1GRAM: n
ENGLISH: P(n) = -1.1615943318171305 ==> log prob of sentence so far: -13.828085176248486
FRENCH: P(n) = -1.122633486706524 ==> log prob of sentence so far: -16.959381052561394

1GRAM: a
ENGLISH: P(a) = -1.08678555499431 ==> log prob of sentence so far: -14.914870731242797
FRENCH: P(a) = -1.076348685206508 ==> log prob of sentence so far: -18.035729737767902

1GRAM: s
ENGLISH: P(s) = -1.1711384802271032 ==> log prob of sentence so far: -16.0860092114699
FRENCH: P(s) = -1.0644432040045189 ==> log prob of sentence so far: -19.10017294177242

1GRAM: f
ENGLISH: P(f) = -1.6602800178172739 ==> log prob of sentence so far: -17.746289229287175
FRENCH: P(f) = -1.9917488938770878 ==> log prob of sentence so far: -21.091921835649508

1GRAM: a
ENGLISH: P(a) = -1.08678555499431 ==> log prob of sentence so far: -18.833074784281486
FRENCH: P(a) = -1.076348685206508 ==> log prob of sentence so far: -22.168270520856016

1GRAM: i
ENGLISH: P(i) = -1.162522881728433 ==> log prob of sentence so far: -19.995597666009918
FRENCH: P(i) = -1.1352025747557652 ==> log prob of sentence so far: -23.303473095611782

1GRAM: t
ENGLISH: P(t) = -1.034220196106131 ==> log prob of sentence so far: -21.029817862116047
FRENCH: P(t) = -1.165963194070616 ==> log prob of sentence so far: -24.4694362896824

1GRAM: s
ENGLISH: P(s) = -1.1711384802271032 ==> log prob of sentence so far: -22.20095634234315
FRENCH: P(s) = -1.0644432040045189 ==> log prob of sentence so far: -25.533879493686918

1GRAM: d
ENGLISH: P(d) = -1.3961796678927219 ==> log prob of sentence so far: -23.59713601023587
FRENCH: P(d) = -1.4202617777702253 ==> log prob of sentence so far: -26.954141271457143

1GRAM: u
ENGLISH: P(u) = -1.5524903648320154 ==> log prob of sentence so far: -25.149626375067886
FRENCH: P(u) = -1.2061319519803348 ==> log prob of sentence so far: -28.16027322343748

1GRAM: b
ENGLISH: P(b) = -1.7519589010459922 ==> log prob of sentence so far: -26.901585276113877
FRENCH: P(b) = -2.0519153330379174 ==> log prob of sentence so far: -30.212188556475397

1GRAM: r
ENGLISH: P(r) = -1.261271144299728 ==> log prob of sentence so far: -28.162856420413604
FRENCH: P(r) = -1.1840252799828537 ==> log prob of sentence so far: -31.39621383645825

1GRAM: a
ENGLISH: P(a) = -1.08678555499431 ==> log prob of sentence so far: -29.249641975407915
FRENCH: P(a) = -1.076348685206508 ==> log prob of sentence so far: -32.47256252166476

1GRAM: i
ENGLISH: P(i) = -1.162522881728433 ==> log prob of sentence so far: -30.412164857136347
FRENCH: P(i) = -1.1352025747557652 ==> log prob of sentence so far: -33.60776509642053

1GRAM: n
ENGLISH: P(n) = -1.1615943318171305 ==> log prob of sentence so far: -31.573759188953478
FRENCH: P(n) = -1.122633486706524 ==> log prob of sentence so far: -34.730398583127055

1GRAM: s
ENGLISH: P(s) = -1.1711384802271032 ==> log prob of sentence so far: -32.74489766918058
FRENCH: P(s) = -1.0644432040045189 ==> log prob of sentence so far: -35.794841787131574

1GRAM: t
ENGLISH: P(t) = -1.034220196106131 ==> log prob of sentence so far: -33.779117865286715
FRENCH: P(t) = -1.165963194070616 ==> log prob of sentence so far: -36.96080498120219

1GRAM: o
ENGLISH: P(o) = -1.1377809795017801 ==> log prob of sentence so far: -34.91689884478849
FRENCH: P(o) = -1.2743410774278996 ==> log prob of sentence so far: -38.235146058630086

1GRAM: r
ENGLISH: P(r) = -1.261271144299728 ==> log prob of sentence so far: -36.17816998908822
FRENCH: P(r) = -1.1840252799828537 ==> log prob of sentence so far: -39.41917133861294

1GRAM: m
ENGLISH: P(m) = -1.6111138481089953 ==> log prob of sentence so far: -37.78928383719721
FRENCH: P(m) = -1.5129506664806158 ==> log prob of sentence so far: -40.932122005093554

1GRAM: i
ENGLISH: P(i) = -1.162522881728433 ==> log prob of sentence so far: -38.951806718925646
FRENCH: P(i) = -1.1352025747557652 ==> log prob of sentence so far: -42.06732457984932

1GRAM: n
ENGLISH: P(n) = -1.1615943318171305 ==> log prob of sentence so far: -40.11340105074277
FRENCH: P(n) = -1.122633486706524 ==> log prob of sentence so far: -43.189958066555846

1GRAM: g
ENGLISH: P(g) = -1.6600726678577833 ==> log prob of sentence so far: -41.773473718600556
FRENCH: P(g) = -2.028482548907471 ==> log prob of sentence so far: -45.218440615463315

1GRAM: p
ENGLISH: P(p) = -1.7418320771526665 ==> log prob of sentence so far: -43.51530579575322
FRENCH: P(p) = -1.5386383937439996 ==> log prob of sentence so far: -46.75707900920732

1GRAM: o
ENGLISH: P(o) = -1.1377809795017801 ==> log prob of sentence so far: -44.653086775255
FRENCH: P(o) = -1.2743410774278996 ==> log prob of sentence so far: -48.031420086635215

1GRAM: u
ENGLISH: P(u) = -1.5524903648320154 ==> log prob of sentence so far: -46.205577140087016
FRENCH: P(u) = -1.2061319519803348 ==> log prob of sentence so far: -49.23755203861555

1GRAM: r
ENGLISH: P(r) = -1.261271144299728 ==> log prob of sentence so far: -47.46684828438674
FRENCH: P(r) = -1.1840252799828537 ==> log prob of sentence so far: -50.4215773185984

1GRAM: n
ENGLISH: P(n) = -1.1615943318171305 ==> log prob of sentence so far: -48.62844261620387
FRENCH: P(n) = -1.122633486706524 ==> log prob of sentence so far: -51.54421080530493

1GRAM: o
ENGLISH: P(o) = -1.1377809795017801 ==> log prob of sentence so far: -49.76622359570565
FRENCH: P(o) = -1.2743410774278996 ==> log prob of sentence so far: -52.81855188273283

1GRAM: t
ENGLISH: P(t) = -1.034220196106131 ==> log prob of sentence so far: -50.80044379181178
FRENCH: P(t) = -1.165963194070616 ==> log prob of sentence so far: -53.98451507680344

1GRAM: r
ENGLISH: P(r) = -1.261271144299728 ==> log prob of sentence so far: -52.06171493611151
FRENCH: P(r) = -1.1840252799828537 ==> log prob of sentence so far: -55.168540356786295

1GRAM: e
ENGLISH: P(e) = -0.9100671664377266 ==> log prob of sentence so far: -52.971782102549234
FRENCH: P(e) = -0.7669595017474583 ==> log prob of sentence so far: -55.93549985853375

1GRAM: m
ENGLISH: P(m) = -1.6111138481089953 ==> log prob of sentence so far: -54.58289595065823
FRENCH: P(m) = -1.5129506664806158 ==> log prob of sentence so far: -57.448450525014366

1GRAM: a
ENGLISH: P(a) = -1.08678555499431 ==> log prob of sentence so far: -55.669681505652534
FRENCH: P(a) = -1.076348685206508 ==> log prob of sentence so far: -58.52479921022088

1GRAM: r
ENGLISH: P(r) = -1.261271144299728 ==> log prob of sentence so far: -56.93095264995226
FRENCH: P(r) = -1.1840252799828537 ==> log prob of sentence so far: -59.70882449020373

1GRAM: k
ENGLISH: P(k) = -2.072718062988138 ==> log prob of sentence so far: -59.0036707129404
FRENCH: P(k) = -3.5376650026411762 ==> log prob of sentence so far: -63.24648949284491

1GRAM: e
ENGLISH: P(e) = -0.9100671664377266 ==> log prob of sentence so far: -59.913737879378125
FRENCH: P(e) = -0.7669595017474583 ==> log prob of sentence so far: -64.01344899459237

1GRAM: t
ENGLISH: P(t) = -1.034220196106131 ==> log prob of sentence so far: -60.94795807548426
FRENCH: P(t) = -1.165963194070616 ==> log prob of sentence so far: -65.17941218866298

1GRAM: i
ENGLISH: P(i) = -1.162522881728433 ==> log prob of sentence so far: -62.110480957212694
FRENCH: P(i) = -1.1352025747557652 ==> log prob of sentence so far: -66.31461476341875

1GRAM: n
ENGLISH: P(n) = -1.1615943318171305 ==> log prob of sentence so far: -63.27207528902982
FRENCH: P(n) = -1.122633486706524 ==> log prob of sentence so far: -67.43724825012526

1GRAM: g
ENGLISH: P(g) = -1.6600726678577833 ==> log prob of sentence so far: -64.9321479568876
FRENCH: P(g) = -2.028482548907471 ==> log prob of sentence so far: -69.46573079903274

1GRAM: p
ENGLISH: P(p) = -1.7418320771526665 ==> log prob of sentence so far: -66.67398003404027
FRENCH: P(p) = -1.5386383937439996 ==> log prob of sentence so far: -71.00436919277674

1GRAM: e
ENGLISH: P(e) = -0.9100671664377266 ==> log prob of sentence so far: -67.584047200478
FRENCH: P(e) = -0.7669595017474583 ==> log prob of sentence so far: -71.7713286945242

1GRAM: n
ENGLISH: P(n) = -1.1615943318171305 ==> log prob of sentence so far: -68.74564153229512
FRENCH: P(n) = -1.122633486706524 ==> log prob of sentence so far: -72.89396218123072

1GRAM: d
ENGLISH: P(d) = -1.3961796678927219 ==> log prob of sentence so far: -70.14182120018785
FRENCH: P(d) = -1.4202617777702253 ==> log prob of sentence so far: -74.31422395900094

1GRAM: e
ENGLISH: P(e) = -0.9100671664377266 ==> log prob of sentence so far: -71.05188836662558
FRENCH: P(e) = -0.7669595017474583 ==> log prob of sentence so far: -75.0811834607484

1GRAM: n
ENGLISH: P(n) = -1.1615943318171305 ==> log prob of sentence so far: -72.2134826984427
FRENCH: P(n) = -1.122633486706524 ==> log prob of sentence so far: -76.20381694745492

1GRAM: t
ENGLISH: P(t) = -1.034220196106131 ==> log prob of sentence so far: -73.24770289454884
FRENCH: P(t) = -1.165963194070616 ==> log prob of sentence so far: -77.36978014152554

1GRAM: q
ENGLISH: P(q) = -2.788132096805636 ==> log prob of sentence so far: -76.03583499135448
FRENCH: P(q) = -1.9394572332364135 ==> log prob of sentence so far: -79.30923737476195

1GRAM: u
ENGLISH: P(u) = -1.5524903648320154 ==> log prob of sentence so far: -77.58832535618649
FRENCH: P(u) = -1.2061319519803348 ==> log prob of sentence so far: -80.51536932674229

1GRAM: e
ENGLISH: P(e) = -0.9100671664377266 ==> log prob of sentence so far: -78.49839252262421
FRENCH: P(e) = -0.7669595017474583 ==> log prob of sentence so far: -81.28232882848975

1GRAM: t
ENGLISH: P(t) = -1.034220196106131 ==> log prob of sentence so far: -79.53261271873035
FRENCH: P(t) = -1.165963194070616 ==> log prob of sentence so far: -82.44829202256037

1GRAM: u
ENGLISH: P(u) = -1.5524903648320154 ==> log prob of sentence so far: -81.08510308356236
FRENCH: P(u) = -1.2061319519803348 ==> log prob of sentence so far: -83.6544239745407

1GRAM: t
ENGLISH: P(t) = -1.034220196106131 ==> log prob of sentence so far: -82.11932327966849
FRENCH: P(t) = -1.165963194070616 ==> log prob of sentence so far: -84.82038716861132

1GRAM: a
ENGLISH: P(a) = -1.08678555499431 ==> log prob of sentence so far: -83.2061088346628
FRENCH: P(a) = -1.076348685206508 ==> log prob of sentence so far: -85.89673585381783

1GRAM: p
ENGLISH: P(p) = -1.7418320771526665 ==> log prob of sentence so far: -84.94794091181546
FRENCH: P(p) = -1.5386383937439996 ==> log prob of sentence so far: -87.43537424756182

1GRAM: a
ENGLISH: P(a) = -1.08678555499431 ==> log prob of sentence so far: -86.03472646680977
FRENCH: P(a) = -1.076348685206508 ==> log prob of sentence so far: -88.51172293276834

1GRAM: i
ENGLISH: P(i) = -1.162522881728433 ==> log prob of sentence so far: -87.19724934853821
FRENCH: P(i) = -1.1352025747557652 ==> log prob of sentence so far: -89.6469255075241

1GRAM: s
ENGLISH: P(s) = -1.1711384802271032 ==> log prob of sentence so far: -88.36838782876531
FRENCH: P(s) = -1.0644432040045189 ==> log prob of sentence so far: -90.71136871152862

1GRAM: s
ENGLISH: P(s) = -1.1711384802271032 ==> log prob of sentence so far: -89.53952630899241
FRENCH: P(s) = -1.0644432040045189 ==> log prob of sentence so far: -91.77581191553314

1GRAM: u
ENGLISH: P(u) = -1.5524903648320154 ==> log prob of sentence so far: -91.09201667382442
FRENCH: P(u) = -1.2061319519803348 ==> log prob of sentence so far: -92.98194386751348

1GRAM: r
ENGLISH: P(r) = -1.261271144299728 ==> log prob of sentence so far: -92.35328781812414
FRENCH: P(r) = -1.1840252799828537 ==> log prob of sentence so far: -94.16596914749633

1GRAM: t
ENGLISH: P(t) = -1.034220196106131 ==> log prob of sentence so far: -93.38750801423028
FRENCH: P(t) = -1.165963194070616 ==> log prob of sentence so far: -95.33193234156694

1GRAM: o
ENGLISH: P(o) = -1.1377809795017801 ==> log prob of sentence so far: -94.52528899373206
FRENCH: P(o) = -1.2743410774278996 ==> log prob of sentence so far: -96.60627341899485

1GRAM: n
ENGLISH: P(n) = -1.1615943318171305 ==> log prob of sentence so far: -95.68688332554919
FRENCH: P(n) = -1.122633486706524 ==> log prob of sentence so far: -97.72890690570136

1GRAM: s
ENGLISH: P(s) = -1.1711384802271032 ==> log prob of sentence so far: -96.85802180577629
FRENCH: P(s) = -1.0644432040045189 ==> log prob of sentence so far: -98.79335010970588

1GRAM: m
ENGLISH: P(m) = -1.6111138481089953 ==> log prob of sentence so far: -98.46913565388529
FRENCH: P(m) = -1.5129506664806158 ==> log prob of sentence so far: -100.3063007761865

1GRAM: a
ENGLISH: P(a) = -1.08678555499431 ==> log prob of sentence so far: -99.5559212088796
FRENCH: P(a) = -1.076348685206508 ==> log prob of sentence so far: -101.38264946139302

1GRAM: r
ENGLISH: P(r) = -1.261271144299728 ==> log prob of sentence so far: -100.81719235317932
FRENCH: P(r) = -1.1840252799828537 ==> log prob of sentence so far: -102.56667474137586

1GRAM: t
ENGLISH: P(t) = -1.034220196106131 ==> log prob of sentence so far: -101.85141254928546
FRENCH: P(t) = -1.165963194070616 ==> log prob of sentence so far: -103.73263793544648

1GRAM: p
ENGLISH: P(p) = -1.7418320771526665 ==> log prob of sentence so far: -103.59324462643812
FRENCH: P(p) = -1.5386383937439996 ==> log prob of sentence so far: -105.27127632919047

1GRAM: h
ENGLISH: P(h) = -1.1802717013558974 ==> log prob of sentence so far: -104.77351632779401
FRENCH: P(h) = -2.105661511639352 ==> log prob of sentence so far: -107.37693784082983

1GRAM: o
ENGLISH: P(o) = -1.1377809795017801 ==> log prob of sentence so far: -105.9112973072958
FRENCH: P(o) = -1.2743410774278996 ==> log prob of sentence so far: -108.65127891825773

1GRAM: n
ENGLISH: P(n) = -1.1615943318171305 ==> log prob of sentence so far: -107.07289163911292
FRENCH: P(n) = -1.122633486706524 ==> log prob of sentence so far: -109.77391240496425

1GRAM: e
ENGLISH: P(e) = -0.9100671664377266 ==> log prob of sentence so far: -107.98295880555065
FRENCH: P(e) = -0.7669595017474583 ==> log prob of sentence so far: -110.54087190671171

According to the 1gram model, the sentence is in English
----------------
2GRAM MODEL:

2GRAM: ce
ENGLISH: P(e|c) = -0.8163509598708927 ==> log prob of sentence so far: -0.8163509598708927
FRENCH: P(e|c) = -0.5223984530361349 ==> log prob of sentence so far: -0.5223984530361349

2GRAM: ew
ENGLISH: P(w|e) = -1.4465819148478067 ==> log prob of sentence so far: -2.2629328747186994
FRENCH: P(w|e) = -3.416425987955355 ==> log prob of sentence so far: -3.93882444099149

2GRAM: we
ENGLISH: P(e|w) = -0.9049950919008182 ==> log prob of sentence so far: -3.1679279666195175
FRENCH: P(e|w) = -0.964835582936749 ==> log prob of sentence so far: -4.903660023928239

2GRAM: ee
ENGLISH: P(e|e) = -1.318054935723875 ==> log prob of sentence so far: -4.485982902343393
FRENCH: P(e|e) = -1.5122516196711915 ==> log prob of sentence so far: -6.415911643599431

2GRAM: ek
ENGLISH: P(k|e) = -2.595065016341966 ==> log prob of sentence so far: -7.081047918685359
FRENCH: P(k|e) = -3.397540643794981 ==> log prob of sentence so far: -9.813452287394412

2GRAM: ke
ENGLISH: P(e|k) = -0.44587050842260323 ==> log prob of sentence so far: -7.526918427107962
FRENCH: P(e|k) = -0.9327383901440001 ==> log prob of sentence so far: -10.746190677538412

2GRAM: en
ENGLISH: P(n|e) = -1.0654908055728944 ==> log prob of sentence so far: -8.592409232680856
FRENCH: P(n|e) = -0.8687880036396214 ==> log prob of sentence so far: -11.614978681178034

2GRAM: nd
ENGLISH: P(d|n) = -0.755439196605329 ==> log prob of sentence so far: -9.347848429286184
FRENCH: P(d|n) = -1.0270994178048114 ==> log prob of sentence so far: -12.642078098982845

2GRAM: do
ENGLISH: P(o|d) = -1.1055429931134877 ==> log prob of sentence so far: -10.453391422399672
FRENCH: P(o|d) = -1.2574332613171197 ==> log prob of sentence so far: -13.899511360299964

2GRAM: on
ENGLISH: P(n|o) = -0.8621497423065837 ==> log prob of sentence so far: -11.315541164706255
FRENCH: P(n|o) = -0.5204118582964626 ==> log prob of sentence so far: -14.419923218596427

2GRAM: na
ENGLISH: P(a|n) = -1.246080285859623 ==> log prob of sentence so far: -12.561621450565879
FRENCH: P(a|n) = -1.133495459369941 ==> log prob of sentence so far: -15.553418677966368

2GRAM: as
ENGLISH: P(s|a) = -0.9959105050980857 ==> log prob of sentence so far: -13.557531955663965
FRENCH: P(s|a) = -1.2507281483865753 ==> log prob of sentence so far: -16.804146826352945

2GRAM: sf
ENGLISH: P(f|s) = -1.77460784498368 ==> log prob of sentence so far: -15.332139800647646
FRENCH: P(f|s) = -1.8165472696930316 ==> log prob of sentence so far: -18.620694096045977

2GRAM: fa
ENGLISH: P(a|f) = -1.0011374309143368 ==> log prob of sentence so far: -16.333277231561983
FRENCH: P(a|f) = -0.7171992214927436 ==> log prob of sentence so far: -19.33789331753872

2GRAM: ai
ENGLISH: P(i|a) = -1.3482451331022975 ==> log prob of sentence so far: -17.681522364664282
FRENCH: P(i|a) = -0.6965245704990287 ==> log prob of sentence so far: -20.03441788803775

2GRAM: it
ENGLISH: P(t|i) = -0.9082406380281335 ==> log prob of sentence so far: -18.589763002692415
FRENCH: P(t|i) = -0.7741212801413213 ==> log prob of sentence so far: -20.808539168179074

2GRAM: ts
ENGLISH: P(s|t) = -1.3509262242411524 ==> log prob of sentence so far: -19.940689226933568
FRENCH: P(s|t) = -1.2204485181830769 ==> log prob of sentence so far: -22.02898768636215

2GRAM: sd
ENGLISH: P(d|s) = -2.064143553957153 ==> log prob of sentence so far: -22.00483278089072
FRENCH: P(d|s) = -1.0844756868001968 ==> log prob of sentence so far: -23.113463373162347

2GRAM: du
ENGLISH: P(u|d) = -1.6746583805228727 ==> log prob of sentence so far: -23.679491161413594
FRENCH: P(u|d) = -0.9913653693747398 ==> log prob of sentence so far: -24.104828742537087

2GRAM: ub
ENGLISH: P(b|u) = -1.5226894100315926 ==> log prob of sentence so far: -25.202180571445187
FRENCH: P(b|u) = -2.055565911111274 ==> log prob of sentence so far: -26.16039465364836

2GRAM: br
ENGLISH: P(r|b) = -1.2407398152920606 ==> log prob of sentence so far: -26.442920386737246
FRENCH: P(r|b) = -0.7689990453449054 ==> log prob of sentence so far: -26.929393698993266

2GRAM: ra
ENGLISH: P(a|r) = -1.0362014833313207 ==> log prob of sentence so far: -27.479121870068568
FRENCH: P(a|r) = -0.9044619223819287 ==> log prob of sentence so far: -27.833855621375196

2GRAM: ai
ENGLISH: P(i|a) = -1.3482451331022975 ==> log prob of sentence so far: -28.827367003170863
FRENCH: P(i|a) = -0.6965245704990287 ==> log prob of sentence so far: -28.530380191874226

2GRAM: in
ENGLISH: P(n|i) = -0.5176578891035971 ==> log prob of sentence so far: -29.34502489227446
FRENCH: P(n|i) = -0.8961969544626189 ==> log prob of sentence so far: -29.426577146336847

2GRAM: ns
ENGLISH: P(s|n) = -1.2471501236353728 ==> log prob of sentence so far: -30.59217501590983
FRENCH: P(s|n) = -0.9210890151969363 ==> log prob of sentence so far: -30.347666161533784

2GRAM: st
ENGLISH: P(t|s) = -0.7036151348650846 ==> log prob of sentence so far: -31.295790150774916
FRENCH: P(t|s) = -1.237297938930775 ==> log prob of sentence so far: -31.58496410046456

2GRAM: to
ENGLISH: P(o|t) = -0.9786971013634347 ==> log prob of sentence so far: -32.27448725213835
FRENCH: P(o|t) = -1.3522518776071424 ==> log prob of sentence so far: -32.937215978071706

2GRAM: or
ENGLISH: P(r|o) = -0.9302655622040485 ==> log prob of sentence so far: -33.2047528143424
FRENCH: P(r|o) = -1.0253507046765011 ==> log prob of sentence so far: -33.962566682748204

2GRAM: rm
ENGLISH: P(m|r) = -1.5371879545690021 ==> log prob of sentence so far: -34.7419407689114
FRENCH: P(m|r) = -1.5208449359783531 ==> log prob of sentence so far: -35.48341161872656

2GRAM: mi
ENGLISH: P(i|m) = -1.0703394861923436 ==> log prob of sentence so far: -35.812280255103744
FRENCH: P(i|m) = -1.0434398958968627 ==> log prob of sentence so far: -36.52685151462342

2GRAM: in
ENGLISH: P(n|i) = -0.5176578891035971 ==> log prob of sentence so far: -36.32993814420734
FRENCH: P(n|i) = -0.8961969544626189 ==> log prob of sentence so far: -37.423048469086034

2GRAM: ng
ENGLISH: P(g|n) = -0.7995332676457232 ==> log prob of sentence so far: -37.12947141185306
FRENCH: P(g|n) = -1.565029702228626 ==> log prob of sentence so far: -38.98807817131466

2GRAM: gp
ENGLISH: P(p|g) = -2.09048602113991 ==> log prob of sentence so far: -39.21995743299297
FRENCH: P(p|g) = -3.5110808455391185 ==> log prob of sentence so far: -42.49915901685378

2GRAM: po
ENGLISH: P(o|p) = -0.8141030319110194 ==> log prob of sentence so far: -40.03406046490399
FRENCH: P(o|p) = -0.7968720217968839 ==> log prob of sentence so far: -43.29603103865067

2GRAM: ou
ENGLISH: P(u|o) = -0.9045829397217254 ==> log prob of sentence so far: -40.938643404625715
FRENCH: P(u|o) = -0.6276609377180441 ==> log prob of sentence so far: -43.92369197636871

2GRAM: ur
ENGLISH: P(r|u) = -0.9176649397398913 ==> log prob of sentence so far: -41.85630834436561
FRENCH: P(r|u) = -0.7886730035857709 ==> log prob of sentence so far: -44.71236497995448

2GRAM: rn
ENGLISH: P(n|r) = -1.56492471548134 ==> log prob of sentence so far: -43.42123305984695
FRENCH: P(n|r) = -1.7985117613302346 ==> log prob of sentence so far: -46.51087674128471

2GRAM: no
ENGLISH: P(o|n) = -1.0865255901291158 ==> log prob of sentence so far: -44.50775864997606
FRENCH: P(o|n) = -1.2377971658380456 ==> log prob of sentence so far: -47.74867390712276

2GRAM: ot
ENGLISH: P(t|o) = -1.1640963581544423 ==> log prob of sentence so far: -45.67185500813051
FRENCH: P(t|o) = -1.4142541903339076 ==> log prob of sentence so far: -49.162928097456664

2GRAM: tr
ENGLISH: P(r|t) = -1.5560820110987414 ==> log prob of sentence so far: -47.227937019229245
FRENCH: P(r|t) = -0.9624195508382004 ==> log prob of sentence so far: -50.12534764829486

2GRAM: re
ENGLISH: P(e|r) = -0.628115605628671 ==> log prob of sentence so far: -47.85605262485792
FRENCH: P(e|r) = -0.49086037711507113 ==> log prob of sentence so far: -50.61620802540993

2GRAM: em
ENGLISH: P(m|e) = -1.4360351488070457 ==> log prob of sentence so far: -49.29208777366496
FRENCH: P(m|e) = -1.2279037227559553 ==> log prob of sentence so far: -51.844111748165886

2GRAM: ma
ENGLISH: P(a|m) = -0.7036307148843848 ==> log prob of sentence so far: -49.99571848854934
FRENCH: P(a|m) = -0.7370260153920789 ==> log prob of sentence so far: -52.58113776355796

2GRAM: ar
ENGLISH: P(r|a) = -0.98542005411536 ==> log prob of sentence so far: -50.9811385426647
FRENCH: P(r|a) = -1.0331352537647966 ==> log prob of sentence so far: -53.61427301732276

2GRAM: rk
ENGLISH: P(k|r) = -1.8693928286341985 ==> log prob of sentence so far: -52.8505313712989
FRENCH: P(k|r) = -3.3746711826852613 ==> log prob of sentence so far: -56.98894420000802

2GRAM: ke
ENGLISH: P(e|k) = -0.44587050842260323 ==> log prob of sentence so far: -53.2964018797215
FRENCH: P(e|k) = -0.9327383901440001 ==> log prob of sentence so far: -57.921682590152024

2GRAM: et
ENGLISH: P(t|e) = -1.1805542990214501 ==> log prob of sentence so far: -54.47695617874295
FRENCH: P(t|e) = -1.08170423649854 ==> log prob of sentence so far: -59.00338682665056

2GRAM: ti
ENGLISH: P(i|t) = -1.0855635892642252 ==> log prob of sentence so far: -55.56251976800718
FRENCH: P(i|t) = -0.9859430520465329 ==> log prob of sentence so far: -59.98932987869709

2GRAM: in
ENGLISH: P(n|i) = -0.5176578891035971 ==> log prob of sentence so far: -56.080177657110774
FRENCH: P(n|i) = -0.8961969544626189 ==> log prob of sentence so far: -60.88552683315971

2GRAM: ng
ENGLISH: P(g|n) = -0.7995332676457232 ==> log prob of sentence so far: -56.879710924756495
FRENCH: P(g|n) = -1.565029702228626 ==> log prob of sentence so far: -62.45055653538834

2GRAM: gp
ENGLISH: P(p|g) = -2.09048602113991 ==> log prob of sentence so far: -58.970196945896404
FRENCH: P(p|g) = -3.5110808455391185 ==> log prob of sentence so far: -65.96163738092746

2GRAM: pe
ENGLISH: P(e|p) = -0.6896176083676404 ==> log prob of sentence so far: -59.659814554264045
FRENCH: P(e|p) = -0.8020585040252933 ==> log prob of sentence so far: -66.76369588495275

2GRAM: en
ENGLISH: P(n|e) = -1.0654908055728944 ==> log prob of sentence so far: -60.72530535983694
FRENCH: P(n|e) = -0.8687880036396214 ==> log prob of sentence so far: -67.63248388859238

2GRAM: nd
ENGLISH: P(d|n) = -0.755439196605329 ==> log prob of sentence so far: -61.48074455644227
FRENCH: P(d|n) = -1.0270994178048114 ==> log prob of sentence so far: -68.65958330639718

2GRAM: de
ENGLISH: P(e|d) = -0.8319843160025845 ==> log prob of sentence so far: -62.31272887244485
FRENCH: P(e|d) = -0.29031987969362283 ==> log prob of sentence so far: -68.94990318609081

2GRAM: en
ENGLISH: P(n|e) = -1.0654908055728944 ==> log prob of sentence so far: -63.37821967801774
FRENCH: P(n|e) = -0.8687880036396214 ==> log prob of sentence so far: -69.81869118973043

2GRAM: nt
ENGLISH: P(t|n) = -0.8261940622653209 ==> log prob of sentence so far: -64.20441374028306
FRENCH: P(t|n) = -0.6408600449649795 ==> log prob of sentence so far: -70.45955123469541

2GRAM: tq
ENGLISH: P(q|t) = -3.294285817198341 ==> log prob of sentence so far: -67.4986995574814
FRENCH: P(q|t) = -1.789819355332996 ==> log prob of sentence so far: -72.2493705900284

2GRAM: qu
ENGLISH: P(u|q) = -2.784831656199152E-4 ==> log prob of sentence so far: -67.49897804064702
FRENCH: P(u|q) = -0.007644000179603647 ==> log prob of sentence so far: -72.25701459020802

2GRAM: ue
ENGLISH: P(e|u) = -1.3246283404268322 ==> log prob of sentence so far: -68.82360638107384
FRENCH: P(e|u) = -0.8811585594528172 ==> log prob of sentence so far: -73.13817314966083

2GRAM: et
ENGLISH: P(t|e) = -1.1805542990214501 ==> log prob of sentence so far: -70.0041606800953
FRENCH: P(t|e) = -1.08170423649854 ==> log prob of sentence so far: -74.21987738615937

2GRAM: tu
ENGLISH: P(u|t) = -1.618632434374752 ==> log prob of sentence so far: -71.62279311447004
FRENCH: P(u|t) = -1.4956830676169153 ==> log prob of sentence so far: -75.71556045377628

2GRAM: ut
ENGLISH: P(t|u) = -0.800039098717541 ==> log prob of sentence so far: -72.42283221318759
FRENCH: P(t|u) = -1.1015781198504553 ==> log prob of sentence so far: -76.81713857362674

2GRAM: ta
ENGLISH: P(a|t) = -1.1697667723029095 ==> log prob of sentence so far: -73.5925989854905
FRENCH: P(a|t) = -0.8826874115845678 ==> log prob of sentence so far: -77.6998259852113

2GRAM: ap
ENGLISH: P(p|a) = -1.5836640555170625 ==> log prob of sentence so far: -75.17626304100756
FRENCH: P(p|a) = -1.257303410585889 ==> log prob of sentence so far: -78.9571293957972

2GRAM: pa
ENGLISH: P(a|p) = -0.9076895034466613 ==> log prob of sentence so far: -76.08395254445422
FRENCH: P(a|p) = -0.6468271379316752 ==> log prob of sentence so far: -79.60395653372888

2GRAM: ai
ENGLISH: P(i|a) = -1.3482451331022975 ==> log prob of sentence so far: -77.43219767755652
FRENCH: P(i|a) = -0.6965245704990287 ==> log prob of sentence so far: -80.3004811042279

2GRAM: is
ENGLISH: P(s|i) = -0.8698730474375823 ==> log prob of sentence so far: -78.3020707249941
FRENCH: P(s|i) = -0.8502233835532343 ==> log prob of sentence so far: -81.15070448778113

2GRAM: ss
ENGLISH: P(s|s) = -1.1760982490924894 ==> log prob of sentence so far: -79.47816897408659
FRENCH: P(s|s) = -1.0371096963196909 ==> log prob of sentence so far: -82.18781418410082

2GRAM: su
ENGLISH: P(u|s) = -1.4481307271072192 ==> log prob of sentence so far: -80.9262997011938
FRENCH: P(u|s) = -1.320211885554658 ==> log prob of sentence so far: -83.50802606965547

2GRAM: ur
ENGLISH: P(r|u) = -0.9176649397398913 ==> log prob of sentence so far: -81.84396464093369
FRENCH: P(r|u) = -0.7886730035857709 ==> log prob of sentence so far: -84.29669907324124

2GRAM: rt
ENGLISH: P(t|r) = -1.0948125808089437 ==> log prob of sentence so far: -82.93877722174264
FRENCH: P(t|r) = -1.3945481542659588 ==> log prob of sentence so far: -85.6912472275072

2GRAM: to
ENGLISH: P(o|t) = -0.9786971013634347 ==> log prob of sentence so far: -83.91747432310608
FRENCH: P(o|t) = -1.3522518776071424 ==> log prob of sentence so far: -87.04349910511435

2GRAM: on
ENGLISH: P(n|o) = -0.8621497423065837 ==> log prob of sentence so far: -84.77962406541266
FRENCH: P(n|o) = -0.5204118582964626 ==> log prob of sentence so far: -87.56391096341082

2GRAM: ns
ENGLISH: P(s|n) = -1.2471501236353728 ==> log prob of sentence so far: -86.02677418904804
FRENCH: P(s|n) = -0.9210890151969363 ==> log prob of sentence so far: -88.48499997860776

2GRAM: sm
ENGLISH: P(m|s) = -1.6763686970991674 ==> log prob of sentence so far: -87.7031428861472
FRENCH: P(m|s) = -1.4881381831216187 ==> log prob of sentence so far: -89.97313816172938

2GRAM: ma
ENGLISH: P(a|m) = -0.7036307148843848 ==> log prob of sentence so far: -88.40677360103159
FRENCH: P(a|m) = -0.7370260153920789 ==> log prob of sentence so far: -90.71016417712146

2GRAM: ar
ENGLISH: P(r|a) = -0.98542005411536 ==> log prob of sentence so far: -89.39219365514695
FRENCH: P(r|a) = -1.0331352537647966 ==> log prob of sentence so far: -91.74329943088625

2GRAM: rt
ENGLISH: P(t|r) = -1.0948125808089437 ==> log prob of sentence so far: -90.4870062359559
FRENCH: P(t|r) = -1.3945481542659588 ==> log prob of sentence so far: -93.13784758515222

2GRAM: tp
ENGLISH: P(p|t) = -2.261960152010443 ==> log prob of sentence so far: -92.74896638796635
FRENCH: P(p|t) = -1.4428609206779084 ==> log prob of sentence so far: -94.58070850583012

2GRAM: ph
ENGLISH: P(h|p) = -1.5965591808783544 ==> log prob of sentence so far: -94.3455255688447
FRENCH: P(h|p) = -1.6254640863161496 ==> log prob of sentence so far: -96.20617259214626

2GRAM: ho
ENGLISH: P(o|h) = -1.1036237025152846 ==> log prob of sentence so far: -95.44914927135999
FRENCH: P(o|h) = -0.8324129819584538 ==> log prob of sentence so far: -97.03858557410472

2GRAM: on
ENGLISH: P(n|o) = -0.8621497423065837 ==> log prob of sentence so far: -96.31129901366657
FRENCH: P(n|o) = -0.5204118582964626 ==> log prob of sentence so far: -97.55899743240118

2GRAM: ne
ENGLISH: P(e|n) = -1.0532206154149155 ==> log prob of sentence so far: -97.36451962908149
FRENCH: P(e|n) = -0.7542226797268654 ==> log prob of sentence so far: -98.31322011212805

According to the 2gram model, the sentence is in English
----------------
3GRAM MODEL:

3GRAM: cew
ENGLISH: P(w|ce) = -1.5096504795465824 ==> log prob of sentence so far: -1.5096504795465824
FRENCH: P(w|ce) = -Infinity ==> log prob of sentence so far: -Infinity

3GRAM: ewe
ENGLISH: P(e|ew) = -1.054465897708051 ==> log prob of sentence so far: -2.564116377254633
FRENCH: P(e|ew) = -1.3521825181113625 ==> log prob of sentence so far: -Infinity

3GRAM: wee
ENGLISH: P(e|we) = -1.0769532738668621 ==> log prob of sentence so far: -3.6410696511214953
FRENCH: P(e|we) = -Infinity ==> log prob of sentence so far: -Infinity

3GRAM: eek
ENGLISH: P(k|ee) = -1.8074705974653817 ==> log prob of sentence so far: -5.448540248586877
FRENCH: P(k|ee) = -Infinity ==> log prob of sentence so far: -Infinity

3GRAM: eke
ENGLISH: P(e|ek) = -0.6342446746993636 ==> log prob of sentence so far: -6.0827849232862405
FRENCH: P(e|ek) = -0.9731278535996987 ==> log prob of sentence so far: -Infinity

3GRAM: ken
ENGLISH: P(n|ke) = -1.0009712143039078 ==> log prob of sentence so far: -7.083756137590148
FRENCH: P(n|ke) = -0.4586378490256493 ==> log prob of sentence so far: -Infinity

3GRAM: end
ENGLISH: P(d|en) = -1.0948020056861036 ==> log prob of sentence so far: -8.178558143276252
FRENCH: P(d|en) = -1.0678263180257022 ==> log prob of sentence so far: -Infinity

3GRAM: ndo
ENGLISH: P(o|nd) = -1.3460233704261635 ==> log prob of sentence so far: -9.524581513702415
FRENCH: P(o|nd) = -1.4852001184459238 ==> log prob of sentence so far: -Infinity

3GRAM: don
ENGLISH: P(n|do) = -0.6628191337470161 ==> log prob of sentence so far: -10.187400647449431
FRENCH: P(n|do) = -0.25985549412345904 ==> log prob of sentence so far: -Infinity

3GRAM: ona
ENGLISH: P(a|on) = -1.178745473470861 ==> log prob of sentence so far: -11.366146120920291
FRENCH: P(a|on) = -1.4886378454970055 ==> log prob of sentence so far: -Infinity

3GRAM: nas
ENGLISH: P(s|na) = -1.1236096941742526 ==> log prob of sentence so far: -12.489755815094544
FRENCH: P(s|na) = -1.891867282883195 ==> log prob of sentence so far: -Infinity

3GRAM: asf
ENGLISH: P(f|as) = -1.7555309962072567 ==> log prob of sentence so far: -14.245286811301801
FRENCH: P(f|as) = -2.1449124695489097 ==> log prob of sentence so far: -Infinity

3GRAM: sfa
ENGLISH: P(a|sf) = -0.7857043882740895 ==> log prob of sentence so far: -15.03099119957589
FRENCH: P(a|sf) = -0.7258729871195553 ==> log prob of sentence so far: -Infinity

3GRAM: fai
ENGLISH: P(i|fa) = -1.0292740658033825 ==> log prob of sentence so far: -16.06026526537927
FRENCH: P(i|fa) = -0.39970903141088426 ==> log prob of sentence so far: -Infinity

3GRAM: ait
ENGLISH: P(t|ai) = -1.564977364159263 ==> log prob of sentence so far: -17.625242629538533
FRENCH: P(t|ai) = -0.4746720099298063 ==> log prob of sentence so far: -Infinity

3GRAM: its
ENGLISH: P(s|it) = -0.9553491337656986 ==> log prob of sentence so far: -18.58059176330423
FRENCH: P(s|it) = -1.233804157811659 ==> log prob of sentence so far: -Infinity

3GRAM: tsd
ENGLISH: P(d|ts) = -1.8755337078026133 ==> log prob of sentence so far: -20.456125471106844
FRENCH: P(d|ts) = -0.9083120276467654 ==> log prob of sentence so far: -Infinity

3GRAM: sdu
ENGLISH: P(u|sd) = -1.4069454949588507 ==> log prob of sentence so far: -21.863070966065695
FRENCH: P(u|sd) = -0.8709180933509897 ==> log prob of sentence so far: -Infinity

3GRAM: dub
ENGLISH: P(b|du) = -2.187520720836463 ==> log prob of sentence so far: -24.05059168690216
FRENCH: P(b|du) = -1.556465493631615 ==> log prob of sentence so far: -Infinity

3GRAM: ubr
ENGLISH: P(r|ub) = -2.300486787986029 ==> log prob of sentence so far: -26.351078474888187
FRENCH: P(r|ub) = -1.4646958576612357 ==> log prob of sentence so far: -Infinity

3GRAM: bra
ENGLISH: P(a|br) = -0.6419315033656546 ==> log prob of sentence so far: -26.99300997825384
FRENCH: P(a|br) = -0.5605541939196115 ==> log prob of sentence so far: -Infinity

3GRAM: rai
ENGLISH: P(i|ra) = -1.135662602000073 ==> log prob of sentence so far: -28.128672580253916
FRENCH: P(i|ra) = -0.5857126236090658 ==> log prob of sentence so far: -Infinity

3GRAM: ain
ENGLISH: P(n|ai) = -0.28912067988592793 ==> log prob of sentence so far: -28.417793260139845
FRENCH: P(n|ai) = -0.811316069402326 ==> log prob of sentence so far: -Infinity

3GRAM: ins
ENGLISH: P(s|in) = -1.2655808432193238 ==> log prob of sentence so far: -29.68337410335917
FRENCH: P(s|in) = -0.9040437321198226 ==> log prob of sentence so far: -Infinity

3GRAM: nst
ENGLISH: P(t|ns) = -0.6470539349449231 ==> log prob of sentence so far: -30.330428038304095
FRENCH: P(t|ns) = -1.2221311257523793 ==> log prob of sentence so far: -Infinity

3GRAM: sto
ENGLISH: P(o|st) = -0.9051966299074715 ==> log prob of sentence so far: -31.235624668211567
FRENCH: P(o|st) = -1.100498184936822 ==> log prob of sentence so far: -Infinity

3GRAM: tor
ENGLISH: P(r|to) = -1.204368933354575 ==> log prob of sentence so far: -32.439993601566144
FRENCH: P(r|to) = -1.0814763459366585 ==> log prob of sentence so far: -Infinity

3GRAM: orm
ENGLISH: P(m|or) = -1.3236106410956707 ==> log prob of sentence so far: -33.76360424266181
FRENCH: P(m|or) = -0.912587985063664 ==> log prob of sentence so far: -Infinity

3GRAM: rmi
ENGLISH: P(i|rm) = -0.9637273027155495 ==> log prob of sentence so far: -34.72733154537736
FRENCH: P(i|rm) = -0.7505628050848687 ==> log prob of sentence so far: -Infinity

3GRAM: min
ENGLISH: P(n|mi) = -0.44177942977735 ==> log prob of sentence so far: -35.16911097515471
FRENCH: P(n|mi) = -0.7053568029974194 ==> log prob of sentence so far: -Infinity

3GRAM: ing
ENGLISH: P(g|in) = -0.376318904594127 ==> log prob of sentence so far: -35.54542987974884
FRENCH: P(g|in) = -1.3768220058287028 ==> log prob of sentence so far: -Infinity

3GRAM: ngp
ENGLISH: P(p|ng) = -1.7916177487103468 ==> log prob of sentence so far: -37.33704762845918
FRENCH: P(p|ng) = -3.149527013754348 ==> log prob of sentence so far: -Infinity

3GRAM: gpo
ENGLISH: P(o|gp) = -0.7234821542134252 ==> log prob of sentence so far: -38.06052978267261
FRENCH: P(o|gp) = -Infinity ==> log prob of sentence so far: -Infinity

3GRAM: pou
ENGLISH: P(u|po) = -1.168092374942079 ==> log prob of sentence so far: -39.22862215761469
FRENCH: P(u|po) = -0.46998495788173894 ==> log prob of sentence so far: -Infinity

3GRAM: our
ENGLISH: P(r|ou) = -0.9326674845605442 ==> log prob of sentence so far: -40.161289642175234
FRENCH: P(r|ou) = -0.6943373531005168 ==> log prob of sentence so far: -Infinity

3GRAM: urn
ENGLISH: P(n|ur) = -0.9136222136266547 ==> log prob of sentence so far: -41.074911855801886
FRENCH: P(n|ur) = -1.3526238422944108 ==> log prob of sentence so far: -Infinity

3GRAM: rno
ENGLISH: P(o|rn) = -0.8976592386298767 ==> log prob of sentence so far: -41.972571094431764
FRENCH: P(o|rn) = -0.7175854746446738 ==> log prob of sentence so far: -Infinity

3GRAM: not
ENGLISH: P(t|no) = -0.5149625912455612 ==> log prob of sentence so far: -42.48753368567733
FRENCH: P(t|no) = -0.9634412235906032 ==> log prob of sentence so far: -Infinity

3GRAM: otr
ENGLISH: P(r|ot) = -1.9026217449175786 ==> log prob of sentence so far: -44.39015543059491
FRENCH: P(r|ot) = -0.6282340737527523 ==> log prob of sentence so far: -Infinity

3GRAM: tre
ENGLISH: P(e|tr) = -0.7342735124711671 ==> log prob of sentence so far: -45.12442894306608
FRENCH: P(e|tr) = -0.21701352257942158 ==> log prob of sentence so far: -Infinity

3GRAM: rem
ENGLISH: P(m|re) = -1.3772719060905603 ==> log prob of sentence so far: -46.50170084915664
FRENCH: P(m|re) = -1.2283882082264936 ==> log prob of sentence so far: -Infinity

3GRAM: ema
ENGLISH: P(a|em) = -0.6301947309135739 ==> log prob of sentence so far: -47.131895580070214
FRENCH: P(a|em) = -0.7802197709864411 ==> log prob of sentence so far: -Infinity

3GRAM: mar
ENGLISH: P(r|ma) = -1.112799719040569 ==> log prob of sentence so far: -48.24469529911078
FRENCH: P(r|ma) = -0.8404365160272532 ==> log prob of sentence so far: -Infinity

3GRAM: ark
ENGLISH: P(k|ar) = -1.2741360040142145 ==> log prob of sentence so far: -49.518831303125
FRENCH: P(k|ar) = -3.730540036477119 ==> log prob of sentence so far: -Infinity

3GRAM: rke
ENGLISH: P(e|rk) = -0.8708114528407274 ==> log prob of sentence so far: -50.389642755965724
FRENCH: P(e|rk) = -1.2041199826559248 ==> log prob of sentence so far: -Infinity

3GRAM: ket
ENGLISH: P(t|ke) = -0.6903254498483273 ==> log prob of sentence so far: -51.079968205814055
FRENCH: P(t|ke) = -0.6627578316815741 ==> log prob of sentence so far: -Infinity

3GRAM: eti
ENGLISH: P(i|et) = -1.112536919075835 ==> log prob of sentence so far: -52.19250512488989
FRENCH: P(i|et) = -1.2499818583828044 ==> log prob of sentence so far: -Infinity

3GRAM: tin
ENGLISH: P(n|ti) = -0.5903232233586087 ==> log prob of sentence so far: -52.7828283482485
FRENCH: P(n|ti) = -1.0172662674255242 ==> log prob of sentence so far: -Infinity

3GRAM: ing
ENGLISH: P(g|in) = -0.376318904594127 ==> log prob of sentence so far: -53.15914725284263
FRENCH: P(g|in) = -1.3768220058287028 ==> log prob of sentence so far: -Infinity

3GRAM: ngp
ENGLISH: P(p|ng) = -1.7916177487103468 ==> log prob of sentence so far: -54.95076500155297
FRENCH: P(p|ng) = -3.149527013754348 ==> log prob of sentence so far: -Infinity

3GRAM: gpe
ENGLISH: P(e|gp) = -0.7998705000768799 ==> log prob of sentence so far: -55.75063550162985
FRENCH: P(e|gp) = -0.3010299956639812 ==> log prob of sentence so far: -Infinity

3GRAM: pen
ENGLISH: P(n|pe) = -0.9083603112017259 ==> log prob of sentence so far: -56.65899581283158
FRENCH: P(n|pe) = -0.6793177534510154 ==> log prob of sentence so far: -Infinity

3GRAM: end
ENGLISH: P(d|en) = -1.0948020056861036 ==> log prob of sentence so far: -57.75379781851768
FRENCH: P(d|en) = -1.0678263180257022 ==> log prob of sentence so far: -Infinity

3GRAM: nde
ENGLISH: P(e|nd) = -0.9328118686116321 ==> log prob of sentence so far: -58.68660968712931
FRENCH: P(e|nd) = -0.4946477158180403 ==> log prob of sentence so far: -Infinity

3GRAM: den
ENGLISH: P(n|de) = -1.0199565577315983 ==> log prob of sentence so far: -59.70656624486091
FRENCH: P(n|de) = -1.329156112906622 ==> log prob of sentence so far: -Infinity

3GRAM: ent
ENGLISH: P(t|en) = -0.5241361928420333 ==> log prob of sentence so far: -60.230702437702945
FRENCH: P(t|en) = -0.3828165151913853 ==> log prob of sentence so far: -Infinity

3GRAM: ntq
ENGLISH: P(q|nt) = -3.675319983339292 ==> log prob of sentence so far: -63.90602242104224
FRENCH: P(q|nt) = -1.5830208664514016 ==> log prob of sentence so far: -Infinity

3GRAM: tqu
ENGLISH: P(u|tq) = 0.0 ==> log prob of sentence so far: -63.90602242104224
FRENCH: P(u|tq) = 0.0 ==> log prob of sentence so far: -Infinity

3GRAM: que
ENGLISH: P(e|qu) = -0.29853005250440323 ==> log prob of sentence so far: -64.20455247354664
FRENCH: P(e|qu) = -0.2529706637082984 ==> log prob of sentence so far: -Infinity

3GRAM: uet
ENGLISH: P(t|ue) = -1.4927603890268375 ==> log prob of sentence so far: -65.69731286257348
FRENCH: P(t|ue) = -1.4992831310803376 ==> log prob of sentence so far: -Infinity

3GRAM: etu
ENGLISH: P(u|et) = -1.6067219375912536 ==> log prob of sentence so far: -67.30403480016474
FRENCH: P(u|et) = -1.8258064988525669 ==> log prob of sentence so far: -Infinity

3GRAM: tut
ENGLISH: P(t|tu) = -1.9211660506377388 ==> log prob of sentence so far: -69.22520085080248
FRENCH: P(t|tu) = -2.2730012720637376 ==> log prob of sentence so far: -Infinity

3GRAM: uta
ENGLISH: P(a|ut) = -0.9826364301126228 ==> log prob of sentence so far: -70.2078372809151
FRENCH: P(a|ut) = -1.2051478990692932 ==> log prob of sentence so far: -Infinity

3GRAM: tap
ENGLISH: P(p|ta) = -1.834682450761936 ==> log prob of sentence so far: -72.04251973167703
FRENCH: P(p|ta) = -1.6126425997720264 ==> log prob of sentence so far: -Infinity

3GRAM: apa
ENGLISH: P(a|ap) = -1.1435531596659168 ==> log prob of sentence so far: -73.18607289134295
FRENCH: P(a|ap) = -1.1053749958250993 ==> log prob of sentence so far: -Infinity

3GRAM: pai
ENGLISH: P(i|pa) = -1.2509937071240311 ==> log prob of sentence so far: -74.43706659846697
FRENCH: P(i|pa) = -1.417188403905499 ==> log prob of sentence so far: -Infinity

3GRAM: ais
ENGLISH: P(s|ai) = -1.6676397060564108 ==> log prob of sentence so far: -76.10470630452338
FRENCH: P(s|ai) = -0.653100884297309 ==> log prob of sentence so far: -Infinity

3GRAM: iss
ENGLISH: P(s|is) = -1.1472270522459282 ==> log prob of sentence so far: -77.2519333567693
FRENCH: P(s|is) = -0.7511714460662982 ==> log prob of sentence so far: -Infinity

3GRAM: ssu
ENGLISH: P(u|ss) = -1.2629168095082621 ==> log prob of sentence so far: -78.51485016627757
FRENCH: P(u|ss) = -1.0359679223468519 ==> log prob of sentence so far: -Infinity

3GRAM: sur
ENGLISH: P(r|su) = -0.8359750942116011 ==> log prob of sentence so far: -79.35082526048917
FRENCH: P(r|su) = -0.34085410728339904 ==> log prob of sentence so far: -Infinity

3GRAM: urt
ENGLISH: P(t|ur) = -1.2918181641029354 ==> log prob of sentence so far: -80.64264342459211
FRENCH: P(t|ur) = -1.676977266541016 ==> log prob of sentence so far: -Infinity

3GRAM: rto
ENGLISH: P(o|rt) = -0.866625004889908 ==> log prob of sentence so far: -81.50926842948202
FRENCH: P(o|rt) = -1.1853944278160211 ==> log prob of sentence so far: -Infinity

3GRAM: ton
ENGLISH: P(n|to) = -1.1604481234910662 ==> log prob of sentence so far: -82.66971655297309
FRENCH: P(n|to) = -0.8601299613062232 ==> log prob of sentence so far: -Infinity

3GRAM: ons
ENGLISH: P(s|on) = -0.9339789884185266 ==> log prob of sentence so far: -83.60369554139162
FRENCH: P(s|on) = -0.56572586743725 ==> log prob of sentence so far: -Infinity

3GRAM: nsm
ENGLISH: P(m|ns) = -1.9922097555737481 ==> log prob of sentence so far: -85.59590529696537
FRENCH: P(m|ns) = -1.6785677816121907 ==> log prob of sentence so far: -Infinity

3GRAM: sma
ENGLISH: P(a|sm) = -0.41007946465513584 ==> log prob of sentence so far: -86.00598476162051
FRENCH: P(a|sm) = -0.44902166639185637 ==> log prob of sentence so far: -Infinity

3GRAM: mar
ENGLISH: P(r|ma) = -1.112799719040569 ==> log prob of sentence so far: -87.11878448066108
FRENCH: P(r|ma) = -0.8404365160272532 ==> log prob of sentence so far: -Infinity

3GRAM: art
ENGLISH: P(t|ar) = -0.8337778209662616 ==> log prob of sentence so far: -87.95256230162734
FRENCH: P(t|ar) = -1.0137023131775946 ==> log prob of sentence so far: -Infinity

3GRAM: rtp
ENGLISH: P(p|rt) = -2.762678563727436 ==> log prob of sentence so far: -90.71524086535477
FRENCH: P(p|rt) = -1.9983077844588768 ==> log prob of sentence so far: -Infinity

3GRAM: tph
ENGLISH: P(h|tp) = -2.374748346010104 ==> log prob of sentence so far: -93.08998921136488
FRENCH: P(h|tp) = -2.751792151275026 ==> log prob of sentence so far: -Infinity

3GRAM: pho
ENGLISH: P(o|ph) = -1.2061259653535235 ==> log prob of sentence so far: -94.2961151767184
FRENCH: P(o|ph) = -0.6854675339323717 ==> log prob of sentence so far: -Infinity

3GRAM: hon
ENGLISH: P(n|ho) = -1.5420392454777314 ==> log prob of sentence so far: -95.83815442219614
FRENCH: P(n|ho) = -1.1782709097132023 ==> log prob of sentence so far: -Infinity

3GRAM: one
ENGLISH: P(e|on) = -0.7083316027581849 ==> log prob of sentence so far: -96.54648602495432
FRENCH: P(e|on) = -1.4137474760948385 ==> log prob of sentence so far: -Infinity

According to the 3gram model, the sentence is in English
----------------
4GRAM MODEL:

4GRAM: cewe
ENGLISH: P(e|cew) = -0.8946568194550808 ==> log prob of sentence so far: -0.8946568194550808
FRENCH: P(e|cew) = NaN ==> log prob of sentence so far: NaN

4GRAM: ewee
ENGLISH: P(e|ewe) = -1.5910646070264993 ==> log prob of sentence so far: -2.48572142648158
FRENCH: P(e|ewe) = -Infinity ==> log prob of sentence so far: NaN

4GRAM: week
ENGLISH: P(k|wee) = -1.1274859256221799 ==> log prob of sentence so far: -3.61320735210376
FRENCH: P(k|wee) = NaN ==> log prob of sentence so far: NaN

4GRAM: eeke
ENGLISH: P(e|eek) = -1.0969100130080565 ==> log prob of sentence so far: -4.710117365111817
FRENCH: P(e|eek) = NaN ==> log prob of sentence so far: NaN

4GRAM: eken
ENGLISH: P(n|eke) = -Infinity ==> log prob of sentence so far: -Infinity
FRENCH: P(n|eke) = -Infinity ==> log prob of sentence so far: NaN

4GRAM: kend
ENGLISH: P(d|ken) = -1.704150516839799 ==> log prob of sentence so far: -Infinity
FRENCH: P(d|ken) = -0.6020599913279624 ==> log prob of sentence so far: NaN

4GRAM: endo
ENGLISH: P(o|end) = -0.9800616700578124 ==> log prob of sentence so far: -Infinity
FRENCH: P(o|end) = -1.5175499117752707 ==> log prob of sentence so far: NaN

4GRAM: ndon
ENGLISH: P(n|ndo) = -0.5358992552728485 ==> log prob of sentence so far: -Infinity
FRENCH: P(n|ndo) = -0.2692381612401299 ==> log prob of sentence so far: NaN

4GRAM: dona
ENGLISH: P(a|don) = -1.4683473304121573 ==> log prob of sentence so far: -Infinity
FRENCH: P(a|don) = -2.0558150277234124 ==> log prob of sentence so far: NaN

4GRAM: onas
ENGLISH: P(s|ona) = -0.9301482197259796 ==> log prob of sentence so far: -Infinity
FRENCH: P(s|ona) = -1.375358738917194 ==> log prob of sentence so far: NaN

4GRAM: nasf
ENGLISH: P(f|nas) = -2.113943352306837 ==> log prob of sentence so far: -Infinity
FRENCH: P(f|nas) = -Infinity ==> log prob of sentence so far: NaN

4GRAM: asfa
ENGLISH: P(a|asf) = -0.8228216453031046 ==> log prob of sentence so far: -Infinity
FRENCH: P(a|asf) = -0.28254658996996806 ==> log prob of sentence so far: NaN

4GRAM: sfai
ENGLISH: P(i|sfa) = -0.9777236052888478 ==> log prob of sentence so far: -Infinity
FRENCH: P(i|sfa) = -0.3036074185517919 ==> log prob of sentence so far: NaN

4GRAM: fait
ENGLISH: P(t|fai) = -0.8521983804321959 ==> log prob of sentence so far: -Infinity
FRENCH: P(t|fai) = -0.30183648518433076 ==> log prob of sentence so far: NaN

4GRAM: aits
ENGLISH: P(s|ait) = -0.6260602677317288 ==> log prob of sentence so far: -Infinity
FRENCH: P(s|ait) = -1.1561980996716419 ==> log prob of sentence so far: NaN

4GRAM: itsd
ENGLISH: P(d|its) = -1.628657759821757 ==> log prob of sentence so far: -Infinity
FRENCH: P(d|its) = -1.1086362253859003 ==> log prob of sentence so far: NaN

4GRAM: tsdu
ENGLISH: P(u|tsd) = -1.3891660843645326 ==> log prob of sentence so far: -Infinity
FRENCH: P(u|tsd) = -0.8084785093917086 ==> log prob of sentence so far: NaN

4GRAM: sdub
ENGLISH: P(b|sdu) = -Infinity ==> log prob of sentence so far: -Infinity
FRENCH: P(b|sdu) = -1.5138831856110928 ==> log prob of sentence so far: NaN

4GRAM: dubr
ENGLISH: P(r|dub) = -Infinity ==> log prob of sentence so far: -Infinity
FRENCH: P(r|dub) = -1.2671717284030137 ==> log prob of sentence so far: NaN

4GRAM: ubra
ENGLISH: P(a|ubr) = -0.6020599913279624 ==> log prob of sentence so far: -Infinity
FRENCH: P(a|ubr) = -0.8129133566428556 ==> log prob of sentence so far: NaN

4GRAM: brai
ENGLISH: P(i|bra) = -0.6020599913279624 ==> log prob of sentence so far: -Infinity
FRENCH: P(i|bra) = -1.5563025007672873 ==> log prob of sentence so far: NaN

4GRAM: rain
ENGLISH: P(n|rai) = -0.4268161364082667 ==> log prob of sentence so far: -Infinity
FRENCH: P(n|rai) = -0.9676439635066665 ==> log prob of sentence so far: NaN

4GRAM: ains
ENGLISH: P(s|ain) = -0.6653668292890834 ==> log prob of sentence so far: -Infinity
FRENCH: P(s|ain) = -0.8323626281434982 ==> log prob of sentence so far: NaN

4GRAM: inst
ENGLISH: P(t|ins) = -0.4050838622437702 ==> log prob of sentence so far: -Infinity
FRENCH: P(t|ins) = -0.7348442609645983 ==> log prob of sentence so far: NaN

4GRAM: nsto
ENGLISH: P(o|nst) = -1.0151611400782732 ==> log prob of sentence so far: -Infinity
FRENCH: P(o|nst) = -1.0229583218087848 ==> log prob of sentence so far: NaN

4GRAM: stor
ENGLISH: P(r|sto) = -0.8589058096371571 ==> log prob of sentence so far: -Infinity
FRENCH: P(r|sto) = -0.8631620400919923 ==> log prob of sentence so far: NaN

4GRAM: torm
ENGLISH: P(m|tor) = -0.8927396744494833 ==> log prob of sentence so far: -Infinity
FRENCH: P(m|tor) = -1.9319661147281726 ==> log prob of sentence so far: NaN

4GRAM: ormi
ENGLISH: P(i|orm) = -1.0449671455165233 ==> log prob of sentence so far: -Infinity
FRENCH: P(i|orm) = -0.7700333601614642 ==> log prob of sentence so far: NaN

4GRAM: rmin
ENGLISH: P(n|rmi) = -0.3010299956639812 ==> log prob of sentence so far: -Infinity
FRENCH: P(n|rmi) = -0.5351132016973492 ==> log prob of sentence so far: NaN

4GRAM: ming
ENGLISH: P(g|min) = -0.5080174418971519 ==> log prob of sentence so far: -Infinity
FRENCH: P(g|min) = -2.5774917998372255 ==> log prob of sentence so far: NaN

4GRAM: ingp
ENGLISH: P(p|ing) = -1.7648655800523687 ==> log prob of sentence so far: -Infinity
FRENCH: P(p|ing) = -Infinity ==> log prob of sentence so far: NaN

4GRAM: ngpo
ENGLISH: P(o|ngp) = -0.7103994661168006 ==> log prob of sentence so far: -Infinity
FRENCH: P(o|ngp) = -Infinity ==> log prob of sentence so far: NaN

4GRAM: gpou
ENGLISH: P(u|gpo) = -Infinity ==> log prob of sentence so far: -Infinity
FRENCH: P(u|gpo) = NaN ==> log prob of sentence so far: NaN

4GRAM: pour
ENGLISH: P(r|pou) = -0.6296037405819928 ==> log prob of sentence so far: -Infinity
FRENCH: P(r|pou) = -0.18869217007256284 ==> log prob of sentence so far: NaN

4GRAM: ourn
ENGLISH: P(n|our) = -1.5079488783311372 ==> log prob of sentence so far: -Infinity
FRENCH: P(n|our) = -0.921736483484337 ==> log prob of sentence so far: NaN

4GRAM: urno
ENGLISH: P(o|urn) = -1.4325111742898342 ==> log prob of sentence so far: -Infinity
FRENCH: P(o|urn) = -0.6661774909397113 ==> log prob of sentence so far: NaN

4GRAM: rnot
ENGLISH: P(t|rno) = -0.5228787452803376 ==> log prob of sentence so far: -Infinity
FRENCH: P(t|rno) = -0.7387805584843692 ==> log prob of sentence so far: NaN

4GRAM: notr
ENGLISH: P(r|not) = -1.8397065332307923 ==> log prob of sentence so far: -Infinity
FRENCH: P(r|not) = -0.17143924613875602 ==> log prob of sentence so far: NaN

4GRAM: otre
ENGLISH: P(e|otr) = -0.5081554884596312 ==> log prob of sentence so far: -Infinity
FRENCH: P(e|otr) = -0.01200890747301538 ==> log prob of sentence so far: NaN

4GRAM: trem
ENGLISH: P(m|tre) = -0.7761905496181157 ==> log prob of sentence so far: -Infinity
FRENCH: P(m|tre) = -1.1563000026332946 ==> log prob of sentence so far: NaN

4GRAM: rema
ENGLISH: P(a|rem) = -0.45542371161055684 ==> log prob of sentence so far: -Infinity
FRENCH: P(a|rem) = -0.7309570565404586 ==> log prob of sentence so far: NaN

4GRAM: emar
ENGLISH: P(r|ema) = -0.9910451573470735 ==> log prob of sentence so far: -Infinity
FRENCH: P(r|ema) = -0.8361431973613304 ==> log prob of sentence so far: NaN

4GRAM: mark
ENGLISH: P(k|mar) = -0.4483971034577677 ==> log prob of sentence so far: -Infinity
FRENCH: P(k|mar) = -Infinity ==> log prob of sentence so far: NaN

4GRAM: arke
ENGLISH: P(e|ark) = -0.9446971915330945 ==> log prob of sentence so far: -Infinity
FRENCH: P(e|ark) = -Infinity ==> log prob of sentence so far: NaN

4GRAM: rket
ENGLISH: P(t|rke) = -1.0993846321359118 ==> log prob of sentence so far: -Infinity
FRENCH: P(t|rke) = 0.0 ==> log prob of sentence so far: NaN

4GRAM: keti
ENGLISH: P(i|ket) = -1.4598948527451518 ==> log prob of sentence so far: -Infinity
FRENCH: P(i|ket) = -Infinity ==> log prob of sentence so far: NaN

4GRAM: etin
ENGLISH: P(n|eti) = -0.794541666571813 ==> log prob of sentence so far: -Infinity
FRENCH: P(n|eti) = -0.8507019175322553 ==> log prob of sentence so far: NaN

4GRAM: ting
ENGLISH: P(g|tin) = -0.3007856668350878 ==> log prob of sentence so far: -Infinity
FRENCH: P(g|tin) = -1.2184229596757339 ==> log prob of sentence so far: NaN

4GRAM: ingp
ENGLISH: P(p|ing) = -1.7648655800523687 ==> log prob of sentence so far: -Infinity
FRENCH: P(p|ing) = -Infinity ==> log prob of sentence so far: NaN

4GRAM: ngpe
ENGLISH: P(e|ngp) = -0.8073094791248571 ==> log prob of sentence so far: -Infinity
FRENCH: P(e|ngp) = 0.0 ==> log prob of sentence so far: NaN

4GRAM: gpen
ENGLISH: P(n|gpe) = -Infinity ==> log prob of sentence so far: -Infinity
FRENCH: P(n|gpe) = -Infinity ==> log prob of sentence so far: NaN

4GRAM: pend
ENGLISH: P(d|pen) = -0.596908157701525 ==> log prob of sentence so far: -Infinity
FRENCH: P(d|pen) = -0.24783510373318104 ==> log prob of sentence so far: NaN

4GRAM: ende
ENGLISH: P(e|end) = -0.5733031963385862 ==> log prob of sentence so far: -Infinity
FRENCH: P(e|end) = -0.723793588061051 ==> log prob of sentence so far: NaN

4GRAM: nden
ENGLISH: P(n|nde) = -1.3735485392516549 ==> log prob of sentence so far: -Infinity
FRENCH: P(n|nde) = -1.2265007625332816 ==> log prob of sentence so far: NaN

4GRAM: dent
ENGLISH: P(t|den) = -0.5228787452803376 ==> log prob of sentence so far: -Infinity
FRENCH: P(t|den) = -0.5139663121271668 ==> log prob of sentence so far: NaN

4GRAM: entq
ENGLISH: P(q|ent) = -3.4390167283875126 ==> log prob of sentence so far: -Infinity
FRENCH: P(q|ent) = -1.6419055869412458 ==> log prob of sentence so far: NaN

4GRAM: ntqu
ENGLISH: P(u|ntq) = 0.0 ==> log prob of sentence so far: -Infinity
FRENCH: P(u|ntq) = 0.0 ==> log prob of sentence so far: NaN

4GRAM: tque
ENGLISH: P(e|tqu) = -0.3212333817522681 ==> log prob of sentence so far: -Infinity
FRENCH: P(e|tqu) = -0.2365327019905086 ==> log prob of sentence so far: NaN

4GRAM: quet
ENGLISH: P(t|que) = -2.1947917577219247 ==> log prob of sentence so far: -Infinity
FRENCH: P(t|que) = -1.783722451332153 ==> log prob of sentence so far: NaN

4GRAM: uetu
ENGLISH: P(u|uet) = -Infinity ==> log prob of sentence so far: -Infinity
FRENCH: P(u|uet) = -1.400414627799893 ==> log prob of sentence so far: NaN

4GRAM: etut
ENGLISH: P(t|etu) = -2.2624510897304293 ==> log prob of sentence so far: -Infinity
FRENCH: P(t|etu) = -1.6842467475153124 ==> log prob of sentence so far: NaN

4GRAM: tuta
ENGLISH: P(a|tut) = -Infinity ==> log prob of sentence so far: -Infinity
FRENCH: P(a|tut) = -Infinity ==> log prob of sentence so far: NaN

4GRAM: utap
ENGLISH: P(p|uta) = -1.615950051656401 ==> log prob of sentence so far: -Infinity
FRENCH: P(p|uta) = -1.845098040014257 ==> log prob of sentence so far: NaN

4GRAM: tapa
ENGLISH: P(a|tap) = -0.9700367766225568 ==> log prob of sentence so far: -Infinity
FRENCH: P(a|tap) = -1.0969100130080565 ==> log prob of sentence so far: NaN

4GRAM: apai
ENGLISH: P(i|apa) = -1.11997531707675 ==> log prob of sentence so far: -Infinity
FRENCH: P(i|apa) = -1.4471580313422192 ==> log prob of sentence so far: NaN

4GRAM: pais
ENGLISH: P(s|pai) = -Infinity ==> log prob of sentence so far: -Infinity
FRENCH: P(s|pai) = -0.3189680107527215 ==> log prob of sentence so far: NaN

4GRAM: aiss
ENGLISH: P(s|ais) = -Infinity ==> log prob of sentence so far: -Infinity
FRENCH: P(s|ais) = -0.7605099905457249 ==> log prob of sentence so far: NaN

4GRAM: issu
ENGLISH: P(u|iss) = -1.023399453875055 ==> log prob of sentence so far: -Infinity
FRENCH: P(u|iss) = -1.287112373465007 ==> log prob of sentence so far: NaN

4GRAM: ssur
ENGLISH: P(r|ssu) = -0.738384123512156 ==> log prob of sentence so far: -Infinity
FRENCH: P(r|ssu) = -0.2756254158898864 ==> log prob of sentence so far: NaN

4GRAM: surt
ENGLISH: P(t|sur) = -2.2081725266671217 ==> log prob of sentence so far: -Infinity
FRENCH: P(t|sur) = -1.517838520640814 ==> log prob of sentence so far: NaN

4GRAM: urto
ENGLISH: P(o|urt) = -0.9280722750790208 ==> log prob of sentence so far: -Infinity
FRENCH: P(o|urt) = -0.4986101705534008 ==> log prob of sentence so far: NaN

4GRAM: rton
ENGLISH: P(n|rto) = -1.5226072263706474 ==> log prob of sentence so far: -Infinity
FRENCH: P(n|rto) = -1.165095874754218 ==> log prob of sentence so far: NaN

4GRAM: tons
ENGLISH: P(s|ton) = -1.2855573090077739 ==> log prob of sentence so far: -Infinity
FRENCH: P(s|ton) = -0.8105763403384897 ==> log prob of sentence so far: NaN

4GRAM: onsm
ENGLISH: P(m|ons) = -1.968058210640469 ==> log prob of sentence so far: -Infinity
FRENCH: P(m|ons) = -1.813803304663092 ==> log prob of sentence so far: NaN

4GRAM: nsma
ENGLISH: P(a|nsm) = -0.4423591484604505 ==> log prob of sentence so far: -Infinity
FRENCH: P(a|nsm) = -0.47712125471966244 ==> log prob of sentence so far: NaN

4GRAM: smar
ENGLISH: P(r|sma) = -1.2007137339640133 ==> log prob of sentence so far: -Infinity
FRENCH: P(r|sma) = -0.5207550516504821 ==> log prob of sentence so far: NaN

4GRAM: mart
ENGLISH: P(t|mar) = -1.3692158574101427 ==> log prob of sentence so far: -Infinity
FRENCH: P(t|mar) = -1.6357929632622243 ==> log prob of sentence so far: NaN

4GRAM: artp
ENGLISH: P(p|art) = -2.3544926005894364 ==> log prob of sentence so far: -Infinity
FRENCH: P(p|art) = -2.1097472377132287 ==> log prob of sentence so far: NaN

4GRAM: rtph
ENGLISH: P(h|rtp) = -Infinity ==> log prob of sentence so far: -Infinity
FRENCH: P(h|rtp) = -Infinity ==> log prob of sentence so far: NaN

4GRAM: tpho
ENGLISH: P(o|tph) = -Infinity ==> log prob of sentence so far: -Infinity
FRENCH: P(o|tph) = -0.17609125905568127 ==> log prob of sentence so far: NaN

4GRAM: phon
ENGLISH: P(n|pho) = -1.130333768495006 ==> log prob of sentence so far: -Infinity
FRENCH: P(n|pho) = -1.5141048209728325 ==> log prob of sentence so far: NaN

4GRAM: hone
ENGLISH: P(e|hon) = -0.3617278360175929 ==> log prob of sentence so far: -Infinity
FRENCH: P(e|hon) = -Infinity ==> log prob of sentence so far: NaN

According to the 4gram model, the sentence is in English
----------------
