(a|a) = -2.6403799040406977
(b|a) = -1.6147031716002194
(c|a) = -1.4321279431968736
(d|a) = -1.4692731976432378
(e|a) = -2.5424638584698203
(f|a) = -1.9042012647665463
(g|a) = -1.6174241817975408
(h|a) = -2.4248113842901877
(i|a) = -0.6635811794145366
(j|a) = -2.386816065728755
(k|a) = -3.719321407061587
(l|a) = -1.2310228913879266
(m|a) = -1.3335021395983369
(n|a) = -0.8456621170358352
(o|a) = -2.9513550836569307
(p|a) = -1.3785884627488558
(q|a) = -2.287106293486322
(r|a) = -1.0010287410510506
(s|a) = -1.275597448308868
(t|a) = -1.316564816653678
(u|a) = -1.0925732705547586
(v|a) = -1.265871433475468
(w|a) = -4.157935664860513
(x|a) = -3.098268995110622
(y|a) = -2.367458575738236
(z|a) = -3.0476521191716897
(a|b) = -0.9035280516629977
(b|b) = -2.0062774377365638
(c|b) = -2.752109004908769
(d|b) = -2.539840669120267
(e|b) = -0.783230008727944
(f|b) = -4.01535043968335
(g|b) = -3.6473736543887556
(h|b) = -3.793501690066994
(i|b) = -0.8701540335691683
(j|b) = -2.44454814208583
(k|b) = -4.969592949122675
(l|b) = -0.6846436277190011
(m|b) = -2.594844603112571
(n|b) = -2.426767522163495
(o|b) = -0.8387768990879308
(p|b) = -3.3568090924029397
(q|b) = -3.378528342096176
(r|b) = -0.8517584305789277
(s|b) = -1.7073792436462583
(t|b) = -1.9123073047044603
(u|b) = -1.6187636755397072
(v|b) = -3.3361244935430885
(w|b) = -4.969592949122675
(x|b) = -4.969592949122675
(y|b) = -2.973957754525125
(z|b) = -4.969592949122675
(a|c) = -1.1026340699603883
(b|c) = -3.152575067284534
(c|c) = -1.7503342592184643
(d|c) = -2.040554083953
(e|c) = -0.572010203140247
(f|c) = -3.2008797468590893
(g|c) = -3.368917632439631
(h|c) = -0.8252308011272854
(i|c) = -1.2743667286586482
(j|c) = -3.2937444061024186
(k|c) = -2.3910140832982387
(l|c) = -1.4740697573972146
(m|c) = -2.560499296863173
(n|c) = -2.7411325882088495
(o|c) = -0.6308927979461786
(p|c) = -2.6699476281036123
(q|c) = -2.3624684360421853
(r|c) = -1.348380182620628
(s|c) = -2.08337804214351
(t|c) = -1.3648672058587292
(u|c) = -1.412514732328238
(v|c) = -2.991278724893283
(w|c) = -5.472721353395588
(x|c) = -4.358778001088751
(y|c) = -2.5947744017664
(z|c) = -3.9286533090453126
(a|d) = -0.8700127992364188
(b|d) = -2.7220471936958806
(c|d) = -2.067930406627593
(d|d) = -2.211564082968345
(e|d) = -0.3138194685480035
(f|d) = -2.4817933813968
(g|d) = -2.806144320061839
(h|d) = -2.217014735193199
(i|d) = -1.013078440939075
(j|d) = -2.2930340551769204
(k|d) = -5.562780428307687
(l|d) = -2.0740887299907467
(m|d) = -2.0253391448997395
(n|d) = -2.4627546981998245
(o|d) = -1.250201133401548
(p|d) = -2.1277327869677225
(q|d) = -2.640054970314427
(r|d) = -1.4063221430672308
(s|d) = -1.7557191883904482
(t|d) = -2.1080879790682103
(u|d) = -1.0254021454774815
(v|d) = -2.538705441000261
(w|d) = -4.1314166641487
(x|d) = -5.562780428307687
(y|d) = -3.084213932713844
(z|d) = -4.863810423971668
(a|e) = -1.583214626167185
(b|e) = -2.0160924431026612
(c|e) = -1.2950748813378672
(d|e) = -1.2555332046664434
(e|e) = -1.5875816854205935
(f|e) = -1.7436494188913187
(g|e) = -2.0399643786342256
(h|e) = -2.3445385528765206
(i|e) = -1.8038437431369243
(j|e) = -2.0271783979809737
(k|e) = -3.8701599096206536
(l|e) = -1.0706208997726607
(m|e) = -1.2279959033484136
(n|e) = -0.8695759375878784
(o|e) = -2.2991404681705303
(p|e) = -1.4182288752885783
(q|e) = -1.7718696261150657
(r|e) = -1.0862077157823018
(s|e) = -0.7615789483781602
(t|e) = -1.0909072673569926
(u|e) = -1.2378192378667867
(v|e) = -1.5994140230915823
(w|e) = -3.751519555387343
(x|e) = -2.3006083005163496
(y|e) = -2.8366940488952297
(z|e) = -1.9955839931894657
(a|f) = -0.6568259010320844
(b|f) = -3.4477194006176672
(c|f) = -2.3410599839468507
(d|f) = -2.2827238595780925
(e|f) = -0.9472529813987625
(f|f) = -1.047018094380834
(g|f) = -3.785472203306388
(h|f) = -3.275558435190418
(i|f) = -0.8305773231024737
(j|f) = -3.4031372679649268
(k|f) = -5.015921124684662
(l|f) = -1.3591523454186454
(m|f) = -2.695774838573608
(n|f) = -3.553523126785706
(o|f) = -0.8203258616791367
(p|f) = -2.763068093704769
(q|f) = -2.9190111116766055
(r|f) = -0.9813327709710378
(s|f) = -2.0660434206477873
(t|f) = -1.8833412770249252
(u|f) = -1.0409031270517795
(v|f) = -3.230591289673895
(w|f) = -5.015921124684662
(x|f) = -5.015921124684662
(y|f) = -3.9019777723778253
(z|f) = -5.015921124684662
(a|g) = -0.9068019694412089
(b|g) = -3.3437399348739083
(c|g) = -2.6754904243459166
(d|g) = -1.9857121807211262
(e|g) = -0.551228668551357
(f|g) = -2.969752057327399
(g|g) = -3.1304489888928178
(h|g) = -2.7892064568454678
(i|g) = -1.1728345552463275
(j|g) = -3.232247921992855
(k|g) = -4.956523791593644
(l|g) = -1.3432106301381843
(m|g) = -2.138958422033863
(n|g) = -0.845631190791426
(o|g) = -1.3199356078638016
(p|g) = -2.807304678938264
(q|g) = -2.7892064568454678
(r|g) = -0.829645922758377
(s|g) = -1.9932082802075326
(t|g) = -1.6462554249611965
(u|g) = -1.0881732919456757
(v|g) = -3.2006489359211527
(w|g) = -3.677770190640815
(x|g) = -4.956523791593644
(y|g) = -2.9112008128069866
(z|g) = -4.111425751579387
(a|h) = -0.5635221692480469
(b|h) = -2.003411113074189
(c|h) = -2.4533801217502362
(d|h) = -2.390842451024678
(e|h) = -0.4941780700303355
(f|h) = -2.873058127584029
(g|h) = -3.3350719640409494
(h|h) = -3.528196562395411
(i|h) = -1.1326954380897851
(j|h) = -2.7471596237742792
(k|h) = -4.449015316347786
(l|h) = -1.661082782563434
(m|h) = -2.0829037929694394
(n|h) = -2.393382192074951
(o|h) = -0.7965433426995154
(p|h) = -2.65429496453095
(q|h) = -2.4592689507133394
(r|h) = -1.559340187780719
(s|h) = -2.066998273772918
(t|h) = -1.5722203401470858
(u|h) = -1.4310086898245156
(v|h) = -2.6830985223811545
(w|h) = -3.3820685267171733
(x|h) = -4.926136571067449
(y|h) = -2.044751914296876
(z|h) = -3.9718940616281238
(a|i) = -1.745862786967327
(b|i) = -2.044418560636053
(c|i) = -1.5426217529212216
(d|i) = -1.6122652938366016
(e|i) = -0.9174258037311198
(f|i) = -1.9568515955551227
(g|i) = -1.7250514197772122
(h|i) = -3.364557896979032
(i|i) = -2.5944697293361845
(j|i) = -2.452305618330025
(k|i) = -4.187016571528118
(l|i) = -0.9256796740651747
(m|i) = -1.535803189494064
(n|i) = -0.9667747855545095
(o|i) = -1.445269856817262
(p|i) = -1.9602735001807121
(q|i) = -1.8296323490969364
(r|i) = -1.101472302715258
(s|i) = -0.8646548331837887
(t|i) = -0.7023150571593314
(u|i) = -2.5350927663598224
(v|i) = -1.6718200017838354
(w|i) = -4.664137826247781
(x|i) = -2.2384949370433564
(y|i) = -4.115953215702673
(z|i) = -3.045741038644292
(a|j) = -0.7694446427941456
(b|j) = -3.1195434959261195
(c|j) = -2.649910262599007
(d|j) = -2.5316311556594493
(e|j) = -0.33734659679093676
(f|j) = -2.8717590122153633
(g|j) = -3.4318545019997897
(h|j) = -3.480159181574345
(i|j) = -2.4295747357048914
(j|j) = -3.348880266935026
(k|j) = -4.710608102952619
(l|j) = -2.6136980899445623
(m|j) = -3.1665400586023433
(n|j) = -3.865510062938362
(o|j) = -0.5985731517791889
(p|j) = -2.635061141560088
(q|j) = -3.4318545019997897
(r|j) = -2.732884497663771
(s|j) = -2.732884497663771
(t|j) = -2.160379749897525
(u|j) = -1.0708228899657988
(v|j) = -3.2192464091183464
(w|j) = -4.710608102952619
(x|j) = -4.710608102952619
(y|j) = -2.4295747357048914
(z|j) = -4.710608102952619
(a|k) = -1.0229321665808626
(b|k) = -2.3337219995339997
(c|k) = -2.1990234256365437
(d|k) = -1.8837529908579522
(e|k) = -0.3309670638135022
(f|k) = -2.530016644677968
(g|k) = -3.375114684692225
(h|k) = -2.1990234256365437
(i|k) = -0.9719941635164071
(j|k) = -2.6761446803562063
(k|k) = -3.375114684692225
(l|k) = -1.5490398819913986
(m|k) = -2.144665763313951
(n|k) = -1.9771746760201874
(o|k) = -0.8605669320319389
(p|k) = -2.261171332385388
(q|k) = -2.013386848674632
(r|k) = -1.7416462291126384
(s|k) = -1.4774875934017835
(t|k) = -2.0963610837393962
(u|k) = -1.8837529908579522
(v|k) = -2.4208721752529003
(w|k) = -3.375114684692225
(x|k) = -3.375114684692225
(y|k) = -1.7219021709168814
(z|k) = -3.375114684692225
(a|l) = -0.6845081303579077
(b|l) = -2.568204790728591
(c|l) = -2.120014627742949
(d|l) = -1.9575084754808303
(e|l) = -0.4367629830025041
(f|l) = -2.1982065230936123
(g|l) = -2.3498878362685978
(h|l) = -2.003057454643452
(i|l) = -1.1844972785622172
(j|l) = -2.8484644361481712
(k|l) = -4.209111937076576
(l|l) = -0.9404871687407055
(m|l) = -2.120014627742949
(n|l) = -2.1076594665209782
(o|l) = -1.2420322029320794
(p|l) = -2.12305733856754
(q|l) = -2.034429246687187
(r|l) = -2.3190903430089613
(s|l) = -1.642085570917516
(t|l) = -1.9008830155999266
(u|l) = -1.1965277731624258
(v|l) = -2.275624649227871
(w|l) = -4.522731060048578
(x|l) = -4.2907819835278955
(y|l) = -2.302776895271486
(z|l) = -3.568488550609253
(a|m) = -0.6714285273671705
(b|m) = -1.4688704731524813
(c|m) = -2.590785064648672
(d|m) = -1.5568621259019404
(e|m) = -0.5092479296567639
(f|m) = -3.139557204809932
(g|m) = -3.5193791193041575
(h|m) = -3.4750248431529203
(i|m) = -1.0953937508142382
(j|m) = -3.6366037191390173
(k|m) = -4.025464069959137
(l|m) = -2.230903915297161
(m|m) = -0.9863235652081173
(n|m) = -2.4018583622397105
(o|m) = -0.9364974732642889
(p|m) = -1.1707811817848994
(q|m) = -3.3511415007016856
(r|m) = -2.087324078466146
(s|m) = -2.537984363821218
(t|m) = -2.1397519993778547
(u|m) = -1.8614190425267978
(v|m) = -3.390952054850036
(w|m) = -4.446469382699868
(x|m) = -5.487862067858092
(y|m) = -2.7435690847354164
(z|m) = -4.373918715551255
(a|n) = -1.1439366732128127
(b|n) = -2.3216680824661795
(c|n) = -1.1981356196187516
(d|n) = -1.0602997095046485
(e|n) = -0.808835575276345
(f|n) = -1.7707912505636296
(g|n) = -1.615586079667729
(h|n) = -2.2990207142280683
(i|n) = -1.4768902743531755
(j|n) = -2.3281586341249327
(k|n) = -3.7678468699168484
(l|n) = -1.826532453093352
(m|n) = -1.930247058100907
(n|n) = -1.3631826280600783
(o|n) = -1.35069697889989
(p|n) = -1.7845579336372759
(q|n) = -1.9856067374487822
(r|n) = -1.9344757483073973
(s|n) = -0.9588212906427211
(t|n) = -0.6237272622949059
(u|n) = -1.8715093703151136
(v|n) = -1.8284175705880923
(w|n) = -4.26910180435323
(x|n) = -4.00025649206065
(y|n) = -2.4781133292644144
(z|n) = -3.098002490855048
(a|o) = -3.0857613056063267
(b|o) = -2.0025392819873713
(c|o) = -1.8703237707262295
(d|o) = -2.2318686117324305
(e|o) = -2.1322103480359025
(f|o) = -2.1919690981865743
(g|o) = -2.4217434745440687
(h|o) = -2.777026297405099
(i|o) = -1.0026676638620522
(j|o) = -3.001257546235863
(k|o) = -3.9371233169304776
(l|o) = -1.4365752081315595
(m|o) = -1.1195131343195128
(n|o) = -0.5569948935034322
(o|o) = -3.204184645515441
(p|o) = -1.8738726728598283
(q|o) = -2.291834297404293
(r|o) = -1.0382587462837478
(s|o) = -1.488521791495811
(t|o) = -1.4923113329241742
(u|o) = -0.5680742132998424
(v|o) = -2.6529794670434805
(w|o) = -3.82148460340014
(x|o) = -3.4502967537034372
(y|o) = -1.9300412797348425
(z|o) = -3.967612639078378
(a|p) = -0.6323653033480962
(b|p) = -3.3993914130857488
(c|p) = -2.422334074072148
(d|p) = -2.121971368396403
(e|p) = -0.876643397469008
(f|p) = -3.194744693577015
(g|p) = -3.671865948296677
(h|p) = -1.7989154763354616
(i|p) = -1.2926758401238039
(j|p) = -3.5861538350900948
(k|p) = -4.567130597776664
(l|p) = -1.0118806398236255
(m|p) = -3.0639237747427606
(n|p) = -2.7638686268099897
(o|p) = -0.766423336388275
(p|p) = -1.3906672457535663
(q|p) = -3.3828448601057115
(r|p) = -0.7797207314831978
(s|p) = -1.7135192883483343
(t|p) = -1.6831448807473093
(u|p) = -1.4568776804232613
(v|p) = -3.1741825346621257
(w|p) = -4.935107383071259
(x|p) = -5.412228637790921
(y|p) = -3.5489057776704653
(z|p) = -4.567130597776664
(a|q) = -3.129809200593201
(b|q) = -4.561172964752188
(c|q) = -2.7903209531100437
(d|q) = -3.366196361536133
(e|q) = -3.9243508671650136
(f|q) = -3.640354210799813
(g|q) = -4.339324215135831
(h|q) = -3.2529643844610834
(i|q) = -4.561172964752188
(j|q) = -3.8078452980935764
(k|q) = -5.038294219471851
(l|q) = -3.9243508671650136
(m|q) = -2.8208102752579443
(n|q) = -4.193196179457594
(o|q) = -3.2529643844610834
(p|q) = -3.366196361536133
(q|q) = -4.561172964752188
(r|q) = -3.9243508671650136
(s|q) = -3.862202960416169
(t|q) = -4.561172964752188
(u|q) = -0.0030766769664200655
(v|q) = -4.193196179457594
(w|q) = -5.038294219471851
(x|q) = -5.038294219471851
(y|q) = -5.038294219471851
(z|q) = -5.038294219471851
(a|r) = -0.9156039180500228
(b|r) = -2.206282738096765
(c|r) = -1.4755000506790716
(d|r) = -1.2802059895246152
(e|r) = -0.5676012830549572
(f|r) = -2.201217379922821
(g|r) = -1.8766947646880885
(h|r) = -2.8960470643127336
(i|r) = -1.0397474629671202
(j|r) = -2.5835136781109784
(k|r) = -3.7466011369135517
(l|r) = -1.3119333353245306
(m|r) = -1.5580583996055475
(n|r) = -1.7644500240467593
(o|r) = -1.127905253724375
(p|r) = -1.758642372529943
(q|r) = -1.9636721212714399
(r|r) = -1.5178511138364532
(s|r) = -1.107846904671925
(t|r) = -1.2375414237192641
(u|r) = -1.6331014704773192
(v|r) = -1.8678658764378322
(w|r) = -4.477460285663052
(x|r) = -5.799679580396972
(y|r) = -2.9015030968992948
(z|r) = -3.948421231677896
(a|s) = -0.9584661807556515
(b|s) = -1.911167151775863
(c|s) = -1.336056716674345
(d|s) = -1.147704553764239
(e|s) = -0.8072903423783238
(f|s) = -1.8484776556070832
(g|s) = -2.1340206317001544
(h|s) = -2.1617086029127335
(i|s) = -1.183237983775244
(j|s) = -2.0009232587840278
(k|s) = -3.36413438464049
(l|s) = -1.2583618318136736
(m|s) = -1.5788512379206627
(n|s) = -1.9192708407822114
(o|s) = -1.130223269255406
(p|s) = -1.3009179576362517
(q|s) = -1.492657152940809
(r|s) = -1.7984800759652295
(s|s) = -1.0135241815194889
(t|s) = -1.135607810562159
(u|s) = -1.3309875900678896
(v|s) = -1.8864913408458885
(w|s) = -4.5262149292533564
(x|s) = -3.169915844947162
(y|s) = -2.423715886655709
(z|s) = -3.811007726046652
(a|t) = -0.9213767405614084
(b|t) = -2.0370636589398985
(c|t) = -1.5074172460911284
(d|t) = -1.1939167310948278
(e|t) = -0.7278672106405729
(f|t) = -2.03692173263736
(g|t) = -2.366316419190063
(h|t) = -2.129577816203349
(i|t) = -1.0614782867270083
(j|t) = -2.0662721643708792
(k|t) = -4.255542388069553
(l|t) = -1.1866448227050643
(m|t) = -1.7018233265735097
(n|t) = -2.1133728478757847
(o|t) = -1.2425798274948758
(p|t) = -1.4101258704495545
(q|t) = -1.7035981059484357
(r|t) = -0.9972999921011502
(s|t) = -1.2644001611043965
(t|t) = -1.2145874190893862
(u|t) = -1.431170255728406
(v|t) = -2.049592253181837
(w|t) = -4.501524817402628
(x|t) = -5.823744112136548
(y|t) = -2.8938145520519596
(z|t) = -3.2337945108108395
(a|u) = -1.6559212327712656
(b|u) = -1.9868115206887715
(c|u) = -1.5521157064422508
(d|u) = -1.6562489032877175
(e|u) = -0.9046639657992867
(f|u) = -2.1042140578048856
(g|u) = -2.098913259685796
(h|u) = -2.9504169391576087
(i|u) = -0.9408751283919841
(j|u) = -2.117282146136799
(k|u) = -4.187367396355087
(l|u) = -1.4381664024092558
(m|u) = -1.7212605618343197
(n|u) = -0.9978482904467482
(o|u) = -2.0643538383997297
(p|u) = -1.6093750706367336
(q|u) = -2.527280660206231
(r|u) = -0.7566351172487572
(s|u) = -0.951120898662589
(t|u) = -1.0461428085209183
(u|u) = -2.4161380654173543
(v|u) = -1.4808684462722286
(w|u) = -4.347068239222598
(x|u) = -1.362740992440862
(y|u) = -2.7296019168532357
(z|u) = -2.6114102075913292
(a|v) = -0.6366390275001665
(b|v) = -4.364609951417531
(c|v) = -2.861403128383628
(d|v) = -2.9617347250699817
(e|v) = -0.5527765138333302
(f|v) = -3.778344227272801
(g|v) = -4.033616732376108
(h|v) = -3.7473099935328325
(i|v) = -0.7899339250189138
(j|v) = -3.811767982759751
(k|v) = -5.209707991431788
(l|v) = -2.589571936458031
(m|v) = -3.092436695776024
(n|v) = -2.549791791361938
(o|v) = -0.629182157302458
(p|v) = -3.3232172662593067
(q|v) = -2.5854258955961202
(r|v) = -1.2176407314041218
(s|v) = -2.745815002445881
(t|v) = -2.506416613313127
(u|v) = -1.8581049190126595
(v|v) = -3.7473099935328325
(w|v) = -4.732586736712126
(x|v) = -5.209707991431788
(y|v) = -4.168315306273564
(z|v) = -5.209707991431788
(a|w) = -0.721577795081491
(b|w) = -1.5166297960033361
(c|w) = -2.1398790864012365
(d|w) = -1.4771212547196624
(e|w) = -0.7282593804380063
(f|w) = -2.838849090737255
(g|w) = -2.361727836017593
(h|w) = -1.2477844837107561
(i|w) = -0.6896299780818754
(j|w) = -2.361727836017593
(k|w) = -1.9937510507229985
(l|w) = -1.8846065812979305
(m|w) = -2.361727836017593
(n|w) = -1.9937510507229985
(o|w) = -1.2053806351576688
(p|w) = -2.838849090737255
(q|w) = -2.361727836017593
(r|w) = -2.361727836017593
(s|w) = -1.2947810463869796
(t|w) = -2.361727836017593
(u|w) = -1.2706473666702602
(v|w) = -2.838849090737255
(w|w) = -2.838849090737255
(x|w) = -2.838849090737255
(y|w) = -1.2477844837107561
(z|w) = -2.838849090737255
(a|x) = -1.1274491163258995
(b|x) = -1.6771210381941737
(c|x) = -0.9954270507758728
(d|x) = -0.9935258954251092
(e|x) = -0.980215829262129
(f|x) = -1.592161113063742
(g|x) = -1.9435209922135848
(h|x) = -1.6958284032306161
(i|x) = -1.109429948497474
(j|x) = -1.813069830966978
(k|x) = -3.603120304650329
(l|x) = -1.372955328677334
(m|x) = -1.308164456698541
(n|x) = -1.8993514174325417
(o|x) = -1.7799359917003428
(p|x) = -0.9895133635165473
(q|x) = -1.2738354492279604
(r|x) = -1.7128856383439726
(s|x) = -1.3634038360704672
(t|x) = -1.2026782601349255
(u|x) = -2.212970540404543
(v|x) = -1.567468250370881
(w|x) = -4.080241559369991
(x|x) = -2.345175209685696
(y|x) = -2.1646658608299885
(z|x) = -3.603120304650329
(a|y) = -0.5054614121675317
(b|y) = -2.6497241859295224
(c|y) = -1.4789292666837894
(d|y) = -1.6749195175753084
(e|y) = -0.6436862309322052
(f|y) = -1.9057870360769804
(g|y) = -2.29317686241571
(h|y) = -2.799022268397267
(i|y) = -2.3857655016411234
(j|y) = -2.234750837958704
(k|y) = -4.3900868754237665
(l|y) = -1.602626400905351
(m|y) = -1.647361744119068
(n|y) = -1.7515976184691289
(o|y) = -1.4886285540276538
(p|y) = -1.3984178680438177
(q|y) = -2.1520407722949706
(r|y) = -1.0270392809026727
(s|y) = -1.0522284463826719
(t|y) = -1.4919103919260897
(u|y) = -2.7368743616484226
(v|y) = -1.9029484999465798
(w|y) = -4.3900868754237665
(x|y) = -3.1596379540454924
(y|y) = -3.912965620704104
(z|y) = -3.6911168710877473
(a|z) = -0.9144154544617294
(b|z) = -1.6394467432798696
(c|z) = -1.4537160001246352
(d|z) = -1.1740342208276888
(e|z) = -0.9770657806809782
(f|z) = -1.882755633560164
(g|z) = -2.125319820244288
(h|z) = -2.367529852508352
(i|z) = -1.793884795994972
(j|z) = -1.9183086606023594
(k|z) = -3.7654698611803896
(l|z) = -0.956359261871499
(m|z) = -1.0317377505851588
(n|z) = -1.9266207704431342
(o|z) = -1.2386999496631415
(p|z) = -1.192985503305079
(q|z) = -1.71239141769697
(r|z) = -1.7022616411091782
(s|z) = -1.544490570276662
(t|z) = -1.6416182202133038
(u|z) = -1.5341702157653392
(v|z) = -0.8728188273030892
(w|z) = -3.7654698611803896
(x|z) = -4.242591115900052
(y|z) = -2.880863279882459
(z|z) = -2.7240771760221647
