The Trumps dine with the Macrons at Restaurant le Jules Verne - Tour Eiffel Paris.

1GRAM MODEL:

1GRAM: t
ENGLISH: P(t) = -1.0342270793962598 ==> log prob of sentence so far: -1.0342270793962598
FRENCH: P(t) = -1.1659703020186778 ==> log prob of sentence so far: -1.1659703020186778

1GRAM: h
ENGLISH: P(h) = -1.1802766233913087 ==> log prob of sentence so far: -2.2145037027875683
FRENCH: P(h) = -2.1055979007773504 ==> log prob of sentence so far: -3.2715682027960282

1GRAM: e
ENGLISH: P(e) = -0.9100752696098996 ==> log prob of sentence so far: -3.124578972397468
FRENCH: P(e) = -0.766972127152447 ==> log prob of sentence so far: -4.038540329948475

1GRAM: t
ENGLISH: P(t) = -1.0342270793962598 ==> log prob of sentence so far: -4.158806051793728
FRENCH: P(t) = -1.1659703020186778 ==> log prob of sentence so far: -5.204510631967153

1GRAM: r
ENGLISH: P(r) = -1.2612746582838763 ==> log prob of sentence so far: -5.420080710077604
FRENCH: P(r) = -1.1840319980580551 ==> log prob of sentence so far: -6.388542630025208

1GRAM: u
ENGLISH: P(u) = -1.5524859731545257 ==> log prob of sentence so far: -6.97256668323213
FRENCH: P(u) = -1.2061381702765537 ==> log prob of sentence so far: -7.594680800301762

1GRAM: m
ENGLISH: P(m) = -1.6111071179746999 ==> log prob of sentence so far: -8.58367380120683
FRENCH: P(m) = -1.5129465442835708 ==> log prob of sentence so far: -9.107627344585334

1GRAM: p
ENGLISH: P(p) = -1.7418188431943058 ==> log prob of sentence so far: -10.325492644401136
FRENCH: P(p) = -1.5386330278876472 ==> log prob of sentence so far: -10.64626037247298

1GRAM: s
ENGLISH: P(s) = -1.1711435451761196 ==> log prob of sentence so far: -11.496636189577256
FRENCH: P(s) = -1.0644522256524611 ==> log prob of sentence so far: -11.710712598125442

1GRAM: d
ENGLISH: P(d) = -1.3961801671840104 ==> log prob of sentence so far: -12.892816356761266
FRENCH: P(d) = -1.4202615782120422 ==> log prob of sentence so far: -13.130974176337483

1GRAM: i
ENGLISH: P(i) = -1.1625280787643961 ==> log prob of sentence so far: -14.055344435525662
FRENCH: P(i) = -1.1352103104713 ==> log prob of sentence so far: -14.266184486808783

1GRAM: n
ENGLISH: P(n) = -1.1615995429330288 ==> log prob of sentence so far: -15.21694397845869
FRENCH: P(n) = -1.1226414664094957 ==> log prob of sentence so far: -15.388825953218278

1GRAM: e
ENGLISH: P(e) = -0.9100752696098996 ==> log prob of sentence so far: -16.12701924806859
FRENCH: P(e) = -0.766972127152447 ==> log prob of sentence so far: -16.155798080370726

1GRAM: w
ENGLISH: P(w) = -1.6313501899422194 ==> log prob of sentence so far: -17.758369438010806
FRENCH: P(w) = -3.916598062775926 ==> log prob of sentence so far: -20.07239614314665

1GRAM: i
ENGLISH: P(i) = -1.1625280787643961 ==> log prob of sentence so far: -18.920897516775202
FRENCH: P(i) = -1.1352103104713 ==> log prob of sentence so far: -21.207606453617952

1GRAM: t
ENGLISH: P(t) = -1.0342270793962598 ==> log prob of sentence so far: -19.955124596171462
FRENCH: P(t) = -1.1659703020186778 ==> log prob of sentence so far: -22.37357675563663

1GRAM: h
ENGLISH: P(h) = -1.1802766233913087 ==> log prob of sentence so far: -21.13540121956277
FRENCH: P(h) = -2.1055979007773504 ==> log prob of sentence so far: -24.47917465641398

1GRAM: t
ENGLISH: P(t) = -1.0342270793962598 ==> log prob of sentence so far: -22.16962829895903
FRENCH: P(t) = -1.1659703020186778 ==> log prob of sentence so far: -25.64514495843266

1GRAM: h
ENGLISH: P(h) = -1.1802766233913087 ==> log prob of sentence so far: -23.349904922350337
FRENCH: P(h) = -2.1055979007773504 ==> log prob of sentence so far: -27.75074285921001

1GRAM: e
ENGLISH: P(e) = -0.9100752696098996 ==> log prob of sentence so far: -24.259980191960235
FRENCH: P(e) = -0.766972127152447 ==> log prob of sentence so far: -28.517714986362456

1GRAM: m
ENGLISH: P(m) = -1.6111071179746999 ==> log prob of sentence so far: -25.871087309934936
FRENCH: P(m) = -1.5129465442835708 ==> log prob of sentence so far: -30.03066153064603

1GRAM: a
ENGLISH: P(a) = -1.086791807028239 ==> log prob of sentence so far: -26.957879116963174
FRENCH: P(a) = -1.0763575048838907 ==> log prob of sentence so far: -31.10701903552992

1GRAM: c
ENGLISH: P(c) = -1.6265839306967516 ==> log prob of sentence so far: -28.584463047659924
FRENCH: P(c) = -1.4922220755920426 ==> log prob of sentence so far: -32.59924111112196

1GRAM: r
ENGLISH: P(r) = -1.2612746582838763 ==> log prob of sentence so far: -29.8457377059438
FRENCH: P(r) = -1.1840319980580551 ==> log prob of sentence so far: -33.783273109180016

1GRAM: o
ENGLISH: P(o) = -1.1377865416115225 ==> log prob of sentence so far: -30.983524247555323
FRENCH: P(o) = -1.2743455831346002 ==> log prob of sentence so far: -35.05761869231461

1GRAM: n
ENGLISH: P(n) = -1.1615995429330288 ==> log prob of sentence so far: -32.14512379048835
FRENCH: P(n) = -1.1226414664094957 ==> log prob of sentence so far: -36.18026015872411

1GRAM: s
ENGLISH: P(s) = -1.1711435451761196 ==> log prob of sentence so far: -33.31626733566447
FRENCH: P(s) = -1.0644522256524611 ==> log prob of sentence so far: -37.24471238437657

1GRAM: a
ENGLISH: P(a) = -1.086791807028239 ==> log prob of sentence so far: -34.40305914269271
FRENCH: P(a) = -1.0763575048838907 ==> log prob of sentence so far: -38.32106988926046

1GRAM: t
ENGLISH: P(t) = -1.0342270793962598 ==> log prob of sentence so far: -35.43728622208897
FRENCH: P(t) = -1.1659703020186778 ==> log prob of sentence so far: -39.487040191279135

1GRAM: r
ENGLISH: P(r) = -1.2612746582838763 ==> log prob of sentence so far: -36.698560880372845
FRENCH: P(r) = -1.1840319980580551 ==> log prob of sentence so far: -40.67107218933719

1GRAM: e
ENGLISH: P(e) = -0.9100752696098996 ==> log prob of sentence so far: -37.60863614998274
FRENCH: P(e) = -0.766972127152447 ==> log prob of sentence so far: -41.43804431648964

1GRAM: s
ENGLISH: P(s) = -1.1711435451761196 ==> log prob of sentence so far: -38.779779695158865
FRENCH: P(s) = -1.0644522256524611 ==> log prob of sentence so far: -42.5024965421421

1GRAM: t
ENGLISH: P(t) = -1.0342270793962598 ==> log prob of sentence so far: -39.814006774555125
FRENCH: P(t) = -1.1659703020186778 ==> log prob of sentence so far: -43.668466844160776

1GRAM: a
ENGLISH: P(a) = -1.086791807028239 ==> log prob of sentence so far: -40.900798581583366
FRENCH: P(a) = -1.0763575048838907 ==> log prob of sentence so far: -44.74482434904466

1GRAM: u
ENGLISH: P(u) = -1.5524859731545257 ==> log prob of sentence so far: -42.45328455473789
FRENCH: P(u) = -1.2061381702765537 ==> log prob of sentence so far: -45.950962519321216

1GRAM: r
ENGLISH: P(r) = -1.2612746582838763 ==> log prob of sentence so far: -43.714559213021765
FRENCH: P(r) = -1.1840319980580551 ==> log prob of sentence so far: -47.13499451737927

1GRAM: a
ENGLISH: P(a) = -1.086791807028239 ==> log prob of sentence so far: -44.80135102005001
FRENCH: P(a) = -1.0763575048838907 ==> log prob of sentence so far: -48.211352022263156

1GRAM: n
ENGLISH: P(n) = -1.1615995429330288 ==> log prob of sentence so far: -45.96295056298303
FRENCH: P(n) = -1.1226414664094957 ==> log prob of sentence so far: -49.333993488672654

1GRAM: t
ENGLISH: P(t) = -1.0342270793962598 ==> log prob of sentence so far: -46.99717764237929
FRENCH: P(t) = -1.1659703020186778 ==> log prob of sentence so far: -50.49996379069133

1GRAM: l
ENGLISH: P(l) = -1.3477697305137912 ==> log prob of sentence so far: -48.34494737289308
FRENCH: P(l) = -1.2682148156867032 ==> log prob of sentence so far: -51.76817860637804

1GRAM: e
ENGLISH: P(e) = -0.9100752696098996 ==> log prob of sentence so far: -49.25502264250298
FRENCH: P(e) = -0.766972127152447 ==> log prob of sentence so far: -52.535150733530486

1GRAM: j
ENGLISH: P(j) = -2.944639589289319 ==> log prob of sentence so far: -52.199662231792296
FRENCH: P(j) = -2.2095350623538743 ==> log prob of sentence so far: -54.74468579588436

1GRAM: u
ENGLISH: P(u) = -1.5524859731545257 ==> log prob of sentence so far: -53.75214820494682
FRENCH: P(u) = -1.2061381702765537 ==> log prob of sentence so far: -55.95082396616091

1GRAM: l
ENGLISH: P(l) = -1.3477697305137912 ==> log prob of sentence so far: -55.09991793546061
FRENCH: P(l) = -1.2682148156867032 ==> log prob of sentence so far: -57.219038781847615

1GRAM: e
ENGLISH: P(e) = -0.9100752696098996 ==> log prob of sentence so far: -56.00999320507051
FRENCH: P(e) = -0.766972127152447 ==> log prob of sentence so far: -57.986010909000065

1GRAM: s
ENGLISH: P(s) = -1.1711435451761196 ==> log prob of sentence so far: -57.18113675024663
FRENCH: P(s) = -1.0644522256524611 ==> log prob of sentence so far: -59.050463134652524

1GRAM: v
ENGLISH: P(v) = -2.043600170252475 ==> log prob of sentence so far: -59.224736920499105
FRENCH: P(v) = -1.8278293527225755 ==> log prob of sentence so far: -60.8782924873751

1GRAM: e
ENGLISH: P(e) = -0.9100752696098996 ==> log prob of sentence so far: -60.134812190109
FRENCH: P(e) = -0.766972127152447 ==> log prob of sentence so far: -61.64526461452755

1GRAM: r
ENGLISH: P(r) = -1.2612746582838763 ==> log prob of sentence so far: -61.396086848392876
FRENCH: P(r) = -1.1840319980580551 ==> log prob of sentence so far: -62.8292966125856

1GRAM: n
ENGLISH: P(n) = -1.1615995429330288 ==> log prob of sentence so far: -62.5576863913259
FRENCH: P(n) = -1.1226414664094957 ==> log prob of sentence so far: -63.9519380789951

1GRAM: e
ENGLISH: P(e) = -0.9100752696098996 ==> log prob of sentence so far: -63.4677616609358
FRENCH: P(e) = -0.766972127152447 ==> log prob of sentence so far: -64.71891020614754

1GRAM: t
ENGLISH: P(t) = -1.0342270793962598 ==> log prob of sentence so far: -64.50198874033205
FRENCH: P(t) = -1.1659703020186778 ==> log prob of sentence so far: -65.88488050816622

1GRAM: o
ENGLISH: P(o) = -1.1377865416115225 ==> log prob of sentence so far: -65.63977528194357
FRENCH: P(o) = -1.2743455831346002 ==> log prob of sentence so far: -67.15922609130082

1GRAM: u
ENGLISH: P(u) = -1.5524859731545257 ==> log prob of sentence so far: -67.1922612550981
FRENCH: P(u) = -1.2061381702765537 ==> log prob of sentence so far: -68.36536426157738

1GRAM: r
ENGLISH: P(r) = -1.2612746582838763 ==> log prob of sentence so far: -68.45353591338198
FRENCH: P(r) = -1.1840319980580551 ==> log prob of sentence so far: -69.54939625963544

1GRAM: e
ENGLISH: P(e) = -0.9100752696098996 ==> log prob of sentence so far: -69.36361118299189
FRENCH: P(e) = -0.766972127152447 ==> log prob of sentence so far: -70.31636838678789

1GRAM: i
ENGLISH: P(i) = -1.1625280787643961 ==> log prob of sentence so far: -70.52613926175628
FRENCH: P(i) = -1.1352103104713 ==> log prob of sentence so far: -71.45157869725918

1GRAM: f
ENGLISH: P(f) = -1.6602710678572594 ==> log prob of sentence so far: -72.18641032961355
FRENCH: P(f) = -1.9917037157389805 ==> log prob of sentence so far: -73.44328241299816

1GRAM: f
ENGLISH: P(f) = -1.6602710678572594 ==> log prob of sentence so far: -73.84668139747082
FRENCH: P(f) = -1.9917037157389805 ==> log prob of sentence so far: -75.43498612873714

1GRAM: e
ENGLISH: P(e) = -0.9100752696098996 ==> log prob of sentence so far: -74.75675666708072
FRENCH: P(e) = -0.766972127152447 ==> log prob of sentence so far: -76.20195825588958

1GRAM: l
ENGLISH: P(l) = -1.3477697305137912 ==> log prob of sentence so far: -76.10452639759451
FRENCH: P(l) = -1.2682148156867032 ==> log prob of sentence so far: -77.47017307157628

1GRAM: p
ENGLISH: P(p) = -1.7418188431943058 ==> log prob of sentence so far: -77.84634524078882
FRENCH: P(p) = -1.5386330278876472 ==> log prob of sentence so far: -79.00880609946392

1GRAM: a
ENGLISH: P(a) = -1.086791807028239 ==> log prob of sentence so far: -78.93313704781706
FRENCH: P(a) = -1.0763575048838907 ==> log prob of sentence so far: -80.08516360434781

1GRAM: r
ENGLISH: P(r) = -1.2612746582838763 ==> log prob of sentence so far: -80.19441170610094
FRENCH: P(r) = -1.1840319980580551 ==> log prob of sentence so far: -81.26919560240587

1GRAM: i
ENGLISH: P(i) = -1.1625280787643961 ==> log prob of sentence so far: -81.35693978486533
FRENCH: P(i) = -1.1352103104713 ==> log prob of sentence so far: -82.40440591287717

1GRAM: s
ENGLISH: P(s) = -1.1711435451761196 ==> log prob of sentence so far: -82.52808333004145
FRENCH: P(s) = -1.0644522256524611 ==> log prob of sentence so far: -83.46885813852963

According to the 1gram model, the sentence is in English
----------------
2GRAM MODEL:

2GRAM: th
ENGLISH: P(h|t) = -0.4193416964465229 ==> log prob of sentence so far: -0.4193416964465229
FRENCH: P(h|t) = -2.126707570733353 ==> log prob of sentence so far: -2.126707570733353

2GRAM: he
ENGLISH: P(e|h) = -0.37010948259900806 ==> log prob of sentence so far: -0.789451179045531
FRENCH: P(e|h) = -0.45896620044521513 ==> log prob of sentence so far: -2.5856737711785684

2GRAM: et
ENGLISH: P(t|e) = -1.180595696581799 ==> log prob of sentence so far: -1.97004687562733
FRENCH: P(t|e) = -1.081755762820215 ==> log prob of sentence so far: -3.6674295339987832

2GRAM: tr
ENGLISH: P(r|t) = -1.556031996565516 ==> log prob of sentence so far: -3.526078872192846
FRENCH: P(r|t) = -0.9625751130667664 ==> log prob of sentence so far: -4.630004647065549

2GRAM: ru
ENGLISH: P(u|r) = -1.720269473433081 ==> log prob of sentence so far: -5.246348345625927
FRENCH: P(u|r) = -1.668698387917459 ==> log prob of sentence so far: -6.298703034983008

2GRAM: um
ENGLISH: P(m|u) = -1.4654574538235026 ==> log prob of sentence so far: -6.711805799449429
FRENCH: P(m|u) = -1.6405902786645272 ==> log prob of sentence so far: -7.939293313647536

2GRAM: mp
ENGLISH: P(p|m) = -1.2993766836479177 ==> log prob of sentence so far: -8.011182483097347
FRENCH: P(p|m) = -1.1680073684798105 ==> log prob of sentence so far: -9.107300682127345

2GRAM: ps
ENGLISH: P(s|p) = -1.4161612231635856 ==> log prob of sentence so far: -9.427343706260933
FRENCH: P(s|p) = -1.8141697333956899 ==> log prob of sentence so far: -10.921470415523036

2GRAM: sd
ENGLISH: P(d|s) = -2.0635157594290976 ==> log prob of sentence so far: -11.490859465690031
FRENCH: P(d|s) = -1.0845777513201995 ==> log prob of sentence so far: -12.006048166843236

2GRAM: di
ENGLISH: P(i|d) = -0.9227702845517924 ==> log prob of sentence so far: -12.413629750241823
FRENCH: P(i|d) = -0.9306463562246721 ==> log prob of sentence so far: -12.936694523067908

2GRAM: in
ENGLISH: P(n|i) = -0.5178078717652497 ==> log prob of sentence so far: -12.931437622007072
FRENCH: P(n|i) = -0.8963523835994941 ==> log prob of sentence so far: -13.833046906667402

2GRAM: ne
ENGLISH: P(e|n) = -1.053319594333179 ==> log prob of sentence so far: -13.98475721634025
FRENCH: P(e|n) = -0.7543924355435184 ==> log prob of sentence so far: -14.58743934221092

2GRAM: ew
ENGLISH: P(w|e) = -1.446574422594899 ==> log prob of sentence so far: -15.43133163893515
FRENCH: P(w|e) = -3.406976847014123 ==> log prob of sentence so far: -17.994416189225042

2GRAM: wi
ENGLISH: P(i|w) = -0.7713729997769172 ==> log prob of sentence so far: -16.202704638712067
FRENCH: P(i|w) = -0.9960338127823986 ==> log prob of sentence so far: -18.990450002007442

2GRAM: it
ENGLISH: P(t|i) = -0.9083588982264331 ==> log prob of sentence so far: -17.1110635369385
FRENCH: P(t|i) = -0.7742932574445318 ==> log prob of sentence so far: -19.764743259451976

2GRAM: th
ENGLISH: P(h|t) = -0.4193416964465229 ==> log prob of sentence so far: -17.53040523338502
FRENCH: P(h|t) = -2.126707570733353 ==> log prob of sentence so far: -21.891450830185327

2GRAM: ht
ENGLISH: P(t|h) = -1.3221500767362426 ==> log prob of sentence so far: -18.852555310121264
FRENCH: P(t|h) = -2.782791021894553 ==> log prob of sentence so far: -24.67424185207988

2GRAM: th
ENGLISH: P(h|t) = -0.4193416964465229 ==> log prob of sentence so far: -19.271897006567787
FRENCH: P(h|t) = -2.126707570733353 ==> log prob of sentence so far: -26.800949422813233

2GRAM: he
ENGLISH: P(e|h) = -0.37010948259900806 ==> log prob of sentence so far: -19.642006489166796
FRENCH: P(e|h) = -0.45896620044521513 ==> log prob of sentence so far: -27.259915623258447

2GRAM: em
ENGLISH: P(m|e) = -1.436030217321887 ==> log prob of sentence so far: -21.07803670648868
FRENCH: P(m|e) = -1.2279373798213418 ==> log prob of sentence so far: -28.48785300307979

2GRAM: ma
ENGLISH: P(a|m) = -0.7040251707983967 ==> log prob of sentence so far: -21.782061877287077
FRENCH: P(a|m) = -0.7374452556456322 ==> log prob of sentence so far: -29.22529825872542

2GRAM: ac
ENGLISH: P(c|a) = -1.4313972499897532 ==> log prob of sentence so far: -23.21345912727683
FRENCH: P(c|a) = -1.338087470600653 ==> log prob of sentence so far: -30.563385729326072

2GRAM: cr
ENGLISH: P(r|c) = -1.2254438006929917 ==> log prob of sentence so far: -24.438902927969824
FRENCH: P(r|c) = -1.4301007426954913 ==> log prob of sentence so far: -31.993486472021562

2GRAM: ro
ENGLISH: P(o|r) = -0.9680163071420329 ==> log prob of sentence so far: -25.406919235111857
FRENCH: P(o|r) = -1.1139722753851267 ==> log prob of sentence so far: -33.10745874740669

2GRAM: on
ENGLISH: P(n|o) = -0.862267433922097 ==> log prob of sentence so far: -26.269186669033953
FRENCH: P(n|o) = -0.5206794238803306 ==> log prob of sentence so far: -33.62813817128702

2GRAM: ns
ENGLISH: P(s|n) = -1.2472062467205134 ==> log prob of sentence so far: -27.516392915754466
FRENCH: P(s|n) = -0.9212365456939782 ==> log prob of sentence so far: -34.549374716981

2GRAM: sa
ENGLISH: P(a|s) = -1.035562862015324 ==> log prob of sentence so far: -28.55195577776979
FRENCH: P(a|s) = -0.992636919338493 ==> log prob of sentence so far: -35.542011636319494

2GRAM: at
ENGLISH: P(t|a) = -0.8628047170414462 ==> log prob of sentence so far: -29.414760494811237
FRENCH: P(t|a) = -1.2480024131158243 ==> log prob of sentence so far: -36.79001404943532

2GRAM: tr
ENGLISH: P(r|t) = -1.556031996565516 ==> log prob of sentence so far: -30.970792491376752
FRENCH: P(r|t) = -0.9625751130667664 ==> log prob of sentence so far: -37.75258916250209

2GRAM: re
ENGLISH: P(e|r) = -0.6282999669648388 ==> log prob of sentence so far: -31.59909245834159
FRENCH: P(e|r) = -0.49108123989053065 ==> log prob of sentence so far: -38.243670402392624

2GRAM: es
ENGLISH: P(s|e) = -0.9449004528705965 ==> log prob of sentence so far: -32.543992911212186
FRENCH: P(s|e) = -0.7261882355074406 ==> log prob of sentence so far: -38.96985863790007

2GRAM: st
ENGLISH: P(t|s) = -0.7037615120539172 ==> log prob of sentence so far: -33.2477544232661
FRENCH: P(t|s) = -1.2373622552360959 ==> log prob of sentence so far: -40.20722089313616

2GRAM: ta
ENGLISH: P(a|t) = -1.1698229824614428 ==> log prob of sentence so far: -34.41757740572754
FRENCH: P(a|t) = -0.8828571952877377 ==> log prob of sentence so far: -41.0900780884239

2GRAM: au
ENGLISH: P(u|a) = -2.121713900391585 ==> log prob of sentence so far: -36.539291306119125
FRENCH: P(u|a) = -1.0790691613741499 ==> log prob of sentence so far: -42.16914724979805

2GRAM: ur
ENGLISH: P(r|u) = -0.9179525044888044 ==> log prob of sentence so far: -37.45724381060793
FRENCH: P(r|u) = -0.7888731004457142 ==> log prob of sentence so far: -42.958020350243764

2GRAM: ra
ENGLISH: P(a|r) = -1.036329712911468 ==> log prob of sentence so far: -38.493573523519395
FRENCH: P(a|r) = -0.9046352456294952 ==> log prob of sentence so far: -43.86265559587326

2GRAM: an
ENGLISH: P(n|a) = -0.7045869279745852 ==> log prob of sentence so far: -39.19816045149398
FRENCH: P(n|a) = -0.8168885941604235 ==> log prob of sentence so far: -44.67954419003368

2GRAM: nt
ENGLISH: P(t|n) = -0.8263240391391752 ==> log prob of sentence so far: -40.02448449063316
FRENCH: P(t|n) = -0.6410407005031727 ==> log prob of sentence so far: -45.32058489053686

2GRAM: tl
ENGLISH: P(l|t) = -1.6842885070016764 ==> log prob of sentence so far: -41.70877299763483
FRENCH: P(l|t) = -1.2582121704298257 ==> log prob of sentence so far: -46.578797060966686

2GRAM: le
ENGLISH: P(e|l) = -0.6939321420318187 ==> log prob of sentence so far: -42.40270513966665
FRENCH: P(e|l) = -0.40143134786677326 ==> log prob of sentence so far: -46.98022840883346

2GRAM: ej
ENGLISH: P(j|e) = -2.833345641300601 ==> log prob of sentence so far: -45.236050780967254
FRENCH: P(j|e) = -2.039539893338946 ==> log prob of sentence so far: -49.01976830217241

2GRAM: ju
ENGLISH: P(u|j) = -0.6103325172939523 ==> log prob of sentence so far: -45.84638329826121
FRENCH: P(u|j) = -1.2041199826559248 ==> log prob of sentence so far: -50.223888284828334

2GRAM: ul
ENGLISH: P(l|u) = -1.012686437297651 ==> log prob of sentence so far: -46.85906973555886
FRENCH: P(l|u) = -1.4380146519023496 ==> log prob of sentence so far: -51.661902936730684

2GRAM: le
ENGLISH: P(e|l) = -0.6939321420318187 ==> log prob of sentence so far: -47.55300187759068
FRENCH: P(e|l) = -0.40143134786677326 ==> log prob of sentence so far: -52.06333428459746

2GRAM: es
ENGLISH: P(s|e) = -0.9449004528705965 ==> log prob of sentence so far: -48.49790233046128
FRENCH: P(s|e) = -0.7261882355074406 ==> log prob of sentence so far: -52.7895225201049

2GRAM: sv
ENGLISH: P(v|s) = -2.538217540025347 ==> log prob of sentence so far: -51.03611987048663
FRENCH: P(v|s) = -1.9562509477828147 ==> log prob of sentence so far: -54.745773467887716

2GRAM: ve
ENGLISH: P(e|v) = -0.17489320455273447 ==> log prob of sentence so far: -51.21101307503936
FRENCH: P(e|v) = -0.4819874687745128 ==> log prob of sentence so far: -55.22776093666223

2GRAM: er
ENGLISH: P(r|e) = -0.8561972787159292 ==> log prob of sentence so far: -52.06721035375529
FRENCH: P(r|e) = -1.050493728299846 ==> log prob of sentence so far: -56.27825466496208

2GRAM: rn
ENGLISH: P(n|r) = -1.5648338728126305 ==> log prob of sentence so far: -53.63204422656792
FRENCH: P(n|r) = -1.7981563586651523 ==> log prob of sentence so far: -58.07641102362723

2GRAM: ne
ENGLISH: P(e|n) = -1.053319594333179 ==> log prob of sentence so far: -54.6853638209011
FRENCH: P(e|n) = -0.7543924355435184 ==> log prob of sentence so far: -58.830803459170745

2GRAM: et
ENGLISH: P(t|e) = -1.180595696581799 ==> log prob of sentence so far: -55.8659595174829
FRENCH: P(t|e) = -1.081755762820215 ==> log prob of sentence so far: -59.91255922199096

2GRAM: to
ENGLISH: P(o|t) = -0.9787796821964672 ==> log prob of sentence so far: -56.84473919967937
FRENCH: P(o|t) = -1.3522841928689526 ==> log prob of sentence so far: -61.26484341485991

2GRAM: ou
ENGLISH: P(u|o) = -0.9046959327873543 ==> log prob of sentence so far: -57.74943513246672
FRENCH: P(u|o) = -0.6279175496747227 ==> log prob of sentence so far: -61.89276096453463

2GRAM: ur
ENGLISH: P(r|u) = -0.9179525044888044 ==> log prob of sentence so far: -58.667387636955524
FRENCH: P(r|u) = -0.7888731004457142 ==> log prob of sentence so far: -62.681634064980344

2GRAM: re
ENGLISH: P(e|r) = -0.6282999669648388 ==> log prob of sentence so far: -59.29568760392036
FRENCH: P(e|r) = -0.49108123989053065 ==> log prob of sentence so far: -63.17271530487088

2GRAM: ei
ENGLISH: P(i|e) = -1.496155487412072 ==> log prob of sentence so far: -60.79184309133244
FRENCH: P(i|e) = -1.7565003870009732 ==> log prob of sentence so far: -64.92921569187185

2GRAM: if
ENGLISH: P(f|i) = -1.676832318595863 ==> log prob of sentence so far: -62.4686754099283
FRENCH: P(f|i) = -1.8970958651134087 ==> log prob of sentence so far: -66.82631155698526

2GRAM: ff
ENGLISH: P(f|f) = -1.3213852848366114 ==> log prob of sentence so far: -63.79006069476491
FRENCH: P(f|f) = -1.0500652351425663 ==> log prob of sentence so far: -67.87637679212783

2GRAM: fe
ENGLISH: P(e|f) = -1.1294356702803234 ==> log prob of sentence so far: -64.91949636504523
FRENCH: P(e|f) = -0.9031513236888753 ==> log prob of sentence so far: -68.7795281158167

2GRAM: el
ENGLISH: P(l|e) = -1.3277895145531675 ==> log prob of sentence so far: -66.24728587959841
FRENCH: P(l|e) = -1.2044529937000865 ==> log prob of sentence so far: -69.98398110951679

2GRAM: lp
ENGLISH: P(p|l) = -2.1712558178606702 ==> log prob of sentence so far: -68.41854169745908
FRENCH: P(p|l) = -2.1960046855385063 ==> log prob of sentence so far: -72.1799857950553

2GRAM: pa
ENGLISH: P(a|p) = -0.9081418985181764 ==> log prob of sentence so far: -69.32668359597726
FRENCH: P(a|p) = -0.6472938621502154 ==> log prob of sentence so far: -72.82727965720552

2GRAM: ar
ENGLISH: P(r|a) = -0.9855111982324811 ==> log prob of sentence so far: -70.31219479420974
FRENCH: P(r|a) = -1.0332489160294764 ==> log prob of sentence so far: -73.860528573235

2GRAM: ri
ENGLISH: P(i|r) = -1.0119670169320183 ==> log prob of sentence so far: -71.32416181114176
FRENCH: P(i|r) = -1.0893646043723495 ==> log prob of sentence so far: -74.94989317760735

2GRAM: is
ENGLISH: P(s|i) = -0.8699958294708219 ==> log prob of sentence so far: -72.19415764061259
FRENCH: P(s|i) = -0.8503855961161433 ==> log prob of sentence so far: -75.80027877372349

According to the 2gram model, the sentence is in English
----------------
3GRAM MODEL:

3GRAM: the
ENGLISH: P(e|th) = -0.20469734351479776 ==> log prob of sentence so far: -0.20469734351479776
FRENCH: P(e|th) = -0.3990965858719798 ==> log prob of sentence so far: -0.3990965858719798

3GRAM: het
ENGLISH: P(t|he) = -1.4401285171086646 ==> log prob of sentence so far: -1.6448258606234625
FRENCH: P(t|he) = -1.7105518768858339 ==> log prob of sentence so far: -2.109648462757814

3GRAM: etr
ENGLISH: P(r|et) = -1.4441851966246748 ==> log prob of sentence so far: -3.089011057248137
FRENCH: P(r|et) = -0.8440731820940599 ==> log prob of sentence so far: -2.953721644851874

3GRAM: tru
ENGLISH: P(u|tr) = -0.854841656851791 ==> log prob of sentence so far: -3.943852714099928
FRENCH: P(u|tr) = -1.6945208289513891 ==> log prob of sentence so far: -4.648242473803263

3GRAM: rum
ENGLISH: P(m|ru) = -1.337242168318426 ==> log prob of sentence so far: -5.281094882418354
FRENCH: P(m|ru) = -1.1631262818913135 ==> log prob of sentence so far: -5.811368755694577

3GRAM: ump
ENGLISH: P(p|um) = -0.7098102557614251 ==> log prob of sentence so far: -5.990905138179779
FRENCH: P(p|um) = -2.224014811372864 ==> log prob of sentence so far: -8.035383567067441

3GRAM: mps
ENGLISH: P(s|mp) = -1.297704883430219 ==> log prob of sentence so far: -7.2886100216099985
FRENCH: P(s|mp) = -0.947504584687475 ==> log prob of sentence so far: -8.982888151754917

3GRAM: psd
ENGLISH: P(d|ps) = -1.662082937245984 ==> log prob of sentence so far: -8.950692958855983
FRENCH: P(d|ps) = -0.6088779411144306 ==> log prob of sentence so far: -9.591766092869348

3GRAM: sdi
ENGLISH: P(i|sd) = -0.6852783263421426 ==> log prob of sentence so far: -9.635971285198126
FRENCH: P(i|sd) = -1.209586259997723 ==> log prob of sentence so far: -10.80135235286707

3GRAM: din
ENGLISH: P(n|di) = -0.42500536782209414 ==> log prob of sentence so far: -10.06097665302022
FRENCH: P(n|di) = -1.377418341527436 ==> log prob of sentence so far: -12.178770694394506

3GRAM: ine
ENGLISH: P(e|in) = -1.2390824862801797 ==> log prob of sentence so far: -11.3000591393004
FRENCH: P(e|in) = -0.4726710627292894 ==> log prob of sentence so far: -12.651441757123795

3GRAM: new
ENGLISH: P(w|ne) = -1.2415183768836469 ==> log prob of sentence so far: -12.541577516184047
FRENCH: P(w|ne) = -2.6148013770209606 ==> log prob of sentence so far: -15.266243134144755

3GRAM: ewi
ENGLISH: P(i|ew) = -0.8722745666316013 ==> log prob of sentence so far: -13.413852082815648
FRENCH: P(i|ew) = -1.8512583487190752 ==> log prob of sentence so far: -17.11750148286383

3GRAM: wit
ENGLISH: P(t|wi) = -0.2529794982881221 ==> log prob of sentence so far: -13.66683158110377
FRENCH: P(t|wi) = -1.5563025007672873 ==> log prob of sentence so far: -18.673803983631117

3GRAM: ith
ENGLISH: P(h|it) = -0.509233918247733 ==> log prob of sentence so far: -14.176065499351502
FRENCH: P(h|it) = -2.1645579535364914 ==> log prob of sentence so far: -20.83836193716761

3GRAM: tht
ENGLISH: P(t|th) = -1.7394109266887454 ==> log prob of sentence so far: -15.915476426040247
FRENCH: P(t|th) = -2.575187844927661 ==> log prob of sentence so far: -23.41354978209527

3GRAM: hth
ENGLISH: P(h|ht) = -0.42214844430285897 ==> log prob of sentence so far: -16.337624870343106
FRENCH: P(h|ht) = -1.5314789170422551 ==> log prob of sentence so far: -24.945028699137524

3GRAM: the
ENGLISH: P(e|th) = -0.20469734351479776 ==> log prob of sentence so far: -16.542322213857904
FRENCH: P(e|th) = -0.3990965858719798 ==> log prob of sentence so far: -25.344125285009504

3GRAM: hem
ENGLISH: P(m|he) = -1.2240320963813995 ==> log prob of sentence so far: -17.766354310239304
FRENCH: P(m|he) = -1.3293635943079163 ==> log prob of sentence so far: -26.67348887931742

3GRAM: ema
ENGLISH: P(a|em) = -0.6324899471328131 ==> log prob of sentence so far: -18.39884425737212
FRENCH: P(a|em) = -0.7814657754418081 ==> log prob of sentence so far: -27.45495465475923

3GRAM: mac
ENGLISH: P(c|ma) = -1.6828573071384518 ==> log prob of sentence so far: -20.08170156451057
FRENCH: P(c|ma) = -1.399939833304256 ==> log prob of sentence so far: -28.854894488063486

3GRAM: acr
ENGLISH: P(r|ac) = -1.4292736526147674 ==> log prob of sentence so far: -21.51097521712534
FRENCH: P(r|ac) = -1.53196371093286 ==> log prob of sentence so far: -30.386858198996347

3GRAM: cro
ENGLISH: P(o|cr) = -0.8124381118587141 ==> log prob of sentence so far: -22.323413328984053
FRENCH: P(o|cr) = -0.6010440973398142 ==> log prob of sentence so far: -30.98790229633616

3GRAM: ron
ENGLISH: P(n|ro) = -1.1328496016385499 ==> log prob of sentence so far: -23.456262930622604
FRENCH: P(n|ro) = -0.8441022368106383 ==> log prob of sentence so far: -31.832004533146797

3GRAM: ons
ENGLISH: P(s|on) = -0.9348001166580476 ==> log prob of sentence so far: -24.39106304728065
FRENCH: P(s|on) = -0.5666085888525093 ==> log prob of sentence so far: -32.398613121999304

3GRAM: nsa
ENGLISH: P(a|ns) = -1.0202149980849695 ==> log prob of sentence so far: -25.41127804536562
FRENCH: P(a|ns) = -1.1977024080683587 ==> log prob of sentence so far: -33.59631553006766

3GRAM: sat
ENGLISH: P(t|sa) = -1.2662148371643096 ==> log prob of sentence so far: -26.67749288252993
FRENCH: P(t|sa) = -1.3992409416924558 ==> log prob of sentence so far: -34.99555647176012

3GRAM: atr
ENGLISH: P(r|at) = -1.9267505063027681 ==> log prob of sentence so far: -28.604243388832696
FRENCH: P(r|at) = -0.9152379429251616 ==> log prob of sentence so far: -35.91079441468528

3GRAM: tre
ENGLISH: P(e|tr) = -0.7379605629131146 ==> log prob of sentence so far: -29.342203951745812
FRENCH: P(e|tr) = -0.2190731581212929 ==> log prob of sentence so far: -36.12986757280657

3GRAM: res
ENGLISH: P(s|re) = -0.8771709886013095 ==> log prob of sentence so far: -30.219374940347123
FRENCH: P(s|re) = -0.6182148968503466 ==> log prob of sentence so far: -36.748082469656914

3GRAM: est
ENGLISH: P(t|es) = -0.724324435596915 ==> log prob of sentence so far: -30.94369937594404
FRENCH: P(t|es) = -1.07440873118638 ==> log prob of sentence so far: -37.822491200843295

3GRAM: sta
ENGLISH: P(a|st) = -0.8514717159292017 ==> log prob of sentence so far: -31.79517109187324
FRENCH: P(a|st) = -0.7694989303559301 ==> log prob of sentence so far: -38.591990131199225

3GRAM: tau
ENGLISH: P(u|ta) = -2.510768355278083 ==> log prob of sentence so far: -34.305939447151324
FRENCH: P(u|ta) = -1.1212497445799643 ==> log prob of sentence so far: -39.71323987577919

3GRAM: aur
ENGLISH: P(r|au) = -1.8836614351536176 ==> log prob of sentence so far: -36.189600882304944
FRENCH: P(r|au) = -1.3552384107663336 ==> log prob of sentence so far: -41.06847828654552

3GRAM: ura
ENGLISH: P(a|ur) = -1.2238450921624884 ==> log prob of sentence so far: -37.413445974467436
FRENCH: P(a|ur) = -1.015204095202797 ==> log prob of sentence so far: -42.08368238174832

3GRAM: ran
ENGLISH: P(n|ra) = -0.6186352530102621 ==> log prob of sentence so far: -38.0320812274777
FRENCH: P(n|ra) = -0.7488518145320082 ==> log prob of sentence so far: -42.83253419628033

3GRAM: ant
ENGLISH: P(t|an) = -1.0403865416093083 ==> log prob of sentence so far: -39.072467769087005
FRENCH: P(t|an) = -0.4912341376442355 ==> log prob of sentence so far: -43.32376833392456

3GRAM: ntl
ENGLISH: P(l|nt) = -1.4473410077434528 ==> log prob of sentence so far: -40.51980877683046
FRENCH: P(l|nt) = -1.0056216520882548 ==> log prob of sentence so far: -44.32938998601281

3GRAM: tle
ENGLISH: P(e|tl) = -0.36917286008503436 ==> log prob of sentence so far: -40.888981636915496
FRENCH: P(e|tl) = -0.23157842651924376 ==> log prob of sentence so far: -44.560968412532056

3GRAM: lej
ENGLISH: P(j|le) = -2.7425156560893007 ==> log prob of sentence so far: -43.6314972930048
FRENCH: P(j|le) = -2.1055842269629594 ==> log prob of sentence so far: -46.666552639495016

3GRAM: eju
ENGLISH: P(u|ej) = -0.6812412373755872 ==> log prob of sentence so far: -44.312738530380386
FRENCH: P(u|ej) = -1.1889482788556358 ==> log prob of sentence so far: -47.85550091835065

3GRAM: jul
ENGLISH: P(l|ju) = -1.8721562727482928 ==> log prob of sentence so far: -46.18489480312868
FRENCH: P(l|ju) = -1.9912260756924949 ==> log prob of sentence so far: -49.846726994043145

3GRAM: ule
ENGLISH: P(e|ul) = -1.681408756946383 ==> log prob of sentence so far: -47.86630356007506
FRENCH: P(e|ul) = -0.3457003905834422 ==> log prob of sentence so far: -50.19242738462659

3GRAM: les
ENGLISH: P(s|le) = -0.7107033847589304 ==> log prob of sentence so far: -48.57700694483399
FRENCH: P(s|le) = -0.4843176083218878 ==> log prob of sentence so far: -50.67674499294848

3GRAM: esv
ENGLISH: P(v|es) = -3.056211643716186 ==> log prob of sentence so far: -51.63321858855018
FRENCH: P(v|es) = -1.849721445439623 ==> log prob of sentence so far: -52.5264664383881

3GRAM: sve
ENGLISH: P(e|sv) = -0.472904770318499 ==> log prob of sentence so far: -52.10612335886868
FRENCH: P(e|sv) = -0.5541268645119002 ==> log prob of sentence so far: -53.0805933029

3GRAM: ver
ENGLISH: P(r|ve) = -0.38649667698572626 ==> log prob of sentence so far: -52.49262003585441
FRENCH: P(r|ve) = -0.5189087009758648 ==> log prob of sentence so far: -53.59950200387586

3GRAM: ern
ENGLISH: P(n|er) = -1.479494063966022 ==> log prob of sentence so far: -53.97211409982043
FRENCH: P(n|er) = -1.5996217814633082 ==> log prob of sentence so far: -55.19912378533917

3GRAM: rne
ENGLISH: P(e|rn) = -0.7140523036258567 ==> log prob of sentence so far: -54.686166403446286
FRENCH: P(e|rn) = -0.4598850846480336 ==> log prob of sentence so far: -55.659008869987204

3GRAM: net
ENGLISH: P(t|ne) = -1.309146412900072 ==> log prob of sentence so far: -55.995312816346356
FRENCH: P(t|ne) = -1.1856365769619117 ==> log prob of sentence so far: -56.844645446949116

3GRAM: eto
ENGLISH: P(o|et) = -0.8495071589193119 ==> log prob of sentence so far: -56.844819975265665
FRENCH: P(o|et) = -1.2648802838208648 ==> log prob of sentence so far: -58.10952573076998

3GRAM: tou
ENGLISH: P(u|to) = -1.4964534805677976 ==> log prob of sentence so far: -58.34127345583346
FRENCH: P(u|to) = -0.2827179025365471 ==> log prob of sentence so far: -58.39224363330653

3GRAM: our
ENGLISH: P(r|ou) = -0.9335543655354406 ==> log prob of sentence so far: -59.2748278213689
FRENCH: P(r|ou) = -0.6953898142992955 ==> log prob of sentence so far: -59.087633447605825

3GRAM: ure
ENGLISH: P(e|ur) = -0.6409610824523555 ==> log prob of sentence so far: -59.91578890382126
FRENCH: P(e|ur) = -0.6876922132952862 ==> log prob of sentence so far: -59.77532566090111

3GRAM: rei
ENGLISH: P(i|re) = -1.4001433217457961 ==> log prob of sentence so far: -61.31593222556705
FRENCH: P(i|re) = -1.6921410029377135 ==> log prob of sentence so far: -61.46746666383882

3GRAM: eif
ENGLISH: P(f|ei) = -1.8434244561246906 ==> log prob of sentence so far: -63.15935668169175
FRENCH: P(f|ei) = -3.3184807251745174 ==> log prob of sentence so far: -64.78594738901334

3GRAM: iff
ENGLISH: P(f|if) = -1.0226077907454723 ==> log prob of sentence so far: -64.18196447243722
FRENCH: P(f|if) = -0.7990121604157022 ==> log prob of sentence so far: -65.58495954942904

3GRAM: ffe
ENGLISH: P(e|ff) = -0.6612192229674904 ==> log prob of sentence so far: -64.8431836954047
FRENCH: P(e|ff) = -0.4633952302129048 ==> log prob of sentence so far: -66.04835477964195

3GRAM: fel
ENGLISH: P(l|fe) = -0.9191930763539505 ==> log prob of sentence so far: -65.76237677175865
FRENCH: P(l|fe) = -2.356503891894005 ==> log prob of sentence so far: -68.40485867153596

3GRAM: elp
ENGLISH: P(p|el) = -1.8759574721894172 ==> log prob of sentence so far: -67.63833424394807
FRENCH: P(p|el) = -2.543713373459267 ==> log prob of sentence so far: -70.94857204499523

3GRAM: lpa
ENGLISH: P(a|lp) = -0.8893017025063104 ==> log prob of sentence so far: -68.52763594645438
FRENCH: P(a|lp) = -0.6189607418661637 ==> log prob of sentence so far: -71.56753278686139

3GRAM: par
ENGLISH: P(r|pa) = -0.48797662181308754 ==> log prob of sentence so far: -69.01561256826747
FRENCH: P(r|pa) = -0.324680924381621 ==> log prob of sentence so far: -71.89221371124302

3GRAM: ari
ENGLISH: P(i|ar) = -1.1817347285678639 ==> log prob of sentence so far: -70.19734729683533
FRENCH: P(i|ar) = -1.1156346264182968 ==> log prob of sentence so far: -73.00784833766131

3GRAM: ris
ENGLISH: P(s|ri) = -1.0671202992141848 ==> log prob of sentence so far: -71.26446759604951
FRENCH: P(s|ri) = -0.8428681755948682 ==> log prob of sentence so far: -73.85071651325619

According to the 3gram model, the sentence is in English
----------------
4GRAM MODEL:

4GRAM: thet
ENGLISH: P(t|the) = -1.4411651627173176 ==> log prob of sentence so far: -1.4411651627173176
FRENCH: P(t|the) = -1.6384892569546374 ==> log prob of sentence so far: -1.6384892569546374

4GRAM: hetr
ENGLISH: P(r|het) = -0.9211288535599117 ==> log prob of sentence so far: -2.3622940162772292
FRENCH: P(r|het) = -1.7781512503836436 ==> log prob of sentence so far: -3.416640507338281

4GRAM: etru
ENGLISH: P(u|etr) = -0.7019548578854811 ==> log prob of sentence so far: -3.0642488741627103
FRENCH: P(u|etr) = -1.9215334740792 ==> log prob of sentence so far: -5.338173981417481

4GRAM: trum
ENGLISH: P(m|tru) = -1.3070203593531686 ==> log prob of sentence so far: -4.3712692335158785
FRENCH: P(m|tru) = -0.5791107932569938 ==> log prob of sentence so far: -5.917284774674474

4GRAM: rump
ENGLISH: P(p|rum) = -0.6471383660631504 ==> log prob of sentence so far: -5.018407599579029
FRENCH: P(p|rum) = -1.968482948553935 ==> log prob of sentence so far: -7.885767723228409

4GRAM: umps
ENGLISH: P(s|ump) = -0.8603380065709937 ==> log prob of sentence so far: -5.878745606150023
FRENCH: P(s|ump) = -1.4913616938342726 ==> log prob of sentence so far: -9.377129417062681

4GRAM: mpsd
ENGLISH: P(d|mps) = -1.9030899869919435 ==> log prob of sentence so far: -7.781835593141967
FRENCH: P(d|mps) = -0.6139592146276701 ==> log prob of sentence so far: -9.991088631690351

4GRAM: psdi
ENGLISH: P(i|psd) = -0.8129133566428556 ==> log prob of sentence so far: -8.594748949784822
FRENCH: P(i|psd) = -1.7160033436347992 ==> log prob of sentence so far: -11.70709197532515

4GRAM: sdin
ENGLISH: P(n|sdi) = -1.1949766032160551 ==> log prob of sentence so far: -9.789725553000878
FRENCH: P(n|sdi) = -1.513217600067939 ==> log prob of sentence so far: -13.22030957539309

4GRAM: dine
ENGLISH: P(e|din) = -1.806451323247262 ==> log prob of sentence so far: -11.59617687624814
FRENCH: P(e|din) = -0.6340291974030042 ==> log prob of sentence so far: -13.854338772796094

4GRAM: inew
ENGLISH: P(w|ine) = -1.4393326938302626 ==> log prob of sentence so far: -13.035509570078403
FRENCH: P(w|ine) = -3.3236645356081 ==> log prob of sentence so far: -17.178003308404193

4GRAM: newi
ENGLISH: P(i|new) = -0.9555447427445695 ==> log prob of sentence so far: -13.991054312822973
FRENCH: P(i|new) = -1.6720978579357175 ==> log prob of sentence so far: -18.85010116633991

4GRAM: ewit
ENGLISH: P(t|ewi) = -0.3836005737781286 ==> log prob of sentence so far: -14.374654886601101
FRENCH: P(t|ewi) = -1.4313637641589874 ==> log prob of sentence so far: -20.2814649304989

4GRAM: with
ENGLISH: P(h|wit) = -0.022802298459219696 ==> log prob of sentence so far: -14.397457185060322
FRENCH: P(h|wit) = -1.4313637641589874 ==> log prob of sentence so far: -21.712828694657887

4GRAM: itht
ENGLISH: P(t|ith) = -0.7203455759723567 ==> log prob of sentence so far: -15.117802761032678
FRENCH: P(t|ith) = -1.919078092376074 ==> log prob of sentence so far: -23.631906787033962

4GRAM: thth
ENGLISH: P(h|tht) = -0.06857641436412144 ==> log prob of sentence so far: -15.1863791753968
FRENCH: P(h|tht) = -1.4313637641589874 ==> log prob of sentence so far: -25.06327055119295

4GRAM: hthe
ENGLISH: P(e|hth) = -0.1275222926027658 ==> log prob of sentence so far: -15.313901467999566
FRENCH: P(e|hth) = -1.4313637641589874 ==> log prob of sentence so far: -26.494634315351938

4GRAM: them
ENGLISH: P(m|the) = -1.1388745145515924 ==> log prob of sentence so far: -16.45277598255116
FRENCH: P(m|the) = -1.462397997898956 ==> log prob of sentence so far: -27.957032313250895

4GRAM: hema
ENGLISH: P(a|hem) = -0.5462834605567374 ==> log prob of sentence so far: -16.999059443107896
FRENCH: P(a|hem) = -0.8264559299581987 ==> log prob of sentence so far: -28.783488243209096

4GRAM: emac
ENGLISH: P(c|ema) = -1.8477488792629733 ==> log prob of sentence so far: -18.84680832237087
FRENCH: P(c|ema) = -1.565995312131177 ==> log prob of sentence so far: -30.34948355534027

4GRAM: macr
ENGLISH: P(r|mac) = -1.3802112417116061 ==> log prob of sentence so far: -20.227019564082475
FRENCH: P(r|mac) = -1.2162858897109594 ==> log prob of sentence so far: -31.56576944505123

4GRAM: acro
ENGLISH: P(o|acr) = -0.5217916496391234 ==> log prob of sentence so far: -20.7488112137216
FRENCH: P(o|acr) = -0.6948140445648611 ==> log prob of sentence so far: -32.26058348961609

4GRAM: cron
ENGLISH: P(n|cro) = -1.7708520116421442 ==> log prob of sentence so far: -22.519663225363743
FRENCH: P(n|cro) = -2.3783979009481375 ==> log prob of sentence so far: -34.638981390564226

4GRAM: rons
ENGLISH: P(s|ron) = -1.177124064493449 ==> log prob of sentence so far: -23.69678728985719
FRENCH: P(s|ron) = -0.6313106723275139 ==> log prob of sentence so far: -35.27029206289174

4GRAM: onsa
ENGLISH: P(a|ons) = -1.0518783340937727 ==> log prob of sentence so far: -24.748665623950963
FRENCH: P(a|ons) = -1.1323948309215128 ==> log prob of sentence so far: -36.402686893813254

4GRAM: nsat
ENGLISH: P(t|nsa) = -1.1631613749770184 ==> log prob of sentence so far: -25.91182699892798
FRENCH: P(t|nsa) = -1.1577380570748015 ==> log prob of sentence so far: -37.560424950888056

4GRAM: satr
ENGLISH: P(r|sat) = -1.9030899869919435 ==> log prob of sentence so far: -27.814916985919925
FRENCH: P(r|sat) = -0.8917669568945528 ==> log prob of sentence so far: -38.452191907782606

4GRAM: atre
ENGLISH: P(e|atr) = -0.7019548578854811 ==> log prob of sentence so far: -28.516871843805408
FRENCH: P(e|atr) = -0.2332102520069826 ==> log prob of sentence so far: -38.68540215978959

4GRAM: tres
ENGLISH: P(s|tre) = -0.9981479951384066 ==> log prob of sentence so far: -29.515019838943815
FRENCH: P(s|tre) = -0.5533638125383648 ==> log prob of sentence so far: -39.238765972327954

4GRAM: rest
ENGLISH: P(t|res) = -0.6975667899265807 ==> log prob of sentence so far: -30.212586628870394
FRENCH: P(t|res) = -1.1977612382874767 ==> log prob of sentence so far: -40.43652721061543

4GRAM: esta
ENGLISH: P(a|est) = -0.9763103450703312 ==> log prob of sentence so far: -31.188896973940725
FRENCH: P(a|est) = -0.9218394230047826 ==> log prob of sentence so far: -41.358366633620214

4GRAM: stau
ENGLISH: P(u|sta) = -2.631950826259217 ==> log prob of sentence so far: -33.82084780019994
FRENCH: P(u|sta) = -1.422175743255142 ==> log prob of sentence so far: -42.78054237687536

4GRAM: taur
ENGLISH: P(r|tau) = -0.9344984512435677 ==> log prob of sentence so far: -34.75534625144351
FRENCH: P(r|tau) = -1.6919651027673603 ==> log prob of sentence so far: -44.47250747964272

4GRAM: aura
ENGLISH: P(a|aur) = -1.5185139398778875 ==> log prob of sentence so far: -36.2738601913214
FRENCH: P(a|aur) = -0.2170298987131628 ==> log prob of sentence so far: -44.68953737835589

4GRAM: uran
ENGLISH: P(n|ura) = -0.8872957198087117 ==> log prob of sentence so far: -37.16115591113011
FRENCH: P(n|ura) = -0.8769454072662515 ==> log prob of sentence so far: -45.566482785622135

4GRAM: rant
ENGLISH: P(t|ran) = -1.1341467383951238 ==> log prob of sentence so far: -38.29530264952523
FRENCH: P(t|ran) = -0.7219585032967389 ==> log prob of sentence so far: -46.288441288918875

4GRAM: antl
ENGLISH: P(l|ant) = -1.2643071886392414 ==> log prob of sentence so far: -39.55960983816448
FRENCH: P(l|ant) = -0.9437770757611599 ==> log prob of sentence so far: -47.23221836468004

4GRAM: ntle
ENGLISH: P(e|ntl) = -0.5926184350951209 ==> log prob of sentence so far: -40.152228273259595
FRENCH: P(e|ntl) = -0.21843868007904543 ==> log prob of sentence so far: -47.45065704475908

4GRAM: tlej
ENGLISH: P(j|tle) = -2.2821687783046416 ==> log prob of sentence so far: -42.43439705156424
FRENCH: P(j|tle) = -2.3483048630481607 ==> log prob of sentence so far: -49.79896190780725

4GRAM: leju
ENGLISH: P(u|lej) = -1.3010299956639813 ==> log prob of sentence so far: -43.73542704722822
FRENCH: P(u|lej) = -0.8450980400142568 ==> log prob of sentence so far: -50.6440599478215

4GRAM: ejul
ENGLISH: P(l|eju) = -1.8129133566428555 ==> log prob of sentence so far: -45.54834040387107
FRENCH: P(l|eju) = -1.9822712330395684 ==> log prob of sentence so far: -52.62633118086107

4GRAM: jule
ENGLISH: P(e|jul) = -1.462397997898956 ==> log prob of sentence so far: -47.01073840177003
FRENCH: P(e|jul) = -0.9700367766225568 ==> log prob of sentence so far: -53.59636795748363

4GRAM: ules
ENGLISH: P(s|ule) = -0.6766936096248666 ==> log prob of sentence so far: -47.6874320113949
FRENCH: P(s|ule) = -0.6146144568791583 ==> log prob of sentence so far: -54.21098241436279

4GRAM: lesv
ENGLISH: P(v|les) = -2.5918989866912243 ==> log prob of sentence so far: -50.279330998086124
FRENCH: P(v|les) = -1.7341267444087576 ==> log prob of sentence so far: -55.945109158771544

4GRAM: esve
ENGLISH: P(e|esv) = -0.8573324964312684 ==> log prob of sentence so far: -51.13666349451739
FRENCH: P(e|esv) = -0.508300858998864 ==> log prob of sentence so far: -56.45341001777041

4GRAM: sver
ENGLISH: P(r|sve) = -0.24420707895314603 ==> log prob of sentence so far: -51.38087057347054
FRENCH: P(r|sve) = -0.2659557841222724 ==> log prob of sentence so far: -56.71936580189268

4GRAM: vern
ENGLISH: P(n|ver) = -1.9254266961927287 ==> log prob of sentence so far: -53.30629726966327
FRENCH: P(n|ver) = -1.3499178818820028 ==> log prob of sentence so far: -58.06928368377468

4GRAM: erne
ENGLISH: P(e|ern) = -1.0246224749083321 ==> log prob of sentence so far: -54.3309197445716
FRENCH: P(e|ern) = -0.5448333211683879 ==> log prob of sentence so far: -58.61411700494307

4GRAM: rnet
ENGLISH: P(t|rne) = -2.161368002234975 ==> log prob of sentence so far: -56.492287746806575
FRENCH: P(t|rne) = -1.4882372596251237 ==> log prob of sentence so far: -60.10235426456819

4GRAM: neto
ENGLISH: P(o|net) = -0.8692317197309761 ==> log prob of sentence so far: -57.36151946653755
FRENCH: P(o|net) = -1.3746073641936074 ==> log prob of sentence so far: -61.4769616287618

4GRAM: etou
ENGLISH: P(u|eto) = -1.3895879343072717 ==> log prob of sentence so far: -58.75110740084482
FRENCH: P(u|eto) = -0.29635173338621057 ==> log prob of sentence so far: -61.77331336214801

4GRAM: tour
ENGLISH: P(r|tou) = -1.1211457475911608 ==> log prob of sentence so far: -59.87225314843599
FRENCH: P(r|tou) = -0.7618893046835885 ==> log prob of sentence so far: -62.535202666831594

4GRAM: oure
ENGLISH: P(e|our) = -1.1829306835859867 ==> log prob of sentence so far: -61.055183832021974
FRENCH: P(e|our) = -1.1780664505531604 ==> log prob of sentence so far: -63.713269117384755

4GRAM: urei
ENGLISH: P(i|ure) = -1.27573555905099 ==> log prob of sentence so far: -62.33091939107297
FRENCH: P(i|ure) = -2.0737183503461227 ==> log prob of sentence so far: -65.78698746773088

4GRAM: reif
ENGLISH: P(f|rei) = -1.9822712330395684 ==> log prob of sentence so far: -64.31319062411254
FRENCH: P(f|rei) = -2.499687082618404 ==> log prob of sentence so far: -68.28667455034929

4GRAM: eiff
ENGLISH: P(f|eif) = -1.863322860120456 ==> log prob of sentence so far: -66.176513484233
FRENCH: P(f|eif) = -1.4313637641589874 ==> log prob of sentence so far: -69.71803831450828

4GRAM: iffe
ENGLISH: P(e|iff) = -0.32419786071600715 ==> log prob of sentence so far: -66.50071134494901
FRENCH: P(e|iff) = -0.4511855206252627 ==> log prob of sentence so far: -70.16922383513354

4GRAM: ffel
ENGLISH: P(l|ffe) = -2.369215857410143 ==> log prob of sentence so far: -68.86992720235915
FRENCH: P(l|ffe) = -2.095169351431755 ==> log prob of sentence so far: -72.26439318656529

4GRAM: felp
ENGLISH: P(p|fel) = -2.315970345456918 ==> log prob of sentence so far: -71.18589754781607
FRENCH: P(p|fel) = -1.462397997898956 ==> log prob of sentence so far: -73.72679118446425

4GRAM: elpa
ENGLISH: P(a|elp) = -1.5006023505691852 ==> log prob of sentence so far: -72.68649989838525
FRENCH: P(a|elp) = -0.8846065812979305 ==> log prob of sentence so far: -74.61139776576218

4GRAM: lpar
ENGLISH: P(r|lpa) = -0.6667853209646175 ==> log prob of sentence so far: -73.35328521934987
FRENCH: P(r|lpa) = -0.45312097831589593 ==> log prob of sentence so far: -75.06451874407807

4GRAM: pari
ENGLISH: P(i|par) = -1.4271734334106518 ==> log prob of sentence so far: -74.78045865276053
FRENCH: P(i|par) = -1.7359978840917938 ==> log prob of sentence so far: -76.80051662816986

4GRAM: aris
ENGLISH: P(s|ari) = -1.2632414347745815 ==> log prob of sentence so far: -76.04370008753511
FRENCH: P(s|ari) = -1.1109856031998662 ==> log prob of sentence so far: -77.91150223136972

According to the 4gram model, the sentence is in English
----------------
