She asked him if he was a student at this school.

1GRAM MODEL:

1GRAM: s
ENGLISH: P(s) = -1.1711435451761196 ==> log prob of sentence so far: -1.1711435451761196
FRENCH: P(s) = -1.0644522256524611 ==> log prob of sentence so far: -1.0644522256524611
DUTCH: P(s) = -1.460438187134298 ==> log prob of sentence so far: -1.460438187134298
PORTUGUESE: P(s) = -1.112913538600678 ==> log prob of sentence so far: -1.112913538600678
SPANISH: P(s) = -1.1432693326770131 ==> log prob of sentence so far: -1.1432693326770131

1GRAM: h
ENGLISH: P(h) = -1.1802766233913087 ==> log prob of sentence so far: -2.3514201685674285
FRENCH: P(h) = -2.1055979007773504 ==> log prob of sentence so far: -3.1700501264298113
DUTCH: P(h) = -1.4907830020294663 ==> log prob of sentence so far: -2.951221189163764
PORTUGUESE: P(h) = -1.8091778042240216 ==> log prob of sentence so far: -2.9220913428246997
SPANISH: P(h) = -1.8921799439353362 ==> log prob of sentence so far: -3.0354492766123493

1GRAM: e
ENGLISH: P(e) = -0.9100752696098996 ==> log prob of sentence so far: -3.2614954381773282
FRENCH: P(e) = -0.766972127152447 ==> log prob of sentence so far: -3.937022253582258
DUTCH: P(e) = -0.7296633556789381 ==> log prob of sentence so far: -3.6808845448427023
PORTUGUESE: P(e) = -0.8804727355199955 ==> log prob of sentence so far: -3.8025640783446955
SPANISH: P(e) = -0.8816658603059454 ==> log prob of sentence so far: -3.917115136918295

1GRAM: a
ENGLISH: P(a) = -1.086791807028239 ==> log prob of sentence so far: -4.348287245205567
FRENCH: P(a) = -1.0763575048838907 ==> log prob of sentence so far: -5.013379758466149
DUTCH: P(a) = -1.1154003185206602 ==> log prob of sentence so far: -4.796284863363363
PORTUGUESE: P(a) = -0.831923326155409 ==> log prob of sentence so far: -4.6344874045001045
SPANISH: P(a) = -0.9020364569062174 ==> log prob of sentence so far: -4.819151593824512

1GRAM: s
ENGLISH: P(s) = -1.1711435451761196 ==> log prob of sentence so far: -5.519430790381687
FRENCH: P(s) = -1.0644522256524611 ==> log prob of sentence so far: -6.07783198411861
DUTCH: P(s) = -1.460438187134298 ==> log prob of sentence so far: -6.256723050497661
PORTUGUESE: P(s) = -1.112913538600678 ==> log prob of sentence so far: -5.747400943100782
SPANISH: P(s) = -1.1432693326770131 ==> log prob of sentence so far: -5.962420926501525

1GRAM: k
ENGLISH: P(k) = -2.072676245803911 ==> log prob of sentence so far: -7.592107036185598
FRENCH: P(k) = -3.5355259793911835 ==> log prob of sentence so far: -9.613357963509793
DUTCH: P(k) = -1.6325278171520248 ==> log prob of sentence so far: -7.889250867649686
PORTUGUESE: P(k) = -4.655514916353827 ==> log prob of sentence so far: -10.402915859454609
SPANISH: P(k) = -3.8158124771123845 ==> log prob of sentence so far: -9.77823340361391

1GRAM: e
ENGLISH: P(e) = -0.9100752696098996 ==> log prob of sentence so far: -8.502182305795497
FRENCH: P(e) = -0.766972127152447 ==> log prob of sentence so far: -10.380330090662241
DUTCH: P(e) = -0.7296633556789381 ==> log prob of sentence so far: -8.618914223328623
PORTUGUESE: P(e) = -0.8804727355199955 ==> log prob of sentence so far: -11.283388594974605
SPANISH: P(e) = -0.8816658603059454 ==> log prob of sentence so far: -10.659899263919856

1GRAM: d
ENGLISH: P(d) = -1.3961801671840104 ==> log prob of sentence so far: -9.898362472979507
FRENCH: P(d) = -1.4202615782120422 ==> log prob of sentence so far: -11.800591668874283
DUTCH: P(d) = -1.2011924460583938 ==> log prob of sentence so far: -9.820106669387018
PORTUGUESE: P(d) = -1.335410191511947 ==> log prob of sentence so far: -12.618798786486552
SPANISH: P(d) = -1.2907676700755395 ==> log prob of sentence so far: -11.950666933995395

1GRAM: h
ENGLISH: P(h) = -1.1802766233913087 ==> log prob of sentence so far: -11.078639096370816
FRENCH: P(h) = -2.1055979007773504 ==> log prob of sentence so far: -13.906189569651634
DUTCH: P(h) = -1.4907830020294663 ==> log prob of sentence so far: -11.310889671416485
PORTUGUESE: P(h) = -1.8091778042240216 ==> log prob of sentence so far: -14.427976590710575
SPANISH: P(h) = -1.8921799439353362 ==> log prob of sentence so far: -13.84284687793073

1GRAM: i
ENGLISH: P(i) = -1.1625280787643961 ==> log prob of sentence so far: -12.241167175135212
FRENCH: P(i) = -1.1352103104713 ==> log prob of sentence so far: -15.041399880122935
DUTCH: P(i) = -1.2262538577433346 ==> log prob of sentence so far: -12.537143529159819
PORTUGUESE: P(i) = -1.2397071887182836 ==> log prob of sentence so far: -15.667683779428858
SPANISH: P(i) = -1.2231599543062535 ==> log prob of sentence so far: -15.066006832236983

1GRAM: m
ENGLISH: P(m) = -1.6111071179746999 ==> log prob of sentence so far: -13.852274293109911
FRENCH: P(m) = -1.5129465442835708 ==> log prob of sentence so far: -16.554346424406507
DUTCH: P(m) = -1.618856509410599 ==> log prob of sentence so far: -14.156000038570419
PORTUGUESE: P(m) = -1.314397077219965 ==> log prob of sentence so far: -16.98208085664882
SPANISH: P(m) = -1.4970785320245885 ==> log prob of sentence so far: -16.56308536426157

1GRAM: i
ENGLISH: P(i) = -1.1625280787643961 ==> log prob of sentence so far: -15.014802371874307
FRENCH: P(i) = -1.1352103104713 ==> log prob of sentence so far: -17.689556734877808
DUTCH: P(i) = -1.2262538577433346 ==> log prob of sentence so far: -15.382253896313753
PORTUGUESE: P(i) = -1.2397071887182836 ==> log prob of sentence so far: -18.221788045367106
SPANISH: P(i) = -1.2231599543062535 ==> log prob of sentence so far: -17.786245318567826

1GRAM: f
ENGLISH: P(f) = -1.6602710678572594 ==> log prob of sentence so far: -16.675073439731566
FRENCH: P(f) = -1.9917037157389805 ==> log prob of sentence so far: -19.68126045061679
DUTCH: P(f) = -2.2018945118838897 ==> log prob of sentence so far: -17.584148408197642
PORTUGUESE: P(f) = -1.98955888689987 ==> log prob of sentence so far: -20.211346932266977
SPANISH: P(f) = -2.2806992754150355 ==> log prob of sentence so far: -20.06694459398286

1GRAM: h
ENGLISH: P(h) = -1.1802766233913087 ==> log prob of sentence so far: -17.855350063122874
FRENCH: P(h) = -2.1055979007773504 ==> log prob of sentence so far: -21.78685835139414
DUTCH: P(h) = -1.4907830020294663 ==> log prob of sentence so far: -19.07493141022711
PORTUGUESE: P(h) = -1.8091778042240216 ==> log prob of sentence so far: -22.020524736490998
SPANISH: P(h) = -1.8921799439353362 ==> log prob of sentence so far: -21.959124537918196

1GRAM: e
ENGLISH: P(e) = -0.9100752696098996 ==> log prob of sentence so far: -18.76542533273277
FRENCH: P(e) = -0.766972127152447 ==> log prob of sentence so far: -22.553830478546587
DUTCH: P(e) = -0.7296633556789381 ==> log prob of sentence so far: -19.804594765906046
PORTUGUESE: P(e) = -0.8804727355199955 ==> log prob of sentence so far: -22.900997472010992
SPANISH: P(e) = -0.8816658603059454 ==> log prob of sentence so far: -22.84079039822414

1GRAM: w
ENGLISH: P(w) = -1.6313501899422194 ==> log prob of sentence so far: -20.39677552267499
FRENCH: P(w) = -3.916598062775926 ==> log prob of sentence so far: -26.470428541322512
DUTCH: P(w) = -1.733959351993398 ==> log prob of sentence so far: -21.538554117899444
PORTUGUESE: P(w) = -3.372213687650277 ==> log prob of sentence so far: -26.27321115966127
SPANISH: P(w) = -5.564000504118585 ==> log prob of sentence so far: -28.404790902342725

1GRAM: a
ENGLISH: P(a) = -1.086791807028239 ==> log prob of sentence so far: -21.483567329703227
FRENCH: P(a) = -1.0763575048838907 ==> log prob of sentence so far: -27.546786046206403
DUTCH: P(a) = -1.1154003185206602 ==> log prob of sentence so far: -22.653954436420104
PORTUGUESE: P(a) = -0.831923326155409 ==> log prob of sentence so far: -27.105134485816677
SPANISH: P(a) = -0.9020364569062174 ==> log prob of sentence so far: -29.306827359248942

1GRAM: s
ENGLISH: P(s) = -1.1711435451761196 ==> log prob of sentence so far: -22.654710874879346
FRENCH: P(s) = -1.0644522256524611 ==> log prob of sentence so far: -28.611238271858863
DUTCH: P(s) = -1.460438187134298 ==> log prob of sentence so far: -24.1143926235544
PORTUGUESE: P(s) = -1.112913538600678 ==> log prob of sentence so far: -28.218048024417357
SPANISH: P(s) = -1.1432693326770131 ==> log prob of sentence so far: -30.450096691925957

1GRAM: a
ENGLISH: P(a) = -1.086791807028239 ==> log prob of sentence so far: -23.741502681907583
FRENCH: P(a) = -1.0763575048838907 ==> log prob of sentence so far: -29.687595776742754
DUTCH: P(a) = -1.1154003185206602 ==> log prob of sentence so far: -25.22979294207506
PORTUGUESE: P(a) = -0.831923326155409 ==> log prob of sentence so far: -29.049971350572765
SPANISH: P(a) = -0.9020364569062174 ==> log prob of sentence so far: -31.352133148832174

1GRAM: s
ENGLISH: P(s) = -1.1711435451761196 ==> log prob of sentence so far: -24.9126462270837
FRENCH: P(s) = -1.0644522256524611 ==> log prob of sentence so far: -30.752048002395213
DUTCH: P(s) = -1.460438187134298 ==> log prob of sentence so far: -26.69023112920936
PORTUGUESE: P(s) = -1.112913538600678 ==> log prob of sentence so far: -30.162884889173444
SPANISH: P(s) = -1.1432693326770131 ==> log prob of sentence so far: -32.49540248150919

1GRAM: t
ENGLISH: P(t) = -1.0342270793962598 ==> log prob of sentence so far: -25.94687330647996
FRENCH: P(t) = -1.1659703020186778 ==> log prob of sentence so far: -31.91801830441389
DUTCH: P(t) = -1.2498883332454858 ==> log prob of sentence so far: -27.940119462454845
PORTUGUESE: P(t) = -1.3798350862511235 ==> log prob of sentence so far: -31.542719975424568
SPANISH: P(t) = -1.403592004029003 ==> log prob of sentence so far: -33.89899448553819

1GRAM: u
ENGLISH: P(u) = -1.5524859731545257 ==> log prob of sentence so far: -27.499359279634486
FRENCH: P(u) = -1.2061381702765537 ==> log prob of sentence so far: -33.124156474690444
DUTCH: P(u) = -1.7453273049444786 ==> log prob of sentence so far: -29.685446767399323
PORTUGUESE: P(u) = -1.3141991217573536 ==> log prob of sentence so far: -32.85691909718192
SPANISH: P(u) = -1.3656733863951074 ==> log prob of sentence so far: -35.2646678719333

1GRAM: d
ENGLISH: P(d) = -1.3961801671840104 ==> log prob of sentence so far: -28.895539446818496
FRENCH: P(d) = -1.4202615782120422 ==> log prob of sentence so far: -34.544418052902486
DUTCH: P(d) = -1.2011924460583938 ==> log prob of sentence so far: -30.886639213457716
PORTUGUESE: P(d) = -1.335410191511947 ==> log prob of sentence so far: -34.19232928869387
SPANISH: P(d) = -1.2907676700755395 ==> log prob of sentence so far: -36.55543554200884

1GRAM: e
ENGLISH: P(e) = -0.9100752696098996 ==> log prob of sentence so far: -29.805614716428394
FRENCH: P(e) = -0.766972127152447 ==> log prob of sentence so far: -35.311390180054936
DUTCH: P(e) = -0.7296633556789381 ==> log prob of sentence so far: -31.616302569136653
PORTUGUESE: P(e) = -0.8804727355199955 ==> log prob of sentence so far: -35.072802024213864
SPANISH: P(e) = -0.8816658603059454 ==> log prob of sentence so far: -37.43710140231478

1GRAM: n
ENGLISH: P(n) = -1.1615995429330288 ==> log prob of sentence so far: -30.967214259361423
FRENCH: P(n) = -1.1226414664094957 ==> log prob of sentence so far: -36.43403164646443
DUTCH: P(n) = -0.9654352760501171 ==> log prob of sentence so far: -32.58173784518677
PORTUGUESE: P(n) = -1.3242901353330945 ==> log prob of sentence so far: -36.39709215954696
SPANISH: P(n) = -1.1498464064383778 ==> log prob of sentence so far: -38.58694780875316

1GRAM: t
ENGLISH: P(t) = -1.0342270793962598 ==> log prob of sentence so far: -32.00144133875769
FRENCH: P(t) = -1.1659703020186778 ==> log prob of sentence so far: -37.60000194848311
DUTCH: P(t) = -1.2498883332454858 ==> log prob of sentence so far: -33.83162617843226
PORTUGUESE: P(t) = -1.3798350862511235 ==> log prob of sentence so far: -37.77692724579808
SPANISH: P(t) = -1.403592004029003 ==> log prob of sentence so far: -39.99053981278216

1GRAM: a
ENGLISH: P(a) = -1.086791807028239 ==> log prob of sentence so far: -33.08823314578593
FRENCH: P(a) = -1.0763575048838907 ==> log prob of sentence so far: -38.676359453367
DUTCH: P(a) = -1.1154003185206602 ==> log prob of sentence so far: -34.94702649695292
PORTUGUESE: P(a) = -0.831923326155409 ==> log prob of sentence so far: -38.60885057195349
SPANISH: P(a) = -0.9020364569062174 ==> log prob of sentence so far: -40.89257626968838

1GRAM: t
ENGLISH: P(t) = -1.0342270793962598 ==> log prob of sentence so far: -34.12246022518219
FRENCH: P(t) = -1.1659703020186778 ==> log prob of sentence so far: -39.84232975538568
DUTCH: P(t) = -1.2498883332454858 ==> log prob of sentence so far: -36.19691483019841
PORTUGUESE: P(t) = -1.3798350862511235 ==> log prob of sentence so far: -39.988685658204616
SPANISH: P(t) = -1.403592004029003 ==> log prob of sentence so far: -42.29616827371738

1GRAM: t
ENGLISH: P(t) = -1.0342270793962598 ==> log prob of sentence so far: -35.15668730457845
FRENCH: P(t) = -1.1659703020186778 ==> log prob of sentence so far: -41.008300057404355
DUTCH: P(t) = -1.2498883332454858 ==> log prob of sentence so far: -37.446803163443896
PORTUGUESE: P(t) = -1.3798350862511235 ==> log prob of sentence so far: -41.368520744455736
SPANISH: P(t) = -1.403592004029003 ==> log prob of sentence so far: -43.69976027774638

1GRAM: h
ENGLISH: P(h) = -1.1802766233913087 ==> log prob of sentence so far: -36.336963927969755
FRENCH: P(h) = -2.1055979007773504 ==> log prob of sentence so far: -43.1138979581817
DUTCH: P(h) = -1.4907830020294663 ==> log prob of sentence so far: -38.93758616547336
PORTUGUESE: P(h) = -1.8091778042240216 ==> log prob of sentence so far: -43.17769854867976
SPANISH: P(h) = -1.8921799439353362 ==> log prob of sentence so far: -45.59194022168172

1GRAM: i
ENGLISH: P(i) = -1.1625280787643961 ==> log prob of sentence so far: -37.49949200673415
FRENCH: P(i) = -1.1352103104713 ==> log prob of sentence so far: -44.249108268653
DUTCH: P(i) = -1.2262538577433346 ==> log prob of sentence so far: -40.1638400232167
PORTUGUESE: P(i) = -1.2397071887182836 ==> log prob of sentence so far: -44.41740573739804
SPANISH: P(i) = -1.2231599543062535 ==> log prob of sentence so far: -46.81510017598797

1GRAM: s
ENGLISH: P(s) = -1.1711435451761196 ==> log prob of sentence so far: -38.67063555191027
FRENCH: P(s) = -1.0644522256524611 ==> log prob of sentence so far: -45.31356049430546
DUTCH: P(s) = -1.460438187134298 ==> log prob of sentence so far: -41.624278210351
PORTUGUESE: P(s) = -1.112913538600678 ==> log prob of sentence so far: -45.53031927599872
SPANISH: P(s) = -1.1432693326770131 ==> log prob of sentence so far: -47.95836950866499

1GRAM: s
ENGLISH: P(s) = -1.1711435451761196 ==> log prob of sentence so far: -39.841779097086395
FRENCH: P(s) = -1.0644522256524611 ==> log prob of sentence so far: -46.37801271995792
DUTCH: P(s) = -1.460438187134298 ==> log prob of sentence so far: -43.0847163974853
PORTUGUESE: P(s) = -1.112913538600678 ==> log prob of sentence so far: -46.6432328145994
SPANISH: P(s) = -1.1432693326770131 ==> log prob of sentence so far: -49.101638841342

1GRAM: c
ENGLISH: P(c) = -1.6265839306967516 ==> log prob of sentence so far: -41.46836302778315
FRENCH: P(c) = -1.4922220755920426 ==> log prob of sentence so far: -47.87023479554996
DUTCH: P(c) = -1.8230376707666707 ==> log prob of sentence so far: -44.907754068251975
PORTUGUESE: P(c) = -1.4658000740301467 ==> log prob of sentence so far: -48.10903288862955
SPANISH: P(c) = -1.4008093022481172 ==> log prob of sentence so far: -50.50244814359012

1GRAM: h
ENGLISH: P(h) = -1.1802766233913087 ==> log prob of sentence so far: -42.648639651174456
FRENCH: P(h) = -2.1055979007773504 ==> log prob of sentence so far: -49.97583269632731
DUTCH: P(h) = -1.4907830020294663 ==> log prob of sentence so far: -46.39853707028144
PORTUGUESE: P(h) = -1.8091778042240216 ==> log prob of sentence so far: -49.91821069285357
SPANISH: P(h) = -1.8921799439353362 ==> log prob of sentence so far: -52.39462808752546

1GRAM: o
ENGLISH: P(o) = -1.1377865416115225 ==> log prob of sentence so far: -43.78642619278598
FRENCH: P(o) = -1.2743455831346002 ==> log prob of sentence so far: -51.250178279461906
DUTCH: P(o) = -1.1998250084767994 ==> log prob of sentence so far: -47.59836207875824
PORTUGUESE: P(o) = -0.9821621911912899 ==> log prob of sentence so far: -50.90037288404486
SPANISH: P(o) = -0.9966447169789665 ==> log prob of sentence so far: -53.391272804504425

1GRAM: o
ENGLISH: P(o) = -1.1377865416115225 ==> log prob of sentence so far: -44.92421273439751
FRENCH: P(o) = -1.2743455831346002 ==> log prob of sentence so far: -52.5245238625965
DUTCH: P(o) = -1.1998250084767994 ==> log prob of sentence so far: -48.79818708723504
PORTUGUESE: P(o) = -0.9821621911912899 ==> log prob of sentence so far: -51.882535075236156
SPANISH: P(o) = -0.9966447169789665 ==> log prob of sentence so far: -54.38791752148339

1GRAM: l
ENGLISH: P(l) = -1.3477697305137912 ==> log prob of sentence so far: -46.2719824649113
FRENCH: P(l) = -1.2682148156867032 ==> log prob of sentence so far: -53.79273867828321
DUTCH: P(l) = -1.4248879424212282 ==> log prob of sentence so far: -50.22307502965627
PORTUGUESE: P(l) = -1.437031928760182 ==> log prob of sentence so far: -53.31956700399634
SPANISH: P(l) = -1.280224525407062 ==> log prob of sentence so far: -55.66814204689045

According to the 1gram model, the sentence is in English
----------------
2GRAM MODEL:

2GRAM: sh
ENGLISH: P(h|s) = -1.1032939651001397 ==> log prob of sentence so far: -1.1032939651001397
FRENCH: P(h|s) = -2.159838380424855 ==> log prob of sentence so far: -2.159838380424855
DUTCH: P(h|s) = -1.551406090878182 ==> log prob of sentence so far: -1.551406090878182
PORTUGUESE: P(h|s) = -2.3280087285383995 ==> log prob of sentence so far: -2.3280087285383995
SPANISH: P(h|s) = -1.878760512944424 ==> log prob of sentence so far: -1.878760512944424

2GRAM: he
ENGLISH: P(e|h) = -0.37010948259900806 ==> log prob of sentence so far: -1.4734034476991478
FRENCH: P(e|h) = -0.45896620044521513 ==> log prob of sentence so far: -2.61880458087007
DUTCH: P(e|h) = -0.4405175612075963 ==> log prob of sentence so far: -1.9919236520857782
PORTUGUESE: P(e|h) = -0.5768677886967403 ==> log prob of sentence so far: -2.90487651723514
SPANISH: P(e|h) = -0.8499297785677 ==> log prob of sentence so far: -2.728690291512124

2GRAM: ea
ENGLISH: P(a|e) = -1.058588353645204 ==> log prob of sentence so far: -2.531991801344352
FRENCH: P(a|e) = -1.5190172552264145 ==> log prob of sentence so far: -4.137821836096485
DUTCH: P(a|e) = -2.1309021154086616 ==> log prob of sentence so far: -4.12282576749444
PORTUGUESE: P(a|e) = -1.281695424584262 ==> log prob of sentence so far: -4.186571941819402
SPANISH: P(a|e) = -1.465624472076684 ==> log prob of sentence so far: -4.1943147635888085

2GRAM: as
ENGLISH: P(s|a) = -0.9960003295333243 ==> log prob of sentence so far: -3.527992130877676
FRENCH: P(s|a) = -1.2507893391409073 ==> log prob of sentence so far: -5.388611175237393
DUTCH: P(s|a) = -1.3356776783994373 ==> log prob of sentence so far: -5.458503445893878
PORTUGUESE: P(s|a) = -0.8897788818183642 ==> log prob of sentence so far: -5.076350823637766
SPANISH: P(s|a) = -0.8836962232213162 ==> log prob of sentence so far: -5.078010986810125

2GRAM: sk
ENGLISH: P(k|s) = -2.042210941145311 ==> log prob of sentence so far: -5.570203072022987
FRENCH: P(k|s) = -3.3555251955439167 ==> log prob of sentence so far: -8.744136370781309
DUTCH: P(k|s) = -1.9238717479899834 ==> log prob of sentence so far: -7.3823751938838615
PORTUGUESE: P(k|s) = -4.214499453710881 ==> log prob of sentence so far: -9.290850277348646
SPANISH: P(k|s) = -3.9227773419287977 ==> log prob of sentence so far: -9.000788328738922

2GRAM: ke
ENGLISH: P(e|k) = -0.4471580313422192 ==> log prob of sentence so far: -6.017361103365206
FRENCH: P(e|k) = -0.9680936213365546 ==> log prob of sentence so far: -9.712229992117864
DUTCH: P(e|k) = -0.5863912666530203 ==> log prob of sentence so far: -7.968766460536882
PORTUGUESE: P(e|k) = -1.1613680022349748 ==> log prob of sentence so far: -10.45221827958362
SPANISH: P(e|k) = -0.9208187539523752 ==> log prob of sentence so far: -9.921607082691297

2GRAM: ed
ENGLISH: P(d|e) = -1.0374864289809331 ==> log prob of sentence so far: -7.054847532346139
FRENCH: P(d|e) = -1.2790977167639939 ==> log prob of sentence so far: -10.991327708881858
DUTCH: P(d|e) = -1.4578153512045156 ==> log prob of sentence so far: -9.426581811741398
PORTUGUESE: P(d|e) = -1.4018668852015246 ==> log prob of sentence so far: -11.854085164785145
SPANISH: P(d|e) = -1.3438184989611426 ==> log prob of sentence so far: -11.26542558165244

2GRAM: dh
ENGLISH: P(h|d) = -1.4165737529547737 ==> log prob of sentence so far: -8.471421285300913
FRENCH: P(h|d) = -2.3182621422365024 ==> log prob of sentence so far: -13.30958985111836
DUTCH: P(h|d) = -1.7220012714532544 ==> log prob of sentence so far: -11.148583083194653
PORTUGUESE: P(h|d) = -3.7184186418296554 ==> log prob of sentence so far: -15.572503806614801
SPANISH: P(h|d) = -3.158130435193173 ==> log prob of sentence so far: -14.423556016845613

2GRAM: hi
ENGLISH: P(i|h) = -0.792994352028281 ==> log prob of sentence so far: -9.264415637329193
FRENCH: P(i|h) = -1.0752208457966166 ==> log prob of sentence so far: -14.384810696914977
DUTCH: P(i|h) = -0.8282279386357982 ==> log prob of sentence so far: -11.976811021830452
PORTUGUESE: P(i|h) = -1.3749573690225714 ==> log prob of sentence so far: -16.947461175637372
SPANISH: P(i|h) = -1.1588802578677784 ==> log prob of sentence so far: -15.582436274713391

2GRAM: im
ENGLISH: P(m|i) = -1.3479991992166425 ==> log prob of sentence so far: -10.612414836545836
FRENCH: P(m|i) = -1.5426642768181869 ==> log prob of sentence so far: -15.927474973733164
DUTCH: P(m|i) = -2.1518638486432375 ==> log prob of sentence so far: -14.12867487047369
PORTUGUESE: P(m|i) = -1.1493530095215254 ==> log prob of sentence so far: -18.096814185158898
SPANISH: P(m|i) = -1.459046193731474 ==> log prob of sentence so far: -17.041482468444865

2GRAM: mi
ENGLISH: P(i|m) = -1.0706076493715508 ==> log prob of sentence so far: -11.683022485917387
FRENCH: P(i|m) = -1.043744927593803 ==> log prob of sentence so far: -16.97121990132697
DUTCH: P(i|m) = -1.0573372442080504 ==> log prob of sentence so far: -15.18601211468174
PORTUGUESE: P(i|m) = -1.2464678554066055 ==> log prob of sentence so far: -19.343282040565505
SPANISH: P(i|m) = -0.8502593682869638 ==> log prob of sentence so far: -17.89174183673183

2GRAM: if
ENGLISH: P(f|i) = -1.676832318595863 ==> log prob of sentence so far: -13.359854804513251
FRENCH: P(f|i) = -1.8970958651134087 ==> log prob of sentence so far: -18.868315766440375
DUTCH: P(f|i) = -2.6575161919490644 ==> log prob of sentence so far: -17.843528306630805
PORTUGUESE: P(f|i) = -2.121914761174586 ==> log prob of sentence so far: -21.465196801740092
SPANISH: P(f|i) = -2.2523555686887797 ==> log prob of sentence so far: -20.14409740542061

2GRAM: fh
ENGLISH: P(h|f) = -1.499049669220783 ==> log prob of sentence so far: -14.858904473734034
FRENCH: P(h|f) = -3.0049965543724437 ==> log prob of sentence so far: -21.87331232081282
DUTCH: P(h|f) = -1.2895203490384808 ==> log prob of sentence so far: -19.133048655669285
PORTUGUESE: P(h|f) = -3.369586890736344 ==> log prob of sentence so far: -24.834783692476435
SPANISH: P(h|f) = -3.288696260590256 ==> log prob of sentence so far: -23.432793666010866

2GRAM: he
ENGLISH: P(e|h) = -0.37010948259900806 ==> log prob of sentence so far: -15.229013956333041
FRENCH: P(e|h) = -0.45896620044521513 ==> log prob of sentence so far: -22.332278521258033
DUTCH: P(e|h) = -0.4405175612075963 ==> log prob of sentence so far: -19.57356621687688
PORTUGUESE: P(e|h) = -0.5768677886967403 ==> log prob of sentence so far: -25.411651481173177
SPANISH: P(e|h) = -0.8499297785677 ==> log prob of sentence so far: -24.282723444578565

2GRAM: ew
ENGLISH: P(w|e) = -1.446574422594899 ==> log prob of sentence so far: -16.67558837892794
FRENCH: P(w|e) = -3.406976847014123 ==> log prob of sentence so far: -25.739255368272154
DUTCH: P(w|e) = -1.7568742641420354 ==> log prob of sentence so far: -21.330440481018915
PORTUGUESE: P(w|e) = -4.1596423762134505 ==> log prob of sentence so far: -29.571293857386628
SPANISH: P(w|e) = -4.669744454732609 ==> log prob of sentence so far: -28.952467899311173

2GRAM: wa
ENGLISH: P(a|w) = -0.7202718700852793 ==> log prob of sentence so far: -17.39586024901322
FRENCH: P(a|w) = -0.49335845359034797 ==> log prob of sentence so far: -26.2326138218625
DUTCH: P(a|w) = -0.3908611860899997 ==> log prob of sentence so far: -21.721301667108914
PORTUGUESE: P(a|w) = -0.10506176502760228 ==> log prob of sentence so far: -29.67635562241423
SPANISH: P(a|w) = -1.4313637641589874 ==> log prob of sentence so far: -30.38383166347016

2GRAM: as
ENGLISH: P(s|a) = -0.9960003295333243 ==> log prob of sentence so far: -18.391860578546545
FRENCH: P(s|a) = -1.2507893391409073 ==> log prob of sentence so far: -27.48340316100341
DUTCH: P(s|a) = -1.3356776783994373 ==> log prob of sentence so far: -23.056979345508353
PORTUGUESE: P(s|a) = -0.8897788818183642 ==> log prob of sentence so far: -30.566134504232597
SPANISH: P(s|a) = -0.8836962232213162 ==> log prob of sentence so far: -31.26752788669148

2GRAM: sa
ENGLISH: P(a|s) = -1.035562862015324 ==> log prob of sentence so far: -19.42742344056187
FRENCH: P(a|s) = -0.992636919338493 ==> log prob of sentence so far: -28.476040080341903
DUTCH: P(a|s) = -1.4565103305594773 ==> log prob of sentence so far: -24.51348967606783
PORTUGUESE: P(a|s) = -0.9311982250073316 ==> log prob of sentence so far: -31.49733272923993
SPANISH: P(a|s) = -0.9784592064284107 ==> log prob of sentence so far: -32.245987093119886

2GRAM: as
ENGLISH: P(s|a) = -0.9960003295333243 ==> log prob of sentence so far: -20.423423770095194
FRENCH: P(s|a) = -1.2507893391409073 ==> log prob of sentence so far: -29.72682941948281
DUTCH: P(s|a) = -1.3356776783994373 ==> log prob of sentence so far: -25.84916735446727
PORTUGUESE: P(s|a) = -0.8897788818183642 ==> log prob of sentence so far: -32.387111611058295
SPANISH: P(s|a) = -0.8836962232213162 ==> log prob of sentence so far: -33.1296833163412

2GRAM: st
ENGLISH: P(t|s) = -0.7037615120539172 ==> log prob of sentence so far: -21.12718528214911
FRENCH: P(t|s) = -1.2373622552360959 ==> log prob of sentence so far: -30.964191674718908
DUTCH: P(t|s) = -0.5221579764109424 ==> log prob of sentence so far: -26.37132533087821
PORTUGUESE: P(t|s) = -0.9398798346196431 ==> log prob of sentence so far: -33.32699144567794
SPANISH: P(t|s) = -0.8816479453399603 ==> log prob of sentence so far: -34.011331261681164

2GRAM: tu
ENGLISH: P(u|t) = -1.6185544924733473 ==> log prob of sentence so far: -22.745739774622457
FRENCH: P(u|t) = -1.495633994955907 ==> log prob of sentence so far: -32.459825669674814
DUTCH: P(u|t) = -1.6183295295225222 ==> log prob of sentence so far: -27.989654860400734
PORTUGUESE: P(u|t) = -1.1953901513970289 ==> log prob of sentence so far: -34.52238159707497
SPANISH: P(u|t) = -1.2842134611053013 ==> log prob of sentence so far: -35.29554472278647

2GRAM: ud
ENGLISH: P(d|u) = -1.634036404802705 ==> log prob of sentence so far: -24.37977617942516
FRENCH: P(d|u) = -1.585249170935557 ==> log prob of sentence so far: -34.04507484061037
DUTCH: P(d|u) = -1.196797300850432 ==> log prob of sentence so far: -29.186452161251164
PORTUGUESE: P(d|u) = -1.402451781183024 ==> log prob of sentence so far: -35.92483337825799
SPANISH: P(d|u) = -1.6740083081970691 ==> log prob of sentence so far: -36.96955303098353

2GRAM: de
ENGLISH: P(e|d) = -0.8322133640166092 ==> log prob of sentence so far: -25.21198954344177
FRENCH: P(e|d) = -0.29071839298247226 ==> log prob of sentence so far: -34.33579323359284
DUTCH: P(e|d) = -0.2933043531437031 ==> log prob of sentence so far: -29.479756514394868
PORTUGUESE: P(e|d) = -0.42054875042975387 ==> log prob of sentence so far: -36.345382128687746
SPANISH: P(e|d) = -0.4538478938860544 ==> log prob of sentence so far: -37.42340092486959

2GRAM: en
ENGLISH: P(n|e) = -1.0655456684199553 ==> log prob of sentence so far: -26.277535211861725
FRENCH: P(n|e) = -0.8688568329466715 ==> log prob of sentence so far: -35.20465006653951
DUTCH: P(n|e) = -0.5270427591643824 ==> log prob of sentence so far: -30.00679927355925
PORTUGUESE: P(n|e) = -0.9800905850482625 ==> log prob of sentence so far: -37.325472713736005
SPANISH: P(n|e) = -0.7297262997249456 ==> log prob of sentence so far: -38.153127224594535

2GRAM: nt
ENGLISH: P(t|n) = -0.8263240391391752 ==> log prob of sentence so far: -27.1038592510009
FRENCH: P(t|n) = -0.6410407005031727 ==> log prob of sentence so far: -35.84569076704268
DUTCH: P(t|n) = -1.281503195929345 ==> log prob of sentence so far: -31.288302469488595
PORTUGUESE: P(t|n) = -0.6698159753083925 ==> log prob of sentence so far: -37.9952886890444
SPANISH: P(t|n) = -0.7929213253691281 ==> log prob of sentence so far: -38.94604854996366

2GRAM: ta
ENGLISH: P(a|t) = -1.1698229824614428 ==> log prob of sentence so far: -28.273682233462345
FRENCH: P(a|t) = -0.8828571952877377 ==> log prob of sentence so far: -36.728547962330424
DUTCH: P(a|t) = -1.3101077405609105 ==> log prob of sentence so far: -32.59841021004951
PORTUGUESE: P(a|t) = -0.6264299360692249 ==> log prob of sentence so far: -38.62171862511362
SPANISH: P(a|t) = -0.5855896460916419 ==> log prob of sentence so far: -39.531638196055304

2GRAM: at
ENGLISH: P(t|a) = -0.8628047170414462 ==> log prob of sentence so far: -29.13648695050379
FRENCH: P(t|a) = -1.2480024131158243 ==> log prob of sentence so far: -37.97655037544625
DUTCH: P(t|a) = -1.1098021717147442 ==> log prob of sentence so far: -33.708212381764255
PORTUGUESE: P(t|a) = -1.5396214893980493 ==> log prob of sentence so far: -40.161340114511674
SPANISH: P(t|a) = -1.5458846651472917 ==> log prob of sentence so far: -41.077522861202596

2GRAM: tt
ENGLISH: P(t|t) = -1.2609009822691009 ==> log prob of sentence so far: -30.39738793277289
FRENCH: P(t|t) = -1.3533254172514313 ==> log prob of sentence so far: -39.329875792697685
DUTCH: P(t|t) = -1.3899234563808447 ==> log prob of sentence so far: -35.0981358381451
PORTUGUESE: P(t|t) = -2.036188210918562 ==> log prob of sentence so far: -42.197528325430234
SPANISH: P(t|t) = -3.5589484459780394 ==> log prob of sentence so far: -44.636471307180635

2GRAM: th
ENGLISH: P(h|t) = -0.4193416964465229 ==> log prob of sentence so far: -30.816729629219413
FRENCH: P(h|t) = -2.126707570733353 ==> log prob of sentence so far: -41.45658336343104
DUTCH: P(h|t) = -1.356482064211649 ==> log prob of sentence so far: -36.454617902356745
PORTUGUESE: P(h|t) = -2.183315774038926 ==> log prob of sentence so far: -44.38084409946916
SPANISH: P(h|t) = -3.5589484459780394 ==> log prob of sentence so far: -48.195419753158674

2GRAM: hi
ENGLISH: P(i|h) = -0.792994352028281 ==> log prob of sentence so far: -31.609723981247694
FRENCH: P(i|h) = -1.0752208457966166 ==> log prob of sentence so far: -42.53180420922765
DUTCH: P(i|h) = -0.8282279386357982 ==> log prob of sentence so far: -37.28284584099254
PORTUGUESE: P(i|h) = -1.3749573690225714 ==> log prob of sentence so far: -45.75580146849173
SPANISH: P(i|h) = -1.1588802578677784 ==> log prob of sentence so far: -49.35430001102645

2GRAM: is
ENGLISH: P(s|i) = -0.8699958294708219 ==> log prob of sentence so far: -32.479719810718514
FRENCH: P(s|i) = -0.8503855961161433 ==> log prob of sentence so far: -43.38218980534379
DUTCH: P(s|i) = -1.2810068241047197 ==> log prob of sentence so far: -38.563852665097265
PORTUGUESE: P(s|i) = -0.963613823112733 ==> log prob of sentence so far: -46.71941529160446
SPANISH: P(s|i) = -1.1737680267416861 ==> log prob of sentence so far: -50.528068037768136

2GRAM: ss
ENGLISH: P(s|s) = -1.1761751118303596 ==> log prob of sentence so far: -33.655894922548875
FRENCH: P(s|s) = -1.0372210095821532 ==> log prob of sentence so far: -44.419410814925946
DUTCH: P(s|s) = -1.5638638923666643 ==> log prob of sentence so far: -40.12771655746393
PORTUGUESE: P(s|s) = -1.0065959233248296 ==> log prob of sentence so far: -47.726011214929294
SPANISH: P(s|s) = -1.648619492665118 ==> log prob of sentence so far: -52.176687530433256

2GRAM: sc
ENGLISH: P(c|s) = -1.5668901399212958 ==> log prob of sentence so far: -35.22278506247017
FRENCH: P(c|s) = -1.3370487497531387 ==> log prob of sentence so far: -45.75645956467908
DUTCH: P(c|s) = -0.7699183747997889 ==> log prob of sentence so far: -40.89763493226371
PORTUGUESE: P(c|s) = -1.3505820767530208 ==> log prob of sentence so far: -49.076593291682315
SPANISH: P(c|s) = -1.2708535367605023 ==> log prob of sentence so far: -53.44754106719376

2GRAM: ch
ENGLISH: P(h|c) = -0.7749543047999193 ==> log prob of sentence so far: -35.99773936727009
FRENCH: P(h|c) = -0.9482899998958259 ==> log prob of sentence so far: -46.70474956457491
DUTCH: P(h|c) = -0.10862742844960288 ==> log prob of sentence so far: -41.006262360713315
PORTUGUESE: P(h|c) = -1.2979087693204583 ==> log prob of sentence so far: -50.37450206100277
SPANISH: P(h|c) = -0.9759846712435833 ==> log prob of sentence so far: -54.42352573843734

2GRAM: ho
ENGLISH: P(o|h) = -1.103715815990187 ==> log prob of sentence so far: -37.10145518326028
FRENCH: P(o|h) = -0.8339435443419342 ==> log prob of sentence so far: -47.538693108916846
DUTCH: P(o|h) = -1.0178239816239922 ==> log prob of sentence so far: -42.024086342337306
PORTUGUESE: P(o|h) = -0.542534192074565 ==> log prob of sentence so far: -50.917036253077335
SPANISH: P(o|h) = -0.5347437465649846 ==> log prob of sentence so far: -54.958269485002326

2GRAM: oo
ENGLISH: P(o|o) = -1.3568085649760118 ==> log prob of sentence so far: -38.45826374823629
FRENCH: P(o|o) = -2.753323736374023 ==> log prob of sentence so far: -50.29201684529087
DUTCH: P(o|o) = -0.6982368208290455 ==> log prob of sentence so far: -42.72232316316635
PORTUGUESE: P(o|o) = -1.720547499616745 ==> log prob of sentence so far: -52.63758375269408
SPANISH: P(o|o) = -2.4164802442465 ==> log prob of sentence so far: -57.374749729248826

2GRAM: ol
ENGLISH: P(l|o) = -1.4163143762055483 ==> log prob of sentence so far: -39.87457812444184
FRENCH: P(l|o) = -1.4870558469692536 ==> log prob of sentence so far: -51.77907269226012
DUTCH: P(l|o) = -1.2575968636148152 ==> log prob of sentence so far: -43.979920026781166
PORTUGUESE: P(l|o) = -1.3486561656990457 ==> log prob of sentence so far: -53.986239918393125
SPANISH: P(l|o) = -1.247088858765869 ==> log prob of sentence so far: -58.6218385880147

According to the 2gram model, the sentence is in English
----------------
3GRAM MODEL:

3GRAM: she
ENGLISH: P(e|sh) = -0.604571407969852 ==> log prob of sentence so far: -0.604571407969852
FRENCH: P(e|sh) = -0.654216663313797 ==> log prob of sentence so far: -0.654216663313797
DUTCH: P(e|sh) = -0.33144303211312515 ==> log prob of sentence so far: -0.33144303211312515
PORTUGUESE: P(e|sh) = -1.3096301674258988 ==> log prob of sentence so far: -1.3096301674258988
SPANISH: P(e|sh) = -0.7745169657285496 ==> log prob of sentence so far: -0.7745169657285496

3GRAM: hea
ENGLISH: P(a|he) = -1.1573335459584044 ==> log prob of sentence so far: -1.7619049539282563
FRENCH: P(a|he) = -1.4526787982520024 ==> log prob of sentence so far: -2.1068954615657995
DUTCH: P(a|he) = -2.984077033902831 ==> log prob of sentence so far: -3.315520066015956
PORTUGUESE: P(a|he) = -1.0233234285826238 ==> log prob of sentence so far: -2.3329535960085224
SPANISH: P(a|he) = -1.5563025007672873 ==> log prob of sentence so far: -2.3308194664958366

3GRAM: eas
ENGLISH: P(s|ea) = -0.9886623515952251 ==> log prob of sentence so far: -2.7505673055234814
FRENCH: P(s|ea) = -1.5621714344313853 ==> log prob of sentence so far: -3.669066895997185
DUTCH: P(s|ea) = -1.9890046156985368 ==> log prob of sentence so far: -5.304524681714493
PORTUGUESE: P(s|ea) = -0.9226587823835545 ==> log prob of sentence so far: -3.255612378392077
SPANISH: P(s|ea) = -1.169273309269213 ==> log prob of sentence so far: -3.5000927757650495

3GRAM: ask
ENGLISH: P(k|as) = -1.5424142389278186 ==> log prob of sentence so far: -4.2929815444513
FRENCH: P(k|as) = -3.0330214446829107 ==> log prob of sentence so far: -6.7020883406800955
DUTCH: P(k|as) = -1.9978230807457253 ==> log prob of sentence so far: -7.302347762460218
PORTUGUESE: P(k|as) = -3.5742628297070267 ==> log prob of sentence so far: -6.829875208099104
SPANISH: P(k|as) = -3.73471984165568 ==> log prob of sentence so far: -7.2348126174207295

3GRAM: ske
ENGLISH: P(e|sk) = -0.6452851453732424 ==> log prob of sentence so far: -4.938266689824543
FRENCH: P(e|sk) = -1.7075701760979363 ==> log prob of sentence so far: -8.409658516778032
DUTCH: P(e|sk) = -1.1578982542296623 ==> log prob of sentence so far: -8.46024601668988
PORTUGUESE: P(e|sk) = -1.4313637641589874 ==> log prob of sentence so far: -8.261238972258091
SPANISH: P(e|sk) = -1.4471580313422192 ==> log prob of sentence so far: -8.681970648762949

3GRAM: ked
ENGLISH: P(d|ke) = -0.8400036181745685 ==> log prob of sentence so far: -5.778270307999112
FRENCH: P(d|ke) = -1.6901960800285136 ==> log prob of sentence so far: -10.099854596806546
DUTCH: P(d|ke) = -2.079723775139919 ==> log prob of sentence so far: -10.539969791829797
PORTUGUESE: P(d|ke) = -1.4313637641589874 ==> log prob of sentence so far: -9.69260273641708
SPANISH: P(d|ke) = -1.5314789170422551 ==> log prob of sentence so far: -10.213449565805204

3GRAM: edh
ENGLISH: P(h|ed) = -1.274273783600431 ==> log prob of sentence so far: -7.052544091599542
FRENCH: P(h|ed) = -2.391922621374344 ==> log prob of sentence so far: -12.49177721818089
DUTCH: P(h|ed) = -1.6419695977020594 ==> log prob of sentence so far: -12.181939389531857
PORTUGUESE: P(h|ed) = -3.0681858617461617 ==> log prob of sentence so far: -12.760788598163241
SPANISH: P(h|ed) = -2.7263196121107756 ==> log prob of sentence so far: -12.93976917791598

3GRAM: dhi
ENGLISH: P(i|dh) = -0.4917285999236005 ==> log prob of sentence so far: -7.544272691523143
FRENCH: P(i|dh) = -1.0028856882374881 ==> log prob of sentence so far: -13.494662906418377
DUTCH: P(i|dh) = -0.569997215180352 ==> log prob of sentence so far: -12.75193660471221
PORTUGUESE: P(i|dh) = -1.4313637641589874 ==> log prob of sentence so far: -14.19215236232223
SPANISH: P(i|dh) = -1.278753600952829 ==> log prob of sentence so far: -14.21852277886881

3GRAM: him
ENGLISH: P(m|hi) = -0.885236014433036 ==> log prob of sentence so far: -8.429508705956179
FRENCH: P(m|hi) = -1.5387173259661744 ==> log prob of sentence so far: -15.033380232384552
DUTCH: P(m|hi) = -2.4561490486219544 ==> log prob of sentence so far: -15.208085653334164
PORTUGUESE: P(m|hi) = -1.1588648570811706 ==> log prob of sentence so far: -15.3510172194034
SPANISH: P(m|hi) = -1.9395192526186185 ==> log prob of sentence so far: -16.15804203148743

3GRAM: imi
ENGLISH: P(i|im) = -1.1349490561586937 ==> log prob of sentence so far: -9.564457762114873
FRENCH: P(i|im) = -1.3694514708606 ==> log prob of sentence so far: -16.402831703245152
DUTCH: P(i|im) = -1.013502470403647 ==> log prob of sentence so far: -16.22158812373781
PORTUGUESE: P(i|im) = -1.3103070152470413 ==> log prob of sentence so far: -16.66132423465044
SPANISH: P(i|im) = -0.7445426494025635 ==> log prob of sentence so far: -16.902584680889994

3GRAM: mif
ENGLISH: P(f|mi) = -2.343299158378835 ==> log prob of sentence so far: -11.907756920493709
FRENCH: P(f|mi) = -1.873722912619438 ==> log prob of sentence so far: -18.27655461586459
DUTCH: P(f|mi) = -2.948412965778601 ==> log prob of sentence so far: -19.17000108951641
PORTUGUESE: P(f|mi) = -2.802089257881733 ==> log prob of sentence so far: -19.463413492532172
SPANISH: P(f|mi) = -2.736927424692279 ==> log prob of sentence so far: -19.639512105582273

3GRAM: ifh
ENGLISH: P(h|if) = -1.4586378490256493 ==> log prob of sentence so far: -13.366394769519358
FRENCH: P(h|if) = -2.82020145948564 ==> log prob of sentence so far: -21.096756075350232
DUTCH: P(h|if) = -1.8920946026904804 ==> log prob of sentence so far: -21.062095692206892
PORTUGUESE: P(h|if) = -2.089905111439398 ==> log prob of sentence so far: -21.55331860397157
SPANISH: P(h|if) = -2.167317334748176 ==> log prob of sentence so far: -21.80682944033045

3GRAM: fhe
ENGLISH: P(e|fh) = -0.7603184732486272 ==> log prob of sentence so far: -14.126713242767986
FRENCH: P(e|fh) = -0.6600519383056491 ==> log prob of sentence so far: -21.75680801365588
DUTCH: P(e|fh) = -0.556863242590705 ==> log prob of sentence so far: -21.618958934797597
PORTUGUESE: P(e|fh) = -1.4313637641589874 ==> log prob of sentence so far: -22.984682368130557
SPANISH: P(e|fh) = -1.4313637641589874 ==> log prob of sentence so far: -23.238193204489438

3GRAM: hew
ENGLISH: P(w|he) = -1.200642440574725 ==> log prob of sentence so far: -15.327355683342711
FRENCH: P(w|he) = -3.278753600952829 ==> log prob of sentence so far: -25.03556161460871
DUTCH: P(w|he) = -2.779957051246906 ==> log prob of sentence so far: -24.398915986044504
PORTUGUESE: P(w|he) = -2.9628426812012423 ==> log prob of sentence so far: -25.947525049331798
SPANISH: P(w|he) = -2.8115750058705933 ==> log prob of sentence so far: -26.049768210360032

3GRAM: ewa
ENGLISH: P(a|ew) = -0.6593305824721628 ==> log prob of sentence so far: -15.986686265814875
FRENCH: P(a|ew) = -0.4895305127014824 ==> log prob of sentence so far: -25.52509212731019
DUTCH: P(a|ew) = -0.6389720746607335 ==> log prob of sentence so far: -25.037888060705235
PORTUGUESE: P(a|ew) = -1.4313637641589874 ==> log prob of sentence so far: -27.378888813490786
SPANISH: P(a|ew) = -1.4313637641589874 ==> log prob of sentence so far: -27.48113197451902

3GRAM: was
ENGLISH: P(s|wa) = -0.38583345521042056 ==> log prob of sentence so far: -16.372519721025295
FRENCH: P(s|wa) = -1.1760912590556813 ==> log prob of sentence so far: -26.701183386365873
DUTCH: P(s|wa) = -0.4951102600671298 ==> log prob of sentence so far: -25.532998320772364
PORTUGUESE: P(s|wa) = -2.0791812460476247 ==> log prob of sentence so far: -29.45807005953841
SPANISH: P(s|wa) = -1.4313637641589874 ==> log prob of sentence so far: -28.912495738678007

3GRAM: asa
ENGLISH: P(a|as) = -1.117442738969486 ==> log prob of sentence so far: -17.489962459994782
FRENCH: P(a|as) = -1.0330214446829107 ==> log prob of sentence so far: -27.734204831048785
DUTCH: P(a|as) = -1.3446105669703818 ==> log prob of sentence so far: -26.877608887742745
PORTUGUESE: P(a|as) = -0.9259028187260953 ==> log prob of sentence so far: -30.383972878264505
SPANISH: P(a|as) = -0.945844725880263 ==> log prob of sentence so far: -29.85834046455827

3GRAM: sas
ENGLISH: P(s|sa) = -1.1946446421083303 ==> log prob of sentence so far: -18.68460710210311
FRENCH: P(s|sa) = -1.5919314625675987 ==> log prob of sentence so far: -29.326136293616383
DUTCH: P(s|sa) = -1.3844984876028394 ==> log prob of sentence so far: -28.262107375345586
PORTUGUESE: P(s|sa) = -1.007678591613651 ==> log prob of sentence so far: -31.391651469878155
SPANISH: P(s|sa) = -1.0575815861549838 ==> log prob of sentence so far: -30.915922050713256

3GRAM: ast
ENGLISH: P(t|as) = -0.5424142389278186 ==> log prob of sentence so far: -19.22702134103093
FRENCH: P(t|as) = -1.2069466419820842 ==> log prob of sentence so far: -30.53308293559847
DUTCH: P(t|as) = -0.6906327763769258 ==> log prob of sentence so far: -28.952740151722512
PORTUGUESE: P(t|as) = -1.205046972296884 ==> log prob of sentence so far: -32.59669844217504
SPANISH: P(t|as) = -1.1337469459689316 ==> log prob of sentence so far: -32.049668996682186

3GRAM: stu
ENGLISH: P(u|st) = -1.4065944163980473 ==> log prob of sentence so far: -20.633615757428977
FRENCH: P(u|st) = -1.4279575154670758 ==> log prob of sentence so far: -31.961040451065543
DUTCH: P(u|st) = -1.2652641361036974 ==> log prob of sentence so far: -30.21800428782621
PORTUGUESE: P(u|st) = -1.4879590035477517 ==> log prob of sentence so far: -34.08465744572279
SPANISH: P(u|st) = -1.5392591082391427 ==> log prob of sentence so far: -33.58892810492133

3GRAM: tud
ENGLISH: P(d|tu) = -1.1601353775232193 ==> log prob of sentence so far: -21.793751134952196
FRENCH: P(d|tu) = -0.9002533049153121 ==> log prob of sentence so far: -32.86129375598085
DUTCH: P(d|tu) = -1.5208301826050683 ==> log prob of sentence so far: -31.73883447043128
PORTUGUESE: P(d|tu) = -0.6034497348559681 ==> log prob of sentence so far: -34.68810718057876
SPANISH: P(d|tu) = -1.0844032867024467 ==> log prob of sentence so far: -34.673331391623776

3GRAM: ude
ENGLISH: P(e|ud) = -0.43462302509874673 ==> log prob of sentence so far: -22.228374160050944
FRENCH: P(e|ud) = -0.20078040709417228 ==> log prob of sentence so far: -33.062074163075025
DUTCH: P(e|ud) = -0.29129005777604744 ==> log prob of sentence so far: -32.030124528207324
PORTUGUESE: P(e|ud) = -0.507836740201724 ==> log prob of sentence so far: -35.195943920780486
SPANISH: P(e|ud) = -0.8551110364373105 ==> log prob of sentence so far: -35.52844242806108

3GRAM: den
ENGLISH: P(n|de) = -1.0212302489999012 ==> log prob of sentence so far: -23.249604409050846
FRENCH: P(n|de) = -1.3293071745817022 ==> log prob of sentence so far: -34.391381337656725
DUTCH: P(n|de) = -0.4767728715131871 ==> log prob of sentence so far: -32.50689739972051
PORTUGUESE: P(n|de) = -1.478624205311808 ==> log prob of sentence so far: -36.674568126092296
SPANISH: P(n|de) = -1.3404857159208439 ==> log prob of sentence so far: -36.868928143981925

3GRAM: ent
ENGLISH: P(t|en) = -0.5251753898810755 ==> log prob of sentence so far: -23.77477979893192
FRENCH: P(t|en) = -0.3834635334557952 ==> log prob of sentence so far: -34.77484487111252
DUTCH: P(t|en) = -1.31856432483037 ==> log prob of sentence so far: -33.82546172455088
PORTUGUESE: P(t|en) = -0.4086104629728499 ==> log prob of sentence so far: -37.08317858906515
SPANISH: P(t|en) = -0.6229543328349474 ==> log prob of sentence so far: -37.491882476816876

3GRAM: nta
ENGLISH: P(a|nt) = -1.2524461848650656 ==> log prob of sentence so far: -25.027225983796985
FRENCH: P(a|nt) = -0.962834543573197 ==> log prob of sentence so far: -35.737679414685715
DUTCH: P(a|nt) = -1.199373547631463 ==> log prob of sentence so far: -35.02483527218234
PORTUGUESE: P(a|nt) = -0.7817179854327047 ==> log prob of sentence so far: -37.864896574497855
SPANISH: P(a|nt) = -0.7893261930233822 ==> log prob of sentence so far: -38.28120866984026

3GRAM: tat
ENGLISH: P(t|ta) = -1.167250353618274 ==> log prob of sentence so far: -26.19447633741526
FRENCH: P(t|ta) = -1.4642307642173251 ==> log prob of sentence so far: -37.20191017890304
DUTCH: P(t|ta) = -1.9352746703633448 ==> log prob of sentence so far: -36.96010994254568
PORTUGUESE: P(t|ta) = -1.9022849923557137 ==> log prob of sentence so far: -39.767181566853566
SPANISH: P(t|ta) = -1.8769871844277386 ==> log prob of sentence so far: -40.158195854268

3GRAM: att
ENGLISH: P(t|at) = -0.8572475322361617 ==> log prob of sentence so far: -27.051723869651422
FRENCH: P(t|at) = -0.931795010873589 ==> log prob of sentence so far: -38.13370518977663
DUTCH: P(t|at) = -1.3831556223583874 ==> log prob of sentence so far: -38.343265564904065
PORTUGUESE: P(t|at) = -1.4983105537896004 ==> log prob of sentence so far: -41.26549212064317
SPANISH: P(t|at) = -2.808210972924222 ==> log prob of sentence so far: -42.96640682719222

3GRAM: tth
ENGLISH: P(h|tt) = -0.28945769307696806 ==> log prob of sentence so far: -27.34118156272839
FRENCH: P(h|tt) = -3.022840610876528 ==> log prob of sentence so far: -41.156545800653156
DUTCH: P(h|tt) = -1.8559382914396632 ==> log prob of sentence so far: -40.19920385634373
PORTUGUESE: P(h|tt) = -2.041392685158225 ==> log prob of sentence so far: -43.30688480580139
SPANISH: P(h|tt) = -1.462397997898956 ==> log prob of sentence so far: -44.42880482509118

3GRAM: thi
ENGLISH: P(i|th) = -1.0333814105972134 ==> log prob of sentence so far: -28.374562973325602
FRENCH: P(i|th) = -1.2964342439748322 ==> log prob of sentence so far: -42.452980044627985
DUTCH: P(i|th) = -0.5525349382583523 ==> log prob of sentence so far: -40.75173879460208
PORTUGUESE: P(i|th) = -1.1613680022349748 ==> log prob of sentence so far: -44.46825280803636
SPANISH: P(i|th) = -1.1613680022349748 ==> log prob of sentence so far: -45.59017282732615

3GRAM: his
ENGLISH: P(s|hi) = -0.38764206226239784 ==> log prob of sentence so far: -28.762205035588
FRENCH: P(s|hi) = -0.6892101670468626 ==> log prob of sentence so far: -43.142190211674844
DUTCH: P(s|hi) = -1.6884632319164758 ==> log prob of sentence so far: -42.44020202651856
PORTUGUESE: P(s|hi) = -0.8066823389698081 ==> log prob of sentence so far: -45.27493514700617
SPANISH: P(s|hi) = -0.9975111995963053 ==> log prob of sentence so far: -46.58768402692245

3GRAM: iss
ENGLISH: P(s|is) = -1.1478509107997614 ==> log prob of sentence so far: -29.91005594638776
FRENCH: P(s|is) = -0.752414323562985 ==> log prob of sentence so far: -43.89460453523783
DUTCH: P(s|is) = -1.0631386828871858 ==> log prob of sentence so far: -43.50334070940575
PORTUGUESE: P(s|is) = -0.6693232068245979 ==> log prob of sentence so far: -45.94425835383077
SPANISH: P(s|is) = -2.4686426683915115 ==> log prob of sentence so far: -49.05632669531396

3GRAM: ssc
ENGLISH: P(c|ss) = -1.793252957964765 ==> log prob of sentence so far: -31.703308904352525
FRENCH: P(c|ss) = -2.2301294697405507 ==> log prob of sentence so far: -46.124734004978386
DUTCH: P(c|ss) = -0.38519695810105437 ==> log prob of sentence so far: -43.8885376675068
PORTUGUESE: P(c|ss) = -2.4364277031868555 ==> log prob of sentence so far: -48.38068605701763
SPANISH: P(c|ss) = -2.7701152947871015 ==> log prob of sentence so far: -51.82644199010107

3GRAM: sch
ENGLISH: P(h|sc) = -1.0569048513364727 ==> log prob of sentence so far: -32.760213755688994
FRENCH: P(h|sc) = -1.1320820743513476 ==> log prob of sentence so far: -47.25681607932973
DUTCH: P(h|sc) = -0.01904778073504906 ==> log prob of sentence so far: -43.90758544824185
PORTUGUESE: P(h|sc) = -1.3470428784589514 ==> log prob of sentence so far: -49.72772893547658
SPANISH: P(h|sc) = -1.739097446117475 ==> log prob of sentence so far: -53.56553943621854

3GRAM: cho
ENGLISH: P(o|ch) = -1.0847590903526079 ==> log prob of sentence so far: -33.8449728460416
FRENCH: P(o|ch) = -1.1418693774913011 ==> log prob of sentence so far: -48.398685456821035
DUTCH: P(o|ch) = -1.2038493660835152 ==> log prob of sentence so far: -45.11143481432537
PORTUGUESE: P(o|ch) = -0.6104931588648252 ==> log prob of sentence so far: -50.338222094341404
SPANISH: P(o|ch) = -0.24833949270885147 ==> log prob of sentence so far: -53.813878928927394

3GRAM: hoo
ENGLISH: P(o|ho) = -1.4656643809822398 ==> log prob of sentence so far: -35.31063722702384
FRENCH: P(o|ho) = -2.6154239528859438 ==> log prob of sentence so far: -51.014109409706975
DUTCH: P(o|ho) = -0.3438280575197351 ==> log prob of sentence so far: -45.45526287184511
PORTUGUESE: P(o|ho) = -2.000434077479319 ==> log prob of sentence so far: -52.33865617182072
SPANISH: P(o|ho) = -2.6602328566510702 ==> log prob of sentence so far: -56.474111785578465

3GRAM: ool
ENGLISH: P(l|oo) = -1.3094015011144935 ==> log prob of sentence so far: -36.62003872813833
FRENCH: P(l|oo) = -1.0511525224473812 ==> log prob of sentence so far: -52.06526193215436
DUTCH: P(l|oo) = -2.0176175733396735 ==> log prob of sentence so far: -47.47288044518478
PORTUGUESE: P(l|oo) = -1.2807366842245285 ==> log prob of sentence so far: -53.61939285604525
SPANISH: P(l|oo) = -1.3508016123949769 ==> log prob of sentence so far: -57.82491339797344

According to the 3gram model, the sentence is in English
----------------
4GRAM MODEL:

4GRAM: shea
ENGLISH: P(a|she) = -0.6942592128293492 ==> log prob of sentence so far: -0.6942592128293492
FRENCH: P(a|she) = -2.0827853703164503 ==> log prob of sentence so far: -2.0827853703164503
DUTCH: P(a|she) = -2.3384564936046046 ==> log prob of sentence so far: -2.3384564936046046
PORTUGUESE: P(a|she) = -1.4771212547196624 ==> log prob of sentence so far: -1.4771212547196624
SPANISH: P(a|she) = -1.6232492903979006 ==> log prob of sentence so far: -1.6232492903979006

4GRAM: heas
ENGLISH: P(s|hea) = -1.8339802675248897 ==> log prob of sentence so far: -2.528239480354239
FRENCH: P(s|hea) = -1.1186897873312984 ==> log prob of sentence so far: -3.2014751576477485
DUTCH: P(s|hea) = -1.4771212547196624 ==> log prob of sentence so far: -3.8155777483242668
PORTUGUESE: P(s|hea) = -0.8109437637799511 ==> log prob of sentence so far: -2.2880650184996134
SPANISH: P(s|hea) = -1.3324384599156054 ==> log prob of sentence so far: -2.9556877503135057

4GRAM: eask
ENGLISH: P(k|eas) = -2.5276299008713385 ==> log prob of sentence so far: -5.055869381225578
FRENCH: P(k|eas) = -2.089905111439398 ==> log prob of sentence so far: -5.2913802690871465
DUTCH: P(k|eas) = -1.4913616938342726 ==> log prob of sentence so far: -5.306939442158539
PORTUGUESE: P(k|eas) = -2.294466226161593 ==> log prob of sentence so far: -4.582531244661206
SPANISH: P(k|eas) = -2.103803720955957 ==> log prob of sentence so far: -5.059491471269462

4GRAM: aske
ENGLISH: P(e|ask) = -0.7878241331261278 ==> log prob of sentence so far: -5.843693514351705
FRENCH: P(e|ask) = -1.4471580313422192 ==> log prob of sentence so far: -6.738538300429366
DUTCH: P(e|ask) = -1.290034611362518 ==> log prob of sentence so far: -6.596974053521057
PORTUGUESE: P(e|ask) = -1.4313637641589874 ==> log prob of sentence so far: -6.013895008820194
SPANISH: P(e|ask) = -1.4313637641589874 ==> log prob of sentence so far: -6.49085523542845

4GRAM: sked
ENGLISH: P(d|ske) = -0.7725473728656451 ==> log prob of sentence so far: -6.616240887217351
FRENCH: P(d|ske) = -1.4313637641589874 ==> log prob of sentence so far: -8.169902064588353
DUTCH: P(d|ske) = -1.5797835966168101 ==> log prob of sentence so far: -8.176757650137867
PORTUGUESE: P(d|ske) = -1.4313637641589874 ==> log prob of sentence so far: -7.445258772979182
SPANISH: P(d|ske) = -1.4313637641589874 ==> log prob of sentence so far: -7.922218999587438

4GRAM: kedh
ENGLISH: P(h|ked) = -1.287801729930226 ==> log prob of sentence so far: -7.904042617147576
FRENCH: P(h|ked) = -1.4313637641589874 ==> log prob of sentence so far: -9.60126582874734
DUTCH: P(h|ked) = -1.6532125137753437 ==> log prob of sentence so far: -9.829970163913211
PORTUGUESE: P(h|ked) = -1.4313637641589874 ==> log prob of sentence so far: -8.87662253713817
SPANISH: P(h|ked) = -1.4313637641589874 ==> log prob of sentence so far: -9.353582763746425

4GRAM: edhi
ENGLISH: P(i|edh) = -0.2876417982466277 ==> log prob of sentence so far: -8.191684415394203
FRENCH: P(i|edh) = -1.2218487496163564 ==> log prob of sentence so far: -10.823114578363697
DUTCH: P(i|edh) = -0.7832908900360547 ==> log prob of sentence so far: -10.613261053949266
PORTUGUESE: P(i|edh) = -1.4313637641589874 ==> log prob of sentence so far: -10.307986301297158
SPANISH: P(i|edh) = -1.462397997898956 ==> log prob of sentence so far: -10.815980761645381

4GRAM: dhim
ENGLISH: P(m|dhi) = -0.4359738643897055 ==> log prob of sentence so far: -8.627658279783908
FRENCH: P(m|dhi) = -1.6020599913279623 ==> log prob of sentence so far: -12.42517456969166
DUTCH: P(m|dhi) = -2.2095150145426308 ==> log prob of sentence so far: -12.822776068491898
PORTUGUESE: P(m|dhi) = -1.4313637641589874 ==> log prob of sentence so far: -11.739350065456145
SPANISH: P(m|dhi) = -1.4313637641589874 ==> log prob of sentence so far: -12.247344525804369

4GRAM: himi
ENGLISH: P(i|him) = -1.1211457475911608 ==> log prob of sentence so far: -9.74880402737507
FRENCH: P(i|him) = -0.8920946026904805 ==> log prob of sentence so far: -13.31726917238214
DUTCH: P(i|him) = -1.505149978319906 ==> log prob of sentence so far: -14.327926046811804
PORTUGUESE: P(i|him) = -1.568201724066995 ==> log prob of sentence so far: -13.30755178952314
SPANISH: P(i|him) = -1.462397997898956 ==> log prob of sentence so far: -13.709742523703325

4GRAM: imif
ENGLISH: P(f|imi) = -1.6683859166900001 ==> log prob of sentence so far: -11.417189944065068
FRENCH: P(f|imi) = -1.9444826721501687 ==> log prob of sentence so far: -15.26175184453231
DUTCH: P(f|imi) = -1.6434526764861874 ==> log prob of sentence so far: -15.971378723297992
PORTUGUESE: P(f|imi) = -1.8388490907372552 ==> log prob of sentence so far: -15.146400880260396
SPANISH: P(f|imi) = -2.220108088040055 ==> log prob of sentence so far: -15.92985061174338

4GRAM: mifh
ENGLISH: P(h|mif) = -1.0543576623225928 ==> log prob of sentence so far: -12.471547606387661
FRENCH: P(h|mif) = -1.7075701760979363 ==> log prob of sentence so far: -16.969322020630244
DUTCH: P(h|mif) = -1.4313637641589874 ==> log prob of sentence so far: -17.40274248745698
PORTUGUESE: P(h|mif) = -1.4313637641589874 ==> log prob of sentence so far: -16.577764644419382
SPANISH: P(h|mif) = -1.4471580313422192 ==> log prob of sentence so far: -17.3770086430856

4GRAM: ifhe
ENGLISH: P(e|ifh) = -0.22985440454086936 ==> log prob of sentence so far: -12.70140201092853
FRENCH: P(e|ifh) = -1.4313637641589874 ==> log prob of sentence so far: -18.400685784789232
DUTCH: P(e|ifh) = -1.4313637641589874 ==> log prob of sentence so far: -18.834106251615967
PORTUGUESE: P(e|ifh) = -1.4313637641589874 ==> log prob of sentence so far: -18.00912840857837
SPANISH: P(e|ifh) = -1.4313637641589874 ==> log prob of sentence so far: -18.808372407244587

4GRAM: fhew
ENGLISH: P(w|fhe) = -1.0290714479472582 ==> log prob of sentence so far: -13.730473458875789
FRENCH: P(w|fhe) = -1.505149978319906 ==> log prob of sentence so far: -19.90583576310914
DUTCH: P(w|fhe) = -1.8325089127062364 ==> log prob of sentence so far: -20.666615164322202
PORTUGUESE: P(w|fhe) = -1.4313637641589874 ==> log prob of sentence so far: -19.440492172737358
SPANISH: P(w|fhe) = -1.4313637641589874 ==> log prob of sentence so far: -20.239736171403575

4GRAM: hewa
ENGLISH: P(a|hew) = -0.635472936881447 ==> log prob of sentence so far: -14.365946395757236
FRENCH: P(a|hew) = -1.4313637641589874 ==> log prob of sentence so far: -21.337199527268126
DUTCH: P(a|hew) = -0.9164539485499251 ==> log prob of sentence so far: -21.583069112872128
PORTUGUESE: P(a|hew) = -1.4313637641589874 ==> log prob of sentence so far: -20.871855936896345
SPANISH: P(a|hew) = -1.4313637641589874 ==> log prob of sentence so far: -21.671099935562562

4GRAM: ewas
ENGLISH: P(s|ewa) = -0.3558970197009113 ==> log prob of sentence so far: -14.721843415458148
FRENCH: P(s|ewa) = -1.0791812460476249 ==> log prob of sentence so far: -22.41638077331575
DUTCH: P(s|ewa) = -0.7468935566532017 ==> log prob of sentence so far: -22.32996266952533
PORTUGUESE: P(s|ewa) = -1.4313637641589874 ==> log prob of sentence so far: -22.303219701055333
SPANISH: P(s|ewa) = -1.4313637641589874 ==> log prob of sentence so far: -23.10246369972155

4GRAM: wasa
ENGLISH: P(a|was) = -0.837239662486924 ==> log prob of sentence so far: -15.559083077945072
FRENCH: P(a|was) = -1.462397997898956 ==> log prob of sentence so far: -23.87877877121471
DUTCH: P(a|was) = -1.470281830189357 ==> log prob of sentence so far: -23.800244499714687
PORTUGUESE: P(a|was) = -1.4313637641589874 ==> log prob of sentence so far: -23.73458346521432
SPANISH: P(a|was) = -1.4313637641589874 ==> log prob of sentence so far: -24.533827463880538

4GRAM: asas
ENGLISH: P(s|asa) = -1.0023203678451458 ==> log prob of sentence so far: -16.56140344579022
FRENCH: P(s|asa) = -1.0494853630799184 ==> log prob of sentence so far: -24.928264134294626
DUTCH: P(s|asa) = -0.6434526764861874 ==> log prob of sentence so far: -24.443697176200875
PORTUGUESE: P(s|asa) = -0.8890641884277061 ==> log prob of sentence so far: -24.623647653642028
SPANISH: P(s|asa) = -1.2476226046698424 ==> log prob of sentence so far: -25.78145006855038

4GRAM: sast
ENGLISH: P(t|sas) = -0.6752445109100387 ==> log prob of sentence so far: -17.236647956700256
FRENCH: P(t|sas) = -1.076761771924212 ==> log prob of sentence so far: -26.005025906218837
DUTCH: P(t|sas) = -1.6434526764861874 ==> log prob of sentence so far: -26.087149852687062
PORTUGUESE: P(t|sas) = -1.1349053315694895 ==> log prob of sentence so far: -25.758552985211516
SPANISH: P(t|sas) = -1.2534125687191822 ==> log prob of sentence so far: -27.034862637269562

4GRAM: astu
ENGLISH: P(u|ast) = -1.9324737646771533 ==> log prob of sentence so far: -19.169121721377408
FRENCH: P(u|ast) = -1.3127157539891758 ==> log prob of sentence so far: -27.317741660208014
DUTCH: P(u|ast) = -1.7693773260761385 ==> log prob of sentence so far: -27.8565271787632
PORTUGUESE: P(u|ast) = -1.1345461631284228 ==> log prob of sentence so far: -26.89309914833994
SPANISH: P(u|ast) = -1.3051465618588134 ==> log prob of sentence so far: -28.340009199128374

4GRAM: stud
ENGLISH: P(d|stu) = -1.3152704347785915 ==> log prob of sentence so far: -20.484392156155998
FRENCH: P(d|stu) = -1.8836614351536176 ==> log prob of sentence so far: -29.20140309536163
DUTCH: P(d|stu) = -1.2166056942039845 ==> log prob of sentence so far: -29.073132872967186
PORTUGUESE: P(d|stu) = -0.7634279935629372 ==> log prob of sentence so far: -27.656527141902878
SPANISH: P(d|stu) = -1.2304489213782739 ==> log prob of sentence so far: -29.570458120506647

4GRAM: tude
ENGLISH: P(e|tud) = -0.15021074007570376 ==> log prob of sentence so far: -20.6346028962317
FRENCH: P(e|tud) = -0.12161588580083166 ==> log prob of sentence so far: -29.323018981162463
DUTCH: P(e|tud) = -0.9242792860618817 ==> log prob of sentence so far: -29.997412159029068
PORTUGUESE: P(e|tud) = -1.0535585922132598 ==> log prob of sentence so far: -28.710085734116138
SPANISH: P(e|tud) = -0.5336026106721107 ==> log prob of sentence so far: -30.10406073117876

4GRAM: uden
ENGLISH: P(n|ude) = -1.105510184769974 ==> log prob of sentence so far: -21.740113081001674
FRENCH: P(n|ude) = -1.2876838912422413 ==> log prob of sentence so far: -30.610702872404705
DUTCH: P(n|ude) = -0.14321003266102564 ==> log prob of sentence so far: -30.140622191690092
PORTUGUESE: P(n|ude) = -1.4093694704528195 ==> log prob of sentence so far: -30.119455204568958
SPANISH: P(n|ude) = -0.8219301749622309 ==> log prob of sentence so far: -30.92599090614099

4GRAM: dent
ENGLISH: P(t|den) = -0.5427825146048242 ==> log prob of sentence so far: -22.282895595606497
FRENCH: P(t|den) = -0.5293558722673002 ==> log prob of sentence so far: -31.140058744672004
DUTCH: P(t|den) = -1.382423766983928 ==> log prob of sentence so far: -31.523045958674018
PORTUGUESE: P(t|den) = -0.4518153894548922 ==> log prob of sentence so far: -30.57127059402385
SPANISH: P(t|den) = -0.701855692573507 ==> log prob of sentence so far: -31.627846598714495

4GRAM: enta
ENGLISH: P(a|ent) = -1.1208871620033467 ==> log prob of sentence so far: -23.403782757609843
FRENCH: P(a|ent) = -0.9488400205091703 ==> log prob of sentence so far: -32.08889876518118
DUTCH: P(a|ent) = -1.5345512505964252 ==> log prob of sentence so far: -33.05759720927044
PORTUGUESE: P(a|ent) = -0.9574714795695234 ==> log prob of sentence so far: -31.528742073593374
SPANISH: P(a|ent) = -0.8153457928284309 ==> log prob of sentence so far: -32.44319239154292

4GRAM: ntat
ENGLISH: P(t|nta) = -1.172160965427249 ==> log prob of sentence so far: -24.575943723037092
FRENCH: P(t|nta) = -1.3992742477611022 ==> log prob of sentence so far: -33.488173012942276
DUTCH: P(t|nta) = -1.7323937598229686 ==> log prob of sentence so far: -34.78999096909341
PORTUGUESE: P(t|nta) = -1.7022150591491658 ==> log prob of sentence so far: -33.23095713274254
SPANISH: P(t|nta) = -1.921686475483602 ==> log prob of sentence so far: -34.364878867026526

4GRAM: tatt
ENGLISH: P(t|tat) = -0.7686059324774133 ==> log prob of sentence so far: -25.344549655514506
FRENCH: P(t|tat) = -1.005628085008426 ==> log prob of sentence so far: -34.4938010979507
DUTCH: P(t|tat) = -1.5797835966168101 ==> log prob of sentence so far: -36.369774565710216
PORTUGUESE: P(t|tat) = -1.7160033436347992 ==> log prob of sentence so far: -34.946960476377335
SPANISH: P(t|tat) = -1.863322860120456 ==> log prob of sentence so far: -36.22820172714698

4GRAM: atth
ENGLISH: P(h|att) = -0.2183564144581636 ==> log prob of sentence so far: -25.56290606997267
FRENCH: P(h|att) = -2.6138418218760693 ==> log prob of sentence so far: -37.10764291982677
DUTCH: P(h|att) = -1.785329835010767 ==> log prob of sentence so far: -38.15510440072098
PORTUGUESE: P(h|att) = -1.7403626894942439 ==> log prob of sentence so far: -36.687323165871575
SPANISH: P(h|att) = -1.4313637641589874 ==> log prob of sentence so far: -37.65956549130597

4GRAM: tthi
ENGLISH: P(i|tth) = -1.0267453810140257 ==> log prob of sentence so far: -26.589651450986693
FRENCH: P(i|tth) = -1.4313637641589874 ==> log prob of sentence so far: -38.53900668398576
DUTCH: P(i|tth) = -1.5797835966168101 ==> log prob of sentence so far: -39.73488799733779
PORTUGUESE: P(i|tth) = -1.4313637641589874 ==> log prob of sentence so far: -38.11868693003056
SPANISH: P(i|tth) = -1.4313637641589874 ==> log prob of sentence so far: -39.09092925546496

4GRAM: this
ENGLISH: P(s|thi) = -0.27490120802370754 ==> log prob of sentence so far: -26.8645526590104
FRENCH: P(s|thi) = -0.7983546364719306 ==> log prob of sentence so far: -39.33736132045769
DUTCH: P(s|thi) = -2.0114294617807817 ==> log prob of sentence so far: -41.74631745911857
PORTUGUESE: P(s|thi) = -1.4913616938342726 ==> log prob of sentence so far: -39.610048623864834
SPANISH: P(s|thi) = -1.4313637641589874 ==> log prob of sentence so far: -40.522293019623945

4GRAM: hiss
ENGLISH: P(s|his) = -0.9958660181384091 ==> log prob of sentence so far: -27.860418677148807
FRENCH: P(s|his) = -0.4178072535036804 ==> log prob of sentence so far: -39.75516857396137
DUTCH: P(s|his) = -1.8195439355418686 ==> log prob of sentence so far: -43.56586139466044
PORTUGUESE: P(s|his) = -1.2388820889151366 ==> log prob of sentence so far: -40.84893071277997
SPANISH: P(s|his) = -1.7781512503836436 ==> log prob of sentence so far: -42.30044427000759

4GRAM: issc
ENGLISH: P(c|iss) = -1.6141939049775604 ==> log prob of sentence so far: -29.47461258212637
FRENCH: P(c|iss) = -3.1089031276673134 ==> log prob of sentence so far: -42.86407170162868
DUTCH: P(c|iss) = -0.43365556093857216 ==> log prob of sentence so far: -43.99951695559901
PORTUGUESE: P(c|iss) = -2.2027606873931997 ==> log prob of sentence so far: -43.05169140017317
SPANISH: P(c|iss) = -1.4771212547196624 ==> log prob of sentence so far: -43.77756552472725

4GRAM: ssch
ENGLISH: P(h|ssc) = -1.0511525224473812 ==> log prob of sentence so far: -30.52576510457375
FRENCH: P(h|ssc) = -1.7558748556724915 ==> log prob of sentence so far: -44.619946557301176
DUTCH: P(h|ssc) = -0.06092527920767243 ==> log prob of sentence so far: -44.060442234806686
PORTUGUESE: P(h|ssc) = -1.4913616938342726 ==> log prob of sentence so far: -44.54305309400744
SPANISH: P(h|ssc) = -1.4313637641589874 ==> log prob of sentence so far: -45.20892928888624

4GRAM: scho
ENGLISH: P(o|sch) = -0.599585372200107 ==> log prob of sentence so far: -31.125350476773857
FRENCH: P(o|sch) = -0.9410525092223048 ==> log prob of sentence so far: -45.56099906652348
DUTCH: P(o|sch) = -0.9619259381809122 ==> log prob of sentence so far: -45.0223681729876
PORTUGUESE: P(o|sch) = -0.9257539716278873 ==> log prob of sentence so far: -45.468807065635325
SPANISH: P(o|sch) = -1.6989700043360187 ==> log prob of sentence so far: -46.90789929322226

4GRAM: choo
ENGLISH: P(o|cho) = -0.9030899869919435 ==> log prob of sentence so far: -32.0284404637658
FRENCH: P(o|cho) = -2.3180633349627615 ==> log prob of sentence so far: -47.87906240148624
DUTCH: P(o|cho) = -0.33290641368570495 ==> log prob of sentence so far: -45.3552745866733
PORTUGUESE: P(o|cho) = -1.8027737252919758 ==> log prob of sentence so far: -47.2715807909273
SPANISH: P(o|cho) = -2.4693310102934105 ==> log prob of sentence so far: -49.37723030351567

4GRAM: hool
ENGLISH: P(l|hoo) = -0.8254037320312699 ==> log prob of sentence so far: -32.853844195797066
FRENCH: P(l|hoo) = -1.4313637641589874 ==> log prob of sentence so far: -49.310426165645225
DUTCH: P(l|hoo) = -1.885078384149224 ==> log prob of sentence so far: -47.24035297082253
PORTUGUESE: P(l|hoo) = -1.0669467896306133 ==> log prob of sentence so far: -48.338527580557916
SPANISH: P(l|hoo) = -1.4471580313422192 ==> log prob of sentence so far: -50.824388334857886

According to the 4gram model, the sentence is in English
----------------
