Weet je dat New York vroeger 'Nieuw-Amsterdam' heette ?

1GRAM MODEL:

1GRAM: w
ENGLISH: P(w) = -1.6313501899422194 ==> log prob of sentence so far: -1.6313501899422194
FRENCH: P(w) = -3.916598062775926 ==> log prob of sentence so far: -3.916598062775926
DUTCH: P(w) = -1.733959351993398 ==> log prob of sentence so far: -1.733959351993398
PORTUGUESE: P(w) = -3.372213687650277 ==> log prob of sentence so far: -3.372213687650277
SPANISH: P(w) = -5.564000504118585 ==> log prob of sentence so far: -5.564000504118585

1GRAM: e
ENGLISH: P(e) = -0.9100752696098996 ==> log prob of sentence so far: -2.541425459552119
FRENCH: P(e) = -0.766972127152447 ==> log prob of sentence so far: -4.683570189928373
DUTCH: P(e) = -0.7296633556789381 ==> log prob of sentence so far: -2.4636227076723363
PORTUGUESE: P(e) = -0.8804727355199955 ==> log prob of sentence so far: -4.252686423170273
SPANISH: P(e) = -0.8816658603059454 ==> log prob of sentence so far: -6.445666364424531

1GRAM: e
ENGLISH: P(e) = -0.9100752696098996 ==> log prob of sentence so far: -3.4515007291620186
FRENCH: P(e) = -0.766972127152447 ==> log prob of sentence so far: -5.45054231708082
DUTCH: P(e) = -0.7296633556789381 ==> log prob of sentence so far: -3.1932860633512745
PORTUGUESE: P(e) = -0.8804727355199955 ==> log prob of sentence so far: -5.133159158690268
SPANISH: P(e) = -0.8816658603059454 ==> log prob of sentence so far: -7.327332224730476

1GRAM: t
ENGLISH: P(t) = -1.0342270793962598 ==> log prob of sentence so far: -4.485727808558279
FRENCH: P(t) = -1.1659703020186778 ==> log prob of sentence so far: -6.616512619099497
DUTCH: P(t) = -1.2498883332454858 ==> log prob of sentence so far: -4.44317439659676
PORTUGUESE: P(t) = -1.3798350862511235 ==> log prob of sentence so far: -6.512994244941392
SPANISH: P(t) = -1.403592004029003 ==> log prob of sentence so far: -8.730924228759479

1GRAM: j
ENGLISH: P(j) = -2.944639589289319 ==> log prob of sentence so far: -7.430367397847598
FRENCH: P(j) = -2.2095350623538743 ==> log prob of sentence so far: -8.826047681453371
DUTCH: P(j) = -1.7474959977336848 ==> log prob of sentence so far: -6.190670394330445
PORTUGUESE: P(j) = -2.514378826233088 ==> log prob of sentence so far: -9.02737307117448
SPANISH: P(j) = -2.3397264898243275 ==> log prob of sentence so far: -11.070650718583806

1GRAM: e
ENGLISH: P(e) = -0.9100752696098996 ==> log prob of sentence so far: -8.340442667457497
FRENCH: P(e) = -0.766972127152447 ==> log prob of sentence so far: -9.593019808605819
DUTCH: P(e) = -0.7296633556789381 ==> log prob of sentence so far: -6.920333750009383
PORTUGUESE: P(e) = -0.8804727355199955 ==> log prob of sentence so far: -9.907845806694477
SPANISH: P(e) = -0.8816658603059454 ==> log prob of sentence so far: -11.952316578889752

1GRAM: d
ENGLISH: P(d) = -1.3961801671840104 ==> log prob of sentence so far: -9.736622834641507
FRENCH: P(d) = -1.4202615782120422 ==> log prob of sentence so far: -11.01328138681786
DUTCH: P(d) = -1.2011924460583938 ==> log prob of sentence so far: -8.121526196067776
PORTUGUESE: P(d) = -1.335410191511947 ==> log prob of sentence so far: -11.243255998206424
SPANISH: P(d) = -1.2907676700755395 ==> log prob of sentence so far: -13.24308424896529

1GRAM: a
ENGLISH: P(a) = -1.086791807028239 ==> log prob of sentence so far: -10.823414641669746
FRENCH: P(a) = -1.0763575048838907 ==> log prob of sentence so far: -12.089638891701751
DUTCH: P(a) = -1.1154003185206602 ==> log prob of sentence so far: -9.236926514588436
PORTUGUESE: P(a) = -0.831923326155409 ==> log prob of sentence so far: -12.075179324361832
SPANISH: P(a) = -0.9020364569062174 ==> log prob of sentence so far: -14.145120705871507

1GRAM: t
ENGLISH: P(t) = -1.0342270793962598 ==> log prob of sentence so far: -11.857641721066006
FRENCH: P(t) = -1.1659703020186778 ==> log prob of sentence so far: -13.25560919372043
DUTCH: P(t) = -1.2498883332454858 ==> log prob of sentence so far: -10.486814847833923
PORTUGUESE: P(t) = -1.3798350862511235 ==> log prob of sentence so far: -13.455014410612955
SPANISH: P(t) = -1.403592004029003 ==> log prob of sentence so far: -15.54871270990051

1GRAM: n
ENGLISH: P(n) = -1.1615995429330288 ==> log prob of sentence so far: -13.019241263999035
FRENCH: P(n) = -1.1226414664094957 ==> log prob of sentence so far: -14.378250660129925
DUTCH: P(n) = -0.9654352760501171 ==> log prob of sentence so far: -11.45225012388404
PORTUGUESE: P(n) = -1.3242901353330945 ==> log prob of sentence so far: -14.77930454594605
SPANISH: P(n) = -1.1498464064383778 ==> log prob of sentence so far: -16.69855911633889

1GRAM: e
ENGLISH: P(e) = -0.9100752696098996 ==> log prob of sentence so far: -13.929316533608935
FRENCH: P(e) = -0.766972127152447 ==> log prob of sentence so far: -15.145222787282373
DUTCH: P(e) = -0.7296633556789381 ==> log prob of sentence so far: -12.181913479562978
PORTUGUESE: P(e) = -0.8804727355199955 ==> log prob of sentence so far: -15.659777281466047
SPANISH: P(e) = -0.8816658603059454 ==> log prob of sentence so far: -17.580224976644832

1GRAM: w
ENGLISH: P(w) = -1.6313501899422194 ==> log prob of sentence so far: -15.560666723551154
FRENCH: P(w) = -3.916598062775926 ==> log prob of sentence so far: -19.0618208500583
DUTCH: P(w) = -1.733959351993398 ==> log prob of sentence so far: -13.915872831556376
PORTUGUESE: P(w) = -3.372213687650277 ==> log prob of sentence so far: -19.031990969116325
SPANISH: P(w) = -5.564000504118585 ==> log prob of sentence so far: -23.144225480763417

1GRAM: y
ENGLISH: P(y) = -1.7505897035050053 ==> log prob of sentence so far: -17.31125642705616
FRENCH: P(y) = -2.6720853285236252 ==> log prob of sentence so far: -21.733906178581925
DUTCH: P(y) = -3.56698117734204 ==> log prob of sentence so far: -17.482854008898414
PORTUGUESE: P(y) = -3.3416476959846735 ==> log prob of sentence so far: -22.373638665100998
SPANISH: P(y) = -1.910595013454084 ==> log prob of sentence so far: -25.054820494217502

1GRAM: o
ENGLISH: P(o) = -1.1377865416115225 ==> log prob of sentence so far: -18.449042968667683
FRENCH: P(o) = -1.2743455831346002 ==> log prob of sentence so far: -23.008251761716526
DUTCH: P(o) = -1.1998250084767994 ==> log prob of sentence so far: -18.682679017375214
PORTUGUESE: P(o) = -0.9821621911912899 ==> log prob of sentence so far: -23.355800856292287
SPANISH: P(o) = -0.9966447169789665 ==> log prob of sentence so far: -26.05146521119647

1GRAM: r
ENGLISH: P(r) = -1.2612746582838763 ==> log prob of sentence so far: -19.71031762695156
FRENCH: P(r) = -1.1840319980580551 ==> log prob of sentence so far: -24.192283759774583
DUTCH: P(r) = -1.2542070912544077 ==> log prob of sentence so far: -19.936886108629622
PORTUGUESE: P(r) = -1.194556967793861 ==> log prob of sentence so far: -24.55035782408615
SPANISH: P(r) = -1.1910516980907977 ==> log prob of sentence so far: -27.242516909287268

1GRAM: k
ENGLISH: P(k) = -2.072676245803911 ==> log prob of sentence so far: -21.782993872755473
FRENCH: P(k) = -3.5355259793911835 ==> log prob of sentence so far: -27.727809739165767
DUTCH: P(k) = -1.6325278171520248 ==> log prob of sentence so far: -21.569413925781646
PORTUGUESE: P(k) = -4.655514916353827 ==> log prob of sentence so far: -29.205872740439975
SPANISH: P(k) = -3.8158124771123845 ==> log prob of sentence so far: -31.058329386399652

1GRAM: v
ENGLISH: P(v) = -2.043600170252475 ==> log prob of sentence so far: -23.826594043007947
FRENCH: P(v) = -1.8278293527225755 ==> log prob of sentence so far: -29.55563909188834
DUTCH: P(v) = -1.609989959474564 ==> log prob of sentence so far: -23.17940388525621
PORTUGUESE: P(v) = -1.7546018486161579 ==> log prob of sentence so far: -30.960474589056133
SPANISH: P(v) = -1.9460570692896122 ==> log prob of sentence so far: -33.004386455689264

1GRAM: r
ENGLISH: P(r) = -1.2612746582838763 ==> log prob of sentence so far: -25.087868701291825
FRENCH: P(r) = -1.1840319980580551 ==> log prob of sentence so far: -30.7396710899464
DUTCH: P(r) = -1.2542070912544077 ==> log prob of sentence so far: -24.433610976510618
PORTUGUESE: P(r) = -1.194556967793861 ==> log prob of sentence so far: -32.15503155684999
SPANISH: P(r) = -1.1910516980907977 ==> log prob of sentence so far: -34.19543815378006

1GRAM: o
ENGLISH: P(o) = -1.1377865416115225 ==> log prob of sentence so far: -26.225655242903347
FRENCH: P(o) = -1.2743455831346002 ==> log prob of sentence so far: -32.014016673080995
DUTCH: P(o) = -1.1998250084767994 ==> log prob of sentence so far: -25.63343598498742
PORTUGUESE: P(o) = -0.9821621911912899 ==> log prob of sentence so far: -33.137193748041284
SPANISH: P(o) = -0.9966447169789665 ==> log prob of sentence so far: -35.19208287075902

1GRAM: e
ENGLISH: P(e) = -0.9100752696098996 ==> log prob of sentence so far: -27.135730512513245
FRENCH: P(e) = -0.766972127152447 ==> log prob of sentence so far: -32.780988800233445
DUTCH: P(e) = -0.7296633556789381 ==> log prob of sentence so far: -26.363099340666356
PORTUGUESE: P(e) = -0.8804727355199955 ==> log prob of sentence so far: -34.01766648356128
SPANISH: P(e) = -0.8816658603059454 ==> log prob of sentence so far: -36.07374873106497

1GRAM: g
ENGLISH: P(g) = -1.6600637277970318 ==> log prob of sentence so far: -28.795794240310276
FRENCH: P(g) = -2.0284319459650515 ==> log prob of sentence so far: -34.8094207461985
DUTCH: P(g) = -1.4839715392788537 ==> log prob of sentence so far: -27.84707087994521
PORTUGUESE: P(g) = -1.928136346902338 ==> log prob of sentence so far: -35.94580283046361
SPANISH: P(g) = -1.9668540162848898 ==> log prob of sentence so far: -38.04060274734986

1GRAM: e
ENGLISH: P(e) = -0.9100752696098996 ==> log prob of sentence so far: -29.705869509920173
FRENCH: P(e) = -0.766972127152447 ==> log prob of sentence so far: -35.57639287335095
DUTCH: P(e) = -0.7296633556789381 ==> log prob of sentence so far: -28.576734235624148
PORTUGUESE: P(e) = -0.8804727355199955 ==> log prob of sentence so far: -36.82627556598361
SPANISH: P(e) = -0.8816658603059454 ==> log prob of sentence so far: -38.9222686076558

1GRAM: r
ENGLISH: P(r) = -1.2612746582838763 ==> log prob of sentence so far: -30.96714416820405
FRENCH: P(r) = -1.1840319980580551 ==> log prob of sentence so far: -36.760424871409
DUTCH: P(r) = -1.2542070912544077 ==> log prob of sentence so far: -29.830941326878555
PORTUGUESE: P(r) = -1.194556967793861 ==> log prob of sentence so far: -38.020832533777465
SPANISH: P(r) = -1.1910516980907977 ==> log prob of sentence so far: -40.1133203057466

1GRAM: n
ENGLISH: P(n) = -1.1615995429330288 ==> log prob of sentence so far: -32.128743711137076
FRENCH: P(n) = -1.1226414664094957 ==> log prob of sentence so far: -37.8830663378185
DUTCH: P(n) = -0.9654352760501171 ==> log prob of sentence so far: -30.79637660292867
PORTUGUESE: P(n) = -1.3242901353330945 ==> log prob of sentence so far: -39.34512266911056
SPANISH: P(n) = -1.1498464064383778 ==> log prob of sentence so far: -41.263166712184976

1GRAM: i
ENGLISH: P(i) = -1.1625280787643961 ==> log prob of sentence so far: -33.29127178990147
FRENCH: P(i) = -1.1352103104713 ==> log prob of sentence so far: -39.0182766482898
DUTCH: P(i) = -1.2262538577433346 ==> log prob of sentence so far: -32.022630460672005
PORTUGUESE: P(i) = -1.2397071887182836 ==> log prob of sentence so far: -40.584829857828844
SPANISH: P(i) = -1.2231599543062535 ==> log prob of sentence so far: -42.48632666649123

1GRAM: e
ENGLISH: P(e) = -0.9100752696098996 ==> log prob of sentence so far: -34.20134705951137
FRENCH: P(e) = -0.766972127152447 ==> log prob of sentence so far: -39.78524877544225
DUTCH: P(e) = -0.7296633556789381 ==> log prob of sentence so far: -32.75229381635094
PORTUGUESE: P(e) = -0.8804727355199955 ==> log prob of sentence so far: -41.46530259334884
SPANISH: P(e) = -0.8816658603059454 ==> log prob of sentence so far: -43.367992526797174

1GRAM: u
ENGLISH: P(u) = -1.5524859731545257 ==> log prob of sentence so far: -35.753833032665895
FRENCH: P(u) = -1.2061381702765537 ==> log prob of sentence so far: -40.9913869457188
DUTCH: P(u) = -1.7453273049444786 ==> log prob of sentence so far: -34.497621121295424
PORTUGUESE: P(u) = -1.3141991217573536 ==> log prob of sentence so far: -42.77950171510619
SPANISH: P(u) = -1.3656733863951074 ==> log prob of sentence so far: -44.73366591319228

1GRAM: w
ENGLISH: P(w) = -1.6313501899422194 ==> log prob of sentence so far: -37.38518322260811
FRENCH: P(w) = -3.916598062775926 ==> log prob of sentence so far: -44.90798500849473
DUTCH: P(w) = -1.733959351993398 ==> log prob of sentence so far: -36.23158047328882
PORTUGUESE: P(w) = -3.372213687650277 ==> log prob of sentence so far: -46.15171540275647
SPANISH: P(w) = -5.564000504118585 ==> log prob of sentence so far: -50.297666417310865

1GRAM: a
ENGLISH: P(a) = -1.086791807028239 ==> log prob of sentence so far: -38.471975029636354
FRENCH: P(a) = -1.0763575048838907 ==> log prob of sentence so far: -45.984342513378614
DUTCH: P(a) = -1.1154003185206602 ==> log prob of sentence so far: -37.346980791809486
PORTUGUESE: P(a) = -0.831923326155409 ==> log prob of sentence so far: -46.983638728911885
SPANISH: P(a) = -0.9020364569062174 ==> log prob of sentence so far: -51.19970287421708

1GRAM: m
ENGLISH: P(m) = -1.6111071179746999 ==> log prob of sentence so far: -40.08308214761105
FRENCH: P(m) = -1.5129465442835708 ==> log prob of sentence so far: -47.49728905766219
DUTCH: P(m) = -1.618856509410599 ==> log prob of sentence so far: -38.965837301220084
PORTUGUESE: P(m) = -1.314397077219965 ==> log prob of sentence so far: -48.29803580613185
SPANISH: P(m) = -1.4970785320245885 ==> log prob of sentence so far: -52.69678140624167

1GRAM: s
ENGLISH: P(s) = -1.1711435451761196 ==> log prob of sentence so far: -41.25422569278717
FRENCH: P(s) = -1.0644522256524611 ==> log prob of sentence so far: -48.561741283314646
DUTCH: P(s) = -1.460438187134298 ==> log prob of sentence so far: -40.426275488354385
PORTUGUESE: P(s) = -1.112913538600678 ==> log prob of sentence so far: -49.41094934473253
SPANISH: P(s) = -1.1432693326770131 ==> log prob of sentence so far: -53.840050738918684

1GRAM: t
ENGLISH: P(t) = -1.0342270793962598 ==> log prob of sentence so far: -42.28845277218343
FRENCH: P(t) = -1.1659703020186778 ==> log prob of sentence so far: -49.727711585333324
DUTCH: P(t) = -1.2498883332454858 ==> log prob of sentence so far: -41.67616382159987
PORTUGUESE: P(t) = -1.3798350862511235 ==> log prob of sentence so far: -50.79078443098365
SPANISH: P(t) = -1.403592004029003 ==> log prob of sentence so far: -55.243642742947685

1GRAM: e
ENGLISH: P(e) = -0.9100752696098996 ==> log prob of sentence so far: -43.19852804179333
FRENCH: P(e) = -0.766972127152447 ==> log prob of sentence so far: -50.494683712485774
DUTCH: P(e) = -0.7296633556789381 ==> log prob of sentence so far: -42.40582717727881
PORTUGUESE: P(e) = -0.8804727355199955 ==> log prob of sentence so far: -51.67125716650364
SPANISH: P(e) = -0.8816658603059454 ==> log prob of sentence so far: -56.12530860325363

1GRAM: r
ENGLISH: P(r) = -1.2612746582838763 ==> log prob of sentence so far: -44.459802700077205
FRENCH: P(r) = -1.1840319980580551 ==> log prob of sentence so far: -51.67871571054383
DUTCH: P(r) = -1.2542070912544077 ==> log prob of sentence so far: -43.66003426853322
PORTUGUESE: P(r) = -1.194556967793861 ==> log prob of sentence so far: -52.8658141342975
SPANISH: P(r) = -1.1910516980907977 ==> log prob of sentence so far: -57.316360301344424

1GRAM: d
ENGLISH: P(d) = -1.3961801671840104 ==> log prob of sentence so far: -45.85598286726122
FRENCH: P(d) = -1.4202615782120422 ==> log prob of sentence so far: -53.09897728875587
DUTCH: P(d) = -1.2011924460583938 ==> log prob of sentence so far: -44.86122671459161
PORTUGUESE: P(d) = -1.335410191511947 ==> log prob of sentence so far: -54.20122432580945
SPANISH: P(d) = -1.2907676700755395 ==> log prob of sentence so far: -58.60712797141996

1GRAM: a
ENGLISH: P(a) = -1.086791807028239 ==> log prob of sentence so far: -46.94277467428946
FRENCH: P(a) = -1.0763575048838907 ==> log prob of sentence so far: -54.175334793639756
DUTCH: P(a) = -1.1154003185206602 ==> log prob of sentence so far: -45.97662703311227
PORTUGUESE: P(a) = -0.831923326155409 ==> log prob of sentence so far: -55.03314765196486
SPANISH: P(a) = -0.9020364569062174 ==> log prob of sentence so far: -59.50916442832618

1GRAM: m
ENGLISH: P(m) = -1.6111071179746999 ==> log prob of sentence so far: -48.55388179226416
FRENCH: P(m) = -1.5129465442835708 ==> log prob of sentence so far: -55.68828133792333
DUTCH: P(m) = -1.618856509410599 ==> log prob of sentence so far: -47.59548354252287
PORTUGUESE: P(m) = -1.314397077219965 ==> log prob of sentence so far: -56.347544729184825
SPANISH: P(m) = -1.4970785320245885 ==> log prob of sentence so far: -61.00624296035077

1GRAM: h
ENGLISH: P(h) = -1.1802766233913087 ==> log prob of sentence so far: -49.734158415655465
FRENCH: P(h) = -2.1055979007773504 ==> log prob of sentence so far: -57.793879238700676
DUTCH: P(h) = -1.4907830020294663 ==> log prob of sentence so far: -49.08626654455234
PORTUGUESE: P(h) = -1.8091778042240216 ==> log prob of sentence so far: -58.156722533408846
SPANISH: P(h) = -1.8921799439353362 ==> log prob of sentence so far: -62.89842290428611

1GRAM: e
ENGLISH: P(e) = -0.9100752696098996 ==> log prob of sentence so far: -50.64423368526536
FRENCH: P(e) = -0.766972127152447 ==> log prob of sentence so far: -58.560851365853125
DUTCH: P(e) = -0.7296633556789381 ==> log prob of sentence so far: -49.815929900231275
PORTUGUESE: P(e) = -0.8804727355199955 ==> log prob of sentence so far: -59.03719526892884
SPANISH: P(e) = -0.8816658603059454 ==> log prob of sentence so far: -63.78008876459205

1GRAM: e
ENGLISH: P(e) = -0.9100752696098996 ==> log prob of sentence so far: -51.55430895487526
FRENCH: P(e) = -0.766972127152447 ==> log prob of sentence so far: -59.327823493005575
DUTCH: P(e) = -0.7296633556789381 ==> log prob of sentence so far: -50.54559325591021
PORTUGUESE: P(e) = -0.8804727355199955 ==> log prob of sentence so far: -59.917668004448835
SPANISH: P(e) = -0.8816658603059454 ==> log prob of sentence so far: -64.661754624898

1GRAM: t
ENGLISH: P(t) = -1.0342270793962598 ==> log prob of sentence so far: -52.58853603427152
FRENCH: P(t) = -1.1659703020186778 ==> log prob of sentence so far: -60.49379379502425
DUTCH: P(t) = -1.2498883332454858 ==> log prob of sentence so far: -51.7954815891557
PORTUGUESE: P(t) = -1.3798350862511235 ==> log prob of sentence so far: -61.29750309069996
SPANISH: P(t) = -1.403592004029003 ==> log prob of sentence so far: -66.065346628927

1GRAM: t
ENGLISH: P(t) = -1.0342270793962598 ==> log prob of sentence so far: -53.62276311366778
FRENCH: P(t) = -1.1659703020186778 ==> log prob of sentence so far: -61.65976409704293
DUTCH: P(t) = -1.2498883332454858 ==> log prob of sentence so far: -53.045369922401186
PORTUGUESE: P(t) = -1.3798350862511235 ==> log prob of sentence so far: -62.67733817695108
SPANISH: P(t) = -1.403592004029003 ==> log prob of sentence so far: -67.46893863295601

1GRAM: e
ENGLISH: P(e) = -0.9100752696098996 ==> log prob of sentence so far: -54.53283838327768
FRENCH: P(e) = -0.766972127152447 ==> log prob of sentence so far: -62.42673622419538
DUTCH: P(e) = -0.7296633556789381 ==> log prob of sentence so far: -53.77503327808012
PORTUGUESE: P(e) = -0.8804727355199955 ==> log prob of sentence so far: -63.557810912471076
SPANISH: P(e) = -0.8816658603059454 ==> log prob of sentence so far: -68.35060449326195

According to the 1gram model, the sentence is in Dutch
----------------
2GRAM MODEL:

2GRAM: we
ENGLISH: P(e|w) = -0.905346882891805 ==> log prob of sentence so far: -0.905346882891805
FRENCH: P(e|w) = -1.0374264979406236 ==> log prob of sentence so far: -1.0374264979406236
DUTCH: P(e|w) = -0.478944826933244 ==> log prob of sentence so far: -0.478944826933244
PORTUGUESE: P(e|w) = -1.7817553746524688 ==> log prob of sentence so far: -1.7817553746524688
SPANISH: P(e|w) = -1.4313637641589874 ==> log prob of sentence so far: -1.4313637641589874

2GRAM: ee
ENGLISH: P(e|e) = -1.3180747861147537 ==> log prob of sentence so far: -2.2234216690065587
FRENCH: P(e|e) = -1.5122274767900392 ==> log prob of sentence so far: -2.5496539747306626
DUTCH: P(e|e) = -1.0246626366270009 ==> log prob of sentence so far: -1.5036074635602448
PORTUGUESE: P(e|e) = -1.3895270814263487 ==> log prob of sentence so far: -3.1712824560788175
SPANISH: P(e|e) = -1.4721882415790724 ==> log prob of sentence so far: -2.9035520057380597

2GRAM: et
ENGLISH: P(t|e) = -1.180595696581799 ==> log prob of sentence so far: -3.4040173655883574
FRENCH: P(t|e) = -1.081755762820215 ==> log prob of sentence so far: -3.631409737550878
DUTCH: P(t|e) = -1.1837836199830594 ==> log prob of sentence so far: -2.687391083543304
PORTUGUESE: P(t|e) = -1.5516515176662755 ==> log prob of sentence so far: -4.722933973745093
SPANISH: P(t|e) = -1.594197493340078 ==> log prob of sentence so far: -4.497749499078138

2GRAM: tj
ENGLISH: P(j|t) = -3.1975061070696156 ==> log prob of sentence so far: -6.6015234726579735
FRENCH: P(j|t) = -1.900427206317922 ==> log prob of sentence so far: -5.5318369438688
DUTCH: P(j|t) = -2.040288127283362 ==> log prob of sentence so far: -4.7276792108266665
PORTUGUESE: P(j|t) = -3.3736474722092176 ==> log prob of sentence so far: -8.09658144595431
SPANISH: P(j|t) = -4.161008437306002 ==> log prob of sentence so far: -8.65875793638414

2GRAM: je
ENGLISH: P(e|j) = -0.6608888907363961 ==> log prob of sentence so far: -7.26241236339437
FRENCH: P(e|j) = -0.19076580592106668 ==> log prob of sentence so far: -5.722602749789867
DUTCH: P(e|j) = -0.9079155308812349 ==> log prob of sentence so far: -5.6355947417079015
PORTUGUESE: P(e|j) = -1.0294443529669737 ==> log prob of sentence so far: -9.126025798921283
SPANISH: P(e|j) = -0.8025695195837802 ==> log prob of sentence so far: -9.46132745596792

2GRAM: ed
ENGLISH: P(d|e) = -1.0374864289809331 ==> log prob of sentence so far: -8.299898792375304
FRENCH: P(d|e) = -1.2790977167639939 ==> log prob of sentence so far: -7.001700466553861
DUTCH: P(d|e) = -1.4578153512045156 ==> log prob of sentence so far: -7.093410092912417
PORTUGUESE: P(d|e) = -1.4018668852015246 ==> log prob of sentence so far: -10.527892684122808
SPANISH: P(d|e) = -1.3438184989611426 ==> log prob of sentence so far: -10.805145954929063

2GRAM: da
ENGLISH: P(a|d) = -1.0001192297830146 ==> log prob of sentence so far: -9.30001802215832
FRENCH: P(a|d) = -0.9716297888879031 ==> log prob of sentence so far: -7.973330255441764
DUTCH: P(a|d) = -0.9676718932541984 ==> log prob of sentence so far: -8.061081986166615
PORTUGUESE: P(a|d) = -0.6385141741629349 ==> log prob of sentence so far: -11.166406858285743
SPANISH: P(a|d) = -0.8886174909752569 ==> log prob of sentence so far: -11.69376344590432

2GRAM: at
ENGLISH: P(t|a) = -0.8628047170414462 ==> log prob of sentence so far: -10.162822739199765
FRENCH: P(t|a) = -1.2480024131158243 ==> log prob of sentence so far: -9.221332668557588
DUTCH: P(t|a) = -1.1098021717147442 ==> log prob of sentence so far: -9.170884157881359
PORTUGUESE: P(t|a) = -1.5396214893980493 ==> log prob of sentence so far: -12.706028347683793
SPANISH: P(t|a) = -1.5458846651472917 ==> log prob of sentence so far: -13.239648111051611

2GRAM: tn
ENGLISH: P(n|t) = -2.1959297188346607 ==> log prob of sentence so far: -12.358752458034425
FRENCH: P(n|t) = -1.9477388175983883 ==> log prob of sentence so far: -11.169071486155977
DUTCH: P(n|t) = -1.7996899416541667 ==> log prob of sentence so far: -10.970574099535526
PORTUGUESE: P(n|t) = -3.97570746353718 ==> log prob of sentence so far: -16.681735811220975
SPANISH: P(n|t) = -3.5589484459780394 ==> log prob of sentence so far: -16.79859655702965

2GRAM: ne
ENGLISH: P(e|n) = -1.053319594333179 ==> log prob of sentence so far: -13.412072052367604
FRENCH: P(e|n) = -0.7543924355435184 ==> log prob of sentence so far: -11.923463921699495
DUTCH: P(e|n) = -1.0855682745547242 ==> log prob of sentence so far: -12.05614237409025
PORTUGUESE: P(e|n) = -1.2169184039287388 ==> log prob of sentence so far: -17.898654215149712
SPANISH: P(e|n) = -1.05941083756878 ==> log prob of sentence so far: -17.85800739459843

2GRAM: ew
ENGLISH: P(w|e) = -1.446574422594899 ==> log prob of sentence so far: -14.858646474962503
FRENCH: P(w|e) = -3.406976847014123 ==> log prob of sentence so far: -15.330440768713618
DUTCH: P(w|e) = -1.7568742641420354 ==> log prob of sentence so far: -13.813016638232286
PORTUGUESE: P(w|e) = -4.1596423762134505 ==> log prob of sentence so far: -22.058296591363163
SPANISH: P(w|e) = -4.669744454732609 ==> log prob of sentence so far: -22.52775184933104

2GRAM: wy
ENGLISH: P(y|w) = -2.5752465717288464 ==> log prob of sentence so far: -17.43389304669135
FRENCH: P(y|w) = -0.7821539928373176 ==> log prob of sentence so far: -16.112594761550938
DUTCH: P(y|w) = -3.5818927949386175 ==> log prob of sentence so far: -17.394909433170902
PORTUGUESE: P(y|w) = -2.0827853703164503 ==> log prob of sentence so far: -24.141081961679614
SPANISH: P(y|w) = -1.4313637641589874 ==> log prob of sentence so far: -23.959115613490027

2GRAM: yo
ENGLISH: P(o|y) = -0.8632872344707986 ==> log prob of sentence so far: -18.29718028116215
FRENCH: P(o|y) = -1.111343643621361 ==> log prob of sentence so far: -17.223938405172298
DUTCH: P(o|y) = -1.29162252714215 ==> log prob of sentence so far: -18.68653196031305
PORTUGUESE: P(o|y) = -1.8027737252919758 ==> log prob of sentence so far: -25.943855686971588
SPANISH: P(o|y) = -0.8843019201266127 ==> log prob of sentence so far: -24.84341753361664

2GRAM: or
ENGLISH: P(r|o) = -0.9303754802916233 ==> log prob of sentence so far: -19.22755576145377
FRENCH: P(r|o) = -1.0255323097061162 ==> log prob of sentence so far: -18.249470714878413
DUTCH: P(r|o) = -0.9353631975484139 ==> log prob of sentence so far: -19.621895157861466
PORTUGUESE: P(r|o) = -0.9141127327350226 ==> log prob of sentence so far: -26.857968419706612
SPANISH: P(r|o) = -0.9212957837698684 ==> log prob of sentence so far: -25.76471331738651

2GRAM: rk
ENGLISH: P(k|r) = -1.8689860564879661 ==> log prob of sentence so far: -21.096541817941738
FRENCH: P(k|r) = -3.352645518668971 ==> log prob of sentence so far: -21.602116233547385
DUTCH: P(k|r) = -1.5880835867668137 ==> log prob of sentence so far: -21.20997874462828
PORTUGUESE: P(k|r) = -3.848281510243934 ==> log prob of sentence so far: -30.706249929950545
SPANISH: P(k|r) = -4.063783560597355 ==> log prob of sentence so far: -29.828496877983863

2GRAM: kv
ENGLISH: P(v|k) = -2.8529233775262135 ==> log prob of sentence so far: -23.94946519546795
FRENCH: P(v|k) = -2.0472748673841794 ==> log prob of sentence so far: -23.649391100931563
DUTCH: P(v|k) = -1.6147769935466127 ==> log prob of sentence so far: -22.824755738174893
PORTUGUESE: P(v|k) = -1.462397997898956 ==> log prob of sentence so far: -32.1686479278495
SPANISH: P(v|k) = -1.8750612633917 ==> log prob of sentence so far: -31.703558141375563

2GRAM: vr
ENGLISH: P(r|v) = -3.239949807908753 ==> log prob of sentence so far: -27.189415003376705
FRENCH: P(r|v) = -1.3173653893177308 ==> log prob of sentence so far: -24.966756490249296
DUTCH: P(r|v) = -1.1740884256331667 ==> log prob of sentence so far: -23.99884416380806
PORTUGUESE: P(r|v) = -1.5334396178077832 ==> log prob of sentence so far: -33.70208754565728
SPANISH: P(r|v) = -3.619927710291468 ==> log prob of sentence so far: -35.32348585166703

2GRAM: ro
ENGLISH: P(o|r) = -0.9680163071420329 ==> log prob of sentence so far: -28.15743131051874
FRENCH: P(o|r) = -1.1139722753851267 ==> log prob of sentence so far: -26.080728765634422
DUTCH: P(o|r) = -1.030247280574744 ==> log prob of sentence so far: -25.029091444382804
PORTUGUESE: P(o|r) = -0.9764168081557388 ==> log prob of sentence so far: -34.67850435381302
SPANISH: P(o|r) = -0.8583085238564643 ==> log prob of sentence so far: -36.181794375523495

2GRAM: oe
ENGLISH: P(e|o) = -2.122558611203255 ==> log prob of sentence so far: -30.27998992172199
FRENCH: P(e|o) = -2.1429912190800704 ==> log prob of sentence so far: -28.223719984714492
DUTCH: P(e|o) = -0.9764829177079519 ==> log prob of sentence so far: -26.005574362090755
PORTUGUESE: P(e|o) = -1.2129196439299512 ==> log prob of sentence so far: -35.89142399774297
SPANISH: P(e|o) = -1.316109699128937 ==> log prob of sentence so far: -37.49790407465243

2GRAM: eg
ENGLISH: P(g|e) = -1.8107962729907232 ==> log prob of sentence so far: -32.09078619471271
FRENCH: P(g|e) = -1.9635437814322818 ==> log prob of sentence so far: -30.187263766146774
DUTCH: P(g|e) = -1.5535744790517139 ==> log prob of sentence so far: -27.55914884114247
PORTUGUESE: P(g|e) = -1.763443029117714 ==> log prob of sentence so far: -37.654867026860686
SPANISH: P(g|e) = -1.677632966945659 ==> log prob of sentence so far: -39.17553704159809

2GRAM: ge
ENGLISH: P(e|g) = -0.926764384213918 ==> log prob of sentence so far: -33.01755057892663
FRENCH: P(e|g) = -0.48363696965732633 ==> log prob of sentence so far: -30.6709007358041
DUTCH: P(e|g) = -0.2786486164882086 ==> log prob of sentence so far: -27.83779745763068
PORTUGUESE: P(e|g) = -0.8886571094649295 ==> log prob of sentence so far: -38.543524136325615
SPANISH: P(e|g) = -1.080055078297969 ==> log prob of sentence so far: -40.25559211989606

2GRAM: er
ENGLISH: P(r|e) = -0.8561972787159292 ==> log prob of sentence so far: -33.87374785764256
FRENCH: P(r|e) = -1.050493728299846 ==> log prob of sentence so far: -31.721394464103945
DUTCH: P(r|e) = -0.8727952844334766 ==> log prob of sentence so far: -28.710592742064154
PORTUGUESE: P(r|e) = -0.9763725325306456 ==> log prob of sentence so far: -39.51989666885626
SPANISH: P(r|e) = -0.9100010871348838 ==> log prob of sentence so far: -41.165593207030945

2GRAM: rn
ENGLISH: P(n|r) = -1.5648338728126305 ==> log prob of sentence so far: -35.43858173045519
FRENCH: P(n|r) = -1.7981563586651523 ==> log prob of sentence so far: -33.5195508227691
DUTCH: P(n|r) = -1.6296257966233323 ==> log prob of sentence so far: -30.340218538687488
PORTUGUESE: P(n|r) = -1.7856995260157706 ==> log prob of sentence so far: -41.30559619487203
SPANISH: P(n|r) = -1.866503002471736 ==> log prob of sentence so far: -43.03209620950268

2GRAM: ni
ENGLISH: P(i|n) = -1.3332473151699546 ==> log prob of sentence so far: -36.77182904562515
FRENCH: P(i|n) = -1.4845337532041178 ==> log prob of sentence so far: -35.004084575973216
DUTCH: P(i|n) = -1.2580221000798222 ==> log prob of sentence so far: -31.598240638767308
PORTUGUESE: P(i|n) = -1.526016021340753 ==> log prob of sentence so far: -42.83161221621278
SPANISH: P(i|n) = -1.4039272694368718 ==> log prob of sentence so far: -44.43602347893955

2GRAM: ie
ENGLISH: P(e|i) = -1.510686361683256 ==> log prob of sentence so far: -38.2825154073084
FRENCH: P(e|i) = -0.9021992667515383 ==> log prob of sentence so far: -35.906283842724754
DUTCH: P(e|i) = -0.7080358296433861 ==> log prob of sentence so far: -32.306276468410694
PORTUGUESE: P(e|i) = -1.8483230138575444 ==> log prob of sentence so far: -44.67993523007033
SPANISH: P(e|i) = -0.8668372000562372 ==> log prob of sentence so far: -45.30286067899579

2GRAM: eu
ENGLISH: P(u|e) = -2.365866032419671 ==> log prob of sentence so far: -40.64838143972807
FRENCH: P(u|e) = -1.2864744458227482 ==> log prob of sentence so far: -37.1927582885475
DUTCH: P(u|e) = -2.0247841006137812 ==> log prob of sentence so far: -34.33106056902447
PORTUGUESE: P(u|e) = -1.3185959108041467 ==> log prob of sentence so far: -45.998531140874476
SPANISH: P(u|e) = -2.0332565583792435 ==> log prob of sentence so far: -47.336117237375035

2GRAM: uw
ENGLISH: P(w|u) = -2.2816987538152858 ==> log prob of sentence so far: -42.930080193543354
FRENCH: P(w|u) = -4.6344671936057384 ==> log prob of sentence so far: -41.82722548215324
DUTCH: P(w|u) = -1.0760278232885094 ==> log prob of sentence so far: -35.407088392312986
PORTUGUESE: P(w|u) = -3.733879077703767 ==> log prob of sentence so far: -49.732410218578245
SPANISH: P(w|u) = -4.196452541703389 ==> log prob of sentence so far: -51.53256977907842

2GRAM: wa
ENGLISH: P(a|w) = -0.7202718700852793 ==> log prob of sentence so far: -43.65035206362863
FRENCH: P(a|w) = -0.49335845359034797 ==> log prob of sentence so far: -42.320583935743585
DUTCH: P(a|w) = -0.3908611860899997 ==> log prob of sentence so far: -35.797949578402985
PORTUGUESE: P(a|w) = -0.10506176502760228 ==> log prob of sentence so far: -49.837471983605845
SPANISH: P(a|w) = -1.4313637641589874 ==> log prob of sentence so far: -52.96393354323741

2GRAM: am
ENGLISH: P(m|a) = -1.5540315001471992 ==> log prob of sentence so far: -45.20438356377583
FRENCH: P(m|a) = -1.4546431284192656 ==> log prob of sentence so far: -43.77522706416285
DUTCH: P(m|a) = -1.5343585629637677 ==> log prob of sentence so far: -37.33230814136675
PORTUGUESE: P(m|a) = -1.156469854044614 ==> log prob of sentence so far: -50.99394183765046
SPANISH: P(m|a) = -1.217655461684799 ==> log prob of sentence so far: -54.18158900492221

2GRAM: ms
ENGLISH: P(s|m) = -1.4200856496732945 ==> log prob of sentence so far: -46.624469213449125
FRENCH: P(s|m) = -2.8968118972793353 ==> log prob of sentence so far: -46.67203896144218
DUTCH: P(s|m) = -1.7356694650540754 ==> log prob of sentence so far: -39.067977606420826
PORTUGUESE: P(s|m) = -1.549642519537176 ==> log prob of sentence so far: -52.54358435718763
SPANISH: P(s|m) = -2.59035876921182 ==> log prob of sentence so far: -56.77194777413403

2GRAM: st
ENGLISH: P(t|s) = -0.7037615120539172 ==> log prob of sentence so far: -47.32823072550304
FRENCH: P(t|s) = -1.2373622552360959 ==> log prob of sentence so far: -47.909401216678276
DUTCH: P(t|s) = -0.5221579764109424 ==> log prob of sentence so far: -39.59013558283177
PORTUGUESE: P(t|s) = -0.9398798346196431 ==> log prob of sentence so far: -53.48346419180728
SPANISH: P(t|s) = -0.8816479453399603 ==> log prob of sentence so far: -57.65359571947399

2GRAM: te
ENGLISH: P(e|t) = -1.0589450625962922 ==> log prob of sentence so far: -48.387175788099334
FRENCH: P(e|t) = -0.6742352563335733 ==> log prob of sentence so far: -48.58363647301185
DUTCH: P(e|t) = -0.5040144558104783 ==> log prob of sentence so far: -40.09415003864225
PORTUGUESE: P(e|t) = -0.576033742056142 ==> log prob of sentence so far: -54.05949793386342
SPANISH: P(e|t) = -0.611269706041103 ==> log prob of sentence so far: -58.2648654255151

2GRAM: er
ENGLISH: P(r|e) = -0.8561972787159292 ==> log prob of sentence so far: -49.243373066815266
FRENCH: P(r|e) = -1.050493728299846 ==> log prob of sentence so far: -49.6341302013117
DUTCH: P(r|e) = -0.8727952844334766 ==> log prob of sentence so far: -40.96694532307573
PORTUGUESE: P(r|e) = -0.9763725325306456 ==> log prob of sentence so far: -55.035870466394066
SPANISH: P(r|e) = -0.9100010871348838 ==> log prob of sentence so far: -59.174866512649984

2GRAM: rd
ENGLISH: P(d|r) = -1.3854368358020803 ==> log prob of sentence so far: -50.62880990261735
FRENCH: P(d|r) = -1.313628196671559 ==> log prob of sentence so far: -50.94775839798326
DUTCH: P(d|r) = -0.8394419605922714 ==> log prob of sentence so far: -41.806387283668
PORTUGUESE: P(d|r) = -1.4233998736128668 ==> log prob of sentence so far: -56.45927034000693
SPANISH: P(d|r) = -1.3179283654236262 ==> log prob of sentence so far: -60.49279487807361

2GRAM: da
ENGLISH: P(a|d) = -1.0001192297830146 ==> log prob of sentence so far: -51.628929132400366
FRENCH: P(a|d) = -0.9716297888879031 ==> log prob of sentence so far: -51.91938818687116
DUTCH: P(a|d) = -0.9676718932541984 ==> log prob of sentence so far: -42.7740591769222
PORTUGUESE: P(a|d) = -0.6385141741629349 ==> log prob of sentence so far: -57.09778451416987
SPANISH: P(a|d) = -0.8886174909752569 ==> log prob of sentence so far: -61.38141236904887

2GRAM: am
ENGLISH: P(m|a) = -1.5540315001471992 ==> log prob of sentence so far: -53.18296063254756
FRENCH: P(m|a) = -1.4546431284192656 ==> log prob of sentence so far: -53.37403131529042
DUTCH: P(m|a) = -1.5343585629637677 ==> log prob of sentence so far: -44.30841773988597
PORTUGUESE: P(m|a) = -1.156469854044614 ==> log prob of sentence so far: -58.25425436821448
SPANISH: P(m|a) = -1.217655461684799 ==> log prob of sentence so far: -62.59906783073367

2GRAM: mh
ENGLISH: P(h|m) = -1.9285163390051363 ==> log prob of sentence so far: -55.1114769715527
FRENCH: P(h|m) = -3.4830776214240657 ==> log prob of sentence so far: -56.85710893671449
DUTCH: P(h|m) = -1.7191901906595801 ==> log prob of sentence so far: -46.02760793054555
PORTUGUESE: P(h|m) = -2.499606230997226 ==> log prob of sentence so far: -60.753860599211706
SPANISH: P(h|m) = -3.222381983917226 ==> log prob of sentence so far: -65.82144981465089

2GRAM: he
ENGLISH: P(e|h) = -0.37010948259900806 ==> log prob of sentence so far: -55.4815864541517
FRENCH: P(e|h) = -0.45896620044521513 ==> log prob of sentence so far: -57.31607513715971
DUTCH: P(e|h) = -0.4405175612075963 ==> log prob of sentence so far: -46.46812549175315
PORTUGUESE: P(e|h) = -0.5768677886967403 ==> log prob of sentence so far: -61.330728387908444
SPANISH: P(e|h) = -0.8499297785677 ==> log prob of sentence so far: -66.67137959321859

2GRAM: ee
ENGLISH: P(e|e) = -1.3180747861147537 ==> log prob of sentence so far: -56.79966124026646
FRENCH: P(e|e) = -1.5122274767900392 ==> log prob of sentence so far: -58.828302613949745
DUTCH: P(e|e) = -1.0246626366270009 ==> log prob of sentence so far: -47.49278812838015
PORTUGUESE: P(e|e) = -1.3895270814263487 ==> log prob of sentence so far: -62.720255469334795
SPANISH: P(e|e) = -1.4721882415790724 ==> log prob of sentence so far: -68.14356783479766

2GRAM: et
ENGLISH: P(t|e) = -1.180595696581799 ==> log prob of sentence so far: -57.98025693684826
FRENCH: P(t|e) = -1.081755762820215 ==> log prob of sentence so far: -59.91005837676996
DUTCH: P(t|e) = -1.1837836199830594 ==> log prob of sentence so far: -48.67657174836321
PORTUGUESE: P(t|e) = -1.5516515176662755 ==> log prob of sentence so far: -64.27190698700107
SPANISH: P(t|e) = -1.594197493340078 ==> log prob of sentence so far: -69.73776532813774

2GRAM: tt
ENGLISH: P(t|t) = -1.2609009822691009 ==> log prob of sentence so far: -59.241157919117356
FRENCH: P(t|t) = -1.3533254172514313 ==> log prob of sentence so far: -61.263383794021394
DUTCH: P(t|t) = -1.3899234563808447 ==> log prob of sentence so far: -50.06649520474405
PORTUGUESE: P(t|t) = -2.036188210918562 ==> log prob of sentence so far: -66.30809519791964
SPANISH: P(t|t) = -3.5589484459780394 ==> log prob of sentence so far: -73.29671377411577

2GRAM: te
ENGLISH: P(e|t) = -1.0589450625962922 ==> log prob of sentence so far: -60.30010298171365
FRENCH: P(e|t) = -0.6742352563335733 ==> log prob of sentence so far: -61.93761905035497
DUTCH: P(e|t) = -0.5040144558104783 ==> log prob of sentence so far: -50.57050966055453
PORTUGUESE: P(e|t) = -0.576033742056142 ==> log prob of sentence so far: -66.88412893997578
SPANISH: P(e|t) = -0.611269706041103 ==> log prob of sentence so far: -73.90798348015687

According to the 2gram model, the sentence is in Dutch
----------------
3GRAM MODEL:

3GRAM: wee
ENGLISH: P(e|we) = -1.0791812460476249 ==> log prob of sentence so far: -1.0791812460476249
FRENCH: P(e|we) = -1.5440680443502757 ==> log prob of sentence so far: -1.5440680443502757
DUTCH: P(e|we) = -0.6830538641389653 ==> log prob of sentence so far: -0.6830538641389653
PORTUGUESE: P(e|we) = -1.4313637641589874 ==> log prob of sentence so far: -1.4313637641589874
SPANISH: P(e|we) = -1.4313637641589874 ==> log prob of sentence so far: -1.4313637641589874

3GRAM: eet
ENGLISH: P(t|ee) = -1.0348689963611306 ==> log prob of sentence so far: -2.1140502424087555
FRENCH: P(t|ee) = -0.5125497821602004 ==> log prob of sentence so far: -2.056617826510476
DUTCH: P(t|ee) = -1.6581633594571874 ==> log prob of sentence so far: -2.3412172235961526
PORTUGUESE: P(t|ee) = -1.7737864449811935 ==> log prob of sentence so far: -3.205150209140181
SPANISH: P(t|ee) = -2.7267272090265724 ==> log prob of sentence so far: -4.15809097318556

3GRAM: etj
ENGLISH: P(j|et) = -3.3935752032695876 ==> log prob of sentence so far: -5.507625445678343
FRENCH: P(j|et) = -1.5319699227270074 ==> log prob of sentence so far: -3.5885877492374836
DUTCH: P(j|et) = -1.8248693298942473 ==> log prob of sentence so far: -4.1660865534904
PORTUGUESE: P(j|et) = -2.9222062774390163 ==> log prob of sentence so far: -6.127356486579197
SPANISH: P(j|et) = -3.0842186867392387 ==> log prob of sentence so far: -7.242309659924799

3GRAM: tje
ENGLISH: P(e|tj) = -0.9488474775526187 ==> log prob of sentence so far: -6.456472923230962
FRENCH: P(e|tj) = -0.1673666891981301 ==> log prob of sentence so far: -3.7559544384356136
DUTCH: P(e|tj) = -0.13711901119230469 ==> log prob of sentence so far: -4.303205564682705
PORTUGUESE: P(e|tj) = -1.462397997898956 ==> log prob of sentence so far: -7.589754484478153
SPANISH: P(e|tj) = -1.4313637641589874 ==> log prob of sentence so far: -8.673673424083786

3GRAM: jed
ENGLISH: P(d|je) = -2.428134794028789 ==> log prob of sentence so far: -8.884607717259751
FRENCH: P(d|je) = -1.367021241494586 ==> log prob of sentence so far: -5.1229756799301995
DUTCH: P(d|je) = -1.0139145145350332 ==> log prob of sentence so far: -5.317120079217738
PORTUGUESE: P(d|je) = -1.6532125137753437 ==> log prob of sentence so far: -9.242966998253497
SPANISH: P(d|je) = -1.4502491083193612 ==> log prob of sentence so far: -10.123922532403148

3GRAM: eda
ENGLISH: P(a|ed) = -0.8723279557651197 ==> log prob of sentence so far: -9.75693567302487
FRENCH: P(a|ed) = -1.1196167769722576 ==> log prob of sentence so far: -6.242592456902457
DUTCH: P(a|ed) = -0.8369220741170802 ==> log prob of sentence so far: -6.154042153334818
PORTUGUESE: P(a|ed) = -0.8454693905985784 ==> log prob of sentence so far: -10.088436388852076
SPANISH: P(a|ed) = -0.8986273234363297 ==> log prob of sentence so far: -11.022549855839477

3GRAM: dat
ENGLISH: P(t|da) = -1.086936710744387 ==> log prob of sentence so far: -10.843872383769257
FRENCH: P(t|da) = -1.6871290158553918 ==> log prob of sentence so far: -7.9297214727578496
DUTCH: P(t|da) = -0.33373339811491837 ==> log prob of sentence so far: -6.487775551449737
PORTUGUESE: P(t|da) = -1.635986111800833 ==> log prob of sentence so far: -11.724422500652908
SPANISH: P(t|da) = -1.887054378050957 ==> log prob of sentence so far: -12.909604233890434

3GRAM: atn
ENGLISH: P(n|at) = -1.9526310252827455 ==> log prob of sentence so far: -12.796503409052002
FRENCH: P(n|at) = -2.9163223242173815 ==> log prob of sentence so far: -10.84604379697523
DUTCH: P(n|at) = -1.7116238663693082 ==> log prob of sentence so far: -8.199399417819045
PORTUGUESE: P(n|at) = -2.975431808509263 ==> log prob of sentence so far: -14.699854309162172
SPANISH: P(n|at) = -3.109240968588203 ==> log prob of sentence so far: -16.018845202478637

3GRAM: tne
ENGLISH: P(e|tn) = -0.6856288517632007 ==> log prob of sentence so far: -13.482132260815202
FRENCH: P(e|tn) = -0.40187030230047 ==> log prob of sentence so far: -11.2479140992757
DUTCH: P(e|tn) = -1.3424226808222062 ==> log prob of sentence so far: -9.541822098641251
PORTUGUESE: P(e|tn) = -1.4313637641589874 ==> log prob of sentence so far: -16.131218073321158
SPANISH: P(e|tn) = -1.462397997898956 ==> log prob of sentence so far: -17.481243200377595

3GRAM: new
ENGLISH: P(w|ne) = -1.2415183768836469 ==> log prob of sentence so far: -14.72365063769885
FRENCH: P(w|ne) = -2.6148013770209606 ==> log prob of sentence so far: -13.86271547629666
DUTCH: P(w|ne) = -2.4960485982497227 ==> log prob of sentence so far: -12.037870696890973
PORTUGUESE: P(w|ne) = -2.8305886686851442 ==> log prob of sentence so far: -18.961806742006303
SPANISH: P(w|ne) = -3.345765693114488 ==> log prob of sentence so far: -20.82700889349208

3GRAM: ewy
ENGLISH: P(y|ew) = -2.375824931791714 ==> log prob of sentence so far: -17.099475569490565
FRENCH: P(y|ew) = -0.5959858436157692 ==> log prob of sentence so far: -14.45870131991243
DUTCH: P(y|ew) = -2.829303772831025 ==> log prob of sentence so far: -14.867174469721999
PORTUGUESE: P(y|ew) = -1.4313637641589874 ==> log prob of sentence so far: -20.39317050616529
SPANISH: P(y|ew) = -1.4313637641589874 ==> log prob of sentence so far: -22.25837265765107

3GRAM: wyo
ENGLISH: P(o|wy) = -0.49291552190289434 ==> log prob of sentence so far: -17.59239109139346
FRENCH: P(o|wy) = -0.3781959504762804 ==> log prob of sentence so far: -14.836897270388711
DUTCH: P(o|wy) = -1.130333768495006 ==> log prob of sentence so far: -15.997508238217005
PORTUGUESE: P(o|wy) = -1.4313637641589874 ==> log prob of sentence so far: -21.82453427032428
SPANISH: P(o|wy) = -1.4313637641589874 ==> log prob of sentence so far: -23.689736421810057

3GRAM: yor
ENGLISH: P(r|yo) = -1.535452361794167 ==> log prob of sentence so far: -19.127843453187626
FRENCH: P(r|yo) = -0.8939466075520739 ==> log prob of sentence so far: -15.730843877940785
DUTCH: P(r|yo) = -1.2041199826559248 ==> log prob of sentence so far: -17.20162822087293
PORTUGUESE: P(r|yo) = -1.4313637641589874 ==> log prob of sentence so far: -23.255898034483266
SPANISH: P(r|yo) = -1.0807867727630434 ==> log prob of sentence so far: -24.7705231945731

3GRAM: ork
ENGLISH: P(k|or) = -1.6538775896815883 ==> log prob of sentence so far: -20.781721042869215
FRENCH: P(k|or) = -2.264444984684818 ==> log prob of sentence so far: -17.995288862625603
DUTCH: P(k|or) = -1.9132249784197266 ==> log prob of sentence so far: -19.114853199292657
PORTUGUESE: P(k|or) = -3.4274861090957853 ==> log prob of sentence so far: -26.68338414357905
SPANISH: P(k|or) = -3.6032526619816467 ==> log prob of sentence so far: -28.373775856554747

3GRAM: rkv
ENGLISH: P(v|rk) = -2.234896745731588 ==> log prob of sentence so far: -23.016617788600804
FRENCH: P(v|rk) = -1.3222192947339193 ==> log prob of sentence so far: -19.317508157359523
DUTCH: P(v|rk) = -1.4515671502472742 ==> log prob of sentence so far: -20.566420349539932
PORTUGUESE: P(v|rk) = -1.4313637641589874 ==> log prob of sentence so far: -28.11474790773804
SPANISH: P(v|rk) = -1.4313637641589874 ==> log prob of sentence so far: -29.805139620713735

3GRAM: kvr
ENGLISH: P(r|kv) = -1.5563025007672873 ==> log prob of sentence so far: -24.572920289368092
FRENCH: P(r|kv) = -1.4313637641589874 ==> log prob of sentence so far: -20.74887192151851
DUTCH: P(r|kv) = -1.3617278360175928 ==> log prob of sentence so far: -21.928148185557525
PORTUGUESE: P(r|kv) = -1.4313637641589874 ==> log prob of sentence so far: -29.546111671897027
SPANISH: P(r|kv) = -1.4313637641589874 ==> log prob of sentence so far: -31.236503384872723

3GRAM: vro
ENGLISH: P(o|vr) = -1.4771212547196624 ==> log prob of sentence so far: -26.050041544087755
FRENCH: P(o|vr) = -2.0187004986662433 ==> log prob of sentence so far: -22.767572420184756
DUTCH: P(o|vr) = -0.5792917568338875 ==> log prob of sentence so far: -22.50743994239141
PORTUGUESE: P(o|vr) = -0.6471383660631504 ==> log prob of sentence so far: -30.193250037960176
SPANISH: P(o|vr) = -1.4313637641589874 ==> log prob of sentence so far: -32.66786714903171

3GRAM: roe
ENGLISH: P(e|ro) = -2.7892672552891047 ==> log prob of sentence so far: -28.83930879937686
FRENCH: P(e|ro) = -2.311753861055754 ==> log prob of sentence so far: -25.07932628124051
DUTCH: P(e|ro) = -0.6914662473510867 ==> log prob of sentence so far: -23.198906189742498
PORTUGUESE: P(e|ro) = -1.2415221850813452 ==> log prob of sentence so far: -31.43477222304152
SPANISH: P(e|ro) = -1.3610226978826507 ==> log prob of sentence so far: -34.02888984691436

3GRAM: oeg
ENGLISH: P(g|oe) = -2.4321672694425884 ==> log prob of sentence so far: -31.271476068819446
FRENCH: P(g|oe) = -2.462397997898956 ==> log prob of sentence so far: -27.54172427913947
DUTCH: P(g|oe) = -1.0130888802138236 ==> log prob of sentence so far: -24.211995069956323
PORTUGUESE: P(g|oe) = -2.18089014193745 ==> log prob of sentence so far: -33.615662364978974
SPANISH: P(g|oe) = -3.2362852774480286 ==> log prob of sentence so far: -37.265175124362386

3GRAM: ege
ENGLISH: P(e|eg) = -1.1714041387773206 ==> log prob of sentence so far: -32.442880207596765
FRENCH: P(e|eg) = -0.8450980400142568 ==> log prob of sentence so far: -28.386822319153726
DUTCH: P(e|eg) = -0.3361349569831591 ==> log prob of sentence so far: -24.548130026939482
PORTUGUESE: P(e|eg) = -1.3205616801952367 ==> log prob of sentence so far: -34.936224045174214
SPANISH: P(e|eg) = -1.6050894618815805 ==> log prob of sentence so far: -38.87026458624397

3GRAM: ger
ENGLISH: P(r|ge) = -0.8192129604348526 ==> log prob of sentence so far: -33.26209316803162
FRENCH: P(r|ge) = -0.8921764755311231 ==> log prob of sentence so far: -29.27899879468485
DUTCH: P(r|ge) = -1.3331905937134727 ==> log prob of sentence so far: -25.881320620652954
PORTUGUESE: P(r|ge) = -1.2078056722328878 ==> log prob of sentence so far: -36.1440297174071
SPANISH: P(r|ge) = -0.5972074885335503 ==> log prob of sentence so far: -39.46747207477752

3GRAM: ern
ENGLISH: P(n|er) = -1.479494063966022 ==> log prob of sentence so far: -34.74158723199764
FRENCH: P(n|er) = -1.5996217814633082 ==> log prob of sentence so far: -30.87862057614816
DUTCH: P(n|er) = -1.472708143385134 ==> log prob of sentence so far: -27.354028764038087
PORTUGUESE: P(n|er) = -1.547412702797968 ==> log prob of sentence so far: -37.69144242020507
SPANISH: P(n|er) = -1.6448277525116872 ==> log prob of sentence so far: -41.112299827289206

3GRAM: rni
ENGLISH: P(i|rn) = -0.6297314179258208 ==> log prob of sentence so far: -35.37131864992346
FRENCH: P(i|rn) = -0.6145457028760222 ==> log prob of sentence so far: -31.49316627902418
DUTCH: P(i|rn) = -0.585026652029182 ==> log prob of sentence so far: -27.93905541606727
PORTUGUESE: P(i|rn) = -1.4539974558725246 ==> log prob of sentence so far: -39.145439876077596
SPANISH: P(i|rn) = -1.151267675330649 ==> log prob of sentence so far: -42.26356750261986

3GRAM: nie
ENGLISH: P(e|ni) = -1.7300898049134041 ==> log prob of sentence so far: -37.101408454836864
FRENCH: P(e|ni) = -0.7035176320867395 ==> log prob of sentence so far: -32.19668391111092
DUTCH: P(e|ni) = -0.38032247093027094 ==> log prob of sentence so far: -28.31937788699754
PORTUGUESE: P(e|ni) = -1.496426409915049 ==> log prob of sentence so far: -40.64186628599265
SPANISH: P(e|ni) = -1.1301192491120802 ==> log prob of sentence so far: -43.393686751731934

3GRAM: ieu
ENGLISH: P(u|ie) = -1.9884740176094413 ==> log prob of sentence so far: -39.089882472446305
FRENCH: P(u|ie) = -0.6884637339332751 ==> log prob of sentence so far: -32.88514764504419
DUTCH: P(u|ie) = -1.5175926529776607 ==> log prob of sentence so far: -29.8369705399752
PORTUGUESE: P(u|ie) = -1.3117538610557542 ==> log prob of sentence so far: -41.953620147048404
SPANISH: P(u|ie) = -2.871280972857973 ==> log prob of sentence so far: -46.26496772458991

3GRAM: euw
ENGLISH: P(w|eu) = -2.41077723337721 ==> log prob of sentence so far: -41.500659705823516
FRENCH: P(w|eu) = -3.7844033017530085 ==> log prob of sentence so far: -36.6695509467972
DUTCH: P(w|eu) = -0.6585413472804106 ==> log prob of sentence so far: -30.495511887255613
PORTUGUESE: P(w|eu) = -2.826722520168992 ==> log prob of sentence so far: -44.7803426672174
SPANISH: P(w|eu) = -2.660865478003869 ==> log prob of sentence so far: -48.92583320259378

3GRAM: uwa
ENGLISH: P(a|uw) = -0.9164539485499251 ==> log prob of sentence so far: -42.41711365437344
FRENCH: P(a|uw) = -1.4313637641589874 ==> log prob of sentence so far: -38.10091471095619
DUTCH: P(a|uw) = -1.5010592622177514 ==> log prob of sentence so far: -31.996571149473365
PORTUGUESE: P(a|uw) = -1.130333768495006 ==> log prob of sentence so far: -45.9106764357124
SPANISH: P(a|uw) = -1.4313637641589874 ==> log prob of sentence so far: -50.35719696675277

3GRAM: wam
ENGLISH: P(m|wa) = -1.9746651808046278 ==> log prob of sentence so far: -44.391778835178066
FRENCH: P(m|wa) = -1.7781512503836436 ==> log prob of sentence so far: -39.87906596133983
DUTCH: P(m|wa) = -1.106378253181916 ==> log prob of sentence so far: -33.102949402655284
PORTUGUESE: P(m|wa) = -2.0791812460476247 ==> log prob of sentence so far: -47.98985768176003
SPANISH: P(m|wa) = -1.4313637641589874 ==> log prob of sentence so far: -51.788560730911755

3GRAM: ams
ENGLISH: P(s|am) = -1.4556461415677382 ==> log prob of sentence so far: -45.847424976745806
FRENCH: P(s|am) = -2.536347977589508 ==> log prob of sentence so far: -42.41541393892934
DUTCH: P(s|am) = -1.3077336819584877 ==> log prob of sentence so far: -34.41068308461377
PORTUGUESE: P(s|am) = -1.5893027608702126 ==> log prob of sentence so far: -49.57916044263024
SPANISH: P(s|am) = -3.1316186643491255 ==> log prob of sentence so far: -54.92017939526088

3GRAM: mst
ENGLISH: P(t|ms) = -0.7161021704600984 ==> log prob of sentence so far: -46.5635271472059
FRENCH: P(t|ms) = -1.7160033436347992 ==> log prob of sentence so far: -44.131417282564136
DUTCH: P(t|ms) = -0.16547228304538722 ==> log prob of sentence so far: -34.57615536765916
PORTUGUESE: P(t|ms) = -1.3397825846559979 ==> log prob of sentence so far: -50.91894302728624
SPANISH: P(t|ms) = -1.423245873936808 ==> log prob of sentence so far: -56.34342526919769

3GRAM: ste
ENGLISH: P(e|st) = -1.0421888255863199 ==> log prob of sentence so far: -47.605715972792225
FRENCH: P(e|st) = -0.6320774981230005 ==> log prob of sentence so far: -44.76349478068714
DUTCH: P(e|st) = -0.4151645688509469 ==> log prob of sentence so far: -34.99131993651011
PORTUGUESE: P(e|st) = -0.5857454941124369 ==> log prob of sentence so far: -51.50468852139868
SPANISH: P(e|st) = -0.7173909089433606 ==> log prob of sentence so far: -57.060816178141046

3GRAM: ter
ENGLISH: P(r|te) = -0.4565202341728689 ==> log prob of sentence so far: -48.062236206965096
FRENCH: P(r|te) = -0.8802237155409582 ==> log prob of sentence so far: -45.6437184962281
DUTCH: P(r|te) = -0.784577743526127 ==> log prob of sentence so far: -35.77589768003624
PORTUGUESE: P(r|te) = -0.8518768723600338 ==> log prob of sentence so far: -52.356565393758714
SPANISH: P(r|te) = -0.9654658880644972 ==> log prob of sentence so far: -58.026282066205546

3GRAM: erd
ENGLISH: P(d|er) = -1.8267595848915605 ==> log prob of sentence so far: -49.88899579185666
FRENCH: P(d|er) = -1.339900638415664 ==> log prob of sentence so far: -46.98361913464376
DUTCH: P(d|er) = -0.8023062617026122 ==> log prob of sentence so far: -36.57820394173885
PORTUGUESE: P(d|er) = -1.212013805502724 ==> log prob of sentence so far: -53.568579199261436
SPANISH: P(d|er) = -1.3421176987296846 ==> log prob of sentence so far: -59.36839976493523

3GRAM: rda
ENGLISH: P(a|rd) = -1.0014949910869513 ==> log prob of sentence so far: -50.89049078294361
FRENCH: P(a|rd) = -0.861241636613129 ==> log prob of sentence so far: -47.84486077125689
DUTCH: P(a|rd) = -1.2456744463527698 ==> log prob of sentence so far: -37.82387838809162
PORTUGUESE: P(a|rd) = -0.6889503438372563 ==> log prob of sentence so far: -54.25752954309869
SPANISH: P(a|rd) = -0.8746801361343278 ==> log prob of sentence so far: -60.243079901069564

3GRAM: dam
ENGLISH: P(m|da) = -1.4278946533083197 ==> log prob of sentence so far: -52.31838543625193
FRENCH: P(m|da) = -1.9320430695404416 ==> log prob of sentence so far: -49.77690384079733
DUTCH: P(m|da) = -1.9954784944400126 ==> log prob of sentence so far: -39.819356882531636
PORTUGUESE: P(m|da) = -1.050959459771651 ==> log prob of sentence so far: -55.308489002870346
SPANISH: P(m|da) = -1.1998227769861822 ==> log prob of sentence so far: -61.442902678055745

3GRAM: amh
ENGLISH: P(h|am) = -2.1903316981702914 ==> log prob of sentence so far: -54.50871713442222
FRENCH: P(h|am) = -3.3144992279731516 ==> log prob of sentence so far: -53.09140306877048
DUTCH: P(h|am) = -1.134871393033005 ==> log prob of sentence so far: -40.95422827556464
PORTUGUESE: P(h|am) = -3.044147620878723 ==> log prob of sentence so far: -58.35263662374907
SPANISH: P(h|am) = -3.4326486600131068 ==> log prob of sentence so far: -64.87555133806885

3GRAM: mhe
ENGLISH: P(e|mh) = -0.5696664623252687 ==> log prob of sentence so far: -55.078383596747486
FRENCH: P(e|mh) = -1.505149978319906 ==> log prob of sentence so far: -54.59655304709039
DUTCH: P(e|mh) = -0.24919835739111287 ==> log prob of sentence so far: -41.203426632955754
PORTUGUESE: P(e|mh) = -1.469822015978163 ==> log prob of sentence so far: -59.82245863972723
SPANISH: P(e|mh) = -1.505149978319906 ==> log prob of sentence so far: -66.38070131638875

3GRAM: hee
ENGLISH: P(e|he) = -1.561904133529455 ==> log prob of sentence so far: -56.64028773027694
FRENCH: P(e|he) = -1.3702685820741791 ==> log prob of sentence so far: -55.96682162916457
DUTCH: P(e|he) = -0.9286987025278307 ==> log prob of sentence so far: -42.132125335483586
PORTUGUESE: P(e|he) = -1.3717780741747432 ==> log prob of sentence so far: -61.19423671390197
SPANISH: P(e|he) = -1.6354837468149122 ==> log prob of sentence so far: -68.01618506320366

3GRAM: eet
ENGLISH: P(t|ee) = -1.0348689963611306 ==> log prob of sentence so far: -57.67515672663807
FRENCH: P(t|ee) = -0.5125497821602004 ==> log prob of sentence so far: -56.47937141132477
DUTCH: P(t|ee) = -1.6581633594571874 ==> log prob of sentence so far: -43.79028869494077
PORTUGUESE: P(t|ee) = -1.7737864449811935 ==> log prob of sentence so far: -62.96802315888316
SPANISH: P(t|ee) = -2.7267272090265724 ==> log prob of sentence so far: -70.74291227223024

3GRAM: ett
ENGLISH: P(t|et) = -1.2505604030154924 ==> log prob of sentence so far: -58.92571712965356
FRENCH: P(t|et) = -0.9780359992162385 ==> log prob of sentence so far: -57.45740741054101
DUTCH: P(t|et) = -1.2274876008440556 ==> log prob of sentence so far: -45.01777629578483
PORTUGUESE: P(t|et) = -1.4598082795400602 ==> log prob of sentence so far: -64.42783143842323
SPANISH: P(t|et) = -2.7831886910752575 ==> log prob of sentence so far: -73.5261009633055

3GRAM: tte
ENGLISH: P(e|tt) = -0.8924038191377927 ==> log prob of sentence so far: -59.81812094879135
FRENCH: P(e|tt) = -0.2283525642173582 ==> log prob of sentence so far: -57.68575997475837
DUTCH: P(e|tt) = -0.15165575013254443 ==> log prob of sentence so far: -45.169432045917375
PORTUGUESE: P(e|tt) = -0.3692948272225076 ==> log prob of sentence so far: -64.79712626564573
SPANISH: P(e|tt) = -1.1613680022349748 ==> log prob of sentence so far: -74.68746896554048

According to the 3gram model, the sentence is in Dutch
----------------
4GRAM MODEL:

4GRAM: weet
ENGLISH: P(t|wee) = -0.8250501200031278 ==> log prob of sentence so far: -0.8250501200031278
FRENCH: P(t|wee) = -1.4313637641589874 ==> log prob of sentence so far: -1.4313637641589874
DUTCH: P(t|wee) = -1.1657975624713919 ==> log prob of sentence so far: -1.1657975624713919
PORTUGUESE: P(t|wee) = -1.4313637641589874 ==> log prob of sentence so far: -1.4313637641589874
SPANISH: P(t|wee) = -1.4313637641589874 ==> log prob of sentence so far: -1.4313637641589874

4GRAM: eetj
ENGLISH: P(j|eet) = -2.7041505168397992 ==> log prob of sentence so far: -3.529200636842927
FRENCH: P(j|eet) = -1.0877505631697721 ==> log prob of sentence so far: -2.5191143273287597
DUTCH: P(j|eet) = -1.1588648570811706 ==> log prob of sentence so far: -2.3246624195525625
PORTUGUESE: P(j|eet) = -1.6532125137753437 ==> log prob of sentence so far: -3.084576277934331
SPANISH: P(j|eet) = -1.4471580313422192 ==> log prob of sentence so far: -2.8785217955012063

4GRAM: etje
ENGLISH: P(e|etj) = -1.4471580313422192 ==> log prob of sentence so far: -4.976358668185147
FRENCH: P(e|etj) = -0.1310325530092446 ==> log prob of sentence so far: -2.650146880338004
DUTCH: P(e|etj) = -0.2218487496163564 ==> log prob of sentence so far: -2.546511169168919
PORTUGUESE: P(e|etj) = -1.4313637641589874 ==> log prob of sentence so far: -4.515940042093318
SPANISH: P(e|etj) = -1.4313637641589874 ==> log prob of sentence so far: -4.309885559660193

4GRAM: tjed
ENGLISH: P(d|tje) = -1.5314789170422551 ==> log prob of sentence so far: -6.507837585227402
FRENCH: P(d|tje) = -1.6059902849563947 ==> log prob of sentence so far: -4.256137165294399
DUTCH: P(d|tje) = -1.0487330483239683 ==> log prob of sentence so far: -3.5952442174928874
PORTUGUESE: P(d|tje) = -1.4313637641589874 ==> log prob of sentence so far: -5.947303806252306
SPANISH: P(d|tje) = -1.4313637641589874 ==> log prob of sentence so far: -5.741249323819181

4GRAM: jeda
ENGLISH: P(a|jed) = -1.4313637641589874 ==> log prob of sentence so far: -7.939201349386389
FRENCH: P(a|jed) = -1.6751670896633941 ==> log prob of sentence so far: -5.9313042549577935
DUTCH: P(a|jed) = -0.27447096714451324 ==> log prob of sentence so far: -3.8697151846374007
PORTUGUESE: P(a|jed) = -1.4313637641589874 ==> log prob of sentence so far: -7.378667570411293
SPANISH: P(a|jed) = -1.5440680443502757 ==> log prob of sentence so far: -7.285317368169457

4GRAM: edat
ENGLISH: P(t|eda) = -1.0384214456424594 ==> log prob of sentence so far: -8.977622795028848
FRENCH: P(t|eda) = -1.6136656732296053 ==> log prob of sentence so far: -7.544969928187399
DUTCH: P(t|eda) = -0.6162289475221737 ==> log prob of sentence so far: -4.485944132159575
PORTUGUESE: P(t|eda) = -1.4936903561528554 ==> log prob of sentence so far: -8.872357926564149
SPANISH: P(t|eda) = -1.6172999578846992 ==> log prob of sentence so far: -8.902617326054155

4GRAM: datn
ENGLISH: P(n|dat) = -2.4871383754771865 ==> log prob of sentence so far: -11.464761170506035
FRENCH: P(n|dat) = -1.919078092376074 ==> log prob of sentence so far: -9.464048020563473
DUTCH: P(n|dat) = -1.6763418117264048 ==> log prob of sentence so far: -6.16228594388598
PORTUGUESE: P(n|dat) = -1.8864907251724818 ==> log prob of sentence so far: -10.758848651736631
SPANISH: P(n|dat) = -1.7403626894942439 ==> log prob of sentence so far: -10.6429800155484

4GRAM: atne
ENGLISH: P(e|atn) = -0.8207955055201758 ==> log prob of sentence so far: -12.28555667602621
FRENCH: P(e|atn) = -0.9852767431792937 ==> log prob of sentence so far: -10.449324763742766
DUTCH: P(e|atn) = -1.2430380486862944 ==> log prob of sentence so far: -7.405323992572274
PORTUGUESE: P(e|atn) = -1.4313637641589874 ==> log prob of sentence so far: -12.190212415895619
SPANISH: P(e|atn) = -1.4313637641589874 ==> log prob of sentence so far: -12.074343779707387

4GRAM: tnew
ENGLISH: P(w|tne) = -1.255272505103306 ==> log prob of sentence so far: -13.540829181129517
FRENCH: P(w|tne) = -2.3891660843645326 ==> log prob of sentence so far: -12.838490848107298
DUTCH: P(w|tne) = -1.6232492903979006 ==> log prob of sentence so far: -9.028573282970175
PORTUGUESE: P(w|tne) = -1.4313637641589874 ==> log prob of sentence so far: -13.621576180054607
SPANISH: P(w|tne) = -1.4313637641589874 ==> log prob of sentence so far: -13.505707543866375

4GRAM: newy
ENGLISH: P(y|new) = -1.6206564798196208 ==> log prob of sentence so far: -15.161485660949138
FRENCH: P(y|new) = -0.4168253528324114 ==> log prob of sentence so far: -13.25531620093971
DUTCH: P(y|new) = -1.255272505103306 ==> log prob of sentence so far: -10.283845788073481
PORTUGUESE: P(y|new) = -1.4313637641589874 ==> log prob of sentence so far: -15.052939944213595
SPANISH: P(y|new) = -1.4313637641589874 ==> log prob of sentence so far: -14.937071308025363

4GRAM: ewyo
ENGLISH: P(o|ewy) = -0.5818566052396754 ==> log prob of sentence so far: -15.743342266188813
FRENCH: P(o|ewy) = -0.3781959504762804 ==> log prob of sentence so far: -13.63351215141599
DUTCH: P(o|ewy) = -1.130333768495006 ==> log prob of sentence so far: -11.414179556568488
PORTUGUESE: P(o|ewy) = -1.4313637641589874 ==> log prob of sentence so far: -16.484303708372583
SPANISH: P(o|ewy) = -1.4313637641589874 ==> log prob of sentence so far: -16.36843507218435

4GRAM: wyor
ENGLISH: P(r|wyo) = -0.8709053036205423 ==> log prob of sentence so far: -16.614247569809354
FRENCH: P(r|wyo) = -0.3781959504762804 ==> log prob of sentence so far: -14.011708101892271
DUTCH: P(r|wyo) = -1.130333768495006 ==> log prob of sentence so far: -12.544513325063495
PORTUGUESE: P(r|wyo) = -1.4313637641589874 ==> log prob of sentence so far: -17.91566747253157
SPANISH: P(r|wyo) = -1.4313637641589874 ==> log prob of sentence so far: -17.79979883634334

4GRAM: york
ENGLISH: P(k|yor) = -1.021189299069938 ==> log prob of sentence so far: -17.635436868879292
FRENCH: P(k|yor) = -0.3781959504762804 ==> log prob of sentence so far: -14.389904052368552
DUTCH: P(k|yor) = -1.130333768495006 ==> log prob of sentence so far: -13.674847093558501
PORTUGUESE: P(k|yor) = -1.4313637641589874 ==> log prob of sentence so far: -19.347031236690558
SPANISH: P(k|yor) = -1.8195439355418686 ==> log prob of sentence so far: -19.619342771885208

4GRAM: orkv
ENGLISH: P(v|ork) = -1.9708116108725178 ==> log prob of sentence so far: -19.60624847975181
FRENCH: P(v|ork) = -1.3117538610557542 ==> log prob of sentence so far: -15.701657913424306
DUTCH: P(v|ork) = -1.4771212547196624 ==> log prob of sentence so far: -15.151968348278164
PORTUGUESE: P(v|ork) = -1.4313637641589874 ==> log prob of sentence so far: -20.778395000849546
SPANISH: P(v|ork) = -1.4313637641589874 ==> log prob of sentence so far: -21.050706536044196

4GRAM: rkvr
ENGLISH: P(r|rkv) = -1.462397997898956 ==> log prob of sentence so far: -21.068646477650766
FRENCH: P(r|rkv) = -1.4313637641589874 ==> log prob of sentence so far: -17.133021677583294
DUTCH: P(r|rkv) = -0.9637878273455552 ==> log prob of sentence so far: -16.11575617562372
PORTUGUESE: P(r|rkv) = -1.4313637641589874 ==> log prob of sentence so far: -22.209758765008534
SPANISH: P(r|rkv) = -1.4313637641589874 ==> log prob of sentence so far: -22.482070300203183

4GRAM: kvro
ENGLISH: P(o|kvr) = -1.4313637641589874 ==> log prob of sentence so far: -22.500010241809754
FRENCH: P(o|kvr) = -1.4313637641589874 ==> log prob of sentence so far: -18.56438544174228
DUTCH: P(o|kvr) = -0.6020599913279624 ==> log prob of sentence so far: -16.717816166951682
PORTUGUESE: P(o|kvr) = -1.4313637641589874 ==> log prob of sentence so far: -23.64112252916752
SPANISH: P(o|kvr) = -1.4313637641589874 ==> log prob of sentence so far: -23.91343406436217

4GRAM: vroe
ENGLISH: P(e|vro) = -1.4313637641589874 ==> log prob of sentence so far: -23.931374005968742
FRENCH: P(e|vro) = -1.4771212547196624 ==> log prob of sentence so far: -20.041506696461944
DUTCH: P(e|vro) = -0.3465588500088449 ==> log prob of sentence so far: -17.064375016960525
PORTUGUESE: P(e|vro) = -0.9700367766225568 ==> log prob of sentence so far: -24.61115930579008
SPANISH: P(e|vro) = -1.4313637641589874 ==> log prob of sentence so far: -25.34479782852116

4GRAM: roeg
ENGLISH: P(g|roe) = -1.5314789170422551 ==> log prob of sentence so far: -25.462852923010995
FRENCH: P(g|roe) = -1.6232492903979006 ==> log prob of sentence so far: -21.664755986859845
DUTCH: P(g|roe) = -0.48965448467489286 ==> log prob of sentence so far: -17.55402950163542
PORTUGUESE: P(g|roe) = -2.0128372247051725 ==> log prob of sentence so far: -26.62399653049525
SPANISH: P(g|roe) = -2.1958996524092336 ==> log prob of sentence so far: -27.540697480930394

4GRAM: oege
ENGLISH: P(e|oeg) = -1.4313637641589874 ==> log prob of sentence so far: -26.894216687169983
FRENCH: P(e|oeg) = -1.4313637641589874 ==> log prob of sentence so far: -23.096119751018833
DUTCH: P(e|oeg) = -0.5433014166456405 ==> log prob of sentence so far: -18.09733091828106
PORTUGUESE: P(e|oeg) = -1.2304489213782739 ==> log prob of sentence so far: -27.854445451873524
SPANISH: P(e|oeg) = -1.4313637641589874 ==> log prob of sentence so far: -28.97206124508938

4GRAM: eger
ENGLISH: P(r|ege) = -0.9700367766225568 ==> log prob of sentence so far: -27.86425346379254
FRENCH: P(r|ege) = -0.4985193994208929 ==> log prob of sentence so far: -23.594639150439725
DUTCH: P(r|ege) = -1.283127197652572 ==> log prob of sentence so far: -19.38045811593363
PORTUGUESE: P(r|ege) = -1.0969100130080565 ==> log prob of sentence so far: -28.95135546488158
SPANISH: P(r|ege) = -1.6989700043360187 ==> log prob of sentence so far: -30.6710312494254

4GRAM: gern
ENGLISH: P(n|ger) = -1.5728716022004803 ==> log prob of sentence so far: -29.43712506599302
FRENCH: P(n|ger) = -1.614294447744974 ==> log prob of sentence so far: -25.2089335981847
DUTCH: P(n|ger) = -1.6271097112111386 ==> log prob of sentence so far: -21.00756782714477
PORTUGUESE: P(n|ger) = -1.6720978579357175 ==> log prob of sentence so far: -30.623453322817298
SPANISH: P(n|ger) = -2.05307844348342 ==> log prob of sentence so far: -32.72410969290882

4GRAM: erni
ENGLISH: P(i|ern) = -0.8366319925529431 ==> log prob of sentence so far: -30.27375705854596
FRENCH: P(i|ern) = -0.419894584560088 ==> log prob of sentence so far: -25.628828182744787
DUTCH: P(i|ern) = -0.5972074885335503 ==> log prob of sentence so far: -21.604775315678317
PORTUGUESE: P(i|ern) = -1.3424226808222062 ==> log prob of sentence so far: -31.965876003639504
SPANISH: P(i|ern) = -1.0114294617807817 ==> log prob of sentence so far: -33.7355391546896

4GRAM: rnie
ENGLISH: P(e|rni) = -2.2405492482826 ==> log prob of sentence so far: -32.51430630682856
FRENCH: P(e|rni) = -0.28237008337054464 ==> log prob of sentence so far: -25.91119826611533
DUTCH: P(e|rni) = -0.2209879079432203 ==> log prob of sentence so far: -21.82576322362154
PORTUGUESE: P(e|rni) = -1.2304489213782739 ==> log prob of sentence so far: -33.19632492501778
SPANISH: P(e|rni) = -1.6901960800285136 ==> log prob of sentence so far: -35.42573523471811

4GRAM: nieu
ENGLISH: P(u|nie) = -1.9084850188786497 ==> log prob of sentence so far: -34.42279132570721
FRENCH: P(u|nie) = -1.0963105726342095 ==> log prob of sentence so far: -27.00750883874954
DUTCH: P(u|nie) = -0.9190780923760739 ==> log prob of sentence so far: -22.744841315997615
PORTUGUESE: P(u|nie) = -1.5563025007672873 ==> log prob of sentence so far: -34.752627425785064
SPANISH: P(u|nie) = -2.0 ==> log prob of sentence so far: -37.42573523471811

4GRAM: ieuw
ENGLISH: P(w|ieu) = -1.662757831681574 ==> log prob of sentence so far: -36.08554915738878
FRENCH: P(w|ieu) = -3.1202447955463652 ==> log prob of sentence so far: -30.127753634295907
DUTCH: P(w|ieu) = -0.14716950975505255 ==> log prob of sentence so far: -22.892010825752667
PORTUGUESE: P(w|ieu) = -1.5185139398778875 ==> log prob of sentence so far: -36.27114136566295
SPANISH: P(w|ieu) = -1.462397997898956 ==> log prob of sentence so far: -38.888133232617065

4GRAM: euwa
ENGLISH: P(a|euw) = -1.4313637641589874 ==> log prob of sentence so far: -37.51691292154777
FRENCH: P(a|euw) = -1.4313637641589874 ==> log prob of sentence so far: -31.559117398454894
DUTCH: P(a|euw) = -1.481920137601431 ==> log prob of sentence so far: -24.3739309633541
PORTUGUESE: P(a|euw) = -1.130333768495006 ==> log prob of sentence so far: -37.401475134157955
SPANISH: P(a|euw) = -1.4313637641589874 ==> log prob of sentence so far: -40.31949699677605

4GRAM: uwam
ENGLISH: P(m|uwa) = -1.6532125137753437 ==> log prob of sentence so far: -39.170125435323115
FRENCH: P(m|uwa) = -1.4313637641589874 ==> log prob of sentence so far: -32.99048116261388
DUTCH: P(m|uwa) = -1.6532125137753437 ==> log prob of sentence so far: -26.027143477129442
PORTUGUESE: P(m|uwa) = -1.4313637641589874 ==> log prob of sentence so far: -38.83283889831694
SPANISH: P(m|uwa) = -1.4313637641589874 ==> log prob of sentence so far: -41.75086076093504

4GRAM: wams
ENGLISH: P(s|wam) = -1.1205739312058498 ==> log prob of sentence so far: -40.29069936652896
FRENCH: P(s|wam) = -1.4313637641589874 ==> log prob of sentence so far: -34.42184492677287
DUTCH: P(s|wam) = -1.9311187105921872 ==> log prob of sentence so far: -27.95826218772163
PORTUGUESE: P(s|wam) = -1.4313637641589874 ==> log prob of sentence so far: -40.26420266247593
SPANISH: P(s|wam) = -1.4313637641589874 ==> log prob of sentence so far: -43.18222452509403

4GRAM: amst
ENGLISH: P(t|ams) = -0.8495071589193119 ==> log prob of sentence so far: -41.14020652544827
FRENCH: P(t|ams) = -1.4913616938342726 ==> log prob of sentence so far: -35.91320662060714
DUTCH: P(t|ams) = -0.32658410013636935 ==> log prob of sentence so far: -28.284846287858
PORTUGUESE: P(t|ams) = -1.9138138523837167 ==> log prob of sentence so far: -42.17801651485965
SPANISH: P(t|ams) = -1.130333768495006 ==> log prob of sentence so far: -44.312558293589035

4GRAM: mste
ENGLISH: P(e|mst) = -1.4427036899159693 ==> log prob of sentence so far: -42.58291021536424
FRENCH: P(e|mst) = -1.4313637641589874 ==> log prob of sentence so far: -37.34457038476613
DUTCH: P(e|mst) = -0.5358992552728485 ==> log prob of sentence so far: -28.820745543130847
PORTUGUESE: P(e|mst) = -1.6020599913279623 ==> log prob of sentence so far: -43.78007650618761
SPANISH: P(e|mst) = -1.130333768495006 ==> log prob of sentence so far: -45.44289206208404

4GRAM: ster
ENGLISH: P(r|ste) = -0.4877865938015426 ==> log prob of sentence so far: -43.07069680916578
FRENCH: P(r|ste) = -0.6802877913682647 ==> log prob of sentence so far: -38.024858176134394
DUTCH: P(r|ste) = -0.7950386328731512 ==> log prob of sentence so far: -29.615784176004
PORTUGUESE: P(r|ste) = -1.3001605369513523 ==> log prob of sentence so far: -45.080237043138965
SPANISH: P(r|ste) = -1.084026015609335 ==> log prob of sentence so far: -46.526918077693374

4GRAM: terd
ENGLISH: P(d|ter) = -1.4818597224268324 ==> log prob of sentence so far: -44.552556531592614
FRENCH: P(d|ter) = -1.5115491597450654 ==> log prob of sentence so far: -39.53640733587946
DUTCH: P(d|ter) = -1.066816155103563 ==> log prob of sentence so far: -30.68260033110756
PORTUGUESE: P(d|ter) = -1.7683914130944873 ==> log prob of sentence so far: -46.84862845623345
SPANISH: P(d|ter) = -2.1072099696478683 ==> log prob of sentence so far: -48.63412804734124

4GRAM: erda
ENGLISH: P(a|erd) = -0.8103359337550449 ==> log prob of sentence so far: -45.362892465347656
FRENCH: P(a|erd) = -0.7609832252466298 ==> log prob of sentence so far: -40.29739056112609
DUTCH: P(a|erd) = -1.142479659931762 ==> log prob of sentence so far: -31.825079991039324
PORTUGUESE: P(a|erd) = -0.595870416510265 ==> log prob of sentence so far: -47.444498872743715
SPANISH: P(a|erd) = -0.44048111534186546 ==> log prob of sentence so far: -49.07460916268311

4GRAM: rdam
ENGLISH: P(m|rda) = -1.2768446111454979 ==> log prob of sentence so far: -46.639737076493155
FRENCH: P(m|rda) = -2.0320812676114404 ==> log prob of sentence so far: -42.32947182873753
DUTCH: P(m|rda) = -1.2766706498045366 ==> log prob of sentence so far: -33.10175064084386
PORTUGUESE: P(m|rda) = -1.348953547981164 ==> log prob of sentence so far: -48.793452420724876
SPANISH: P(m|rda) = -1.4598948527451518 ==> log prob of sentence so far: -50.53450401542826

4GRAM: damh
ENGLISH: P(h|dam) = -1.8948696567452525 ==> log prob of sentence so far: -48.534606733238405
FRENCH: P(h|dam) = -1.7634279935629373 ==> log prob of sentence so far: -44.09289982230047
DUTCH: P(h|dam) = -1.6901960800285136 ==> log prob of sentence so far: -34.791946720872374
PORTUGUESE: P(h|dam) = -2.3521825181113627 ==> log prob of sentence so far: -51.14563493883624
SPANISH: P(h|dam) = -2.232996110392154 ==> log prob of sentence so far: -52.76750012582042

4GRAM: amhe
ENGLISH: P(e|amh) = -0.8920946026904805 ==> log prob of sentence so far: -49.42670133592888
FRENCH: P(e|amh) = -1.4313637641589874 ==> log prob of sentence so far: -45.524263586459455
DUTCH: P(e|amh) = -0.3617278360175929 ==> log prob of sentence so far: -35.15367455688997
PORTUGUESE: P(e|amh) = -1.4313637641589874 ==> log prob of sentence so far: -52.576998702995226
SPANISH: P(e|amh) = -1.4313637641589874 ==> log prob of sentence so far: -54.19886388997941

4GRAM: mhee
ENGLISH: P(e|mhe) = -2.0 ==> log prob of sentence so far: -51.42670133592888
FRENCH: P(e|mhe) = -1.4313637641589874 ==> log prob of sentence so far: -46.95562735061844
DUTCH: P(e|mhe) = -1.0152399665567369 ==> log prob of sentence so far: -36.1689145234467
PORTUGUESE: P(e|mhe) = -1.4313637641589874 ==> log prob of sentence so far: -54.008362467154214
SPANISH: P(e|mhe) = -1.4313637641589874 ==> log prob of sentence so far: -55.630227654138395

4GRAM: heet
ENGLISH: P(t|hee) = -1.040765545003176 ==> log prob of sentence so far: -52.46746688093206
FRENCH: P(t|hee) = -0.43012469204343884 ==> log prob of sentence so far: -47.385752042661885
DUTCH: P(t|hee) = -0.9806630038660087 ==> log prob of sentence so far: -37.14957752731271
PORTUGUESE: P(t|hee) = -1.806179973983887 ==> log prob of sentence so far: -55.8145424411381
SPANISH: P(t|hee) = -1.6020599913279623 ==> log prob of sentence so far: -57.23228764546636

4GRAM: eett
ENGLISH: P(t|eet) = -1.403120521175818 ==> log prob of sentence so far: -53.87058740210787
FRENCH: P(t|eet) = -1.709115709693121 ==> log prob of sentence so far: -49.09486775235501
DUTCH: P(t|eet) = -0.8401060944567578 ==> log prob of sentence so far: -37.989683621769466
PORTUGUESE: P(t|eet) = -1.6532125137753437 ==> log prob of sentence so far: -57.467754954913445
SPANISH: P(t|eet) = -1.4471580313422192 ==> log prob of sentence so far: -58.67944567680858

4GRAM: ette
ENGLISH: P(e|ett) = -0.595220566797657 ==> log prob of sentence so far: -54.46580796890553
FRENCH: P(e|ett) = -0.09856921075454148 ==> log prob of sentence so far: -49.19343696310955
DUTCH: P(e|ett) = -0.14959316960795982 ==> log prob of sentence so far: -38.139276791377426
PORTUGUESE: P(e|ett) = -0.578147833922551 ==> log prob of sentence so far: -58.045902788835996
SPANISH: P(e|ett) = -1.130333768495006 ==> log prob of sentence so far: -59.80977944530358

According to the 4gram model, the sentence is in Dutch
----------------
