O ensino elementar e obrigatorio.

1GRAM MODEL:

1GRAM: o
ENGLISH: P(o) = -1.1377837605854946 ==> log prob of sentence so far: -1.1377837605854946
FRENCH: P(o) = -1.2743433303176548 ==> log prob of sentence so far: -1.2743433303176548
DUTCH: P(o) = -1.1998196708165811 ==> log prob of sentence so far: -1.1998196708165811
PORTUGUESE: P(o) = -0.982146444324746 ==> log prob of sentence so far: -0.982146444324746
SPANISH: P(o) = -0.9966351897105246 ==> log prob of sentence so far: -0.9966351897105246

1GRAM: e
ENGLISH: P(e) = -0.9100712180599071 ==> log prob of sentence so far: -2.0478549786454017
FRENCH: P(e) = -0.7669658145224565 ==> log prob of sentence so far: -2.0413091448401115
DUTCH: P(e) = -0.7296525128280946 ==> log prob of sentence so far: -1.9294721836446758
PORTUGUESE: P(e) = -0.8804550652146593 ==> log prob of sentence so far: -1.8626015095394053
SPANISH: P(e) = -0.8816549652595953 ==> log prob of sentence so far: -1.8782901549701199

1GRAM: n
ENGLISH: P(n) = -1.1615969374026291 ==> log prob of sentence so far: -3.209451916048031
FRENCH: P(n) = -1.1226374766145046 ==> log prob of sentence so far: -3.163946621454616
DUTCH: P(n) = -0.9654264661937975 ==> log prob of sentence so far: -2.8948986498384732
PORTUGUESE: P(n) = -1.3242854314663415 ==> log prob of sentence so far: -3.1868869410057465
SPANISH: P(n) = -1.1498393665103084 ==> log prob of sentence so far: -3.0281295214804285

1GRAM: s
ENGLISH: P(s) = -1.1711410127286013 ==> log prob of sentence so far: -4.3805929287766325
FRENCH: P(s) = -1.064447714889656 ==> log prob of sentence so far: -4.228394336344272
DUTCH: P(s) = -1.460439695007922 ==> log prob of sentence so far: -4.355338344846395
PORTUGUESE: P(s) = -1.1129010285568741 ==> log prob of sentence so far: -4.299787969562621
SPANISH: P(s) = -1.1432621669802536 ==> log prob of sentence so far: -4.171391688460682

1GRAM: i
ENGLISH: P(i) = -1.162525480273911 ==> log prob of sentence so far: -5.543118409050543
FRENCH: P(i) = -1.1352064426688435 ==> log prob of sentence so far: -5.363600779013115
DUTCH: P(i) = -1.2262490424361108 ==> log prob of sentence so far: -5.5815873872825055
PORTUGUESE: P(i) = -1.2396988999998464 ==> log prob of sentence so far: -5.539486869562467
SPANISH: P(i) = -1.2231544531761491 ==> log prob of sentence so far: -5.394546141636831

1GRAM: n
ENGLISH: P(n) = -1.1615969374026291 ==> log prob of sentence so far: -6.704715346453172
FRENCH: P(n) = -1.1226374766145046 ==> log prob of sentence so far: -6.48623825562762
DUTCH: P(n) = -0.9654264661937975 ==> log prob of sentence so far: -6.547013853476303
PORTUGUESE: P(n) = -1.3242854314663415 ==> log prob of sentence so far: -6.863772301028808
SPANISH: P(n) = -1.1498393665103084 ==> log prob of sentence so far: -6.54438550814714

1GRAM: o
ENGLISH: P(o) = -1.1377837605854946 ==> log prob of sentence so far: -7.842499107038667
FRENCH: P(o) = -1.2743433303176548 ==> log prob of sentence so far: -7.760581585945275
DUTCH: P(o) = -1.1998196708165811 ==> log prob of sentence so far: -7.746833524292883
PORTUGUESE: P(o) = -0.982146444324746 ==> log prob of sentence so far: -7.845918745353554
SPANISH: P(o) = -0.9966351897105246 ==> log prob of sentence so far: -7.541020697857665

1GRAM: e
ENGLISH: P(e) = -0.9100712180599071 ==> log prob of sentence so far: -8.752570325098574
FRENCH: P(e) = -0.7669658145224565 ==> log prob of sentence so far: -8.527547400467732
DUTCH: P(e) = -0.7296525128280946 ==> log prob of sentence so far: -8.476486037120978
PORTUGUESE: P(e) = -0.8804550652146593 ==> log prob of sentence so far: -8.726373810568214
SPANISH: P(e) = -0.8816549652595953 ==> log prob of sentence so far: -8.42267566311726

1GRAM: l
ENGLISH: P(l) = -1.3477688854210008 ==> log prob of sentence so far: -10.100339210519575
FRENCH: P(l) = -1.2682124802855221 ==> log prob of sentence so far: -9.795759880753254
DUTCH: P(l) = -1.4248882579214401 ==> log prob of sentence so far: -9.901374295042418
PORTUGUESE: P(l) = -1.4370332293417125 ==> log prob of sentence so far: -10.163407039909927
SPANISH: P(l) = -1.2802204153542895 ==> log prob of sentence so far: -9.70289607847155

1GRAM: e
ENGLISH: P(e) = -0.9100712180599071 ==> log prob of sentence so far: -11.010410428579481
FRENCH: P(e) = -0.7669658145224565 ==> log prob of sentence so far: -10.56272569527571
DUTCH: P(e) = -0.7296525128280946 ==> log prob of sentence so far: -10.631026807870512
PORTUGUESE: P(e) = -0.8804550652146593 ==> log prob of sentence so far: -11.043862105124587
SPANISH: P(e) = -0.8816549652595953 ==> log prob of sentence so far: -10.584551043731146

1GRAM: m
ENGLISH: P(m) = -1.6111104829831362 ==> log prob of sentence so far: -12.621520911562618
FRENCH: P(m) = -1.5129486053385504 ==> log prob of sentence so far: -12.07567430061426
DUTCH: P(m) = -1.618864695295976 ==> log prob of sentence so far: -12.249891503166488
PORTUGUESE: P(m) = -1.3143919171181386 ==> log prob of sentence so far: -12.358254022242726
SPANISH: P(m) = -1.497081738512457 ==> log prob of sentence so far: -12.081632782243602

1GRAM: e
ENGLISH: P(e) = -0.9100712180599071 ==> log prob of sentence so far: -13.531592129622524
FRENCH: P(e) = -0.7669658145224565 ==> log prob of sentence so far: -12.842640115136717
DUTCH: P(e) = -0.7296525128280946 ==> log prob of sentence so far: -12.979544015994582
PORTUGUESE: P(e) = -0.8804550652146593 ==> log prob of sentence so far: -13.238709087457385
SPANISH: P(e) = -0.8816549652595953 ==> log prob of sentence so far: -12.963287747503198

1GRAM: n
ENGLISH: P(n) = -1.1615969374026291 ==> log prob of sentence so far: -14.693189067025154
FRENCH: P(n) = -1.1226374766145046 ==> log prob of sentence so far: -13.965277591751223
DUTCH: P(n) = -0.9654264661937975 ==> log prob of sentence so far: -13.94497048218838
PORTUGUESE: P(n) = -1.3242854314663415 ==> log prob of sentence so far: -14.562994518923727
SPANISH: P(n) = -1.1498393665103084 ==> log prob of sentence so far: -14.113127114013507

1GRAM: t
ENGLISH: P(t) = -1.0342236377842724 ==> log prob of sentence so far: -15.727412704809426
FRENCH: P(t) = -1.1659667480967535 ==> log prob of sentence so far: -15.131244339847976
DUTCH: P(t) = -1.2498840127620319 ==> log prob of sentence so far: -15.19485449495041
PORTUGUESE: P(t) = -1.3798331462051736 ==> log prob of sentence so far: -15.9428276651289
SPANISH: P(t) = -1.4035916054876783 ==> log prob of sentence so far: -15.516718719501185

1GRAM: a
ENGLISH: P(a) = -1.086788681042454 ==> log prob of sentence so far: -16.81420138585188
FRENCH: P(a) = -1.076353095105509 ==> log prob of sentence so far: -16.207597434953485
DUTCH: P(a) = -1.115393510092554 ==> log prob of sentence so far: -16.310248005042965
PORTUGUESE: P(a) = -0.8319048847689273 ==> log prob of sentence so far: -16.774732549897827
SPANISH: P(a) = -0.902025778564821 ==> log prob of sentence so far: -16.418744498066005

1GRAM: r
ENGLISH: P(r) = -1.261272901312096 ==> log prob of sentence so far: -18.075474287163978
FRENCH: P(r) = -1.1840286390704569 ==> log prob of sentence so far: -17.391626074023943
DUTCH: P(r) = -1.2542028641369134 ==> log prob of sentence so far: -17.56445086917988
PORTUGUESE: P(r) = -1.1945470328532288 ==> log prob of sentence so far: -17.969279582751057
SPANISH: P(r) = -1.191045490967515 ==> log prob of sentence so far: -17.60978998903352

1GRAM: e
ENGLISH: P(e) = -0.9100712180599071 ==> log prob of sentence so far: -18.985545505223886
FRENCH: P(e) = -0.7669658145224565 ==> log prob of sentence so far: -18.1585918885464
DUTCH: P(e) = -0.7296525128280946 ==> log prob of sentence so far: -18.294103382007975
PORTUGUESE: P(e) = -0.8804550652146593 ==> log prob of sentence so far: -18.849734647965715
SPANISH: P(e) = -0.8816549652595953 ==> log prob of sentence so far: -18.491444954293115

1GRAM: o
ENGLISH: P(o) = -1.1377837605854946 ==> log prob of sentence so far: -20.12332926580938
FRENCH: P(o) = -1.2743433303176548 ==> log prob of sentence so far: -19.432935218864056
DUTCH: P(o) = -1.1998196708165811 ==> log prob of sentence so far: -19.493923052824556
PORTUGUESE: P(o) = -0.982146444324746 ==> log prob of sentence so far: -19.83188109229046
SPANISH: P(o) = -0.9966351897105246 ==> log prob of sentence so far: -19.48808014400364

1GRAM: b
ENGLISH: P(b) = -1.7519519887518187 ==> log prob of sentence so far: -21.8752812545612
FRENCH: P(b) = -2.0518881761829366 ==> log prob of sentence so far: -21.484823395046995
DUTCH: P(b) = -1.8074682953019041 ==> log prob of sentence so far: -21.30139134812646
PORTUGUESE: P(b) = -2.0434482110969183 ==> log prob of sentence so far: -21.875329303387378
SPANISH: P(b) = -1.806323409368014 ==> log prob of sentence so far: -21.29440355337165

1GRAM: r
ENGLISH: P(r) = -1.261272901312096 ==> log prob of sentence so far: -23.1365541558733
FRENCH: P(r) = -1.1840286390704569 ==> log prob of sentence so far: -22.668852034117453
DUTCH: P(r) = -1.2542028641369134 ==> log prob of sentence so far: -22.555594212263376
PORTUGUESE: P(r) = -1.1945470328532288 ==> log prob of sentence so far: -23.069876336240608
SPANISH: P(r) = -1.191045490967515 ==> log prob of sentence so far: -22.485449044339166

1GRAM: i
ENGLISH: P(i) = -1.162525480273911 ==> log prob of sentence so far: -24.29907963614721
FRENCH: P(i) = -1.1352064426688435 ==> log prob of sentence so far: -23.804058476786295
DUTCH: P(i) = -1.2262490424361108 ==> log prob of sentence so far: -23.78184325469949
PORTUGUESE: P(i) = -1.2396988999998464 ==> log prob of sentence so far: -24.309575236240455
SPANISH: P(i) = -1.2231544531761491 ==> log prob of sentence so far: -23.708603497515316

1GRAM: g
ENGLISH: P(g) = -1.660068197743731 ==> log prob of sentence so far: -25.95914783389094
FRENCH: P(g) = -2.0284572462247623 ==> log prob of sentence so far: -25.832515723011056
DUTCH: P(g) = -1.4839738919024508 ==> log prob of sentence so far: -25.26581714660194
PORTUGUESE: P(g) = -1.9281927529386005 ==> log prob of sentence so far: -26.237767989179055
SPANISH: P(g) = -1.9668935166461363 ==> log prob of sentence so far: -25.67549701416145

1GRAM: a
ENGLISH: P(a) = -1.086788681042454 ==> log prob of sentence so far: -27.04593651493339
FRENCH: P(a) = -1.076353095105509 ==> log prob of sentence so far: -26.908868818116567
DUTCH: P(a) = -1.115393510092554 ==> log prob of sentence so far: -26.381210656694492
PORTUGUESE: P(a) = -0.8319048847689273 ==> log prob of sentence so far: -27.069672873947983
SPANISH: P(a) = -0.902025778564821 ==> log prob of sentence so far: -26.57752279272627

1GRAM: t
ENGLISH: P(t) = -1.0342236377842724 ==> log prob of sentence so far: -28.080160152717664
FRENCH: P(t) = -1.1659667480967535 ==> log prob of sentence so far: -28.07483556621332
DUTCH: P(t) = -1.2498840127620319 ==> log prob of sentence so far: -27.631094669456523
PORTUGUESE: P(t) = -1.3798331462051736 ==> log prob of sentence so far: -28.449506020153155
SPANISH: P(t) = -1.4035916054876783 ==> log prob of sentence so far: -27.981114398213947

1GRAM: o
ENGLISH: P(o) = -1.1377837605854946 ==> log prob of sentence so far: -29.21794391330316
FRENCH: P(o) = -1.2743433303176548 ==> log prob of sentence so far: -29.349178896530976
DUTCH: P(o) = -1.1998196708165811 ==> log prob of sentence so far: -28.830914340273104
PORTUGUESE: P(o) = -0.982146444324746 ==> log prob of sentence so far: -29.4316524644779
SPANISH: P(o) = -0.9966351897105246 ==> log prob of sentence so far: -28.97774958792447

1GRAM: r
ENGLISH: P(r) = -1.261272901312096 ==> log prob of sentence so far: -30.479216814615256
FRENCH: P(r) = -1.1840286390704569 ==> log prob of sentence so far: -30.533207535601434
DUTCH: P(r) = -1.2542028641369134 ==> log prob of sentence so far: -30.085117204410018
PORTUGUESE: P(r) = -1.1945470328532288 ==> log prob of sentence so far: -30.62619949733113
SPANISH: P(r) = -1.191045490967515 ==> log prob of sentence so far: -30.168795078891986

1GRAM: i
ENGLISH: P(i) = -1.162525480273911 ==> log prob of sentence so far: -31.641742294889166
FRENCH: P(i) = -1.1352064426688435 ==> log prob of sentence so far: -31.668413978270276
DUTCH: P(i) = -1.2262490424361108 ==> log prob of sentence so far: -31.311366246846127
PORTUGUESE: P(i) = -1.2396988999998464 ==> log prob of sentence so far: -31.865898397330977
SPANISH: P(i) = -1.2231544531761491 ==> log prob of sentence so far: -31.391949532068136

1GRAM: o
ENGLISH: P(o) = -1.1377837605854946 ==> log prob of sentence so far: -32.77952605547466
FRENCH: P(o) = -1.2743433303176548 ==> log prob of sentence so far: -32.94275730858793
DUTCH: P(o) = -1.1998196708165811 ==> log prob of sentence so far: -32.51118591766271
PORTUGUESE: P(o) = -0.982146444324746 ==> log prob of sentence so far: -32.84804484165572
SPANISH: P(o) = -0.9966351897105246 ==> log prob of sentence so far: -32.38858472177866

According to the 1gram model, the sentence is in Spanish
----------------
2GRAM MODEL:

2GRAM: oe
ENGLISH: P(e|o) = -2.1228938724075666 ==> log prob of sentence so far: -2.1228938724075666
FRENCH: P(e|o) = -2.1436581077967913 ==> log prob of sentence so far: -2.1436581077967913
DUTCH: P(e|o) = -0.9763450567600688 ==> log prob of sentence so far: -0.9763450567600688
PORTUGUESE: P(e|o) = -1.2128257707806935 ==> log prob of sentence so far: -1.2128257707806935
SPANISH: P(e|o) = -1.3160770542189604 ==> log prob of sentence so far: -1.3160770542189604

2GRAM: en
ENGLISH: P(n|e) = -1.0655182392646758 ==> log prob of sentence so far: -3.1884121116722426
FRENCH: P(n|e) = -0.8688224207402516 ==> log prob of sentence so far: -3.012480528537043
DUTCH: P(n|e) = -0.5269778242584016 ==> log prob of sentence so far: -1.5033228810184704
PORTUGUESE: P(n|e) = -0.9799668961094903 ==> log prob of sentence so far: -2.192792666890184
SPANISH: P(n|e) = -0.7296304377265809 ==> log prob of sentence so far: -2.0457074919455414

2GRAM: ns
ENGLISH: P(s|n) = -1.2471781899291021 ==> log prob of sentence so far: -4.435590301601344
FRENCH: P(s|n) = -0.9211627926268392 ==> log prob of sentence so far: -3.933643321163882
DUTCH: P(s|n) = -1.314116636768266 ==> log prob of sentence so far: -2.8174395177867364
PORTUGUESE: P(s|n) = -1.359930599644835 ==> log prob of sentence so far: -3.552723266535019
SPANISH: P(s|n) = -1.3580552240181254 ==> log prob of sentence so far: -3.4037627159636665

2GRAM: si
ENGLISH: P(i|s) = -1.1208857310233835 ==> log prob of sentence so far: -5.556476032624728
FRENCH: P(i|s) = -1.184885635307546 ==> log prob of sentence so far: -5.118528956471428
DUTCH: P(i|s) = -1.6516926029734016 ==> log prob of sentence so far: -4.469132120760138
PORTUGUESE: P(i|s) = -1.3240133259889628 ==> log prob of sentence so far: -4.876736592523981
SPANISH: P(i|s) = -1.0246505924931477 ==> log prob of sentence so far: -4.428413308456815

2GRAM: in
ENGLISH: P(n|i) = -0.5177328887875342 ==> log prob of sentence so far: -6.074208921412262
FRENCH: P(n|i) = -0.8962746820270037 ==> log prob of sentence so far: -6.014803638498432
DUTCH: P(n|i) = -0.7248968858466274 ==> log prob of sentence so far: -5.194029006606765
PORTUGUESE: P(n|i) = -0.829970148409874 ==> log prob of sentence so far: -5.706706740933855
SPANISH: P(n|i) = -0.9632502725052745 ==> log prob of sentence so far: -5.391663580962089

2GRAM: no
ENGLISH: P(o|n) = -1.086572052191251 ==> log prob of sentence so far: -7.160780973603512
FRENCH: P(o|n) = -1.2378335482588405 ==> log prob of sentence so far: -7.252637186757272
DUTCH: P(o|n) = -1.271881441452611 ==> log prob of sentence so far: -6.465910448059376
PORTUGUESE: P(o|n) = -1.051775210520975 ==> log prob of sentence so far: -6.75848195145483
SPANISH: P(o|n) = -0.8560414035498183 ==> log prob of sentence so far: -6.247704984511907

2GRAM: oe
ENGLISH: P(e|o) = -2.1228938724075666 ==> log prob of sentence so far: -9.28367484601108
FRENCH: P(e|o) = -2.1436581077967913 ==> log prob of sentence so far: -9.396295294554063
DUTCH: P(e|o) = -0.9763450567600688 ==> log prob of sentence so far: -7.442255504819445
PORTUGUESE: P(e|o) = -1.2128257707806935 ==> log prob of sentence so far: -7.971307722235524
SPANISH: P(e|o) = -1.3160770542189604 ==> log prob of sentence so far: -7.563782038730867

2GRAM: el
ENGLISH: P(l|e) = -1.3277804884685662 ==> log prob of sentence so far: -10.611455334479645
FRENCH: P(l|e) = -1.2044345212229748 ==> log prob of sentence so far: -10.600729815777038
DUTCH: P(l|e) = -1.1637226950598198 ==> log prob of sentence so far: -8.605978199879265
PORTUGUESE: P(l|e) = -1.1287459762359933 ==> log prob of sentence so far: -9.100053698471518
SPANISH: P(l|e) = -0.9033967676475738 ==> log prob of sentence so far: -8.467178806378442

2GRAM: le
ENGLISH: P(e|l) = -0.6938243412569666 ==> log prob of sentence so far: -11.305279675736612
FRENCH: P(e|l) = -0.40129432934375414 ==> log prob of sentence so far: -11.002024145120792
DUTCH: P(e|l) = -0.7538983528428277 ==> log prob of sentence so far: -9.359876552722094
PORTUGUESE: P(e|l) = -0.8509960063785604 ==> log prob of sentence so far: -9.951049704850078
SPANISH: P(e|l) = -0.8393391903088171 ==> log prob of sentence so far: -9.306517996687258

2GRAM: em
ENGLISH: P(m|e) = -1.436032682775707 ==> log prob of sentence so far: -12.74131235851232
FRENCH: P(m|e) = -1.2279205528259898 ==> log prob of sentence so far: -12.229944697946783
DUTCH: P(m|e) = -1.5694918437565153 ==> log prob of sentence so far: -10.929368396478608
PORTUGUESE: P(m|e) = -1.0615824619729552 ==> log prob of sentence so far: -11.012632166823034
SPANISH: P(m|e) = -1.4362467577478466 ==> log prob of sentence so far: -10.742764754435106

2GRAM: me
ENGLISH: P(e|m) = -0.5945354301857667 ==> log prob of sentence so far: -13.335847788698086
FRENCH: P(e|m) = -0.43058576450809083 ==> log prob of sentence so far: -12.660530462454874
DUTCH: P(e|m) = -0.4597017042065431 ==> log prob of sentence so far: -11.389070100685151
PORTUGUESE: P(e|m) = -0.7094788805939174 ==> log prob of sentence so far: -11.72211104741695
SPANISH: P(e|m) = -0.5847661832407273 ==> log prob of sentence so far: -11.327530937675833

2GRAM: en
ENGLISH: P(n|e) = -1.0655182392646758 ==> log prob of sentence so far: -14.401366027962762
FRENCH: P(n|e) = -0.8688224207402516 ==> log prob of sentence so far: -13.529352883195125
DUTCH: P(n|e) = -0.5269778242584016 ==> log prob of sentence so far: -11.916047924943552
PORTUGUESE: P(n|e) = -0.9799668961094903 ==> log prob of sentence so far: -12.70207794352644
SPANISH: P(n|e) = -0.7296304377265809 ==> log prob of sentence so far: -12.057161375402414

2GRAM: nt
ENGLISH: P(t|n) = -0.8262590589426815 ==> log prob of sentence so far: -15.227625086905444
FRENCH: P(t|n) = -0.6409503859281479 ==> log prob of sentence so far: -14.170303269123274
DUTCH: P(t|n) = -1.2814676097498758 ==> log prob of sentence so far: -13.197515534693428
PORTUGUESE: P(t|n) = -0.6693846748104831 ==> log prob of sentence so far: -13.371462618336924
SPANISH: P(t|n) = -0.7927511998345085 ==> log prob of sentence so far: -12.849912575236923

2GRAM: ta
ENGLISH: P(a|t) = -1.1697948806890075 ==> log prob of sentence so far: -16.397419967594452
FRENCH: P(a|t) = -0.8827723186309387 ==> log prob of sentence so far: -15.053075587754213
DUTCH: P(a|t) = -1.3100536021999056 ==> log prob of sentence so far: -14.507569136893334
PORTUGUESE: P(a|t) = -0.6259296306897831 ==> log prob of sentence so far: -13.997392249026706
SPANISH: P(a|t) = -0.5852575062442673 ==> log prob of sentence so far: -13.43517008148119

2GRAM: ar
ENGLISH: P(r|a) = -0.9854656313970852 ==> log prob of sentence so far: -17.382885598991535
FRENCH: P(r|a) = -1.0331920938948058 ==> log prob of sentence so far: -16.08626768164902
DUTCH: P(r|a) = -0.9128710566861395 ==> log prob of sentence so far: -15.420440193579473
PORTUGUESE: P(r|a) = -1.0106812682073374 ==> log prob of sentence so far: -15.008073517234044
SPANISH: P(r|a) = -0.9444297449083868 ==> log prob of sentence so far: -14.379599826389576

2GRAM: re
ENGLISH: P(e|r) = -0.6282077999008819 ==> log prob of sentence so far: -18.011093398892417
FRENCH: P(e|r) = -0.49097082634029093 ==> log prob of sentence so far: -16.57723850798931
DUTCH: P(e|r) = -0.7945617194164155 ==> log prob of sentence so far: -16.215001912995888
PORTUGUESE: P(e|r) = -0.7387244644522476 ==> log prob of sentence so far: -15.74679798168629
SPANISH: P(e|r) = -0.6819283677734008 ==> log prob of sentence so far: -15.061528194162976

2GRAM: eo
ENGLISH: P(o|e) = -1.6145530196909663 ==> log prob of sentence so far: -19.625646418583383
FRENCH: P(o|e) = -2.314956123851811 ==> log prob of sentence so far: -18.89219463184112
DUTCH: P(o|e) = -2.0827882393801898 ==> log prob of sentence so far: -18.297790152376077
PORTUGUESE: P(o|e) = -1.6314949150435276 ==> log prob of sentence so far: -17.378292896729818
SPANISH: P(o|e) = -2.129920422273917 ==> log prob of sentence so far: -17.191448616436894

2GRAM: ob
ENGLISH: P(b|o) = -1.7822193166414542 ==> log prob of sentence so far: -21.40786573522484
FRENCH: P(b|o) = -1.836514057866026 ==> log prob of sentence so far: -20.728708689707148
DUTCH: P(b|o) = -2.309930613291844 ==> log prob of sentence so far: -20.60772076566792
PORTUGUESE: P(b|o) = -1.7750948693160233 ==> log prob of sentence so far: -19.153387766045842
SPANISH: P(b|o) = -1.795759770105576 ==> log prob of sentence so far: -18.98720838654247

2GRAM: br
ENGLISH: P(r|b) = -1.240850356458931 ==> log prob of sentence so far: -22.64871609168377
FRENCH: P(r|b) = -0.7697085984080487 ==> log prob of sentence so far: -21.498417288115196
DUTCH: P(r|b) = -1.1242870307099486 ==> log prob of sentence so far: -21.732007796377868
PORTUGUESE: P(r|b) = -0.6513708308959013 ==> log prob of sentence so far: -19.804758596941742
SPANISH: P(r|b) = -0.8227743184919747 ==> log prob of sentence so far: -19.809982705034443

2GRAM: ri
ENGLISH: P(i|r) = -1.011900400480812 ==> log prob of sentence so far: -23.660616492164582
FRENCH: P(i|r) = -1.089298477748147 ==> log prob of sentence so far: -22.587715765863344
DUTCH: P(i|r) = -1.047195222171667 ==> log prob of sentence so far: -22.779203018549534
PORTUGUESE: P(i|r) = -0.9397982893707645 ==> log prob of sentence so far: -20.744556886312505
SPANISH: P(i|r) = -1.0006758571955157 ==> log prob of sentence so far: -20.81065856222996

2GRAM: ig
ENGLISH: P(g|i) = -1.4583316297190163 ==> log prob of sentence so far: -25.118948121883598
FRENCH: P(g|i) = -1.7738250369287822 ==> log prob of sentence so far: -24.361540802792128
DUTCH: P(g|i) = -1.1154065054608313 ==> log prob of sentence so far: -23.894609524010367
PORTUGUESE: P(g|i) = -1.6178554993507985 ==> log prob of sentence so far: -22.362412385663305
SPANISH: P(g|i) = -1.5299079423641992 ==> log prob of sentence so far: -22.34056650459416

2GRAM: ga
ENGLISH: P(a|g) = -0.9601375351985622 ==> log prob of sentence so far: -26.07908565708216
FRENCH: P(a|g) = -0.9090766393493168 ==> log prob of sentence so far: -25.270617442141443
DUTCH: P(a|g) = -1.2594970002781456 ==> log prob of sentence so far: -25.154106524288512
PORTUGUESE: P(a|g) = -0.7881505459872004 ==> log prob of sentence so far: -23.150562931650505
SPANISH: P(a|g) = -0.6692988172690861 ==> log prob of sentence so far: -23.00986532186325

2GRAM: at
ENGLISH: P(t|a) = -0.8627525070949107 ==> log prob of sentence so far: -26.94183816417707
FRENCH: P(t|a) = -1.2479713976288138 ==> log prob of sentence so far: -26.518588839770256
DUTCH: P(t|a) = -1.1097120347995644 ==> log prob of sentence so far: -26.263818559088076
PORTUGUESE: P(t|a) = -1.5396804063374159 ==> log prob of sentence so far: -24.690243337987923
SPANISH: P(t|a) = -1.5459294951996159 ==> log prob of sentence so far: -24.555794817062864

2GRAM: to
ENGLISH: P(o|t) = -0.9787383960113675 ==> log prob of sentence so far: -27.920576560188437
FRENCH: P(o|t) = -1.3522680394087057 ==> log prob of sentence so far: -27.870856879178962
DUTCH: P(o|t) = -1.0382300158074684 ==> log prob of sentence so far: -27.302048574895544
PORTUGUESE: P(o|t) = -0.6759296789408142 ==> log prob of sentence so far: -25.366173016928737
SPANISH: P(o|t) = -0.6962035499733049 ==> log prob of sentence so far: -25.25199836703617

2GRAM: or
ENGLISH: P(r|o) = -0.9303205281138703 ==> log prob of sentence so far: -28.850897088302307
FRENCH: P(r|o) = -1.0254415297583428 ==> log prob of sentence so far: -28.896298408937305
DUTCH: P(r|o) = -0.9352181994773429 ==> log prob of sentence so far: -28.237266774372888
PORTUGUESE: P(r|o) = -0.9139400513958311 ==> log prob of sentence so far: -26.280113068324567
SPANISH: P(r|o) = -0.9211868968784621 ==> log prob of sentence so far: -26.173185263914633

2GRAM: ri
ENGLISH: P(i|r) = -1.011900400480812 ==> log prob of sentence so far: -29.86279748878312
FRENCH: P(i|r) = -1.089298477748147 ==> log prob of sentence so far: -29.985596886685453
DUTCH: P(i|r) = -1.047195222171667 ==> log prob of sentence so far: -29.284461996544554
PORTUGUESE: P(i|r) = -0.9397982893707645 ==> log prob of sentence so far: -27.21991135769533
SPANISH: P(i|r) = -1.0006758571955157 ==> log prob of sentence so far: -27.17386112111015

2GRAM: io
ENGLISH: P(o|i) = -1.4835293380988173 ==> log prob of sentence so far: -31.346326826881935
FRENCH: P(o|i) = -1.375630384753757 ==> log prob of sentence so far: -31.361227271439212
DUTCH: P(o|i) = -2.3875137814627414 ==> log prob of sentence so far: -31.671975778007294
PORTUGUESE: P(o|i) = -1.1248159110331473 ==> log prob of sentence so far: -28.344727268728477
SPANISH: P(o|i) = -1.0268085709520842 ==> log prob of sentence so far: -28.200669692062235

According to the 2gram model, the sentence is in Spanish
----------------
3GRAM MODEL:

3GRAM: oen
ENGLISH: P(n|oe) = -1.1045858258217196 ==> log prob of sentence so far: -1.1045858258217196
FRENCH: P(n|oe) = -1.252148070894157 ==> log prob of sentence so far: -1.252148070894157
DUTCH: P(n|oe) = -0.7574813478389043 ==> log prob of sentence so far: -0.7574813478389043
PORTUGUESE: P(n|oe) = -1.2041199826559248 ==> log prob of sentence so far: -1.2041199826559248
SPANISH: P(n|oe) = -0.48056350113067975 ==> log prob of sentence so far: -0.48056350113067975

3GRAM: ens
ENGLISH: P(s|en) = -1.1898159157450727 ==> log prob of sentence so far: -2.2944017415667926
FRENCH: P(s|en) = -1.3622082123600556 ==> log prob of sentence so far: -2.614356283254213
DUTCH: P(s|en) = -1.2461968003723591 ==> log prob of sentence so far: -2.0036781482112636
PORTUGUESE: P(s|en) = -1.2163053967283635 ==> log prob of sentence so far: -2.4204253793842883
SPANISH: P(s|en) = -1.2553234577028722 ==> log prob of sentence so far: -1.735886958833552

3GRAM: nsi
ENGLISH: P(i|ns) = -0.9253084203868317 ==> log prob of sentence so far: -3.2197101619536244
FRENCH: P(i|ns) = -0.8153320439253546 ==> log prob of sentence so far: -3.4296883271795675
DUTCH: P(i|ns) = -1.6842828319723067 ==> log prob of sentence so far: -3.68796098018357
PORTUGUESE: P(i|ns) = -0.9944792330902167 ==> log prob of sentence so far: -3.414904612474505
SPANISH: P(i|ns) = -0.7514575115710477 ==> log prob of sentence so far: -2.4873444704045995

3GRAM: sin
ENGLISH: P(n|si) = -0.5098459021801978 ==> log prob of sentence so far: -3.7295560641338223
FRENCH: P(n|si) = -0.9099008084674817 ==> log prob of sentence so far: -4.339589135647049
DUTCH: P(n|si) = -0.35574859254456304 ==> log prob of sentence so far: -4.043709572728133
PORTUGUESE: P(n|si) = -0.6489296322580052 ==> log prob of sentence so far: -4.06383424473251
SPANISH: P(n|si) = -0.6915553752912384 ==> log prob of sentence so far: -3.178899845695838

3GRAM: ino
ENGLISH: P(o|in) = -1.8092201371881802 ==> log prob of sentence so far: -5.538776201322003
FRENCH: P(o|in) = -1.4867344895048964 ==> log prob of sentence so far: -5.826323625151946
DUTCH: P(o|in) = -1.8949899099598941 ==> log prob of sentence so far: -5.938699482688027
PORTUGUESE: P(o|in) = -1.3337342736918618 ==> log prob of sentence so far: -5.397568518424372
SPANISH: P(o|in) = -0.7962296439417073 ==> log prob of sentence so far: -3.9751294896375455

3GRAM: noe
ENGLISH: P(e|no) = -2.2082759424270826 ==> log prob of sentence so far: -7.747052143749086
FRENCH: P(e|no) = -1.6570414677199932 ==> log prob of sentence so far: -7.483365092871939
DUTCH: P(e|no) = -1.1875014706211764 ==> log prob of sentence so far: -7.126200953309203
PORTUGUESE: P(e|no) = -1.4733074477133095 ==> log prob of sentence so far: -6.870875966137681
SPANISH: P(e|no) = -1.2540939576177634 ==> log prob of sentence so far: -5.229223447255309

3GRAM: oel
ENGLISH: P(l|oe) = -1.9097205658909566 ==> log prob of sentence so far: -9.656772709640043
FRENCH: P(l|oe) = -1.4212904699945106 ==> log prob of sentence so far: -8.904655562866449
DUTCH: P(l|oe) = -1.347507782247784 ==> log prob of sentence so far: -8.473708735556986
PORTUGUESE: P(l|oe) = -1.0759808300764757 ==> log prob of sentence so far: -7.946856796214156
SPANISH: P(l|oe) = -0.5585942975468721 ==> log prob of sentence so far: -5.787817744802181

3GRAM: ele
ENGLISH: P(e|el) = -0.8971745121648318 ==> log prob of sentence so far: -10.553947221804874
FRENCH: P(e|el) = -0.4977141122374818 ==> log prob of sentence so far: -9.40236967510393
DUTCH: P(e|el) = -0.7863141132585058 ==> log prob of sentence so far: -9.260022848815492
PORTUGUESE: P(e|el) = -1.1862452588862205 ==> log prob of sentence so far: -9.133102055100377
SPANISH: P(e|el) = -1.0564792051758862 ==> log prob of sentence so far: -6.844296949978068

3GRAM: lem
ENGLISH: P(m|le) = -1.3444736000292559 ==> log prob of sentence so far: -11.89842082183413
FRENCH: P(m|le) = -1.2032908370683804 ==> log prob of sentence so far: -10.60566051217231
DUTCH: P(m|le) = -1.691089606819143 ==> log prob of sentence so far: -10.951112455634634
PORTUGUESE: P(m|le) = -1.0501430378908159 ==> log prob of sentence so far: -10.183245092991193
SPANISH: P(m|le) = -1.42047821057402 ==> log prob of sentence so far: -8.264775160552087

3GRAM: eme
ENGLISH: P(e|em) = -0.6493464823209766 ==> log prob of sentence so far: -12.547767304155107
FRENCH: P(e|em) = -0.3677583822314533 ==> log prob of sentence so far: -10.973418894403764
DUTCH: P(e|em) = -0.5561302812817736 ==> log prob of sentence so far: -11.507242736916409
PORTUGUESE: P(e|em) = -0.8478967460803415 ==> log prob of sentence so far: -11.031141839071534
SPANISH: P(e|em) = -0.6035740933214329 ==> log prob of sentence so far: -8.86834925387352

3GRAM: men
ENGLISH: P(n|me) = -0.6933409268235005 ==> log prob of sentence so far: -13.241108230978607
FRENCH: P(n|me) = -0.495184828507364 ==> log prob of sentence so far: -11.468603722911128
DUTCH: P(n|me) = -0.41079478162808025 ==> log prob of sentence so far: -11.91803751854449
PORTUGUESE: P(n|me) = -0.48165783495294096 ==> log prob of sentence so far: -11.512799674024475
SPANISH: P(n|me) = -0.590999140431108 ==> log prob of sentence so far: -9.459348394304628

3GRAM: ent
ENGLISH: P(t|en) = -0.5246561940409491 ==> log prob of sentence so far: -13.765764425019556
FRENCH: P(t|en) = -0.3831401695054313 ==> log prob of sentence so far: -11.85174389241656
DUTCH: P(t|en) = -1.3185093861168313 ==> log prob of sentence so far: -13.23654690466132
PORTUGUESE: P(t|en) = -0.4069373208501577 ==> log prob of sentence so far: -11.919736994874633
SPANISH: P(t|en) = -0.622399264301558 ==> log prob of sentence so far: -10.081747658606186

3GRAM: nta
ENGLISH: P(a|nt) = -1.2522603623218826 ==> log prob of sentence so far: -15.018024787341439
FRENCH: P(a|nt) = -0.9625232249346984 ==> log prob of sentence so far: -12.814267117351257
DUTCH: P(a|nt) = -1.1983571252881386 ==> log prob of sentence so far: -14.43490402994946
PORTUGUESE: P(a|nt) = -0.7798466116071445 ==> log prob of sentence so far: -12.699583606481777
SPANISH: P(a|nt) = -0.7882716094945201 ==> log prob of sentence so far: -10.870019268100707

3GRAM: tar
ENGLISH: P(r|ta) = -0.9953257339233385 ==> log prob of sentence so far: -16.013350521264776
FRENCH: P(r|ta) = -1.5236548382983304 ==> log prob of sentence so far: -14.337921955649588
DUTCH: P(r|ta) = -1.7323937598229686 ==> log prob of sentence so far: -16.167297789772427
PORTUGUESE: P(r|ta) = -0.9287607885871485 ==> log prob of sentence so far: -13.628344395068925
SPANISH: P(r|ta) = -0.9186744813378832 ==> log prob of sentence so far: -11.78869374943859

3GRAM: are
ENGLISH: P(e|ar) = -0.8595957332477835 ==> log prob of sentence so far: -16.87294625451256
FRENCH: P(e|ar) = -1.0012102965990957 ==> log prob of sentence so far: -15.339132252248683
DUTCH: P(e|ar) = -0.7236914131442396 ==> log prob of sentence so far: -16.890989202916668
PORTUGUESE: P(e|ar) = -0.7951256663417321 ==> log prob of sentence so far: -14.423470061410658
SPANISH: P(e|ar) = -0.8959373554428377 ==> log prob of sentence so far: -12.684631104881428

3GRAM: reo
ENGLISH: P(o|re) = -1.6308102791593453 ==> log prob of sentence so far: -18.503756533671904
FRENCH: P(o|re) = -2.17563626217603 ==> log prob of sentence so far: -17.514768514424713
DUTCH: P(o|re) = -2.6796701132842666 ==> log prob of sentence so far: -19.570659316200935
PORTUGUESE: P(o|re) = -1.7668571032210716 ==> log prob of sentence so far: -16.19032716463173
SPANISH: P(o|re) = -1.916842865592923 ==> log prob of sentence so far: -14.60147397047435

3GRAM: eob
ENGLISH: P(b|eo) = -1.8693881940550985 ==> log prob of sentence so far: -20.373144727727002
FRENCH: P(b|eo) = -1.069570933456762 ==> log prob of sentence so far: -18.584339447881476
DUTCH: P(b|eo) = -3.1058506743851435 ==> log prob of sentence so far: -22.676509990586077
PORTUGUESE: P(b|eo) = -1.6272336713894893 ==> log prob of sentence so far: -17.81756083602122
SPANISH: P(b|eo) = -1.4396484295634737 ==> log prob of sentence so far: -16.041122400037825

3GRAM: obr
ENGLISH: P(r|ob) = -1.5904980127101223 ==> log prob of sentence so far: -21.963642740437123
FRENCH: P(r|ob) = -1.761848739161244 ==> log prob of sentence so far: -20.34618818704272
DUTCH: P(r|ob) = -1.589470864019942 ==> log prob of sentence so far: -24.265980854606017
PORTUGUESE: P(r|ob) = -0.23568517938022787 ==> log prob of sentence so far: -18.053246015401445
SPANISH: P(r|ob) = -0.5211230042963195 ==> log prob of sentence so far: -16.562245404334146

3GRAM: bri
ENGLISH: P(i|br) = -0.7145022734828586 ==> log prob of sentence so far: -22.67814501391998
FRENCH: P(i|br) = -0.8684539641947591 ==> log prob of sentence so far: -21.21464215123748
DUTCH: P(i|br) = -0.992190298371536 ==> log prob of sentence so far: -25.258171152977553
PORTUGUESE: P(i|br) = -0.6227894761867064 ==> log prob of sentence so far: -18.676035491588152
SPANISH: P(i|br) = -0.9485718225247015 ==> log prob of sentence so far: -17.510817226858848

3GRAM: rig
ENGLISH: P(g|ri) = -1.0926049989572397 ==> log prob of sentence so far: -23.77075001287722
FRENCH: P(g|ri) = -1.5766071092035219 ==> log prob of sentence so far: -22.791249260441003
DUTCH: P(g|ri) = -1.1351272950397775 ==> log prob of sentence so far: -26.39329844801733
PORTUGUESE: P(g|ri) = -1.5640939500593443 ==> log prob of sentence so far: -20.240129441647497
SPANISH: P(g|ri) = -1.3684130429725676 ==> log prob of sentence so far: -18.879230269831414

3GRAM: iga
ENGLISH: P(a|ig) = -1.4830249320967477 ==> log prob of sentence so far: -25.253774944973966
FRENCH: P(a|ig) = -0.9480114917662774 ==> log prob of sentence so far: -23.73926075220728
DUTCH: P(a|ig) = -1.5790611770181777 ==> log prob of sentence so far: -27.97235962503551
PORTUGUESE: P(a|ig) = -0.7230082452034576 ==> log prob of sentence so far: -20.963137686850956
SPANISH: P(a|ig) = -0.855482745309212 ==> log prob of sentence so far: -19.734713015140628

3GRAM: gat
ENGLISH: P(t|ga) = -1.0275706415306023 ==> log prob of sentence so far: -26.281345586504568
FRENCH: P(t|ga) = -0.8260481269548703 ==> log prob of sentence so far: -24.56530887916215
DUTCH: P(t|ga) = -1.8079465980412142 ==> log prob of sentence so far: -29.78030622307672
PORTUGUESE: P(t|ga) = -1.5425764762605296 ==> log prob of sentence so far: -22.505714163111485
SPANISH: P(t|ga) = -1.6617359618409389 ==> log prob of sentence so far: -21.396448976981567

3GRAM: ato
ENGLISH: P(o|at) = -1.489811739993813 ==> log prob of sentence so far: -27.77115732649838
FRENCH: P(o|at) = -1.3221532172165757 ==> log prob of sentence so far: -25.887462096378727
DUTCH: P(o|at) = -1.4608333027249383 ==> log prob of sentence so far: -31.24113952580166
PORTUGUESE: P(o|at) = -1.0636200319861129 ==> log prob of sentence so far: -23.569334195097596
SPANISH: P(o|at) = -0.7077578536942466 ==> log prob of sentence so far: -22.104206830675814

3GRAM: tor
ENGLISH: P(r|to) = -1.204617285449189 ==> log prob of sentence so far: -28.975774611947568
FRENCH: P(r|to) = -1.0829198156070268 ==> log prob of sentence so far: -26.970381911985754
DUTCH: P(r|to) = -1.3069793281771824 ==> log prob of sentence so far: -32.54811885397884
PORTUGUESE: P(r|to) = -0.9902933687730118 ==> log prob of sentence so far: -24.55962756387061
SPANISH: P(r|to) = -1.1764833985693695 ==> log prob of sentence so far: -23.280690229245184

3GRAM: ori
ENGLISH: P(i|or) = -1.2295345877027826 ==> log prob of sentence so far: -30.20530919965035
FRENCH: P(i|or) = -1.233014830385342 ==> log prob of sentence so far: -28.203396742371098
DUTCH: P(i|or) = -1.6930911398550836 ==> log prob of sentence so far: -34.24120999383393
PORTUGUESE: P(i|or) = -1.2565791461247595 ==> log prob of sentence so far: -25.81620670999537
SPANISH: P(i|or) = -1.0735690126150543 ==> log prob of sentence so far: -24.354259241860237

3GRAM: rio
ENGLISH: P(o|ri) = -1.203598516335235 ==> log prob of sentence so far: -31.408907715985585
FRENCH: P(o|ri) = -1.654454116162082 ==> log prob of sentence so far: -29.85785085853318
DUTCH: P(o|ri) = -1.9003135682590535 ==> log prob of sentence so far: -36.14152356209298
PORTUGUESE: P(o|ri) = -1.0151734029146564 ==> log prob of sentence so far: -26.831380112910026
SPANISH: P(o|ri) = -0.9276937749321824 ==> log prob of sentence so far: -25.28195301679242

According to the 3gram model, the sentence is in Spanish
----------------
4GRAM MODEL:

4GRAM: oens
ENGLISH: P(s|oen) = -2.03342375548695 ==> log prob of sentence so far: -2.03342375548695
FRENCH: P(s|oen) = -0.9030899869919435 ==> log prob of sentence so far: -0.9030899869919435
DUTCH: P(s|oen) = -1.7800771714196821 ==> log prob of sentence so far: -1.7800771714196821
PORTUGUESE: P(s|oen) = -1.8106804752105636 ==> log prob of sentence so far: -1.8106804752105636
SPANISH: P(s|oen) = -1.0162371988706855 ==> log prob of sentence so far: -1.0162371988706855

4GRAM: ensi
ENGLISH: P(i|ens) = -0.7615255080006602 ==> log prob of sentence so far: -2.7949492634876103
FRENCH: P(i|ens) = -0.7146248287561637 ==> log prob of sentence so far: -1.6177148157481072
DUTCH: P(i|ens) = -1.6858369890647362 ==> log prob of sentence so far: -3.4659141604844184
PORTUGUESE: P(i|ens) = -1.2643680099378356 ==> log prob of sentence so far: -3.0750484851483995
SPANISH: P(i|ens) = -0.9121193035337438 ==> log prob of sentence so far: -1.9283565024044294

4GRAM: nsin
ENGLISH: P(n|nsi) = -0.8854412816930722 ==> log prob of sentence so far: -3.6803905451806824
FRENCH: P(n|nsi) = -1.3711819251698059 ==> log prob of sentence so far: -2.9888967409179132
DUTCH: P(n|nsi) = -0.635483746814912 ==> log prob of sentence so far: -4.10139790729933
PORTUGUESE: P(n|nsi) = -0.37161106994968846 ==> log prob of sentence so far: -3.446659555098088
SPANISH: P(n|nsi) = -0.8358464467642681 ==> log prob of sentence so far: -2.7642029491686975

4GRAM: sino
ENGLISH: P(o|sin) = -1.879576285227626 ==> log prob of sentence so far: -5.5599668304083085
FRENCH: P(o|sin) = -1.056456431594101 ==> log prob of sentence so far: -4.045353172512014
DUTCH: P(o|sin) = -1.3010299956639813 ==> log prob of sentence so far: -5.4024279029633115
PORTUGUESE: P(o|sin) = -1.0838261510933884 ==> log prob of sentence so far: -4.5304857061914765
SPANISH: P(o|sin) = -0.6360444886383299 ==> log prob of sentence so far: -3.4002474378070273

4GRAM: inoe
ENGLISH: P(e|ino) = -2.7993405494535817 ==> log prob of sentence so far: -8.35930737986189
FRENCH: P(e|ino) = -2.645422269349092 ==> log prob of sentence so far: -6.690775441861106
DUTCH: P(e|ino) = -2.146128035678238 ==> log prob of sentence so far: -7.54855593864155
PORTUGUESE: P(e|ino) = -1.1117104708745449 ==> log prob of sentence so far: -5.642196177066022
SPANISH: P(e|ino) = -1.2372494009700334 ==> log prob of sentence so far: -4.637496838777061

4GRAM: noel
ENGLISH: P(l|noe) = -1.4771212547196624 ==> log prob of sentence so far: -9.836428634581553
FRENCH: P(l|noe) = -1.7215358322347603 ==> log prob of sentence so far: -8.412311274095867
DUTCH: P(l|noe) = -2.5024271199844326 ==> log prob of sentence so far: -10.050983058625983
PORTUGUESE: P(l|noe) = -1.0791812460476249 ==> log prob of sentence so far: -6.721377423113647
SPANISH: P(l|noe) = -1.1041345279913015 ==> log prob of sentence so far: -5.741631366768362

4GRAM: oele
ENGLISH: P(e|oel) = -0.7346855566025533 ==> log prob of sentence so far: -10.571114191184106
FRENCH: P(e|oel) = -0.5488144793747374 ==> log prob of sentence so far: -8.961125753470604
DUTCH: P(e|oel) = -0.6222633774162494 ==> log prob of sentence so far: -10.673246436042232
PORTUGUESE: P(e|oel) = -1.0396727047639513 ==> log prob of sentence so far: -7.761050127877598
SPANISH: P(e|oel) = -1.520944245503138 ==> log prob of sentence so far: -7.2625756122715

4GRAM: elem
ENGLISH: P(m|ele) = -1.5252028760037961 ==> log prob of sentence so far: -12.096317067187902
FRENCH: P(m|ele) = -1.3032609653743066 ==> log prob of sentence so far: -10.26438671884491
DUTCH: P(m|ele) = -1.4953086566134657 ==> log prob of sentence so far: -12.168555092655698
PORTUGUESE: P(m|ele) = -0.8267944291818069 ==> log prob of sentence so far: -8.587844557059405
SPANISH: P(m|ele) = -1.5870371177434557 ==> log prob of sentence so far: -8.849612730014956

4GRAM: leme
ENGLISH: P(e|lem) = -0.3692948272225076 ==> log prob of sentence so far: -12.46561189441041
FRENCH: P(e|lem) = -0.24297967969461953 ==> log prob of sentence so far: -10.50736639853953
DUTCH: P(e|lem) = -0.8418203302530208 ==> log prob of sentence so far: -13.01037542290872
PORTUGUESE: P(e|lem) = -0.7983546364719306 ==> log prob of sentence so far: -9.386199193531336
SPANISH: P(e|lem) = -0.4311699259580889 ==> log prob of sentence so far: -9.280782655973045

4GRAM: emen
ENGLISH: P(n|eme) = -0.4465962014037051 ==> log prob of sentence so far: -12.912208095814115
FRENCH: P(n|eme) = -0.2692090735014697 ==> log prob of sentence so far: -10.776575472041
DUTCH: P(n|eme) = -0.38388394420757643 ==> log prob of sentence so far: -13.394259367116296
PORTUGUESE: P(n|eme) = -0.7831575822695493 ==> log prob of sentence so far: -10.169356775800885
SPANISH: P(n|eme) = -0.668335537421699 ==> log prob of sentence so far: -9.949118193394744

4GRAM: ment
ENGLISH: P(t|men) = -0.2893547097102777 ==> log prob of sentence so far: -13.201562805524393
FRENCH: P(t|men) = -0.07674860127333896 ==> log prob of sentence so far: -10.853324073314338
DUTCH: P(t|men) = -1.3562224959131026 ==> log prob of sentence so far: -14.7504818630294
PORTUGUESE: P(t|men) = -0.1584874869103025 ==> log prob of sentence so far: -10.327844262711189
SPANISH: P(t|men) = -0.1338079740911911 ==> log prob of sentence so far: -10.082926167485935

4GRAM: enta
ENGLISH: P(a|ent) = -1.119882379336949 ==> log prob of sentence so far: -14.321445184861343
FRENCH: P(a|ent) = -0.9482650430231979 ==> log prob of sentence so far: -11.801589116337537
DUTCH: P(a|ent) = -1.5363812156839847 ==> log prob of sentence so far: -16.286863078713385
PORTUGUESE: P(a|ent) = -0.9544232019661267 ==> log prob of sentence so far: -11.282267464677314
SPANISH: P(a|ent) = -0.8132849795948536 ==> log prob of sentence so far: -10.896211147080788

4GRAM: ntar
ENGLISH: P(r|nta) = -1.044232547097292 ==> log prob of sentence so far: -15.365677731958634
FRENCH: P(r|nta) = -1.5368949745387015 ==> log prob of sentence so far: -13.33848409087624
DUTCH: P(r|nta) = -1.5199737546369303 ==> log prob of sentence so far: -17.806836833350314
PORTUGUESE: P(r|nta) = -0.7428754900351006 ==> log prob of sentence so far: -12.025142954712415
SPANISH: P(r|nta) = -0.690760034291189 ==> log prob of sentence so far: -11.586971181371977

4GRAM: tare
ENGLISH: P(e|tar) = -1.0734098058697494 ==> log prob of sentence so far: -16.439087537828385
FRENCH: P(e|tar) = -1.0703177857163197 ==> log prob of sentence so far: -14.408801876592559
DUTCH: P(e|tar) = -0.9744458955276118 ==> log prob of sentence so far: -18.781282728877926
PORTUGUESE: P(e|tar) = -1.2006034089330877 ==> log prob of sentence so far: -13.225746363645502
SPANISH: P(e|tar) = -0.910268571619067 ==> log prob of sentence so far: -12.497239752991044

4GRAM: areo
ENGLISH: P(o|are) = -1.3903115686159317 ==> log prob of sentence so far: -17.829399106444317
FRENCH: P(o|are) = -3.0398105541483504 ==> log prob of sentence so far: -17.44861243074091
DUTCH: P(o|are) = -2.6782147827453993 ==> log prob of sentence so far: -21.459497511623326
PORTUGUESE: P(o|are) = -2.2833012287035497 ==> log prob of sentence so far: -15.509047592349052
SPANISH: P(o|are) = -2.4082399653118496 ==> log prob of sentence so far: -14.905479718302894

4GRAM: reob
ENGLISH: P(b|reo) = -1.8016323462331665 ==> log prob of sentence so far: -19.631031452677483
FRENCH: P(b|reo) = -1.2205103988440942 ==> log prob of sentence so far: -18.669122829585003
DUTCH: P(b|reo) = -1.6020599913279623 ==> log prob of sentence so far: -23.06155750295129
PORTUGUESE: P(b|reo) = -2.0253058652647704 ==> log prob of sentence so far: -17.534353457613822
SPANISH: P(b|reo) = -2.1271047983648077 ==> log prob of sentence so far: -17.0325845166677

4GRAM: eobr
ENGLISH: P(r|eob) = -2.0 ==> log prob of sentence so far: -21.631031452677483
FRENCH: P(r|eob) = -2.093421685162235 ==> log prob of sentence so far: -20.762544514747237
DUTCH: P(r|eob) = -1.4313637641589874 ==> log prob of sentence so far: -24.492921267110276
PORTUGUESE: P(r|eob) = -0.7939455175668755 ==> log prob of sentence so far: -18.328298975180697
SPANISH: P(r|eob) = -1.0 ==> log prob of sentence so far: -18.0325845166677

4GRAM: obri
ENGLISH: P(i|obr) = -0.5263392773898441 ==> log prob of sentence so far: -22.157370730067328
FRENCH: P(i|obr) = -1.6434526764861874 ==> log prob of sentence so far: -22.405997191233425
DUTCH: P(i|obr) = -1.505149978319906 ==> log prob of sentence so far: -25.998071245430182
PORTUGUESE: P(i|obr) = -0.664769728015321 ==> log prob of sentence so far: -18.99306870319602
SPANISH: P(i|obr) = -1.7254448998676406 ==> log prob of sentence so far: -19.75802941653534

4GRAM: brig
ENGLISH: P(g|bri) = -0.6668621124919865 ==> log prob of sentence so far: -22.824232842559315
FRENCH: P(g|bri) = -2.494154594018443 ==> log prob of sentence so far: -24.900151785251868
DUTCH: P(g|bri) = -2.100370545117563 ==> log prob of sentence so far: -28.098441790547746
PORTUGUESE: P(g|bri) = -1.1674910872937636 ==> log prob of sentence so far: -20.160559790489785
SPANISH: P(g|bri) = -2.346352974450639 ==> log prob of sentence so far: -22.10438239098598

4GRAM: riga
ENGLISH: P(a|rig) = -1.455632338885924 ==> log prob of sentence so far: -24.27986518144524
FRENCH: P(a|rig) = -2.342422680822206 ==> log prob of sentence so far: -27.242574466074075
DUTCH: P(a|rig) = -1.637775543594497 ==> log prob of sentence so far: -29.736217334142243
PORTUGUESE: P(a|rig) = -0.5383909114585851 ==> log prob of sentence so far: -20.69895070194837
SPANISH: P(a|rig) = -1.3088553331759378 ==> log prob of sentence so far: -23.413237724161917

4GRAM: igat
ENGLISH: P(t|iga) = -0.4461721183605681 ==> log prob of sentence so far: -24.726037299805807
FRENCH: P(t|iga) = -0.4029034282035877 ==> log prob of sentence so far: -27.64547789427766
DUTCH: P(t|iga) = -1.6020599913279623 ==> log prob of sentence so far: -31.338277325470205
PORTUGUESE: P(t|iga) = -1.4345689040341987 ==> log prob of sentence so far: -22.133519605982567
SPANISH: P(t|iga) = -2.296665190261531 ==> log prob of sentence so far: -25.70990291442345

4GRAM: gato
ENGLISH: P(o|gat) = -1.4553525099574909 ==> log prob of sentence so far: -26.181389809763296
FRENCH: P(o|gat) = -1.9510135393091264 ==> log prob of sentence so far: -29.596491433586788
DUTCH: P(o|gat) = -1.662757831681574 ==> log prob of sentence so far: -33.001035157151776
PORTUGUESE: P(o|gat) = -1.6989700043360187 ==> log prob of sentence so far: -23.832489610318586
SPANISH: P(o|gat) = -0.6163004304425727 ==> log prob of sentence so far: -26.32620334486602

4GRAM: ator
ENGLISH: P(r|ato) = -0.783245672223332 ==> log prob of sentence so far: -26.964635481986626
FRENCH: P(r|ato) = -0.9607149762106597 ==> log prob of sentence so far: -30.55720640979745
DUTCH: P(r|ato) = -1.575187844927661 ==> log prob of sentence so far: -34.57622300207944
PORTUGUESE: P(r|ato) = -0.7207497786592608 ==> log prob of sentence so far: -24.553239388977847
SPANISH: P(r|ato) = -1.1359487927728043 ==> log prob of sentence so far: -27.462152137638824

4GRAM: tori
ENGLISH: P(i|tor) = -0.8099729630010263 ==> log prob of sentence so far: -27.774608444987653
FRENCH: P(i|tor) = -0.766507269219936 ==> log prob of sentence so far: -31.323713679017384
DUTCH: P(i|tor) = -1.0791812460476249 ==> log prob of sentence so far: -35.65540424812706
PORTUGUESE: P(i|tor) = -0.6682207273830763 ==> log prob of sentence so far: -25.221460116360923
SPANISH: P(i|tor) = -0.42151439084603115 ==> log prob of sentence so far: -27.883666528484856

4GRAM: orio
ENGLISH: P(o|ori) = -1.3857437303115672 ==> log prob of sentence so far: -29.16035217529922
FRENCH: P(o|ori) = -2.1583624920952498 ==> log prob of sentence so far: -33.48207617111263
DUTCH: P(o|ori) = -2.1583624920952498 ==> log prob of sentence so far: -37.81376674022231
PORTUGUESE: P(o|ori) = -1.0737862141609187 ==> log prob of sentence so far: -26.29524633052184
SPANISH: P(o|ori) = -1.1730001820785394 ==> log prob of sentence so far: -29.056666710563395

According to the 4gram model, the sentence is in Portuguese
----------------
