Weet je dat New York vroeger 'Nieuw-Amsterdam' heette ?

1GRAM MODEL:

1GRAM: w
ENGLISH: P(w) = -1.6313539967808455 ==> log prob of sentence so far: -1.6313539967808455
FRENCH: P(w) = -3.9191827290425008 ==> log prob of sentence so far: -3.9191827290425008
DUTCH: P(w) = -1.7339741685927668 ==> log prob of sentence so far: -1.7339741685927668
PORTUGUESE: P(w) = -3.37445658849446 ==> log prob of sentence so far: -3.37445658849446
SPANISH: P(w) = -5.865015092187244 ==> log prob of sentence so far: -5.865015092187244

1GRAM: e
ENGLISH: P(e) = -0.9100712180599071 ==> log prob of sentence so far: -2.5414252148407526
FRENCH: P(e) = -0.7669658145224565 ==> log prob of sentence so far: -4.686148543564958
DUTCH: P(e) = -0.7296525128280946 ==> log prob of sentence so far: -2.4636266814208616
PORTUGUESE: P(e) = -0.8804550652146593 ==> log prob of sentence so far: -4.25491165370912
SPANISH: P(e) = -0.8816549652595953 ==> log prob of sentence so far: -6.746670057446839

1GRAM: e
ENGLISH: P(e) = -0.9100712180599071 ==> log prob of sentence so far: -3.45149643290066
FRENCH: P(e) = -0.7669658145224565 ==> log prob of sentence so far: -5.453114358087414
DUTCH: P(e) = -0.7296525128280946 ==> log prob of sentence so far: -3.193279194248956
PORTUGUESE: P(e) = -0.8804550652146593 ==> log prob of sentence so far: -5.135366718923779
SPANISH: P(e) = -0.8816549652595953 ==> log prob of sentence so far: -7.628325022706434

1GRAM: t
ENGLISH: P(t) = -1.0342236377842724 ==> log prob of sentence so far: -4.485720070684932
FRENCH: P(t) = -1.1659667480967535 ==> log prob of sentence so far: -6.619081106184168
DUTCH: P(t) = -1.2498840127620319 ==> log prob of sentence so far: -4.443163207010988
PORTUGUESE: P(t) = -1.3798331462051736 ==> log prob of sentence so far: -6.515199865128952
SPANISH: P(t) = -1.4035916054876783 ==> log prob of sentence so far: -9.031916628194113

1GRAM: j
ENGLISH: P(j) = -2.944833324319119 ==> log prob of sentence so far: -7.430553395004051
FRENCH: P(j) = -2.2095776682007906 ==> log prob of sentence so far: -8.828658774384959
DUTCH: P(j) = -1.7475117160205613 ==> log prob of sentence so far: -6.190674923031549
PORTUGUESE: P(j) = -2.5146677756328772 ==> log prob of sentence so far: -9.029867640761829
SPANISH: P(j) = -2.3398406643519727 ==> log prob of sentence so far: -11.371757292546086

1GRAM: e
ENGLISH: P(e) = -0.9100712180599071 ==> log prob of sentence so far: -8.340624613063959
FRENCH: P(e) = -0.7669658145224565 ==> log prob of sentence so far: -9.595624588907416
DUTCH: P(e) = -0.7296525128280946 ==> log prob of sentence so far: -6.920327435859644
PORTUGUESE: P(e) = -0.8804550652146593 ==> log prob of sentence so far: -9.910322705976489
SPANISH: P(e) = -0.8816549652595953 ==> log prob of sentence so far: -12.253412257805682

1GRAM: d
ENGLISH: P(d) = -1.396179917541683 ==> log prob of sentence so far: -9.736804530605642
FRENCH: P(d) = -1.4202616779892512 ==> log prob of sentence so far: -11.015886266896667
DUTCH: P(d) = -1.2011871346521803 ==> log prob of sentence so far: -8.121514570511824
PORTUGUESE: P(d) = -1.3354060130264946 ==> log prob of sentence so far: -11.245728719002983
SPANISH: P(d) = -1.290763837647315 ==> log prob of sentence so far: -13.544176095452997

1GRAM: a
ENGLISH: P(a) = -1.086788681042454 ==> log prob of sentence so far: -10.823593211648097
FRENCH: P(a) = -1.076353095105509 ==> log prob of sentence so far: -12.092239362002175
DUTCH: P(a) = -1.115393510092554 ==> log prob of sentence so far: -9.236908080604378
PORTUGUESE: P(a) = -0.8319048847689273 ==> log prob of sentence so far: -12.077633603771911
SPANISH: P(a) = -0.902025778564821 ==> log prob of sentence so far: -14.446201874017818

1GRAM: t
ENGLISH: P(t) = -1.0342236377842724 ==> log prob of sentence so far: -11.85781684943237
FRENCH: P(t) = -1.1659667480967535 ==> log prob of sentence so far: -13.258206110098929
DUTCH: P(t) = -1.2498840127620319 ==> log prob of sentence so far: -10.48679209336641
PORTUGUESE: P(t) = -1.3798331462051736 ==> log prob of sentence so far: -13.457466749977085
SPANISH: P(t) = -1.4035916054876783 ==> log prob of sentence so far: -15.849793479505497

1GRAM: n
ENGLISH: P(n) = -1.1615969374026291 ==> log prob of sentence so far: -13.019413786834999
FRENCH: P(n) = -1.1226374766145046 ==> log prob of sentence so far: -14.380843586713434
DUTCH: P(n) = -0.9654264661937975 ==> log prob of sentence so far: -11.452218559560206
PORTUGUESE: P(n) = -1.3242854314663415 ==> log prob of sentence so far: -14.781752181443427
SPANISH: P(n) = -1.1498393665103084 ==> log prob of sentence so far: -16.999632846015807

1GRAM: e
ENGLISH: P(e) = -0.9100712180599071 ==> log prob of sentence so far: -13.929485004894905
FRENCH: P(e) = -0.7669658145224565 ==> log prob of sentence so far: -15.14780940123589
DUTCH: P(e) = -0.7296525128280946 ==> log prob of sentence so far: -12.1818710723883
PORTUGUESE: P(e) = -0.8804550652146593 ==> log prob of sentence so far: -15.662207246658086
SPANISH: P(e) = -0.8816549652595953 ==> log prob of sentence so far: -17.881287811275403

1GRAM: w
ENGLISH: P(w) = -1.6313539967808455 ==> log prob of sentence so far: -15.56083900167575
FRENCH: P(w) = -3.9191827290425008 ==> log prob of sentence so far: -19.06699213027839
DUTCH: P(w) = -1.7339741685927668 ==> log prob of sentence so far: -13.915845240981067
PORTUGUESE: P(w) = -3.37445658849446 ==> log prob of sentence so far: -19.036663835152545
SPANISH: P(w) = -5.865015092187244 ==> log prob of sentence so far: -23.74630290346265

1GRAM: y
ENGLISH: P(y) = -1.7505965755952897 ==> log prob of sentence so far: -17.31143557727104
FRENCH: P(y) = -2.672224427638286 ==> log prob of sentence so far: -21.739216557916677
DUTCH: P(y) = -3.568910669966972 ==> log prob of sentence so far: -17.48475591094804
PORTUGUESE: P(y) = -3.3437360946864336 ==> log prob of sentence so far: -22.38039992983898
SPANISH: P(y) = -1.910627842042729 ==> log prob of sentence so far: -25.656930745505377

1GRAM: o
ENGLISH: P(o) = -1.1377837605854946 ==> log prob of sentence so far: -18.449219337856537
FRENCH: P(o) = -1.2743433303176548 ==> log prob of sentence so far: -23.013559888234333
DUTCH: P(o) = -1.1998196708165811 ==> log prob of sentence so far: -18.68457558176462
PORTUGUESE: P(o) = -0.982146444324746 ==> log prob of sentence so far: -23.362546374163724
SPANISH: P(o) = -0.9966351897105246 ==> log prob of sentence so far: -26.6535659352159

1GRAM: r
ENGLISH: P(r) = -1.261272901312096 ==> log prob of sentence so far: -19.710492239168634
FRENCH: P(r) = -1.1840286390704569 ==> log prob of sentence so far: -24.19758852730479
DUTCH: P(r) = -1.2542028641369134 ==> log prob of sentence so far: -19.938778445901534
PORTUGUESE: P(r) = -1.1945470328532288 ==> log prob of sentence so far: -24.557093407016954
SPANISH: P(r) = -1.191045490967515 ==> log prob of sentence so far: -27.844611426183416

1GRAM: k
ENGLISH: P(k) = -2.072697153608919 ==> log prob of sentence so far: -21.78318939277755
FRENCH: P(k) = -3.5365941540489745 ==> log prob of sentence so far: -27.734182681353765
DUTCH: P(k) = -1.6325367017734616 ==> log prob of sentence so far: -21.571315147674994
PORTUGUESE: P(k) = -4.701247446302863 ==> log prob of sentence so far: -29.258340853319815
SPANISH: P(k) = -3.8196921134005866 ==> log prob of sentence so far: -31.664303539584004

1GRAM: v
ENGLISH: P(v) = -2.043619342325931 ==> log prob of sentence so far: -23.826808735103484
FRENCH: P(v) = -1.82784228094936 ==> log prob of sentence so far: -29.562024962303123
DUTCH: P(v) = -1.6099977038119904 ==> log prob of sentence so far: -23.181312851486986
PORTUGUESE: P(v) = -1.7546314510401964 ==> log prob of sentence so far: -31.012972304360012
SPANISH: P(v) = -1.9460940020959083 ==> log prob of sentence so far: -33.610397541679916

1GRAM: r
ENGLISH: P(r) = -1.261272901312096 ==> log prob of sentence so far: -25.08808163641558
FRENCH: P(r) = -1.1840286390704569 ==> log prob of sentence so far: -30.746053601373582
DUTCH: P(r) = -1.2542028641369134 ==> log prob of sentence so far: -24.4355157156239
PORTUGUESE: P(r) = -1.1945470328532288 ==> log prob of sentence so far: -32.20751933721324
SPANISH: P(r) = -1.191045490967515 ==> log prob of sentence so far: -34.801443032647434

1GRAM: o
ENGLISH: P(o) = -1.1377837605854946 ==> log prob of sentence so far: -26.225865397001076
FRENCH: P(o) = -1.2743433303176548 ==> log prob of sentence so far: -32.02039693169124
DUTCH: P(o) = -1.1998196708165811 ==> log prob of sentence so far: -25.63533538644048
PORTUGUESE: P(o) = -0.982146444324746 ==> log prob of sentence so far: -33.18966578153799
SPANISH: P(o) = -0.9966351897105246 ==> log prob of sentence so far: -35.79807822235796

1GRAM: e
ENGLISH: P(e) = -0.9100712180599071 ==> log prob of sentence so far: -27.135936615060984
FRENCH: P(e) = -0.7669658145224565 ==> log prob of sentence so far: -32.787362746213695
DUTCH: P(e) = -0.7296525128280946 ==> log prob of sentence so far: -26.364987899268577
PORTUGUESE: P(e) = -0.8804550652146593 ==> log prob of sentence so far: -34.07012084675265
SPANISH: P(e) = -0.8816549652595953 ==> log prob of sentence so far: -36.67973318761755

1GRAM: g
ENGLISH: P(g) = -1.660068197743731 ==> log prob of sentence so far: -28.796004812804714
FRENCH: P(g) = -2.0284572462247623 ==> log prob of sentence so far: -34.815819992438456
DUTCH: P(g) = -1.4839738919024508 ==> log prob of sentence so far: -27.84896179117103
PORTUGUESE: P(g) = -1.9281927529386005 ==> log prob of sentence so far: -35.99831359969125
SPANISH: P(g) = -1.9668935166461363 ==> log prob of sentence so far: -38.64662670426369

1GRAM: e
ENGLISH: P(e) = -0.9100712180599071 ==> log prob of sentence so far: -29.706076030864622
FRENCH: P(e) = -0.7669658145224565 ==> log prob of sentence so far: -35.58278580696091
DUTCH: P(e) = -0.7296525128280946 ==> log prob of sentence so far: -28.578614303999125
PORTUGUESE: P(e) = -0.8804550652146593 ==> log prob of sentence so far: -36.87876866490591
SPANISH: P(e) = -0.8816549652595953 ==> log prob of sentence so far: -39.52828166952328

1GRAM: r
ENGLISH: P(r) = -1.261272901312096 ==> log prob of sentence so far: -30.96734893217672
FRENCH: P(r) = -1.1840286390704569 ==> log prob of sentence so far: -36.76681444603137
DUTCH: P(r) = -1.2542028641369134 ==> log prob of sentence so far: -29.83281716813604
PORTUGUESE: P(r) = -1.1945470328532288 ==> log prob of sentence so far: -38.07331569775914
SPANISH: P(r) = -1.191045490967515 ==> log prob of sentence so far: -40.7193271604908

1GRAM: n
ENGLISH: P(n) = -1.1615969374026291 ==> log prob of sentence so far: -32.12894586957935
FRENCH: P(n) = -1.1226374766145046 ==> log prob of sentence so far: -37.889451922645875
DUTCH: P(n) = -0.9654264661937975 ==> log prob of sentence so far: -30.798243634329836
PORTUGUESE: P(n) = -1.3242854314663415 ==> log prob of sentence so far: -39.397601129225485
SPANISH: P(n) = -1.1498393665103084 ==> log prob of sentence so far: -41.869166527001106

1GRAM: i
ENGLISH: P(i) = -1.162525480273911 ==> log prob of sentence so far: -33.29147134985326
FRENCH: P(i) = -1.1352064426688435 ==> log prob of sentence so far: -39.02465836531472
DUTCH: P(i) = -1.2262490424361108 ==> log prob of sentence so far: -32.024492676765945
PORTUGUESE: P(i) = -1.2396988999998464 ==> log prob of sentence so far: -40.63730002922533
SPANISH: P(i) = -1.2231544531761491 ==> log prob of sentence so far: -43.092320980177256

1GRAM: e
ENGLISH: P(e) = -0.9100712180599071 ==> log prob of sentence so far: -34.201542567913165
FRENCH: P(e) = -0.7669658145224565 ==> log prob of sentence so far: -39.79162417983718
DUTCH: P(e) = -0.7296525128280946 ==> log prob of sentence so far: -32.75414518959404
PORTUGUESE: P(e) = -0.8804550652146593 ==> log prob of sentence so far: -41.51775509443999
SPANISH: P(e) = -0.8816549652595953 ==> log prob of sentence so far: -43.97397594543685

1GRAM: u
ENGLISH: P(u) = -1.5524881689579149 ==> log prob of sentence so far: -35.75403073687108
FRENCH: P(u) = -1.2061350611756212 ==> log prob of sentence so far: -40.9977592410128
DUTCH: P(u) = -1.74534287687545 ==> log prob of sentence so far: -34.49948806646949
PORTUGUESE: P(u) = -1.3141939526321222 ==> log prob of sentence so far: -42.831949047072115
SPANISH: P(u) = -1.3656717329598758 ==> log prob of sentence so far: -45.33964767839672

1GRAM: w
ENGLISH: P(w) = -1.6313539967808455 ==> log prob of sentence so far: -37.385384733651925
FRENCH: P(w) = -3.9191827290425008 ==> log prob of sentence so far: -44.916941970055305
DUTCH: P(w) = -1.7339741685927668 ==> log prob of sentence so far: -36.233462235062255
PORTUGUESE: P(w) = -3.37445658849446 ==> log prob of sentence so far: -46.206405635566576
SPANISH: P(w) = -5.865015092187244 ==> log prob of sentence so far: -51.204662770583965

1GRAM: a
ENGLISH: P(a) = -1.086788681042454 ==> log prob of sentence so far: -38.47217341469438
FRENCH: P(a) = -1.076353095105509 ==> log prob of sentence so far: -45.993295065160815
DUTCH: P(a) = -1.115393510092554 ==> log prob of sentence so far: -37.34885574515481
PORTUGUESE: P(a) = -0.8319048847689273 ==> log prob of sentence so far: -47.0383105203355
SPANISH: P(a) = -0.902025778564821 ==> log prob of sentence so far: -52.106688549148785

1GRAM: m
ENGLISH: P(m) = -1.6111104829831362 ==> log prob of sentence so far: -40.08328389767752
FRENCH: P(m) = -1.5129486053385504 ==> log prob of sentence so far: -47.506243670499366
DUTCH: P(m) = -1.618864695295976 ==> log prob of sentence so far: -38.96772044045078
PORTUGUESE: P(m) = -1.3143919171181386 ==> log prob of sentence so far: -48.35270243745364
SPANISH: P(m) = -1.497081738512457 ==> log prob of sentence so far: -53.60377028766124

1GRAM: s
ENGLISH: P(s) = -1.1711410127286013 ==> log prob of sentence so far: -41.25442491040612
FRENCH: P(s) = -1.064447714889656 ==> log prob of sentence so far: -48.57069138538902
DUTCH: P(s) = -1.460439695007922 ==> log prob of sentence so far: -40.428160135458704
PORTUGUESE: P(s) = -1.1129010285568741 ==> log prob of sentence so far: -49.46560346601051
SPANISH: P(s) = -1.1432621669802536 ==> log prob of sentence so far: -54.7470324546415

1GRAM: t
ENGLISH: P(t) = -1.0342236377842724 ==> log prob of sentence so far: -42.288648548190395
FRENCH: P(t) = -1.1659667480967535 ==> log prob of sentence so far: -49.736658133485776
DUTCH: P(t) = -1.2498840127620319 ==> log prob of sentence so far: -41.678044148220735
PORTUGUESE: P(t) = -1.3798331462051736 ==> log prob of sentence so far: -50.845436612215686
SPANISH: P(t) = -1.4035916054876783 ==> log prob of sentence so far: -56.150624060129175

1GRAM: e
ENGLISH: P(e) = -0.9100712180599071 ==> log prob of sentence so far: -43.1987197662503
FRENCH: P(e) = -0.7669658145224565 ==> log prob of sentence so far: -50.50362394800823
DUTCH: P(e) = -0.7296525128280946 ==> log prob of sentence so far: -42.40769666104883
PORTUGUESE: P(e) = -0.8804550652146593 ==> log prob of sentence so far: -51.72589167743035
SPANISH: P(e) = -0.8816549652595953 ==> log prob of sentence so far: -57.03227902538877

1GRAM: r
ENGLISH: P(r) = -1.261272901312096 ==> log prob of sentence so far: -44.459992667562396
FRENCH: P(r) = -1.1840286390704569 ==> log prob of sentence so far: -51.68765258707869
DUTCH: P(r) = -1.2542028641369134 ==> log prob of sentence so far: -43.661899525185746
PORTUGUESE: P(r) = -1.1945470328532288 ==> log prob of sentence so far: -52.92043871028358
SPANISH: P(r) = -1.191045490967515 ==> log prob of sentence so far: -58.223324516356286

1GRAM: d
ENGLISH: P(d) = -1.396179917541683 ==> log prob of sentence so far: -45.856172585104076
FRENCH: P(d) = -1.4202616779892512 ==> log prob of sentence so far: -53.10791426506794
DUTCH: P(d) = -1.2011871346521803 ==> log prob of sentence so far: -44.863086659837926
PORTUGUESE: P(d) = -1.3354060130264946 ==> log prob of sentence so far: -54.25584472331007
SPANISH: P(d) = -1.290763837647315 ==> log prob of sentence so far: -59.5140883540036

1GRAM: a
ENGLISH: P(a) = -1.086788681042454 ==> log prob of sentence so far: -46.94296126614653
FRENCH: P(a) = -1.076353095105509 ==> log prob of sentence so far: -54.18426736017345
DUTCH: P(a) = -1.115393510092554 ==> log prob of sentence so far: -45.97848016993048
PORTUGUESE: P(a) = -0.8319048847689273 ==> log prob of sentence so far: -55.087749608078994
SPANISH: P(a) = -0.902025778564821 ==> log prob of sentence so far: -60.41611413256842

1GRAM: m
ENGLISH: P(m) = -1.6111104829831362 ==> log prob of sentence so far: -48.55407174912967
FRENCH: P(m) = -1.5129486053385504 ==> log prob of sentence so far: -55.697215965512
DUTCH: P(m) = -1.618864695295976 ==> log prob of sentence so far: -47.597344865226454
PORTUGUESE: P(m) = -1.3143919171181386 ==> log prob of sentence so far: -56.40214152519713
SPANISH: P(m) = -1.497081738512457 ==> log prob of sentence so far: -61.91319587108087

1GRAM: h
ENGLISH: P(h) = -1.180274162400034 ==> log prob of sentence so far: -49.7343459115297
FRENCH: P(h) = -2.1056297044472685 ==> log prob of sentence so far: -57.80284566995927
DUTCH: P(h) = -1.4907856078212052 ==> log prob of sentence so far: -49.088130473047656
PORTUGUESE: P(h) = -1.8092147133299747 ==> log prob of sentence so far: -58.2113562385271
SPANISH: P(h) = -1.8922107698506663 ==> log prob of sentence so far: -63.80540664093154

1GRAM: e
ENGLISH: P(e) = -0.9100712180599071 ==> log prob of sentence so far: -50.644417129589606
FRENCH: P(e) = -0.7669658145224565 ==> log prob of sentence so far: -58.569811484481725
DUTCH: P(e) = -0.7296525128280946 ==> log prob of sentence so far: -49.81778298587575
PORTUGUESE: P(e) = -0.8804550652146593 ==> log prob of sentence so far: -59.091811303741764
SPANISH: P(e) = -0.8816549652595953 ==> log prob of sentence so far: -64.68706160619114

1GRAM: e
ENGLISH: P(e) = -0.9100712180599071 ==> log prob of sentence so far: -51.55448834764951
FRENCH: P(e) = -0.7669658145224565 ==> log prob of sentence so far: -59.33677729900418
DUTCH: P(e) = -0.7296525128280946 ==> log prob of sentence so far: -50.54743549870385
PORTUGUESE: P(e) = -0.8804550652146593 ==> log prob of sentence so far: -59.972266368956426
SPANISH: P(e) = -0.8816549652595953 ==> log prob of sentence so far: -65.56871657145074

1GRAM: t
ENGLISH: P(t) = -1.0342236377842724 ==> log prob of sentence so far: -52.58871198543378
FRENCH: P(t) = -1.1659667480967535 ==> log prob of sentence so far: -60.50274404710093
DUTCH: P(t) = -1.2498840127620319 ==> log prob of sentence so far: -51.79731951146588
PORTUGUESE: P(t) = -1.3798331462051736 ==> log prob of sentence so far: -61.3520995151616
SPANISH: P(t) = -1.4035916054876783 ==> log prob of sentence so far: -66.97230817693841

1GRAM: t
ENGLISH: P(t) = -1.0342236377842724 ==> log prob of sentence so far: -53.622935623218055
FRENCH: P(t) = -1.1659667480967535 ==> log prob of sentence so far: -61.66871079519768
DUTCH: P(t) = -1.2498840127620319 ==> log prob of sentence so far: -53.04720352422791
PORTUGUESE: P(t) = -1.3798331462051736 ==> log prob of sentence so far: -62.73193266136677
SPANISH: P(t) = -1.4035916054876783 ==> log prob of sentence so far: -68.37589978242609

1GRAM: e
ENGLISH: P(e) = -0.9100712180599071 ==> log prob of sentence so far: -54.53300684127796
FRENCH: P(e) = -0.7669658145224565 ==> log prob of sentence so far: -62.43567660972014
DUTCH: P(e) = -0.7296525128280946 ==> log prob of sentence so far: -53.77685603705601
PORTUGUESE: P(e) = -0.8804550652146593 ==> log prob of sentence so far: -63.61238772658143
SPANISH: P(e) = -0.8816549652595953 ==> log prob of sentence so far: -69.25755474768569

According to the 1gram model, the sentence is in Dutch
----------------
2GRAM MODEL:

2GRAM: we
ENGLISH: P(e|w) = -0.9051710548988606 ==> log prob of sentence so far: -0.9051710548988606
FRENCH: P(e|w) = -1.0045476277507206 ==> log prob of sentence so far: -1.0045476277507206
DUTCH: P(e|w) = -0.47829059207084945 ==> log prob of sentence so far: -0.47829059207084945
PORTUGUESE: P(e|w) = -1.8573324964312685 ==> log prob of sentence so far: -1.8573324964312685
SPANISH: P(e|w) = -1.4313637641589874 ==> log prob of sentence so far: -1.4313637641589874

2GRAM: ee
ENGLISH: P(e|e) = -1.3180648619400497 ==> log prob of sentence so far: -2.2232359168389104
FRENCH: P(e|e) = -1.512239546726205 ==> log prob of sentence so far: -2.5167871744769257
DUTCH: P(e|e) = -1.024618410433812 ==> log prob of sentence so far: -1.5029090025046616
PORTUGUESE: P(e|e) = -1.389515953250517 ==> log prob of sentence so far: -3.2468484496817855
SPANISH: P(e|e) = -1.472205253711724 ==> log prob of sentence so far: -2.903569017870711

2GRAM: et
ENGLISH: P(t|e) = -1.1805749996736075 ==> log prob of sentence so far: -3.403810916512518
FRENCH: P(t|e) = -1.081730001747917 ==> log prob of sentence so far: -3.598517176224843
DUTCH: P(t|e) = -1.1837528305322884 ==> log prob of sentence so far: -2.68666183303695
PORTUGUESE: P(t|e) = -1.551723849866917 ==> log prob of sentence so far: -4.798572299548702
SPANISH: P(t|e) = -1.5942592148484573 ==> log prob of sentence so far: -4.4978282327191685

2GRAM: tj
ENGLISH: P(j|t) = -3.2014071477344546 ==> log prob of sentence so far: -6.605218064246973
FRENCH: P(j|t) = -1.9006746216148118 ==> log prob of sentence so far: -5.4991917978396545
DUTCH: P(j|t) = -2.0411015705353908 ==> log prob of sentence so far: -4.727763403572341
PORTUGUESE: P(j|t) = -3.4310419453358856 ==> log prob of sentence so far: -8.229614244884587
SPANISH: P(j|t) = -4.461648568063455 ==> log prob of sentence so far: -8.959476800782625

2GRAM: je
ENGLISH: P(e|j) = -0.6566809422199426 ==> log prob of sentence so far: -7.2618990064669156
FRENCH: P(e|j) = -0.18953034431781754 ==> log prob of sentence so far: -5.688722142157472
DUTCH: P(e|j) = -0.907377709814614 ==> log prob of sentence so far: -5.635141113386955
PORTUGUESE: P(e|j) = -1.0247510138390077 ==> log prob of sentence so far: -9.254365258723595
SPANISH: P(e|j) = -0.800048655932389 ==> log prob of sentence so far: -9.759525456715014

2GRAM: ed
ENGLISH: P(d|e) = -1.0374576111626355 ==> log prob of sentence so far: -8.29935661762955
FRENCH: P(d|e) = -1.2790847979127375 ==> log prob of sentence so far: -6.96780694007021
DUTCH: P(d|e) = -1.4578230851038796 ==> log prob of sentence so far: -7.092964198490835
PORTUGUESE: P(d|e) = -1.401861072040889 ==> log prob of sentence so far: -10.656226330764484
SPANISH: P(d|e) = -1.3438002422189979 ==> log prob of sentence so far: -11.103325698934013

2GRAM: da
ENGLISH: P(a|d) = -1.000023851849847 ==> log prob of sentence so far: -9.299380469479397
FRENCH: P(a|d) = -0.9714919974560264 ==> log prob of sentence so far: -7.939298937526236
DUTCH: P(a|d) = -0.9675295865654563 ==> log prob of sentence so far: -8.060493785056291
PORTUGUESE: P(a|d) = -0.6380643178516617 ==> log prob of sentence so far: -11.294290648616146
SPANISH: P(a|d) = -0.8884054452805904 ==> log prob of sentence so far: -11.991731144214603

2GRAM: at
ENGLISH: P(t|a) = -0.8627525070949107 ==> log prob of sentence so far: -10.162132976574307
FRENCH: P(t|a) = -1.2479713976288138 ==> log prob of sentence so far: -9.18727033515505
DUTCH: P(t|a) = -1.1097120347995644 ==> log prob of sentence so far: -9.170205819855855
PORTUGUESE: P(t|a) = -1.5396804063374159 ==> log prob of sentence so far: -12.833971054953562
SPANISH: P(t|a) = -1.5459294951996159 ==> log prob of sentence so far: -13.537660639414218

2GRAM: tn
ENGLISH: P(n|t) = -2.1962581332348874 ==> log prob of sentence so far: -12.358391109809194
FRENCH: P(n|t) = -1.9480285591208415 ==> log prob of sentence so far: -11.135298894275891
DUTCH: P(n|t) = -1.8000497445775443 ==> log prob of sentence so far: -10.9702555644334
PORTUGUESE: P(n|t) = -4.2761399853501425 ==> log prob of sentence so far: -17.110111040303703
SPANISH: P(n|t) = -3.6165505280491983 ==> log prob of sentence so far: -17.154211167463416

2GRAM: ne
ENGLISH: P(e|n) = -1.0532701120323171 ==> log prob of sentence so far: -13.411661221841511
FRENCH: P(e|n) = -0.7543075705657655 ==> log prob of sentence so far: -11.889606464841657
DUTCH: P(e|n) = -1.0854967763423953 ==> log prob of sentence so far: -12.055752340775795
PORTUGUESE: P(e|n) = -1.2167257748200284 ==> log prob of sentence so far: -18.32683681512373
SPANISH: P(e|n) = -1.0592859040672948 ==> log prob of sentence so far: -18.21349707153071

2GRAM: ew
ENGLISH: P(w|e) = -1.446578168277128 ==> log prob of sentence so far: -14.858239390118639
FRENCH: P(w|e) = -3.411675196218452 ==> log prob of sentence so far: -15.30128166106011
DUTCH: P(w|e) = -1.756963590776379 ==> log prob of sentence so far: -13.812715931552175
PORTUGUESE: P(w|e) = -4.28438560999577 ==> log prob of sentence so far: -22.6112224251195
SPANISH: P(w|e) = -4.970653656885724 ==> log prob of sentence so far: -23.184150728416434

2GRAM: wy
ENGLISH: P(y|w) = -2.578688177110439 ==> log prob of sentence so far: -17.436927567229077
FRENCH: P(y|w) = -0.739233184353274 ==> log prob of sentence so far: -16.040514845413384
DUTCH: P(y|w) = -3.7060916285745886 ==> log prob of sentence so far: -17.518807560126763
PORTUGUESE: P(y|w) = -2.334453751150931 ==> log prob of sentence so far: -24.94567617627043
SPANISH: P(y|w) = -1.4313637641589874 ==> log prob of sentence so far: -24.61551449257542

2GRAM: yo
ENGLISH: P(o|y) = -0.8630308504289746 ==> log prob of sentence so far: -18.29995841765805
FRENCH: P(o|y) = -1.1094368251963933 ==> log prob of sentence so far: -17.149951670609777
DUTCH: P(o|y) = -1.2805083285193795 ==> log prob of sentence so far: -18.79931588864614
PORTUGUESE: P(o|y) = -1.8808135922807914 ==> log prob of sentence so far: -26.826489768551223
SPANISH: P(o|y) = -0.8833685736579849 ==> log prob of sentence so far: -25.498883066233407

2GRAM: or
ENGLISH: P(r|o) = -0.9303205281138703 ==> log prob of sentence so far: -19.23027894577192
FRENCH: P(r|o) = -1.0254415297583428 ==> log prob of sentence so far: -18.17539320036812
DUTCH: P(r|o) = -0.9352181994773429 ==> log prob of sentence so far: -19.734534088123485
PORTUGUESE: P(r|o) = -0.9139400513958311 ==> log prob of sentence so far: -27.740429819947053
SPANISH: P(r|o) = -0.9211868968784621 ==> log prob of sentence so far: -26.42006996311187

2GRAM: rk
ENGLISH: P(k|r) = -1.8691893433361626 ==> log prob of sentence so far: -21.099468289108085
FRENCH: P(k|r) = -3.363515555717258 ==> log prob of sentence so far: -21.538908756085377
DUTCH: P(k|r) = -1.5882065414911823 ==> log prob of sentence so far: -21.322740629614668
PORTUGUESE: P(k|r) = -3.972819734053675 ==> log prob of sentence so far: -31.71324955400073
SPANISH: P(k|r) = -4.188478495913935 ==> log prob of sentence so far: -30.608548459025805

2GRAM: kv
ENGLISH: P(v|k) = -2.872406034749945 ==> log prob of sentence so far: -23.97187432385803
FRENCH: P(v|k) = -2.146128035678238 ==> log prob of sentence so far: -23.685036791763615
DUTCH: P(v|k) = -1.6151288274096993 ==> log prob of sentence so far: -22.937869457024366
PORTUGUESE: P(v|k) = -1.505149978319906 ==> log prob of sentence so far: -33.21839953232063
SPANISH: P(v|k) = -2.093421685162235 ==> log prob of sentence so far: -32.70197014418804

2GRAM: vr
ENGLISH: P(r|v) = -3.2850569696875676 ==> log prob of sentence so far: -27.2569312935456
FRENCH: P(r|v) = -1.317255157047467 ==> log prob of sentence so far: -25.00229194881108
DUTCH: P(r|v) = -1.173851798201472 ==> log prob of sentence so far: -24.111721255225838
PORTUGUESE: P(r|v) = -1.5338843810472902 ==> log prob of sentence so far: -34.75228391336792
SPANISH: P(r|v) = -3.919601023784111 ==> log prob of sentence so far: -36.62157116797215

2GRAM: ro
ENGLISH: P(o|r) = -0.9679454985579867 ==> log prob of sentence so far: -28.224876792103586
FRENCH: P(o|r) = -1.1139096014103482 ==> log prob of sentence so far: -26.11620155022143
DUTCH: P(o|r) = -1.030099792018266 ==> log prob of sentence so far: -25.141821047244104
PORTUGUESE: P(o|r) = -0.9761621541266129 ==> log prob of sentence so far: -35.72844606749453
SPANISH: P(o|r) = -0.8581323749493194 ==> log prob of sentence so far: -37.47970354292147

2GRAM: oe
ENGLISH: P(e|o) = -2.1228938724075666 ==> log prob of sentence so far: -30.347770664511152
FRENCH: P(e|o) = -2.1436581077967913 ==> log prob of sentence so far: -28.25985965801822
DUTCH: P(e|o) = -0.9763450567600688 ==> log prob of sentence so far: -26.11816610400417
PORTUGUESE: P(e|o) = -1.2128257707806935 ==> log prob of sentence so far: -36.94127183827523
SPANISH: P(e|o) = -1.3160770542189604 ==> log prob of sentence so far: -38.79578059714043

2GRAM: eg
ENGLISH: P(g|e) = -1.810870115955799 ==> log prob of sentence so far: -32.15864078046695
FRENCH: P(g|e) = -1.9636657737352954 ==> log prob of sentence so far: -30.22352543175352
DUTCH: P(g|e) = -1.5536025237423152 ==> log prob of sentence so far: -27.671768627746488
PORTUGUESE: P(g|e) = -1.7636837839697066 ==> log prob of sentence so far: -38.70495562224493
SPANISH: P(g|e) = -1.6777333572857174 ==> log prob of sentence so far: -40.473513954426146

2GRAM: ge
ENGLISH: P(e|g) = -0.9265758577482255 ==> log prob of sentence so far: -33.08521663821518
FRENCH: P(e|g) = -0.48287091144665056 ==> log prob of sentence so far: -30.70639634320017
DUTCH: P(e|g) = -0.2782530205507486 ==> log prob of sentence so far: -27.950021648297238
PORTUGUESE: P(e|g) = -0.8871799851026562 ==> log prob of sentence so far: -39.592135607347586
SPANISH: P(e|g) = -1.0792907366524915 ==> log prob of sentence so far: -41.552804691078634

2GRAM: er
ENGLISH: P(r|e) = -0.8561613604222861 ==> log prob of sentence so far: -33.94137799863746
FRENCH: P(r|e) = -1.0504664166531121 ==> log prob of sentence so far: -31.75686275985328
DUTCH: P(r|e) = -0.8727420982068449 ==> log prob of sentence so far: -28.822763746504084
PORTUGUESE: P(r|e) = -0.9762482313577309 ==> log prob of sentence so far: -40.568383838705316
SPANISH: P(r|e) = -0.9099180534364051 ==> log prob of sentence so far: -42.46272274451504

2GRAM: rn
ENGLISH: P(n|r) = -1.564879280247999 ==> log prob of sentence so far: -35.506257278885464
FRENCH: P(n|r) = -1.798333972346413 ==> log prob of sentence so far: -33.5551967321997
DUTCH: P(n|r) = -1.6297863015960445 ==> log prob of sentence so far: -30.45255004810013
PORTUGUESE: P(n|r) = -1.7862400633836895 ==> log prob of sentence so far: -42.354623902089
SPANISH: P(n|r) = -1.8669491051883285 ==> log prob of sentence so far: -44.32967184970337

2GRAM: ni
ENGLISH: P(i|n) = -1.3332322954338982 ==> log prob of sentence so far: -36.83948957431936
FRENCH: P(i|n) = -1.4845526185364621 ==> log prob of sentence so far: -35.03974935073616
DUTCH: P(i|n) = -1.2579813083737479 ==> log prob of sentence so far: -31.710531356473876
PORTUGUESE: P(i|n) = -1.526169332374213 ==> log prob of sentence so far: -43.88079323446321
SPANISH: P(i|n) = -1.403921655876726 ==> log prob of sentence so far: -45.733593505580096

2GRAM: ie
ENGLISH: P(e|i) = -1.5107075344419896 ==> log prob of sentence so far: -38.35019710876135
FRENCH: P(e|i) = -0.9021220228745312 ==> log prob of sentence so far: -35.94187137361069
DUTCH: P(e|i) = -0.7078508965711553 ==> log prob of sentence so far: -32.41838225304503
PORTUGUESE: P(e|i) = -1.8490694524427844 ==> log prob of sentence so far: -45.729862686905996
SPANISH: P(e|i) = -0.8666515620295678 ==> log prob of sentence so far: -46.60024506760966

2GRAM: eu
ENGLISH: P(u|e) = -2.3662597924696036 ==> log prob of sentence so far: -40.716456901230956
FRENCH: P(u|e) = -1.2864621294283165 ==> log prob of sentence so far: -37.228333503039
DUTCH: P(u|e) = -2.0250133202826395 ==> log prob of sentence so far: -34.44339557332767
PORTUGUESE: P(u|e) = -1.3185569951375704 ==> log prob of sentence so far: -47.048419682043566
SPANISH: P(u|e) = -2.0336375494209094 ==> log prob of sentence so far: -48.63388261703057

2GRAM: uw
ENGLISH: P(w|u) = -2.283041716008703 ==> log prob of sentence so far: -42.99949861723966
FRENCH: P(w|u) = -4.935366172774795 ==> log prob of sentence so far: -42.163699675813795
DUTCH: P(w|u) = -1.0756144857242445 ==> log prob of sentence so far: -35.519010059051915
PORTUGUESE: P(w|u) = -3.8582965245338854 ==> log prob of sentence so far: -50.90671620657745
SPANISH: P(w|u) = -4.497123239401496 ==> log prob of sentence so far: -53.13100585643207

2GRAM: wa
ENGLISH: P(a|w) = -0.7200687287449945 ==> log prob of sentence so far: -43.71956734598466
FRENCH: P(a|w) = -0.4444521379662943 ==> log prob of sentence so far: -42.60815181378009
DUTCH: P(a|w) = -0.39019122344826795 ==> log prob of sentence so far: -35.909201282500185
PORTUGUESE: P(a|w) = -0.057991946977686754 ==> log prob of sentence so far: -50.96470815355514
SPANISH: P(a|w) = -1.4313637641589874 ==> log prob of sentence so far: -54.562369620591056

2GRAM: am
ENGLISH: P(m|a) = -1.554058885450191 ==> log prob of sentence so far: -45.27362623143485
FRENCH: P(m|a) = -1.4546524227372173 ==> log prob of sentence so far: -44.06280423651731
DUTCH: P(m|a) = -1.5344150734909268 ==> log prob of sentence so far: -37.44361635599111
PORTUGUESE: P(m|a) = -1.1563903702692608 ==> log prob of sentence so far: -52.1210985238244
SPANISH: P(m|a) = -1.217608936912824 ==> log prob of sentence so far: -55.77997855750388

2GRAM: ms
ENGLISH: P(s|m) = -1.4200885488819108 ==> log prob of sentence so far: -46.69371478031676
FRENCH: P(s|m) = -2.9046645196442418 ==> log prob of sentence so far: -46.96746875616155
DUTCH: P(s|m) = -1.7362971580136788 ==> log prob of sentence so far: -39.17991351400479
PORTUGUESE: P(s|m) = -1.5498338663026678 ==> log prob of sentence so far: -53.67093239012707
SPANISH: P(s|m) = -2.597174404471532 ==> log prob of sentence so far: -58.37715296197541

2GRAM: st
ENGLISH: P(t|s) = -0.7036883326029575 ==> log prob of sentence so far: -47.39740311291972
FRENCH: P(t|s) = -1.237330102985858 ==> log prob of sentence so far: -48.20479885914741
DUTCH: P(t|s) = -0.5218022449966206 ==> log prob of sentence so far: -39.70171575900141
PORTUGUESE: P(t|s) = -0.9396505633976571 ==> log prob of sentence so far: -54.61058295352473
SPANISH: P(t|s) = -0.8814889172626352 ==> log prob of sentence so far: -59.25864187923805

2GRAM: te
ENGLISH: P(e|t) = -1.0589086136007413 ==> log prob of sentence so far: -48.45631172652046
FRENCH: P(e|t) = -0.674136919284091 ==> log prob of sentence so far: -48.8789357784315
DUTCH: P(e|t) = -0.5037931098324119 ==> log prob of sentence so far: -40.205508868833824
PORTUGUESE: P(e|t) = -0.5755227896680853 ==> log prob of sentence so far: -55.18610574319281
SPANISH: P(e|t) = -0.6109410826889178 ==> log prob of sentence so far: -59.869582961926966

2GRAM: er
ENGLISH: P(r|e) = -0.8561613604222861 ==> log prob of sentence so far: -49.312473086942745
FRENCH: P(r|e) = -1.0504664166531121 ==> log prob of sentence so far: -49.929402195084606
DUTCH: P(r|e) = -0.8727420982068449 ==> log prob of sentence so far: -41.07825096704067
PORTUGUESE: P(r|e) = -0.9762482313577309 ==> log prob of sentence so far: -56.16235397455054
SPANISH: P(r|e) = -0.9099180534364051 ==> log prob of sentence so far: -60.77950101536337

2GRAM: rd
ENGLISH: P(d|r) = -1.385429591354749 ==> log prob of sentence so far: -50.697902678297496
FRENCH: P(d|r) = -1.3136021053854252 ==> log prob of sentence so far: -51.243004300470034
DUTCH: P(d|r) = -0.8392576830556736 ==> log prob of sentence so far: -41.91750865009634
PORTUGUESE: P(d|r) = -1.423407724250041 ==> log prob of sentence so far: -57.58576169880058
SPANISH: P(d|r) = -1.3178795335995592 ==> log prob of sentence so far: -62.09738054896293

2GRAM: da
ENGLISH: P(a|d) = -1.000023851849847 ==> log prob of sentence so far: -51.69792653014734
FRENCH: P(a|d) = -0.9714919974560264 ==> log prob of sentence so far: -52.21449629792606
DUTCH: P(a|d) = -0.9675295865654563 ==> log prob of sentence so far: -42.88503823666179
PORTUGUESE: P(a|d) = -0.6380643178516617 ==> log prob of sentence so far: -58.22382601665225
SPANISH: P(a|d) = -0.8884054452805904 ==> log prob of sentence so far: -62.98578599424352

2GRAM: am
ENGLISH: P(m|a) = -1.554058885450191 ==> log prob of sentence so far: -53.25198541559753
FRENCH: P(m|a) = -1.4546524227372173 ==> log prob of sentence so far: -53.66914872066328
DUTCH: P(m|a) = -1.5344150734909268 ==> log prob of sentence so far: -44.41945331015272
PORTUGUESE: P(m|a) = -1.1563903702692608 ==> log prob of sentence so far: -59.38021638692151
SPANISH: P(m|a) = -1.217608936912824 ==> log prob of sentence so far: -64.20339493115634

2GRAM: mh
ENGLISH: P(h|m) = -1.929070635386859 ==> log prob of sentence so far: -55.18105605098439
FRENCH: P(h|m) = -3.514997036938194 ==> log prob of sentence so far: -57.18414575760147
DUTCH: P(h|m) = -1.719773092191618 ==> log prob of sentence so far: -46.139226402344335
PORTUGUESE: P(h|m) = -2.5055144382543104 ==> log prob of sentence so far: -61.88573082517582
SPANISH: P(h|m) = -3.2540830638068394 ==> log prob of sentence so far: -67.45747799496318

2GRAM: he
ENGLISH: P(e|h) = -0.37002759861537876 ==> log prob of sentence so far: -55.55108364959977
FRENCH: P(e|h) = -0.45804503705298444 ==> log prob of sentence so far: -57.642190794654454
DUTCH: P(e|h) = -0.44013802186839185 ==> log prob of sentence so far: -46.57936442421273
PORTUGUESE: P(e|h) = -0.5754988716421023 ==> log prob of sentence so far: -62.461229696817924
SPANISH: P(e|h) = -0.8490540263197558 ==> log prob of sentence so far: -68.30653202128293

2GRAM: ee
ENGLISH: P(e|e) = -1.3180648619400497 ==> log prob of sentence so far: -56.86914851153982
FRENCH: P(e|e) = -1.512239546726205 ==> log prob of sentence so far: -59.15443034138066
DUTCH: P(e|e) = -1.024618410433812 ==> log prob of sentence so far: -47.60398283464654
PORTUGUESE: P(e|e) = -1.389515953250517 ==> log prob of sentence so far: -63.85074565006844
SPANISH: P(e|e) = -1.472205253711724 ==> log prob of sentence so far: -69.77873727499465

2GRAM: et
ENGLISH: P(t|e) = -1.1805749996736075 ==> log prob of sentence so far: -58.04972351121343
FRENCH: P(t|e) = -1.081730001747917 ==> log prob of sentence so far: -60.236160343128574
DUTCH: P(t|e) = -1.1837528305322884 ==> log prob of sentence so far: -48.78773566517883
PORTUGUESE: P(t|e) = -1.551723849866917 ==> log prob of sentence so far: -65.40246949993535
SPANISH: P(t|e) = -1.5942592148484573 ==> log prob of sentence so far: -71.37299648984312

2GRAM: tt
ENGLISH: P(t|t) = -1.2608815244736162 ==> log prob of sentence so far: -59.31060503568705
FRENCH: P(t|t) = -1.3533095134855202 ==> log prob of sentence so far: -61.589469856614095
DUTCH: P(t|t) = -1.3899093111056346 ==> log prob of sentence so far: -50.17764497628446
PORTUGUESE: P(t|t) = -2.038093882221347 ==> log prob of sentence so far: -67.4405633821567
SPANISH: P(t|t) = -3.6165505280491983 ==> log prob of sentence so far: -74.98954701789232

2GRAM: te
ENGLISH: P(e|t) = -1.0589086136007413 ==> log prob of sentence so far: -60.36951364928779
FRENCH: P(e|t) = -0.674136919284091 ==> log prob of sentence so far: -62.26360677589818
DUTCH: P(e|t) = -0.5037931098324119 ==> log prob of sentence so far: -50.68143808611688
PORTUGUESE: P(e|t) = -0.5755227896680853 ==> log prob of sentence so far: -68.01608617182478
SPANISH: P(e|t) = -0.6109410826889178 ==> log prob of sentence so far: -75.60048810058125

According to the 2gram model, the sentence is in Dutch
----------------
3GRAM MODEL:

3GRAM: wee
ENGLISH: P(e|we) = -1.0780711262635805 ==> log prob of sentence so far: -1.0780711262635805
FRENCH: P(e|we) = -1.6434526764861874 ==> log prob of sentence so far: -1.6434526764861874
DUTCH: P(e|we) = -0.6812412373755872 ==> log prob of sentence so far: -0.6812412373755872
PORTUGUESE: P(e|we) = -1.4471580313422192 ==> log prob of sentence so far: -1.4471580313422192
SPANISH: P(e|we) = -1.4313637641589874 ==> log prob of sentence so far: -1.4313637641589874

3GRAM: eet
ENGLISH: P(t|ee) = -1.034260205727328 ==> log prob of sentence so far: -2.1123313319909087
FRENCH: P(t|ee) = -0.511170046682839 ==> log prob of sentence so far: -2.1546227231690267
DUTCH: P(t|ee) = -1.6587578821382158 ==> log prob of sentence so far: -2.339999119513803
PORTUGUESE: P(t|ee) = -1.7800032552452372 ==> log prob of sentence so far: -3.2271612865874566
SPANISH: P(t|ee) = -2.8023631743095474 ==> log prob of sentence so far: -4.233726938468535

3GRAM: etj
ENGLISH: P(j|et) = -3.4719954019748225 ==> log prob of sentence so far: -5.584326733965732
FRENCH: P(j|et) = -1.5321495041566564 ==> log prob of sentence so far: -3.686772227325683
DUTCH: P(j|et) = -1.826773737160844 ==> log prob of sentence so far: -4.166772856674647
PORTUGUESE: P(j|et) = -3.216429830876251 ==> log prob of sentence so far: -6.443591117463708
SPANISH: P(j|et) = -3.3805730030668872 ==> log prob of sentence so far: -7.614299941535422

3GRAM: tje
ENGLISH: P(e|tj) = -0.8966558769865337 ==> log prob of sentence so far: -6.480982610952266
FRENCH: P(e|tj) = -0.15862184981087252 ==> log prob of sentence so far: -3.8453940771365556
DUTCH: P(e|tj) = -0.1130395133085922 ==> log prob of sentence so far: -4.279812369983239
PORTUGUESE: P(e|tj) = -1.505149978319906 ==> log prob of sentence so far: -7.948741095783614
SPANISH: P(e|tj) = -1.4313637641589874 ==> log prob of sentence so far: -9.045663705694409

3GRAM: jed
ENGLISH: P(d|je) = -2.7075701760979363 ==> log prob of sentence so far: -9.188552787050202
FRENCH: P(d|je) = -1.3668035922184478 ==> log prob of sentence so far: -5.212197669355003
DUTCH: P(d|je) = -1.0100419382941406 ==> log prob of sentence so far: -5.28985430827738
PORTUGUESE: P(d|je) = -1.7103994661168007 ==> log prob of sentence so far: -9.659140561900415
SPANISH: P(d|je) = -1.4520286747135602 ==> log prob of sentence so far: -10.497692380407969

3GRAM: eda
ENGLISH: P(a|ed) = -0.8719141478653153 ==> log prob of sentence so far: -10.060466934915517
FRENCH: P(a|ed) = -1.1191641118152111 ==> log prob of sentence so far: -6.331361781170214
DUTCH: P(a|ed) = -0.8353382027251006 ==> log prob of sentence so far: -6.1251925110024805
PORTUGUESE: P(a|ed) = -0.8419191211094109 ==> log prob of sentence so far: -10.501059683009826
SPANISH: P(a|ed) = -0.8967765679838375 ==> log prob of sentence so far: -11.394468948391806

3GRAM: dat
ENGLISH: P(t|da) = -1.0861067769052943 ==> log prob of sentence so far: -11.146573711820812
FRENCH: P(t|da) = -1.6888838945119475 ==> log prob of sentence so far: -8.020245675682162
DUTCH: P(t|da) = -0.331860153237466 ==> log prob of sentence so far: -6.457052664239947
PORTUGUESE: P(t|da) = -1.6376645701731947 ==> log prob of sentence so far: -12.138724253183021
SPANISH: P(t|da) = -1.8919058200394299 ==> log prob of sentence so far: -13.286374768431235

3GRAM: atn
ENGLISH: P(n|at) = -1.9539873422863303 ==> log prob of sentence so far: -13.100561054107143
FRENCH: P(n|at) = -2.9725995147487674 ==> log prob of sentence so far: -10.992845190430929
DUTCH: P(n|at) = -1.7139795148078025 ==> log prob of sentence so far: -8.17103217904775
PORTUGUESE: P(n|at) = -3.2704459080179626 ==> log prob of sentence so far: -15.409170161200983
SPANISH: P(n|at) = -3.4058583993176366 ==> log prob of sentence so far: -16.69223316774887

3GRAM: tne
ENGLISH: P(e|tn) = -0.6775607536372196 ==> log prob of sentence so far: -13.778121807744363
FRENCH: P(e|tn) = -0.39256476196024676 ==> log prob of sentence so far: -11.385409952391175
DUTCH: P(e|tn) = -1.3400232576917517 ==> log prob of sentence so far: -9.5110554367395
PORTUGUESE: P(e|tn) = -1.4313637641589874 ==> log prob of sentence so far: -16.84053392535997
SPANISH: P(e|tn) = -1.505149978319906 ==> log prob of sentence so far: -18.197383146068777

3GRAM: new
ENGLISH: P(w|ne) = -1.241183546451307 ==> log prob of sentence so far: -15.01930535419567
FRENCH: P(w|ne) = -2.6241621282975713 ==> log prob of sentence so far: -14.009572080688747
DUTCH: P(w|ne) = -2.5146109917549597 ==> log prob of sentence so far: -12.02566642849446
PORTUGUESE: P(w|ne) = -3.1231980750319988 ==> log prob of sentence so far: -19.96373200039197
SPANISH: P(w|ne) = -3.6442415858437287 ==> log prob of sentence so far: -21.841624731912507

3GRAM: ewy
ENGLISH: P(y|ew) = -2.387389826338729 ==> log prob of sentence so far: -17.4066951805344
FRENCH: P(y|ew) = -0.5203899448766428 ==> log prob of sentence so far: -14.52996202556539
DUTCH: P(y|ew) = -2.9500401482063032 ==> log prob of sentence so far: -14.975706576700764
PORTUGUESE: P(y|ew) = -1.4471580313422192 ==> log prob of sentence so far: -21.41089003173419
SPANISH: P(y|ew) = -1.4313637641589874 ==> log prob of sentence so far: -23.272988496071495

3GRAM: wyo
ENGLISH: P(o|wy) = -0.42801247478226745 ==> log prob of sentence so far: -17.834707655316667
FRENCH: P(o|wy) = -0.23408320603336796 ==> log prob of sentence so far: -14.764045231598757
DUTCH: P(o|wy) = -0.9700367766225568 ==> log prob of sentence so far: -15.945743353323321
PORTUGUESE: P(o|wy) = -1.4313637641589874 ==> log prob of sentence so far: -22.84225379589318
SPANISH: P(o|wy) = -1.4313637641589874 ==> log prob of sentence so far: -24.704352260230483

3GRAM: yor
ENGLISH: P(r|yo) = -1.5362800104171634 ==> log prob of sentence so far: -19.37098766573383
FRENCH: P(r|yo) = -0.8641719209615739 ==> log prob of sentence so far: -15.628217152560332
DUTCH: P(r|yo) = -1.1026623418971477 ==> log prob of sentence so far: -17.04840569522047
PORTUGUESE: P(r|yo) = -1.4471580313422192 ==> log prob of sentence so far: -24.289411827235398
SPANISH: P(r|yo) = -1.0750956610542541 ==> log prob of sentence so far: -25.779447921284735

3GRAM: ork
ENGLISH: P(k|or) = -1.654406813937821 ==> log prob of sentence so far: -21.02539447967165
FRENCH: P(k|or) = -2.274407515543567 ==> log prob of sentence so far: -17.902624668103897
DUTCH: P(k|or) = -1.9173797525285392 ==> log prob of sentence so far: -18.96578544774901
PORTUGUESE: P(k|or) = -3.7264011621029223 ==> log prob of sentence so far: -28.015812989338322
SPANISH: P(k|or) = -3.902872785446079 ==> log prob of sentence so far: -29.682320706730813

3GRAM: rkv
ENGLISH: P(v|rk) = -2.284591852185044 ==> log prob of sentence so far: -23.309986331856695
FRENCH: P(v|rk) = -1.286306738843275 ==> log prob of sentence so far: -19.188931406947173
DUTCH: P(v|rk) = -1.4524222713345765 ==> log prob of sentence so far: -20.418207719083586
PORTUGUESE: P(v|rk) = -1.4471580313422192 ==> log prob of sentence so far: -29.46297102068054
SPANISH: P(v|rk) = -1.4471580313422192 ==> log prob of sentence so far: -31.129478738073033

3GRAM: kvr
ENGLISH: P(r|kv) = -1.662757831681574 ==> log prob of sentence so far: -24.97274416353827
FRENCH: P(r|kv) = -1.4471580313422192 ==> log prob of sentence so far: -20.636089438289392
DUTCH: P(r|kv) = -1.3590219426416679 ==> log prob of sentence so far: -21.777229661725254
PORTUGUESE: P(r|kv) = -1.4313637641589874 ==> log prob of sentence so far: -30.89433478483953
SPANISH: P(r|kv) = -1.4313637641589874 ==> log prob of sentence so far: -32.56084250223202

3GRAM: vro
ENGLISH: P(o|vr) = -1.5314789170422551 ==> log prob of sentence so far: -26.504223080580523
FRENCH: P(o|vr) = -2.0535052685614152 ==> log prob of sentence so far: -22.68959470685081
DUTCH: P(o|vr) = -0.5723893206607421 ==> log prob of sentence so far: -22.349618982385998
PORTUGUESE: P(o|vr) = -0.6122791565096485 ==> log prob of sentence so far: -31.506613941349176
SPANISH: P(o|vr) = -1.4313637641589874 ==> log prob of sentence so far: -33.99220626639101

3GRAM: roe
ENGLISH: P(e|ro) = -2.8130705388674824 ==> log prob of sentence so far: -29.317293619448005
FRENCH: P(e|ro) = -2.323095772290548 ==> log prob of sentence so far: -25.012690479141355
DUTCH: P(e|ro) = -0.6893016552464643 ==> log prob of sentence so far: -23.03892063763246
PORTUGUESE: P(e|ro) = -1.2402122415074837 ==> log prob of sentence so far: -32.74682618285666
SPANISH: P(e|ro) = -1.3608074952599722 ==> log prob of sentence so far: -35.35301376165098

3GRAM: oeg
ENGLISH: P(g|oe) = -2.546542663478131 ==> log prob of sentence so far: -31.863836282926137
FRENCH: P(g|oe) = -2.74350976472843 ==> log prob of sentence so far: -27.756200243869785
DUTCH: P(g|oe) = -1.0118509534862212 ==> log prob of sentence so far: -24.050771591118682
PORTUGUESE: P(g|oe) = -2.2015577658913243 ==> log prob of sentence so far: -34.94838394874798
SPANISH: P(g|oe) = -3.534026106056135 ==> log prob of sentence so far: -38.88703986770711

3GRAM: ege
ENGLISH: P(e|eg) = -1.1700119055048925 ==> log prob of sentence so far: -33.03384818843103
FRENCH: P(e|eg) = -0.8419090034023383 ==> log prob of sentence so far: -28.598109247272124
DUTCH: P(e|eg) = -0.33367648272635 ==> log prob of sentence so far: -24.384448073845032
PORTUGUESE: P(e|eg) = -1.318404091733404 ==> log prob of sentence so far: -36.26678804048139
SPANISH: P(e|eg) = -1.6082203000327808 ==> log prob of sentence so far: -40.49526016773989

3GRAM: ger
ENGLISH: P(r|ge) = -0.8174220464384775 ==> log prob of sentence so far: -33.85127023486951
FRENCH: P(r|ge) = -0.8903067458146207 ==> log prob of sentence so far: -29.488415993086743
DUTCH: P(r|ge) = -1.333050617697868 ==> log prob of sentence so far: -25.7174986915429
PORTUGUESE: P(r|ge) = -1.2015876461405297 ==> log prob of sentence so far: -37.46837568662192
SPANISH: P(r|ge) = -0.5834710847268586 ==> log prob of sentence so far: -41.07873125246675

3GRAM: ern
ENGLISH: P(n|er) = -1.4795534818616247 ==> log prob of sentence so far: -35.33082371673113
FRENCH: P(n|er) = -1.5999126197925284 ==> log prob of sentence so far: -31.088328612879273
DUTCH: P(n|er) = -1.4727894316207712 ==> log prob of sentence so far: -27.190288123163672
PORTUGUESE: P(n|er) = -1.5480876265156955 ==> log prob of sentence so far: -39.01646331313761
SPANISH: P(n|er) = -1.6455216616099453 ==> log prob of sentence so far: -42.7242529140767

3GRAM: rni
ENGLISH: P(i|rn) = -0.6262846513491735 ==> log prob of sentence so far: -35.957108368080306
FRENCH: P(i|rn) = -0.6080669263986992 ==> log prob of sentence so far: -31.696395539277972
DUTCH: P(i|rn) = -0.5761594213550265 ==> log prob of sentence so far: -27.766447544518698
PORTUGUESE: P(i|rn) = -1.4561873478840195 ==> log prob of sentence so far: -40.47265066102163
SPANISH: P(i|rn) = -1.14347989038855 ==> log prob of sentence so far: -43.86773280446525

3GRAM: nie
ENGLISH: P(e|ni) = -1.732103843602654 ==> log prob of sentence so far: -37.68921221168296
FRENCH: P(e|ni) = -0.7008734163612379 ==> log prob of sentence so far: -32.39726895563921
DUTCH: P(e|ni) = -0.3781286472954821 ==> log prob of sentence so far: -28.14457619181418
PORTUGUESE: P(e|ni) = -1.4999487846340982 ==> log prob of sentence so far: -41.97259944565573
SPANISH: P(e|ni) = -1.1274092154776896 ==> log prob of sentence so far: -44.99514201994294

3GRAM: ieu
ENGLISH: P(u|ie) = -1.9961698425561274 ==> log prob of sentence so far: -39.685382054239085
FRENCH: P(u|ie) = -0.6877383557889977 ==> log prob of sentence so far: -33.08500731142821
DUTCH: P(u|ie) = -1.517913223895029 ==> log prob of sentence so far: -29.66248941570921
PORTUGUESE: P(u|ie) = -1.3055776234147018 ==> log prob of sentence so far: -43.27817706907043
SPANISH: P(u|ie) = -2.9273703630390235 ==> log prob of sentence so far: -47.922512382981964

3GRAM: euw
ENGLISH: P(w|eu) = -2.5246124580893383 ==> log prob of sentence so far: -42.20999451232842
FRENCH: P(w|eu) = -4.084504783246228 ==> log prob of sentence so far: -37.16951209467443
DUTCH: P(w|eu) = -0.652165479903872 ==> log prob of sentence so far: -30.31465489561308
PORTUGUESE: P(w|eu) = -2.9474337218870508 ==> log prob of sentence so far: -46.22561079095748
SPANISH: P(w|eu) = -2.949390006644913 ==> log prob of sentence so far: -50.871902389626875

3GRAM: uwa
ENGLISH: P(a|uw) = -0.8918089765822546 ==> log prob of sentence so far: -43.101803488910676
FRENCH: P(a|uw) = -1.4313637641589874 ==> log prob of sentence so far: -38.60087585883342
DUTCH: P(a|uw) = -1.5030569888140621 ==> log prob of sentence so far: -31.817711884427144
PORTUGUESE: P(a|uw) = -0.9700367766225568 ==> log prob of sentence so far: -47.19564756758004
SPANISH: P(a|uw) = -1.4313637641589874 ==> log prob of sentence so far: -52.30326615378586

3GRAM: wam
ENGLISH: P(m|wa) = -1.9781856480461977 ==> log prob of sentence so far: -45.079989136956875
FRENCH: P(m|wa) = -1.9731278535996988 ==> log prob of sentence so far: -40.57400371243312
DUTCH: P(m|wa) = -1.1054579388172008 ==> log prob of sentence so far: -32.92316982324434
PORTUGUESE: P(m|wa) = -2.330413773349191 ==> log prob of sentence so far: -49.52606134092923
SPANISH: P(m|wa) = -1.4313637641589874 ==> log prob of sentence so far: -53.73462991794485

3GRAM: ams
ENGLISH: P(s|am) = -1.4559031934733568 ==> log prob of sentence so far: -46.53589233043023
FRENCH: P(s|am) = -2.5713911715615105 ==> log prob of sentence so far: -43.145394883994626
DUTCH: P(s|am) = -1.3063647799981313 ==> log prob of sentence so far: -34.22953460324248
PORTUGUESE: P(s|am) = -1.5905715947339094 ==> log prob of sentence so far: -51.11663293566314
SPANISH: P(s|am) = -3.254467510467076 ==> log prob of sentence so far: -56.989097428411924

3GRAM: mst
ENGLISH: P(t|ms) = -0.7109179868099892 ==> log prob of sentence so far: -47.24681031724022
FRENCH: P(t|ms) = -1.8920946026904804 ==> log prob of sentence so far: -45.037489486685104
DUTCH: P(t|ms) = -0.13815910600696266 ==> log prob of sentence so far: -34.36769370924944
PORTUGUESE: P(t|ms) = -1.3369425515546256 ==> log prob of sentence so far: -52.45357548721777
SPANISH: P(t|ms) = -1.4259687322722812 ==> log prob of sentence so far: -58.415066160684205

3GRAM: ste
ENGLISH: P(e|st) = -1.0419178187504745 ==> log prob of sentence so far: -48.288728135990695
FRENCH: P(e|st) = -0.630699393934714 ==> log prob of sentence so far: -45.668188880619816
DUTCH: P(e|st) = -0.41391978998079 ==> log prob of sentence so far: -34.781613499230225
PORTUGUESE: P(e|st) = -0.5832136787340564 ==> log prob of sentence so far: -53.036789165951824
SPANISH: P(e|st) = -0.7160295857860446 ==> log prob of sentence so far: -59.13109574647025

3GRAM: ter
ENGLISH: P(r|te) = -0.4558490196269567 ==> log prob of sentence so far: -48.74457715561765
FRENCH: P(r|te) = -0.8798178774714153 ==> log prob of sentence so far: -46.54800675809123
DUTCH: P(r|te) = -0.783941929264539 ==> log prob of sentence so far: -35.56555542849476
PORTUGUESE: P(r|te) = -0.8501539118041451 ==> log prob of sentence so far: -53.886943077755966
SPANISH: P(r|te) = -0.9643831591480365 ==> log prob of sentence so far: -60.095478905618286

3GRAM: erd
ENGLISH: P(d|er) = -1.8273464460857034 ==> log prob of sentence so far: -50.571923601703354
FRENCH: P(d|er) = -1.339813539459214 ==> log prob of sentence so far: -47.88782029755045
DUTCH: P(d|er) = -0.801874274647036 ==> log prob of sentence so far: -36.367429703141795
PORTUGUESE: P(d|er) = -1.2113082668772797 ==> log prob of sentence so far: -55.09825134463325
SPANISH: P(d|er) = -1.3419642418472972 ==> log prob of sentence so far: -61.437443147465586

3GRAM: rda
ENGLISH: P(a|rd) = -0.9997854806170742 ==> log prob of sentence so far: -51.571709082320424
FRENCH: P(a|rd) = -0.8593552969297832 ==> log prob of sentence so far: -48.74717559448023
DUTCH: P(a|rd) = -1.2451068483030105 ==> log prob of sentence so far: -37.612536551444805
PORTUGUESE: P(a|rd) = -0.6806030381690383 ==> log prob of sentence so far: -55.77885438280229
SPANISH: P(a|rd) = -0.8711257576770036 ==> log prob of sentence so far: -62.30856890514259

3GRAM: dam
ENGLISH: P(m|da) = -1.4279419777841418 ==> log prob of sentence so far: -52.99965106010457
FRENCH: P(m|da) = -1.9366683782227037 ==> log prob of sentence so far: -50.68384397270294
DUTCH: P(m|da) = -2.0012615680095682 ==> log prob of sentence so far: -39.61379811945437
PORTUGUESE: P(m|da) = -1.0495288991916187 ==> log prob of sentence so far: -56.82838328199391
SPANISH: P(m|da) = -1.1988648426956667 ==> log prob of sentence so far: -63.50743374783826

3GRAM: amh
ENGLISH: P(h|am) = -2.203516376607539 ==> log prob of sentence so far: -55.20316743671211
FRENCH: P(h|am) = -3.6127838567197355 ==> log prob of sentence so far: -54.296627829422675
DUTCH: P(h|am) = -1.1319031456759583 ==> log prob of sentence so far: -40.74570126513033
PORTUGUESE: P(h|am) = -3.1665287834976668 ==> log prob of sentence so far: -59.994912065491576
SPANISH: P(h|am) = -3.7315887651867388 ==> log prob of sentence so far: -67.239022513025

3GRAM: mhe
ENGLISH: P(e|mh) = -0.5529512113905674 ==> log prob of sentence so far: -55.75611864810267
FRENCH: P(e|mh) = -1.5797835966168101 ==> log prob of sentence so far: -55.87641142603948
DUTCH: P(e|mh) = -0.22366209037982468 ==> log prob of sentence so far: -40.969363355510154
PORTUGUESE: P(e|mh) = -1.4866665726258927 ==> log prob of sentence so far: -61.48157863811747
SPANISH: P(e|mh) = -1.5797835966168101 ==> log prob of sentence so far: -68.81880610964181

3GRAM: hee
ENGLISH: P(e|he) = -1.561994652055518 ==> log prob of sentence so far: -57.31811330015819
FRENCH: P(e|he) = -1.369976019797063 ==> log prob of sentence so far: -57.24638744583655
DUTCH: P(e|he) = -0.9279082562634866 ==> log prob of sentence so far: -41.89727161177364
PORTUGUESE: P(e|he) = -1.3711878496967027 ==> log prob of sentence so far: -62.85276648781417
SPANISH: P(e|he) = -1.6414057230570007 ==> log prob of sentence so far: -70.46021183269882

3GRAM: eet
ENGLISH: P(t|ee) = -1.034260205727328 ==> log prob of sentence so far: -58.35237350588552
FRENCH: P(t|ee) = -0.511170046682839 ==> log prob of sentence so far: -57.75755749251939
DUTCH: P(t|ee) = -1.6587578821382158 ==> log prob of sentence so far: -43.55602949391186
PORTUGUESE: P(t|ee) = -1.7800032552452372 ==> log prob of sentence so far: -64.63276974305941
SPANISH: P(t|ee) = -2.8023631743095474 ==> log prob of sentence so far: -73.26257500700837

3GRAM: ett
ENGLISH: P(t|et) = -1.2503204049040535 ==> log prob of sentence so far: -59.60269391078957
FRENCH: P(t|et) = -0.9776677697399989 ==> log prob of sentence so far: -58.73522526225939
DUTCH: P(t|et) = -1.2270634061102406 ==> log prob of sentence so far: -44.7830929000221
PORTUGUESE: P(t|et) = -1.4605549752037597 ==> log prob of sentence so far: -66.09332471826318
SPANISH: P(t|et) = -2.9034517483472246 ==> log prob of sentence so far: -76.16602675535559

3GRAM: tte
ENGLISH: P(e|tt) = -0.8915752914384356 ==> log prob of sentence so far: -60.494269202228004
FRENCH: P(e|tt) = -0.22584029542978878 ==> log prob of sentence so far: -58.96106555768918
DUTCH: P(e|tt) = -0.1458920701837598 ==> log prob of sentence so far: -44.92898497020586
PORTUGUESE: P(e|tt) = -0.31931878137629094 ==> log prob of sentence so far: -66.41264349963947
SPANISH: P(e|tt) = -1.0280287236002434 ==> log prob of sentence so far: -77.19405547895583

According to the 3gram model, the sentence is in Dutch
----------------
4GRAM MODEL:

4GRAM: weet
ENGLISH: P(t|wee) = -0.8079857748471495 ==> log prob of sentence so far: -0.8079857748471495
FRENCH: P(t|wee) = -1.4313637641589874 ==> log prob of sentence so far: -1.4313637641589874
DUTCH: P(t|wee) = -1.161162807578711 ==> log prob of sentence so far: -1.161162807578711
PORTUGUESE: P(t|wee) = -1.4313637641589874 ==> log prob of sentence so far: -1.4313637641589874
SPANISH: P(t|wee) = -1.4313637641589874 ==> log prob of sentence so far: -1.4313637641589874

4GRAM: eetj
ENGLISH: P(j|eet) = -2.993876914941211 ==> log prob of sentence so far: -3.8018626897883605
FRENCH: P(j|eet) = -1.08507407026826 ==> log prob of sentence so far: -2.516437834427247
DUTCH: P(j|eet) = -1.1434221423023132 ==> log prob of sentence so far: -2.3045849498810242
PORTUGUESE: P(j|eet) = -1.806179973983887 ==> log prob of sentence so far: -3.2375437381428744
SPANISH: P(j|eet) = -1.4771212547196624 ==> log prob of sentence so far: -2.9084850188786495

4GRAM: etje
ENGLISH: P(e|etj) = -1.4771212547196624 ==> log prob of sentence so far: -5.278983944508023
FRENCH: P(e|etj) = -0.1134335742029752 ==> log prob of sentence so far: -2.629871408630222
DUTCH: P(e|etj) = -0.1617654045642782 ==> log prob of sentence so far: -2.4663503544453023
PORTUGUESE: P(e|etj) = -1.4313637641589874 ==> log prob of sentence so far: -4.668907502301861
SPANISH: P(e|etj) = -1.4313637641589874 ==> log prob of sentence so far: -4.339848783037636

4GRAM: tjed
ENGLISH: P(d|tje) = -1.6232492903979006 ==> log prob of sentence so far: -6.902233234905924
FRENCH: P(d|tje) = -1.6132879710907935 ==> log prob of sentence so far: -4.243159379721016
DUTCH: P(d|tje) = -1.0297763898697636 ==> log prob of sentence so far: -3.496126744315066
PORTUGUESE: P(d|tje) = -1.4313637641589874 ==> log prob of sentence so far: -6.100271266460849
SPANISH: P(d|tje) = -1.4313637641589874 ==> log prob of sentence so far: -5.771212547196624

4GRAM: jeda
ENGLISH: P(a|jed) = -1.4313637641589874 ==> log prob of sentence so far: -8.33359699906491
FRENCH: P(a|jed) = -1.7126497016272113 ==> log prob of sentence so far: -5.955809081348227
DUTCH: P(a|jed) = -0.22407020961031437 ==> log prob of sentence so far: -3.72019695392538
PORTUGUESE: P(a|jed) = -1.4471580313422192 ==> log prob of sentence so far: -7.547429297803069
SPANISH: P(a|jed) = -1.6434526764861874 ==> log prob of sentence so far: -7.414665223682812

4GRAM: edat
ENGLISH: P(t|eda) = -1.035906787180194 ==> log prob of sentence so far: -9.369503786245104
FRENCH: P(t|eda) = -1.6205433970219756 ==> log prob of sentence so far: -7.576352478370203
DUTCH: P(t|eda) = -0.6042814513219205 ==> log prob of sentence so far: -4.324478405247301
PORTUGUESE: P(t|eda) = -1.5001865587883558 ==> log prob of sentence so far: -9.047615856591424
SPANISH: P(t|eda) = -1.629566412421593 ==> log prob of sentence so far: -9.044231636104405

4GRAM: datn
ENGLISH: P(n|dat) = -2.7693773260761385 ==> log prob of sentence so far: -12.138881112321243
FRENCH: P(n|dat) = -2.146128035678238 ==> log prob of sentence so far: -9.722480514048442
DUTCH: P(n|dat) = -1.6801754835109273 ==> log prob of sentence so far: -6.004653888758228
PORTUGUESE: P(n|dat) = -2.1072099696478683 ==> log prob of sentence so far: -11.154825826239293
SPANISH: P(n|dat) = -1.9242792860618816 ==> log prob of sentence so far: -10.968510922166287

4GRAM: atne
ENGLISH: P(e|atn) = -0.7886166840618086 ==> log prob of sentence so far: -12.927497796383053
FRENCH: P(e|atn) = -0.8061799739838872 ==> log prob of sentence so far: -10.52866048803233
DUTCH: P(e|atn) = -1.2118068113222158 ==> log prob of sentence so far: -7.216460700080444
PORTUGUESE: P(e|atn) = -1.4313637641589874 ==> log prob of sentence so far: -12.58618959039828
SPANISH: P(e|atn) = -1.4313637641589874 ==> log prob of sentence so far: -12.399874686325274

4GRAM: tnew
ENGLISH: P(w|tne) = -1.2422100322640641 ==> log prob of sentence so far: -14.169707828647116
FRENCH: P(w|tne) = -2.666517980554881 ==> log prob of sentence so far: -13.19517846858721
DUTCH: P(w|tne) = -1.7634279935629373 ==> log prob of sentence so far: -8.979888693643382
PORTUGUESE: P(w|tne) = -1.4313637641589874 ==> log prob of sentence so far: -14.017553354557268
SPANISH: P(w|tne) = -1.4313637641589874 ==> log prob of sentence so far: -13.831238450484262

4GRAM: newy
ENGLISH: P(y|new) = -1.631443769013172 ==> log prob of sentence so far: -15.801151597660288
FRENCH: P(y|new) = -0.2884408683559607 ==> log prob of sentence so far: -13.483619336943171
DUTCH: P(y|new) = -1.1856365769619117 ==> log prob of sentence so far: -10.165525270605293
PORTUGUESE: P(y|new) = -1.4313637641589874 ==> log prob of sentence so far: -15.448917118716256
SPANISH: P(y|new) = -1.4313637641589874 ==> log prob of sentence so far: -15.26260221464325

4GRAM: ewyo
ENGLISH: P(o|ewy) = -0.44120869882901803 ==> log prob of sentence so far: -16.242360296489306
FRENCH: P(o|ewy) = -0.23408320603336796 ==> log prob of sentence so far: -13.71770254297654
DUTCH: P(o|ewy) = -0.9700367766225568 ==> log prob of sentence so far: -11.13556204722785
PORTUGUESE: P(o|ewy) = -1.4313637641589874 ==> log prob of sentence so far: -16.880280882875244
SPANISH: P(o|ewy) = -1.4313637641589874 ==> log prob of sentence so far: -16.693965978802236

4GRAM: wyor
ENGLISH: P(r|wyo) = -0.7781512503836436 ==> log prob of sentence so far: -17.02051154687295
FRENCH: P(r|wyo) = -0.23408320603336796 ==> log prob of sentence so far: -13.951785749009908
DUTCH: P(r|wyo) = -0.9700367766225568 ==> log prob of sentence so far: -12.105598823850407
PORTUGUESE: P(r|wyo) = -1.4313637641589874 ==> log prob of sentence so far: -18.311644647034232
SPANISH: P(r|wyo) = -1.4313637641589874 ==> log prob of sentence so far: -18.125329742961224

4GRAM: york
ENGLISH: P(k|yor) = -0.9761970853273753 ==> log prob of sentence so far: -17.996708632200324
FRENCH: P(k|yor) = -0.23408320603336796 ==> log prob of sentence so far: -14.185868955043276
DUTCH: P(k|yor) = -0.9700367766225568 ==> log prob of sentence so far: -13.075635600472964
PORTUGUESE: P(k|yor) = -1.4313637641589874 ==> log prob of sentence so far: -19.74300841119322
SPANISH: P(k|yor) = -2.0253058652647704 ==> log prob of sentence so far: -20.150635608225993

4GRAM: orkv
ENGLISH: P(v|ork) = -2.0644579892269186 ==> log prob of sentence so far: -20.061166621427244
FRENCH: P(v|ork) = -1.271066772286538 ==> log prob of sentence so far: -15.456935727329814
DUTCH: P(v|ork) = -1.4960065988800362 ==> log prob of sentence so far: -14.571642199353
PORTUGUESE: P(v|ork) = -1.4313637641589874 ==> log prob of sentence so far: -21.174372175352207
SPANISH: P(v|ork) = -1.4313637641589874 ==> log prob of sentence so far: -21.58199937238498

4GRAM: rkvr
ENGLISH: P(r|rkv) = -1.505149978319906 ==> log prob of sentence so far: -21.56631659974715
FRENCH: P(r|rkv) = -1.4471580313422192 ==> log prob of sentence so far: -16.904093758672033
DUTCH: P(r|rkv) = -0.8653014261025438 ==> log prob of sentence so far: -15.436943625455545
PORTUGUESE: P(r|rkv) = -1.4313637641589874 ==> log prob of sentence so far: -22.605735939511195
SPANISH: P(r|rkv) = -1.4313637641589874 ==> log prob of sentence so far: -23.01336313654397

4GRAM: kvro
ENGLISH: P(o|kvr) = -1.4313637641589874 ==> log prob of sentence so far: -22.997680363906138
FRENCH: P(o|kvr) = -1.4313637641589874 ==> log prob of sentence so far: -18.33545752283102
DUTCH: P(o|kvr) = -0.43230891030330015 ==> log prob of sentence so far: -15.869252535758845
PORTUGUESE: P(o|kvr) = -1.4313637641589874 ==> log prob of sentence so far: -24.037099703670183
SPANISH: P(o|kvr) = -1.4313637641589874 ==> log prob of sentence so far: -24.444726900702957

4GRAM: vroe
ENGLISH: P(e|vro) = -1.4313637641589874 ==> log prob of sentence so far: -24.429044128065126
FRENCH: P(e|vro) = -1.5314789170422551 ==> log prob of sentence so far: -19.866936439873275
DUTCH: P(e|vro) = -0.3212333817522681 ==> log prob of sentence so far: -16.19048591751111
PORTUGUESE: P(e|vro) = -0.8931057660853426 ==> log prob of sentence so far: -24.930205469755524
SPANISH: P(e|vro) = -1.4313637641589874 ==> log prob of sentence so far: -25.876090664861945

4GRAM: roeg
ENGLISH: P(g|roe) = -1.6232492903979006 ==> log prob of sentence so far: -26.052293418463027
FRENCH: P(g|roe) = -1.7634279935629373 ==> log prob of sentence so far: -21.630364433436213
DUTCH: P(g|roe) = -0.47859094980043804 ==> log prob of sentence so far: -16.66907686731155
PORTUGUESE: P(g|roe) = -2.255272505103306 ==> log prob of sentence so far: -27.18547797485883
SPANISH: P(g|roe) = -2.459392487759231 ==> log prob of sentence so far: -28.335483152621176

4GRAM: oege
ENGLISH: P(e|oeg) = -1.4471580313422192 ==> log prob of sentence so far: -27.499451449805246
FRENCH: P(e|oeg) = -1.4313637641589874 ==> log prob of sentence so far: -23.0617281975952
DUTCH: P(e|oeg) = -0.5255678837911187 ==> log prob of sentence so far: -17.19464475110267
PORTUGUESE: P(e|oeg) = -1.146128035678238 ==> log prob of sentence so far: -28.33160601053707
SPANISH: P(e|oeg) = -1.4313637641589874 ==> log prob of sentence so far: -29.766846916780164

4GRAM: eger
ENGLISH: P(r|ege) = -0.942435718720982 ==> log prob of sentence so far: -28.44188716852623
FRENCH: P(r|ege) = -0.473793311370735 ==> log prob of sentence so far: -23.535521508965935
DUTCH: P(r|ege) = -1.2816290014564207 ==> log prob of sentence so far: -18.476273752559088
PORTUGUESE: P(r|ege) = -1.0241336797167193 ==> log prob of sentence so far: -29.355739690253788
SPANISH: P(r|ege) = -1.8692317197309762 ==> log prob of sentence so far: -31.63607863651114

4GRAM: gern
ENGLISH: P(n|ger) = -1.5797835966168101 ==> log prob of sentence so far: -30.02167076514304
FRENCH: P(n|ger) = -1.6264193371874072 ==> log prob of sentence so far: -25.161940846153342
DUTCH: P(n|ger) = -1.638156336676239 ==> log prob of sentence so far: -20.114430089235327
PORTUGUESE: P(n|ger) = -1.8325089127062364 ==> log prob of sentence so far: -31.188248602960023
SPANISH: P(n|ger) = -2.3010299956639813 ==> log prob of sentence so far: -33.937108632175125

4GRAM: erni
ENGLISH: P(i|ern) = -0.8283178598493738 ==> log prob of sentence so far: -30.849988624992413
FRENCH: P(i|ern) = -0.4015608266227816 ==> log prob of sentence so far: -25.563501672776123
DUTCH: P(i|ern) = -0.5834710847268586 ==> log prob of sentence so far: -20.697901173962187
PORTUGUESE: P(i|ern) = -1.3335592204909013 ==> log prob of sentence so far: -32.52180782345093
SPANISH: P(i|ern) = -0.9878511104204051 ==> log prob of sentence so far: -34.92495974259553

4GRAM: rnie
ENGLISH: P(e|rni) = -2.348953547981164 ==> log prob of sentence so far: -33.198942172973574
FRENCH: P(e|rni) = -0.2559516209287931 ==> log prob of sentence so far: -25.819453293704917
DUTCH: P(e|rni) = -0.18816563641378378 ==> log prob of sentence so far: -20.886066810375972
PORTUGUESE: P(e|rni) = -1.146128035678238 ==> log prob of sentence so far: -33.667935859129166
SPANISH: P(e|rni) = -1.8573324964312685 ==> log prob of sentence so far: -36.7822922390268

4GRAM: nieu
ENGLISH: P(u|nie) = -2.1335389083702174 ==> log prob of sentence so far: -35.33248108134379
FRENCH: P(u|nie) = -1.0879805669506697 ==> log prob of sentence so far: -26.907433860655587
DUTCH: P(u|nie) = -0.9151856125479791 ==> log prob of sentence so far: -21.80125242292395
PORTUGUESE: P(u|nie) = -1.662757831681574 ==> log prob of sentence so far: -35.33069369081074
SPANISH: P(u|nie) = -2.2405492482826 ==> log prob of sentence so far: -39.0228414873094

4GRAM: ieuw
ENGLISH: P(w|ieu) = -1.8195439355418686 ==> log prob of sentence so far: -37.15202501688566
FRENCH: P(w|ieu) = -3.4169731726030363 ==> log prob of sentence so far: -30.324407033258623
DUTCH: P(w|ieu) = -0.11380237049034042 ==> log prob of sentence so far: -21.915054793414292
PORTUGUESE: P(w|ieu) = -1.6020599913279623 ==> log prob of sentence so far: -36.9327536821387
SPANISH: P(w|ieu) = -1.505149978319906 ==> log prob of sentence so far: -40.527991465629306

4GRAM: euwa
ENGLISH: P(a|euw) = -1.4471580313422192 ==> log prob of sentence so far: -38.59918304822788
FRENCH: P(a|euw) = -1.4313637641589874 ==> log prob of sentence so far: -31.75577079741761
DUTCH: P(a|euw) = -1.4875240151194298 ==> log prob of sentence so far: -23.402578808533722
PORTUGUESE: P(a|euw) = -0.9700367766225568 ==> log prob of sentence so far: -37.90279045876126
SPANISH: P(a|euw) = -1.4313637641589874 ==> log prob of sentence so far: -41.959355229788294

4GRAM: uwam
ENGLISH: P(m|uwa) = -1.806179973983887 ==> log prob of sentence so far: -40.405363022211766
FRENCH: P(m|uwa) = -1.4313637641589874 ==> log prob of sentence so far: -33.1871345615766
DUTCH: P(m|uwa) = -1.806179973983887 ==> log prob of sentence so far: -25.20875878251761
PORTUGUESE: P(m|uwa) = -1.4471580313422192 ==> log prob of sentence so far: -39.34994849010348
SPANISH: P(m|uwa) = -1.4313637641589874 ==> log prob of sentence so far: -43.39071899394728

4GRAM: wams
ENGLISH: P(s|wam) = -1.0710633558254454 ==> log prob of sentence so far: -41.47642637803721
FRENCH: P(s|wam) = -1.4313637641589874 ==> log prob of sentence so far: -34.61849832573559
DUTCH: P(s|wam) = -1.9876662649262746 ==> log prob of sentence so far: -27.196425047443885
PORTUGUESE: P(s|wam) = -1.4313637641589874 ==> log prob of sentence so far: -40.78131225426247
SPANISH: P(s|wam) = -1.4313637641589874 ==> log prob of sentence so far: -44.82208275810627

4GRAM: amst
ENGLISH: P(t|ams) = -0.8041646827485616 ==> log prob of sentence so far: -42.280591060785774
FRENCH: P(t|ams) = -1.5563025007672873 ==> log prob of sentence so far: -36.174800826502874
DUTCH: P(t|ams) = -0.24399149469361703 ==> log prob of sentence so far: -27.440416542137502
PORTUGUESE: P(t|ams) = -2.1398790864012365 ==> log prob of sentence so far: -42.921191340663704
SPANISH: P(t|ams) = -0.9700367766225568 ==> log prob of sentence so far: -45.792119534728826

4GRAM: mste
ENGLISH: P(e|mst) = -1.4447652182263289 ==> log prob of sentence so far: -43.725356279012104
FRENCH: P(e|mst) = -1.4313637641589874 ==> log prob of sentence so far: -37.60616459066186
DUTCH: P(e|mst) = -0.5033566055778624 ==> log prob of sentence so far: -27.943773147715365
PORTUGUESE: P(e|mst) = -1.7323937598229686 ==> log prob of sentence so far: -44.65358510048667
SPANISH: P(e|mst) = -0.9700367766225568 ==> log prob of sentence so far: -46.76215631135138

4GRAM: ster
ENGLISH: P(r|ste) = -0.48328438352767544 ==> log prob of sentence so far: -44.20864066253978
FRENCH: P(r|ste) = -0.6746106584765741 ==> log prob of sentence so far: -38.280775249138436
DUTCH: P(r|ste) = -0.7922501563433746 ==> log prob of sentence so far: -28.73602330405874
PORTUGUESE: P(r|ste) = -1.297470184897761 ==> log prob of sentence so far: -45.951055285384435
SPANISH: P(r|ste) = -1.0791812460476249 ==> log prob of sentence so far: -47.84133755739901

4GRAM: terd
ENGLISH: P(d|ter) = -1.4822543856012036 ==> log prob of sentence so far: -45.69089504814098
FRENCH: P(d|ter) = -1.512643872961743 ==> log prob of sentence so far: -39.79341912210018
DUTCH: P(d|ter) = -1.0639823106668742 ==> log prob of sentence so far: -29.800005614725613
PORTUGUESE: P(d|ter) = -1.7898370087088382 ==> log prob of sentence so far: -47.74089229409327
SPANISH: P(d|ter) = -2.171433900943008 ==> log prob of sentence so far: -50.012771458342016

4GRAM: erda
ENGLISH: P(a|erd) = -0.792937171439637 ==> log prob of sentence so far: -46.48383221958062
FRENCH: P(a|erd) = -0.7519810160233396 ==> log prob of sentence so far: -40.54540013812352
DUTCH: P(a|erd) = -1.1407610762185416 ==> log prob of sentence so far: -30.940766690944155
PORTUGUESE: P(a|erd) = -0.5720967679505192 ==> log prob of sentence so far: -48.31298906204379
SPANISH: P(a|erd) = -0.42224542548263266 ==> log prob of sentence so far: -50.43501688382465

4GRAM: rdam
ENGLISH: P(m|rda) = -1.2697159329955792 ==> log prob of sentence so far: -47.7535481525762
FRENCH: P(m|rda) = -2.093421685162235 ==> log prob of sentence so far: -42.63882182328575
DUTCH: P(m|rda) = -1.26884531229258 ==> log prob of sentence so far: -32.209612003236735
PORTUGUESE: P(m|rda) = -1.3424226808222062 ==> log prob of sentence so far: -49.655411742865994
SPANISH: P(m|rda) = -1.463757293161681 ==> log prob of sentence so far: -51.898774176986336

4GRAM: damh
ENGLISH: P(h|dam) = -1.9822712330395684 ==> log prob of sentence so far: -49.73581938561577
FRENCH: P(h|dam) = -1.9542425094393248 ==> log prob of sentence so far: -44.59306433272508
DUTCH: P(h|dam) = -1.8573324964312685 ==> log prob of sentence so far: -34.066944499668004
PORTUGUESE: P(h|dam) = -2.6273658565927325 ==> log prob of sentence so far: -52.282777599458726
SPANISH: P(h|dam) = -2.499687082618404 ==> log prob of sentence so far: -54.39846125960474

4GRAM: amhe
ENGLISH: P(e|amh) = -0.7617608341954742 ==> log prob of sentence so far: -50.49758021981124
FRENCH: P(e|amh) = -1.4313637641589874 ==> log prob of sentence so far: -46.024428096884066
DUTCH: P(e|amh) = -0.3010299956639812 ==> log prob of sentence so far: -34.367974495331985
PORTUGUESE: P(e|amh) = -1.4471580313422192 ==> log prob of sentence so far: -53.729935630800945
SPANISH: P(e|amh) = -1.4313637641589874 ==> log prob of sentence so far: -55.829825023763725

4GRAM: mhee
ENGLISH: P(e|mhe) = -2.2405492482826 ==> log prob of sentence so far: -52.73812946809384
FRENCH: P(e|mhe) = -1.4313637641589874 ==> log prob of sentence so far: -47.45579186104305
DUTCH: P(e|mhe) = -0.9902401627108437 ==> log prob of sentence so far: -35.358214658042826
PORTUGUESE: P(e|mhe) = -1.4471580313422192 ==> log prob of sentence so far: -55.177093662143164
SPANISH: P(e|mhe) = -1.4313637641589874 ==> log prob of sentence so far: -57.26118878792271

4GRAM: heet
ENGLISH: P(t|hee) = -1.0359897569364265 ==> log prob of sentence so far: -53.77411922503026
FRENCH: P(t|hee) = -0.37832709783705454 ==> log prob of sentence so far: -47.83411895888011
DUTCH: P(t|hee) = -0.9745528777875205 ==> log prob of sentence so far: -36.33276753583035
PORTUGUESE: P(t|hee) = -2.0086001717619175 ==> log prob of sentence so far: -57.185693833905084
SPANISH: P(t|hee) = -1.7323937598229686 ==> log prob of sentence so far: -58.99358254774568

4GRAM: eett
ENGLISH: P(t|eet) = -1.4028123079147121 ==> log prob of sentence so far: -55.17693153294498
FRENCH: P(t|eet) = -1.714056704419103 ==> log prob of sentence so far: -49.54817566329921
DUTCH: P(t|eet) = -0.8149538982913923 ==> log prob of sentence so far: -37.14772143412174
PORTUGUESE: P(t|eet) = -1.806179973983887 ==> log prob of sentence so far: -58.99187380788897
SPANISH: P(t|eet) = -1.4771212547196624 ==> log prob of sentence so far: -60.470703802465344

4GRAM: ette
ENGLISH: P(e|ett) = -0.5841689016289925 ==> log prob of sentence so far: -55.76110043457397
FRENCH: P(e|ett) = -0.09341330117980409 ==> log prob of sentence so far: -49.64158896447901
DUTCH: P(e|ett) = -0.13149996339550518 ==> log prob of sentence so far: -37.27922139751725
PORTUGUESE: P(e|ett) = -0.47172622283295623 ==> log prob of sentence so far: -59.46360003072193
SPANISH: P(e|ett) = -0.9700367766225568 ==> log prob of sentence so far: -61.4407405790879

According to the 4gram model, the sentence is in Dutch
----------------
